FileName,upper_MisalignmentsFileNumber,BugsRank,BugsNumber,loc,MisalignmentsValueSum,Fanin,Fanout
org.apache.camel.impl.DefaultCamelContext_java,109,1,90,1899,3.974972,130,337
org.apache.camel.processor.MulticastProcessor_java,20,2,49,702,0.77762,37,10
org.apache.camel.model.ProcessorDefinition_java,225,3,41,1342,8.603002,97,412
org.apache.camel.component.bean.BeanInfo_java,16,4,37,742,0.594228,35,17
org.apache.camel.util.ObjectHelper_java,6,4,37,912,0.20309,10,598
org.apache.camel.component.jms.JmsBinding_java,6,6,35,428,0.183268,22,6
org.apache.camel.component.jetty.JettyHttpComponent_java,226,7,27,752,8.911976,25,15
org.apache.camel.spring.CamelContextFactoryBean_java,47,7,27,370,1.755728,40,5
org.apache.camel.component.file.remote.FtpOperations_java,5,7,27,637,0.145888,24,3
org.apache.camel.component.cxf.CxfEndpoint_java,51,7,27,867,1.90438,34,21
org.apache.camel.component.file.FileConsumer_java,59,11,26,108,2.257489,12,9
org.apache.camel.component.mail.MailBinding_java,6,11,26,437,0.197974,16,5
org.apache.camel.component.http.HttpProducer_java,7,11,26,293,0.230515,21,3
org.apache.camel.util.FileUtil_java,5,14,25,331,0.127581,1,57
org.apache.camel.processor.RedeliveryErrorHandler_java,8,14,25,705,0.257322,30,10
org.apache.camel.component.cxf.DefaultCxfBinding_java,20,16,24,636,0.737542,11,6
org.apache.camel.component.file.GenericFileConsumer_java,5,16,24,320,0.179818,26,7
org.apache.camel.Exchange_java,4,19,23,151,0.104909,6,3221
org.apache.camel.component.file.remote.SftpOperations_java,5,19,23,729,0.14882,25,1
org.apache.camel.component.http.DefaultHttpBinding_java,5,19,23,344,0.129943,24,5
org.apache.camel.component.cxf.CxfProducer_java,23,22,22,251,0.846768,15,3
org.apache.camel.processor.DeadLetterChannel_java,6,22,22,40,0.17858,11,6
org.apache.camel.spring.handler.CamelNamespaceHandler_java,6,24,21,212,0.204192,34,2
org.apache.camel.CamelContext_java,3,24,21,180,0.112124,48,2881
org.apache.camel.component.bean.BeanProcessor_java,4,24,21,150,0.092629,16,12
org.apache.camel.util.ExchangeHelper_java,5,27,20,362,0.138948,23,106
org.apache.camel.component.jms.JmsProducer_java,8,28,19,372,0.255855,28,1
org.apache.camel.component.file.remote.FtpConsumer_java,5,29,18,132,0.110978,18,1
org.apache.camel.converter.IOConverter_java,5,30,17,342,0.119944,5,67
org.apache.camel.component.quartz.QuartzComponent_java,2,30,17,376,0.041213,11,14
org.apache.camel.processor.TryProcessor_java,6,30,17,282,0.197146,13,2
org.apache.camel.component.http4.HttpProducer_java,5,30,17,334,0.111408,20,2
org.apache.camel.impl.DefaultExchange_java,5,30,17,317,0.113751,14,194
org.apache.camel.component.cxf.jaxrs.CxfRsProducer_java,4,36,16,280,0.09743,17,1
org.apache.camel.processor.aggregate.AggregateProcessor_java,7,36,16,801,0.245428,40,4
org.apache.camel.component.jms.JmsConfiguration_java,29,36,16,943,1.047336,22,24
org.apache.camel.converter.jaxp.XmlConverter_java,6,36,16,635,0.206089,11,39
org.apache.camel.component.mina.MinaComponent_java,5,36,16,295,0.137451,12,2
org.apache.camel.component.netty.NettyProducer_java,6,41,15,378,0.18999,24,8
org.apache.camel.impl.ProducerCache_java,5,41,15,283,0.137868,22,11
org.apache.camel.processor.Splitter_java,6,41,15,180,0.15429,18,2
org.apache.camel.component.cxf.CxfConsumer_java,6,41,15,188,0.222323,13,2
org.apache.camel.builder.xml.XsltBuilder_java,1,41,15,353,0.023791,25,8
org.apache.camel.impl.DefaultPackageScanClassResolver_java,5,41,15,350,0.120672,12,16
org.apache.camel.component.http4.HttpComponent_java,7,41,15,350,0.218524,20,6
org.apache.camel.component.file.FileEndpoint_java,25,41,15,111,0.983595,20,14
org.apache.camel.component.file.remote.SftpConsumer_java,5,41,15,122,0.110197,14,1
org.apache.camel.model.RouteDefinition_java,9,50,14,532,0.285313,31,100
org.apache.camel.converter.stream.CachedOutputStream_java,5,50,14,224,0.127175,10,19
org.apache.camel.component.file.GenericFileEndpoint_java,5,50,14,610,0.135869,33,46
org.apache.camel.blueprint.handler.CamelNamespaceHandler_java,26,50,14,757,1.002725,45,1
org.apache.camel.component.mock.MockEndpoint_java,10,50,14,823,0.333204,30,3298
org.apache.camel.core.xml.AbstractCamelContextFactoryBean_java,19,57,13,558,0.730004,72,6
org.apache.camel.component.http.HttpComponent_java,9,57,13,205,0.25512,21,14
org.apache.camel.component.mail.MailConsumer_java,5,57,13,313,0.110727,17,1
org.apache.camel.util.IntrospectionSupport_java,1,64,12,471,0.020125,7,49
org.apache.camel.management.DefaultManagementLifecycleStrategy_java,4,64,12,644,0.120613,69,3
org.apache.camel.component.mail.MailConfiguration_java,1,64,12,361,0.020889,7,13
org.apache.camel.processor.BatchProcessor_java,6,64,12,298,0.189811,16,2
org.apache.camel.builder.ExpressionBuilder_java,18,64,12,1229,0.545066,34,51
org.apache.camel.builder.RouteBuilder_java,5,64,12,189,0.160257,14,3819
org.apache.camel.component.cxf.jaxrs.CxfRsEndpoint_java,7,64,12,324,0.242753,19,10
org.apache.camel.dataformat.bindy.csv.BindyCsvDataFormat_java,3,64,12,162,0.063654,13,28
org.apache.camel.model.OnExceptionDefinition_java,11,64,12,490,0.332895,24,25
org.apache.camel.impl.DefaultComponent_java,4,75,11,191,0.091024,18,223
org.apache.camel.impl.converter.DefaultTypeConverter_java,5,75,11,20,0.110868,4,9
org.apache.camel.processor.interceptor.TraceInterceptor_java,4,75,11,260,0.09955,32,12
org.apache.camel.processor.SendProcessor_java,2,75,11,123,0.050594,21,11
org.apache.camel.component.jms.JmsMessage_java,4,75,11,184,0.088032,8,13
org.apache.camel.component.jms.JmsEndpoint_java,10,75,11,879,0.319018,45,28
org.apache.camel.processor.RoutingSlip_java,5,75,11,256,0.111969,23,4
org.apache.camel.component.jpa.JpaConsumer_java,2,75,11,265,0.047225,16,7
org.apache.camel.component.cxf.transport.CamelDestination_java,6,75,11,203,0.176781,13,6
org.apache.camel.component.http.HttpEndpoint_java,3,75,11,254,0.064835,20,31
org.apache.camel.component.jetty.CamelContinuationServlet_java,4,91,10,132,0.10864,15,2
org.apache.camel.util.MessageHelper_java,1,91,10,207,0.020309,16,32
org.apache.camel.impl.DefaultEndpoint_java,4,91,10,207,0.085981,22,373
org.apache.camel.util.URISupport_java,1,91,10,284,0.022367,4,74
org.apache.camel.component.http.CamelServlet_java,4,91,10,151,0.085993,12,5
org.apache.camel.impl.ServiceSupport_java,4,91,10,4,0.09391,1,0
org.apache.camel.dataformat.bindy.BindyCsvFactory_java,187,91,10,390,6.865153,13,1
org.apache.camel.model.language.MethodCallExpression_java,1,111,9,181,0.022766,16,3
org.apache.camel.component.jetty.JettyHttpProducer_java,18,111,9,183,0.598227,21,2
org.apache.camel.builder.script.ScriptBuilder_java,7,111,9,296,0.219332,13,4
org.apache.camel.component.mqtt.MQTTEndpoint_java,7,127,8,130,0.217574,10,4
org.apache.camel.converter.jaxb.JaxbDataFormat_java,7,127,8,326,0.229892,15,21
org.apache.camel.processor.Throttler_java,12,127,8,108,0.378917,10,4
org.apache.camel.builder.xml.XPathBuilder_java,6,127,8,750,0.192938,22,25
org.apache.camel.dataformat.csv.CsvDataFormat_java,3,127,8,129,0.07547,8,6
org.apache.camel.component.jms.reply.TemporaryQueueReplyManager_java,5,127,8,162,0.128578,12,1
org.apache.camel.component.cxf.feature.PayLoadDataFormatFeature_java,3,127,8,114,0.075106,3,1
org.apache.camel.spring.CamelBeanPostProcessor_java,6,127,8,124,0.168971,8,6
org.apache.camel.component.jetty.JettyContentExchange_java,9,154,7,156,0.272753,8,4
org.apache.camel.model.MulticastDefinition_java,1,154,7,212,0.020004,13,6
org.apache.camel.component.cxf.CxfBinding_java,5,154,7,16,0.137843,1,6
org.apache.camel.dataformat.bindy.BindyKeyValuePairFactory_java,180,154,7,345,6.6005,12,2
org.apache.camel.component.stream.StreamProducer_java,11,154,7,120,0.34041,10,1
org.apache.camel.impl.DefaultProducerTemplate_java,5,154,7,551,0.128793,18,17
org.apache.camel.component.cxf.cxfbean.CxfBeanEndpoint_java,8,154,7,152,0.243463,11,3
org.apache.camel.converter.jaxb.FallbackTypeConverter_java,1,154,7,239,0.021377,14,1
org.apache.camel.component.cxf.transport.CamelConduit_java,6,154,7,113,0.183154,10,7
org.apache.camel.component.sql.SqlProducer_java,6,186,6,43,0.152553,7,1
org.apache.camel.dataformat.bindy.BindyAbstractFactory_java,25,186,6,164,0.942421,6,7
org.apache.camel.ProducerTemplate_java,5,186,6,97,0.128086,8,613
org.apache.camel.support.ServiceSupport_java,3,186,6,229,0.081411,3,288
org.apache.camel.processor.StreamResequencer_java,10,186,6,156,0.310654,18,1
org.apache.camel.blueprint.CamelContextFactoryBean_java,37,186,6,465,1.478957,42,2
org.apache.camel.component.netty.NettyConfiguration_java,6,186,6,515,0.200131,12,20
org.apache.camel.model.AggregateDefinition_java,13,186,6,551,0.39709,25,8
org.apache.camel.component.cxf.converter.CxfPayloadConverter_java,1,186,6,204,0.025066,7,3
org.apache.camel.model.ChoiceDefinition_java,2,186,6,172,0.043646,12,22
org.apache.camel.maven.RunMojo_java,5,186,6,444,0.12376,1,0
org.apache.camel.model.InterceptDefinition_java,1,186,6,93,0.021782,10,25
org.apache.camel.component.file.FileComponent_java,4,186,6,25,0.091757,11,23
org.apache.camel.component.jms.JmsComponent_java,6,223,5,407,0.166434,24,209
org.apache.camel.converter.crypto.PGPDataFormatUtil_java,6,223,5,162,0.157966,4,0
org.apache.camel.util.ServiceHelper_java,4,223,5,262,0.094817,7,133
org.apache.camel.dataformat.bindy.BindyFixedLengthFactory_java,27,223,5,355,0.993442,10,1
org.apache.camel.processor.RedeliveryPolicy_java,1,223,5,328,0.021519,4,19
org.apache.camel.component.cxf.jaxrs.testbean.CustomerService_java,1,223,5,109,0.025508,2,4
org.apache.camel.dataformat.bindy.fixed.BindyFixedLengthDataFormat_java,2,223,5,220,0.042987,14,7
org.apache.camel.component.http.HttpBinding_java,1,223,5,19,0.021986,4,13
org.apache.camel.model.ResequenceDefinition_java,2,290,4,240,0.050329,18,5
org.apache.camel.component.stream.StreamEndpoint_java,2,290,4,71,0.052844,12,3
org.apache.camel.converter.crypto.PGPDataFormat_java,18,290,4,283,0.576112,11,2
org.apache.camel.processor.Enricher_java,5,290,4,122,0.116639,15,1
org.apache.camel.component.jetty.JettyHttpEndpoint_java,8,290,4,166,0.225396,14,4
org.apache.camel.model.RoutesDefinition_java,2,290,4,158,0.050235,12,21
org.apache.camel.component.stream.StreamConsumer_java,21,290,4,94,0.694596,12,1
org.apache.camel.component.mongodb.MongoDbEndpoint_java,4,290,4,301,0.095169,19,5
org.apache.camel.component.jdbc.JdbcProducer_java,1,290,4,203,0.021258,13,1
org.apache.camel.component.irc.IrcConfiguration_java,6,290,4,392,0.148581,6,9
org.apache.camel.model.SplitDefinition_java,2,290,4,212,0.04476,14,8
org.apache.camel.component.aws.sqs.SqsEndpoint_java,7,290,4,159,0.238504,16,6
org.apache.camel.spring.Main_java,1,290,4,125,0.021273,7,17
org.apache.camel.builder.NotifyBuilder_java,4,290,4,996,0.090195,23,99
org.apache.camel.component.jcr.JcrProducer_java,1,394,3,116,0.020443,7,1
org.apache.camel.component.mybatis.MyBatisProducer_java,5,394,3,196,0.128356,8,1
org.apache.camel.component.hl7.HL7MLLPDecoder_java,1,394,3,114,0.021832,1,1
org.apache.camel.impl.osgi.Activator_java,7,394,3,395,0.204415,22,0
org.apache.camel.component.aws.sqs.SqsConsumer_java,5,394,3,194,0.133562,19,2
org.apache.camel.component.printer.PrinterProducer_java,2,394,3,150,0.047555,11,2
org.apache.camel.core.osgi.OsgiPackageScanClassResolver_java,1,394,3,78,0.021661,3,3
org.apache.camel.processor.resequencer.ResequencerEngine_java,12,394,3,113,0.386959,8,3
org.apache.camel.component.cxf.common.message.DefaultCxfMesssageMapper_java,1,394,3,27,0.023689,6,3
org.apache.camel.component.jcr.JcrEndpoint_java,1,394,3,126,0.023614,12,4
org.apache.camel.maven.DotMojo_java,1,394,3,191,0.020434,2,0
org.apache.camel.converter.jaxp.StaxConverter_java,3,394,3,304,0.080512,3,5
org.apache.camel.component.cxf.CxfSpringEndpoint_java,5,394,3,198,0.146538,9,5
org.apache.camel.component.jmx.JMXEndpoint_java,15,394,3,278,0.541096,8,5
org.apache.camel.builder.ExpressionClauseSupport_java,5,611,2,350,0.113466,28,343
org.apache.camel.model.dataformat.XmlJsonDataFormat_java,1,611,2,204,0.022461,3,5
org.apache.camel.component.mongodb.MongoDbProducer_java,6,611,2,340,0.179666,12,1
org.apache.camel.component.jsch.ScpOperations_java,8,611,2,357,0.224406,13,1
org.apache.camel.component.cxf.common.header.CxfHeaderHelper_java,3,611,2,117,0.085181,3,4
org.apache.camel.component.jetty.DefaultJettyHttpBinding_java,2,611,2,113,0.052355,13,2
org.apache.camel.impl.DefaultExecutorServiceManager_java,4,611,2,398,0.10409,21,3
org.apache.camel.model.dataformat.XStreamDataFormat_java,2,611,2,385,0.054239,6,5
org.apache.camel.component.cxf.cxfbean.CxfBeanDestination_java,1,611,2,53,0.020129,9,1
org.apache.camel.model.LoadBalanceDefinition_java,2,611,2,185,0.051085,22,3
org.apache.camel.builder.ExpressionClause_java,8,611,2,246,0.248505,5,13
org.apache.camel.component.hazelcast.HazelcastComponentHelper_java,14,611,2,55,0.418983,3,8
org.apache.camel.bam.processor.JpaBamProcessorSupport_java,1,611,2,137,0.020192,11,1
org.apache.camel.impl.DefaultExecutorServiceStrategy_java,6,611,2,118,0.179551,7,1
org.apache.camel.component.mqtt.MQTTConfiguration_java,4,611,2,97,0.118684,0,4
org.apache.camel.component.printer.PrinterConfiguration_java,8,611,2,247,0.237373,4,4
org.apache.camel.component.cometd.CometdComponent_java,2,611,2,148,0.054161,8,9
org.apache.camel.model.ModelCamelContext_java,3,611,2,22,0.081238,4,75
org.apache.camel.spi.ExecutorServiceStrategy_java,1,1076,1,34,0.020445,2,5
org.apache.camel.component.jetty.CamelHttpClient_java,1,1076,1,16,0.022267,1,1
org.apache.camel.component.cxf.spring.SpringJAXRSServerFactoryBean_java,3,1076,1,89,0.079444,2,2
org.apache.camel.util.AsyncProcessorConverterHelper_java,2,1076,1,77,0.057663,8,22
org.apache.camel.model.BeanDefinition_java,4,1076,1,163,0.105732,14,2
org.apache.camel.core.osgi.CamelMockBundle_java,5,1076,1,90,0.123033,1,1
org.apache.camel.component.jclouds.JcloudsBlobStoreConsumer_java,2,1076,1,83,0.053486,14,1
org.apache.camel.dataformat.bindy.model.fix.withoutsection.Order_java,2,1076,1,59,0.053386,2,1
org.apache.camel.component.aws.s3.S3Endpoint_java,2,1076,1,130,0.049064,17,5
org.apache.camel.dataformat.bindy.model.simple.oneclass.Order_java,3,1076,1,102,0.069932,2,8
org.apache.camel.component.aws.s3.S3Producer_java,1,1076,1,127,0.024377,12,1
org.apache.camel.model.RedeliveryPolicyDefinition_java,4,1076,1,366,0.106643,5,3
org.apache.camel.component.bean.MyDummyBean_java,1,1076,1,25,0.020682,1,3
org.apache.camel.component.cxf.interceptors.SetSoapVersionInterceptor_java,12,1076,1,19,0.345417,0,1
org.apache.camel.main.MainSupport_java,2,1076,1,401,0.054311,15,26
org.apache.camel.impl.DefaultThreadPoolFactory_java,2,1076,1,72,0.052563,5,3
org.apache.camel.cdi.internal.CamelExtension_java,3,1076,1,240,0.07975,18,6
org.apache.camel.builder.DataFormatClause_java,3,1076,1,377,0.065338,31,3
org.apache.camel.component.printer.PrinterOperations_java,2,1076,1,108,0.047913,2,2
org.apache.camel.component.bean.AbstractCamelInvocationHandler_java,9,1076,1,170,0.289256,14,2
org.apache.camel.component.aws.s3.S3Consumer_java,3,1076,1,121,0.074643,16,1
org.apache.camel.component.aws.s3.AmazonS3ClientMock_java,8,1076,1,347,0.282295,0,6
org.apache.camel.util.GZIPHelper_java,5,1076,1,80,0.150214,3,11
org.apache.camel.component.cxf.spring.SpringJAXRSClientFactoryBean_java,2,1076,1,86,0.054027,2,2
org.apache.camel.component.jt400.Jt400DataQueueEndpoint_java,3,1076,1,104,0.073447,13,13
org.apache.camel.view.RouteDotGenerator_java,3,1076,1,124,0.08489,8,4
org.apache.camel.impl.MainSupport_java,7,1076,1,4,0.192824,1,1
org.apache.camel.component.cxf.jaxrs.SimpleCxfRsBinding_java,21,2559,0,203,0.789619,5,1
org.apache.camel.component.jms.DefaultJmsMessageListenerContainer_java,1,2559,0,34,0.020306,6,5
org.apache.camel.component.exec.ExecCommand_java,3,2559,0,60,0.075754,1,10
org.apache.camel.component.jclouds.JcloudsComponent_java,1,2559,0,100,0.020038,5,6
org.apache.camel.component.printer.DocFlavorAssigner_java,6,2559,0,214,0.166638,0,1
org.apache.camel.component.gae.auth.GAuthEndpoint_java,2,2559,0,125,0.044833,11,8
org.apache.camel.component.exec.ExecBinding_java,3,2559,0,15,0.072835,4,8
org.apache.camel.support.ChildServiceSupport_java,3,2559,0,105,0.085049,2,3
org.apache.camel.impl.osgi.tracker.BundleTracker_java,3,2559,0,153,0.07121,2,2
org.apache.camel.component.exec.impl.ExecParseUtils_java,3,2559,0,55,0.07663,0,3
org.apache.camel.component.printer.MediaSizeAssigner_java,6,2559,0,203,0.152749,0,1
org.apache.camel.component.hbase.HBaseProducer_java,2,2559,0,188,0.044849,17,1
org.apache.camel.component.jclouds.JcloudsComputeProducer_java,5,2559,0,224,0.127059,9,1
org.apache.camel.management.mbean.JMXNotificationTraceEventHandler_java,1,2559,0,77,0.030878,11,1
org.apache.camel.processor.validation.CatalogLSResourceResolver_java,1,2559,0,106,0.020682,0,1
org.apache.camel.StringSource_java,2,2559,0,87,0.060307,0,18
org.apache.camel.util.CamelLogger_java,9,2559,0,187,0.319948,2,37
org.apache.camel.model.dataformat.PGPDataFormat_java,1,2559,0,72,0.020626,3,3
org.apache.camel.converter.jaxb.person.Person_java,1,2559,0,60,0.022273,1,4
org.apache.camel.component.hazelcast.queue.HazelcastQueueProducer_java,1,2559,0,78,0.023452,6,1
org.apache.camel.util.jsse.BaseSSLContextParameters_java,5,2559,0,602,0.110602,5,6
org.apache.camel.component.cxf.common.header.CxfHeaderFilterStrategy_java,7,2559,0,133,0.175114,6,5
org.apache.camel.component.aws.sqs.SqsConfiguration_java,2,2559,0,136,0.052996,0,7
org.apache.camel.component.cxf.transport.CamelOutputStream_java,3,2559,0,78,0.077863,9,1
org.apache.camel.converter.DateTimeConverter_java,1,2559,0,21,0.021796,1,1
org.apache.camel.component.exec.ExecutableJavaProgram_java,3,2559,0,79,0.083169,0,2
org.apache.camel.component.exec.ExecResult_java,2,2559,0,30,0.046239,2,11
org.apache.camel.component.exec.ExecEndpoint_java,12,2559,0,90,0.37581,12,8
org.apache.camel.component.http4.helper.UrlRewriteHttpServletRequestAdapter_java,2,2559,0,13,0.047049,0,1
org.apache.camel.impl.osgi.tracker.AbstractTracked_java,3,2559,0,168,0.071245,0,1
org.apache.camel.processor.interceptor.DefaultTraceEventHandler_java,2,2559,0,96,0.061694,19,1
org.apache.camel.component.hazelcast.atomicnumber.HazelcastAtomicnumberProducer_java,1,2559,0,63,0.020508,6,1
org.apache.camel.dataformat.bindy.model.fix.simple.Order_java,3,2559,0,76,0.07271,5,3
org.apache.camel.builder.ThreadPoolProfileBuilder_java,1,2559,0,48,0.022412,2,4
org.apache.camel.StatefulService_java,1,2559,0,11,0.020904,3,12
