FileName,upper_MisalignmentsFileNumber,BugsRank,BugsNumber,loc,MisalignmentsValueSum,Fanin,Fanout
org.apache.hadoop.mapred.TaskLog_java,5,602,0,465,0.157365,19,11
org.apache.hadoop.yarn.server.resourcemanager.RMAppManager_java,3,602,0,342,0.049729999999999996,35,9
org.apache.hadoop.yarn.server.nodemanager.containermanager.monitor.ContainersMonitorImpl_java,5,210,1,407,0.14180700000000002,18,2
org.apache.hadoop.hdfs.protocol.datatransfer.DataTransferEncryptor_java,10,602,0,321,0.27651899999999996,8,6
org.apache.hadoop.fs.s3native.InMemoryNativeFileSystemStore_java,6,602,0,157,0.13964900000000002,6,1
org.apache.hadoop.fs.swift.http.SwiftProtocolConstants_java,5,602,0,87,0.14833400000000002,1,11
org.apache.hadoop.tools.mapred.CopyMapper_java,1,602,0,269,0.02624,21,4
org.apache.hadoop.metrics2.util.SampleStat_java,2,210,1,85,0.117588,1,2
org.apache.hadoop.fs.s3.MigrationTool_java,1,602,0,222,0.012554,11,0
org.apache.hadoop.hdfs.server.namenode.AclFeature_java,1,602,0,16,0.012906,3,16
org.apache.hadoop.mapred.MapTask_java,6,602,0,1554,0.164186,75,13
org.apache.hadoop.typedbytes.TypedBytesInput_java,3,602,0,286,0.040804,3,8
org.apache.hadoop.yarn.api.impl.pb.client.ApplicationClientProtocolPBClientImpl_java,3,602,0,348,0.044507000000000005,76,0
org.apache.hadoop.mapred.gridmix.RoundRobinUserResolver_java,1,602,0,94,0.013383,7,2
org.apache.hadoop.fs.FileContextUtilBase_java,5,135,2,57,0.15556899999999999,5,1
org.apache.hadoop.metrics2.sink.ganglia.GangliaMetricVisitor_java,5,210,1,47,0.159602,3,2
org.apache.hadoop.test.MockitoMaker_java,3,602,0,45,0.053122,0,5
org.apache.hadoop.hdfs.server.namenode.snapshot.FileWithSnapshotFeature_java,1,602,0,150,0.012533,13,6
org.apache.hadoop.io.FileBench_java,14,602,0,552,0.4394529999999999,19,1
org.apache.hadoop.yarn.server.nodemanager.containermanager.logaggregation.LogAggregationService_java,4,602,0,338,0.106122,34,3
org.apache.hadoop.mapred.gridmix.RandomAlgorithms_java,3,602,0,127,0.047362,0,3
org.apache.hadoop.hdfs.NameNodeProxies_java,6,602,0,371,0.148569,48,20
org.apache.hadoop.hdfs.tools.offlineImageViewer.ImageVisitor_java,5,602,0,129,0.125978,0,10
org.apache.hadoop.hdfs.server.namenode.FSEditLogOp_java,81,602,0,3529,2.2605580000000005,42,34
org.apache.hadoop.mapred.JobConf_java,61,135,2,677,1.776193,36,335
org.apache.hadoop.mapred.gridmix.GridmixRecord_java,3,602,0,205,0.061571,8,11
org.apache.hadoop.util.Shell_java,5,16,13,495,0.112741,3,93
org.apache.hadoop.ha.ActiveStandbyElector_java,1,21,10,686,0.01624,6,8
org.apache.hadoop.mapreduce.v2.hs.webapp.HsJobBlock_java,1,210,1,161,0.0132,20,0
org.apache.hadoop.yarn.server.resourcemanager.scheduler.fair.FairSchedulerConfiguration_java,4,602,0,172,0.105821,8,15
org.apache.hadoop.hdfs.tools.offlineImageViewer.XmlImageVisitor_java,1,602,0,54,0.021068,2,1
org.apache.hadoop.mapreduce.lib.output.PartialFileOutputCommitter_java,3,602,0,64,0.041302000000000005,14,1
org.apache.hadoop.yarn.logaggregation.LogCLIHelpers_java,9,602,0,128,0.21548699999999998,12,3
org.apache.hadoop.mapred.gridmix.RandomTextDataGenerator_java,1,602,0,60,0.014218,1,4
org.apache.hadoop.hdfs.web.HftpFileSystem_java,7,602,0,560,0.208698,32,13
org.apache.hadoop.hdfs.server.blockmanagement.UnderReplicatedBlocks_java,7,602,0,266,0.207161,4,5
org.apache.hadoop.io.file.tfile.BoundedRangeFileInputStream_java,3,602,0,84,0.057298999999999996,1,1
org.apache.hadoop.io.file.tfile.NanoTimer_java,4,602,0,84,0.09345900000000001,0,1
org.apache.hadoop.yarn.server.nodemanager.containermanager.logaggregation.AppLogAggregatorImpl_java,3,602,0,205,0.067691,18,1
org.apache.hadoop.io.serializer.avro.AvroSpecificSerialization_java,4,210,1,39,0.099534,3,1
org.apache.hadoop.yarn.server.resourcemanager.scheduler.QueueMetrics_java,3,602,0,442,0.050386,23,35
org.apache.hadoop.io.compress.zlib.ZlibCompressor_java,3,135,2,259,0.042817999999999995,4,6
org.apache.hadoop.yarn.server.nodemanager.security.NMTokenSecretManagerInNM_java,1,602,0,133,0.015593,9,11
org.apache.hadoop.yarn.api.protocolrecords.impl.pb.MoveApplicationAcrossQueuesResponsePBImpl_java,2,602,0,42,0.025373,3,2
org.apache.hadoop.yarn.server.nodemanager.DefaultContainerExecutor_java,4,210,1,429,0.082402,20,9
org.apache.hadoop.hdfs.tools.offlineImageViewer.TextWriterImageVisitor_java,1,602,0,44,0.023707,1,6
org.apache.hadoop.hdfs.tools.DFSAdmin_java,77,96,3,1395,2.082515000000001,41,21
org.apache.hadoop.fs.loadGenerator.LoadGenerator_java,22,74,4,419,0.6391130000000002,14,1
org.apache.hadoop.metrics2.impl.MetricsSourceAdapter_java,45,135,2,245,1.6612299999999995,12,3
org.apache.hadoop.yarn.server.applicationhistoryservice.ApplicationHistoryServer_java,1,602,0,184,0.017581,28,4
org.apache.hadoop.ipc.WritableRpcEngine_java,92,53,5,352,2.8039090000000004,24,3
org.apache.hadoop.mapred.gridmix.StressJobFactory_java,15,602,0,376,0.321803,15,3
org.apache.hadoop.fs.FileContextPermissionBase_java,1,96,3,153,0.01248,9,3
org.apache.hadoop.hdfs.tools.offlineImageViewer.OfflineImageViewer_java,7,602,0,194,0.187026,11,0
org.apache.hadoop.hdfs.server.namenode.AuditLogger_java,1,602,0,15,0.0168,4,3
org.apache.hadoop.yarn.server.resourcemanager.scheduler.fair.FSQueue_java,6,602,0,130,0.16039799999999999,25,10
org.apache.hadoop.hdfs.server.datanode.fsdataset.impl.FsDatasetAsyncDiskService_java,8,602,0,163,0.31620899999999996,7,2
org.apache.hadoop.hdfs.server.blockmanagement.BlockManager_java,108,602,0,2431,3.134787,58,71
org.apache.hadoop.yarn.sls.scheduler.ResourceSchedulerWrapper_java,4,602,0,798,0.09648299999999999,55,3
org.apache.hadoop.ipc.ProtocolMetaInfoServerSideTranslatorPB_java,1,602,0,92,0.0164,3,2
org.apache.hadoop.hdfs.NNBench_java,37,602,0,671,1.0352869999999998,19,1
org.apache.hadoop.security.authorize.AccessControlList_java,2,74,4,200,0.039416999999999994,10,57
org.apache.hadoop.security.token.SecretManager_java,1,210,1,78,0.03856,5,60
org.apache.hadoop.hdfs.tools.offlineImageViewer.LsImageVisitor_java,4,602,0,119,0.091576,2,1
org.apache.hadoop.http.HtmlQuoting_java,1,135,2,137,0.022884,0,7
org.apache.hadoop.mapreduce.v2.app.rm.RMContainerAllocator_java,29,602,0,1055,0.740735,55,3
org.apache.hadoop.hdfs.server.datanode.SimulatedFSDataset_java,6,602,0,885,0.207164,35,21
org.apache.hadoop.hdfs.server.namenode.snapshot.SnapshotFSImageFormat_java,3,602,0,214,0.053905999999999996,20,6
org.apache.hadoop.mapreduce.JobSubmitter_java,4,602,0,489,0.07882800000000001,38,1
org.apache.hadoop.tools.rumen.ParsedConfigFile_java,6,602,0,149,0.11070800000000001,2,1
org.apache.hadoop.mapred.gridmix.SleepJob_java,7,602,0,340,0.14865899999999999,30,4
org.apache.hadoop.hdfs.server.datanode.DNConf_java,6,602,0,147,0.252459,6,10
org.apache.hadoop.yarn.server.security.http.RMAuthenticationFilter_java,1,602,0,30,0.01791,3,1
org.apache.hadoop.fs.shell.AclCommands_java,3,53,5,187,0.083815,18,0
org.apache.hadoop.yarn.api.records.ContainerResourceIncreaseRequest_java,2,602,0,47,0.030284,4,5
org.apache.hadoop.mapreduce.v2.app.job.impl.TaskAttemptImpl_java,15,602,0,1612,0.41493399999999997,102,14
org.apache.hadoop.hdfs.qjournal.server.JournalNodeHttpServer_java,1,210,1,75,0.02024,9,2
org.apache.hadoop.hdfs.server.namenode.BackupNode_java,5,602,0,344,0.111039,39,4
org.apache.hadoop.hdfs.web.ByteRangeInputStream_java,2,602,0,149,0.032014,1,3
org.apache.hadoop.yarn.server.resourcemanager.rmapp.RMAppImpl_java,12,602,0,958,0.312902,60,9
org.apache.hadoop.util.Options_java,1,602,0,104,0.016932,4,3
org.apache.hadoop.fs.swift.http.RestClientBindings_java,5,602,0,107,0.12155200000000001,3,5
org.apache.hadoop.mapreduce.lib.db.DataDrivenDBInputFormat_java,2,602,0,200,0.02956,28,10
org.apache.hadoop.hdfs.DFSOutputStream_java,64,602,0,1578,1.847774,49,26
org.apache.hadoop.yarn.api.records.ContainerResourceIncrease_java,3,602,0,50,0.044225,5,5
org.apache.hadoop.yarn.server.resourcemanager.scheduler.capacity.CapacityScheduler_java,12,602,0,919,0.31469300000000006,70,21
org.apache.hadoop.mapred.gridmix.LoadSplit_java,2,602,0,151,0.030598,3,2
org.apache.hadoop.hdfs.server.namenode.ImageServlet_java,26,602,0,411,0.768867,27,6
org.apache.hadoop.ha.SshFenceByTcpPort_java,1,210,1,222,0.01472,6,1
org.apache.hadoop.hdfs.protocolPB.DatanodeProtocolClientSideTranslatorPB_java,5,602,0,286,0.124841,35,15
org.apache.hadoop.yarn.server.resourcemanager.scheduler.fair.FSSchedulerApp_java,50,602,0,227,1.4300229999999998,29,10
org.apache.hadoop.hdfs.BlockReaderLocal_java,10,602,0,473,0.23073099999999996,13,3
org.apache.hadoop.hdfs.tools.CacheAdmin_java,15,602,0,964,0.440711,20,2
org.apache.hadoop.security.token.delegation.DelegationKey_java,3,96,3,102,0.06302,5,29
org.apache.hadoop.util.PureJavaCrc32_java,33,602,0,564,0.9806940000000002,2,8
org.apache.hadoop.contrib.bkjournal.BKJMUtil_java,1,602,0,132,0.014321,2,4
org.apache.hadoop.yarn.server.nodemanager.containermanager.AuxServices_java,1,602,0,219,0.01544,20,2
org.apache.hadoop.examples.BaileyBorweinPlouffe_java,4,602,0,447,0.077612,22,2
org.apache.hadoop.fs.JHLogAnalyzer_java,5,602,0,852,0.13342299999999999,24,2
org.apache.hadoop.hdfs.server.namenode.NameNodeHttpServer_java,10,210,1,174,0.32381800000000005,23,16
org.apache.hadoop.util.StringUtils_java,5,74,4,586,0.216076,8,223
org.apache.hadoop.yarn.client.cli.LogsCLI_java,5,602,0,170,0.132152,18,1
org.apache.hadoop.examples.terasort.TeraInputFormat_java,4,602,0,239,0.069082,19,2
org.apache.hadoop.fs.swift.snative.SwiftFileStatus_java,3,602,0,60,0.042753,3,3
org.apache.hadoop.fs.contract.AbstractBondedFSContract_java,3,602,0,58,0.044227,5,3
org.apache.hadoop.io.IOUtils_java,1,53,5,161,0.012371,3,248
org.apache.hadoop.mapreduce.v2.hs.HSAuditLogger_java,2,602,0,65,0.029733999999999997,2,1
org.apache.hadoop.metrics.util.MetricsRegistry_java,7,210,1,29,0.282015,2,6
org.apache.hadoop.io.SequenceFile_java,22,21,10,2390,0.7174879999999999,50,93
org.apache.hadoop.hdfs.BlockStorageLocationUtil_java,4,602,0,248,0.105413,18,2
org.apache.hadoop.yarn.sls.scheduler.RMNodeWrapper_java,1,602,0,117,0.02128,12,2
org.apache.hadoop.hdfs.server.datanode.fsdataset.impl.FsDatasetCache_java,3,602,0,333,0.068613,15,3
org.apache.hadoop.tools.DistCh_java,4,210,1,419,0.056688,26,1
org.apache.hadoop.ipc.ProtobufRpcEngine_java,4,74,4,431,0.09182099999999999,24,35
org.apache.hadoop.hdfs.server.namenode.ha.EditLogTailer_java,2,602,0,226,0.029975,19,7
org.apache.hadoop.hdfs.tools.DelegationTokenFetcher_java,2,210,1,309,0.032071,23,4
org.apache.hadoop.yarn.server.timeline.webapp.TimelineWebServices_java,12,602,0,454,0.323669,19,2
org.apache.hadoop.ipc.metrics.RpcMetrics_java,4,96,3,111,0.085207,14,5
org.apache.hadoop.fs.DF_java,1,53,5,158,0.01392,5,6
org.apache.hadoop.hdfs.server.namenode.startupprogress.StartupProgressView_java,2,602,0,134,0.037959,9,5
org.apache.hadoop.security.authentication.server.KerberosAuthenticationHandler_java,5,24,9,253,0.139871,7,16
org.apache.hadoop.util.GenericOptionsParser_java,2,29,8,288,0.042733,10,17
org.apache.hadoop.security.User_java,1,96,3,72,0.0125,5,2
org.apache.hadoop.mapreduce.v2.hs.JobHistoryServer_java,3,210,1,168,0.038842,27,6
org.apache.hadoop.yarn.api.records.ResourceRequest_java,2,602,0,149,0.035055,6,67
org.apache.hadoop.mapreduce.v2.hs.server.HSAdminServer_java,4,602,0,176,0.08751300000000001,23,2
org.apache.hadoop.fs.FilterFs_java,5,135,2,275,0.09149,25,1
org.apache.hadoop.security.authorize.ServiceAuthorizationManager_java,2,29,8,104,0.030512,11,3
org.apache.hadoop.hdfs.server.namenode.snapshot.FileDiff_java,2,602,0,58,0.026812000000000002,8,6
org.apache.hadoop.hdfs.web.HsftpFileSystem_java,2,602,0,29,0.029829,8,3
org.apache.hadoop.io.compress.DecompressorStream_java,3,602,0,141,0.039272999999999995,4,9
org.apache.hadoop.http.HttpServer2_java,4,44,6,799,0.075776,20,39
org.apache.hadoop.yarn.server.resourcemanager.scheduler.fair.AllocationFileLoaderService_java,36,602,0,353,1.1008059999999997,17,2
org.apache.hadoop.record.compiler.generated.Rcc_java,1,602,0,489,0.015001,21,1
org.apache.hadoop.metrics.ganglia.GangliaContext_java,25,96,3,180,0.8373459999999999,6,2
org.apache.hadoop.tools.mapred.RetriableFileCopyCommand_java,1,74,4,247,0.02096,22,2
org.apache.hadoop.ipc.Server_java,96,4,33,2012,3.096335,35,84
org.apache.hadoop.hdfs.MiniDFSCluster_java,25,602,0,1557,0.647586,55,423
org.apache.hadoop.fs.s3native.Jets3tNativeFileSystemStore_java,22,135,2,370,0.5085690000000002,12,4
org.apache.hadoop.yarn.api.protocolrecords.impl.pb.KillApplicationRequestPBImpl_java,1,602,0,91,0.0152,5,2
org.apache.hadoop.yarn.server.resourcemanager.monitor.SchedulingMonitor_java,1,602,0,70,0.01216,6,2
org.apache.hadoop.mapred.YarnChild_java,3,135,2,282,0.04332,44,0
org.apache.hadoop.yarn.api.protocolrecords.impl.pb.GetApplicationsRequestPBImpl_java,9,602,0,337,0.24306499999999998,6,5
org.apache.hadoop.hdfs.util.XMLUtils_java,7,602,0,176,0.182122,2,6
org.apache.hadoop.net.AbstractDNSToSwitchMapping_java,4,210,1,64,0.077124,7,8
org.apache.hadoop.hdfs.server.datanode.fsdataset.impl.FsDatasetImpl_java,94,602,0,1409,2.6747199999999993,56,11
org.apache.hadoop.util.DataChecksum_java,2,210,1,323,0.042188,7,49
org.apache.hadoop.oncrpc.XDR_java,2,602,0,176,0.046224,0,92
org.apache.hadoop.yarn.client.cli.ApplicationCLI_java,35,602,0,432,0.9888859999999999,14,1
org.apache.hadoop.yarn.server.resourcemanager.recovery.FileSystemRMStateStore_java,21,602,0,472,0.488827,29,1
org.apache.hadoop.mapred.FixedLengthRecordReader_java,3,602,0,54,0.04649300000000001,8,1
org.apache.hadoop.metrics2.sink.GraphiteSink_java,26,96,3,99,0.8290299999999999,8,1
org.apache.hadoop.fs.HardLink_java,627,96,3,323,31.077649000000026,3,6
org.apache.hadoop.hdfs.server.datanode.BPOfferService_java,8,602,0,460,0.24420499999999998,30,12
org.apache.hadoop.hdfs.server.namenode.NameNodeResourceChecker_java,1,602,0,131,0.01792,9,3
org.apache.hadoop.mapreduce.task.reduce.MergeManager_java,4,602,0,25,0.069337,16,4
org.apache.hadoop.io.file.tfile.RandomDistribution_java,5,602,0,138,0.143691,0,3
org.apache.hadoop.http.lib.StaticUserWebFilter_java,4,602,0,105,0.07614,4,3
org.apache.hadoop.hdfs.server.namenode.FSImagePreTransactionalStorageInspector_java,1,602,0,186,0.02256,10,2
org.apache.hadoop.fs.loadGenerator.DataGenerator_java,2,210,1,96,0.045407,10,2
org.apache.hadoop.hdfs.server.blockmanagement.BlockPlacementPolicyWithNodeGroup_java,1,602,0,224,0.01254,16,1
org.apache.hadoop.hdfs.server.namenode.NameNodeMXBean_java,3,602,0,42,0.059646,3,1
org.apache.hadoop.util.DiskChecker_java,3,74,4,86,0.045065,8,23
org.apache.hadoop.hdfs.web.JsonUtil_java,5,602,0,626,0.13388,26,6
org.apache.hadoop.net.CachedDNSToSwitchMapping_java,2,135,2,81,0.036767,5,10
org.apache.hadoop.hdfs.server.blockmanagement.BlockPlacementPolicyDefault_java,16,602,0,572,0.415405,23,7
org.apache.hadoop.mapreduce.v2.hs.HistoryClientService_java,2,602,0,351,0.027767,64,3
org.apache.hadoop.mapreduce.v2.hs.webapp.HsTaskPage_java,4,210,1,248,0.093069,23,2
org.apache.hadoop.security.SaslOutputStream_java,6,602,0,102,0.15449400000000002,2,1
org.apache.hadoop.yarn.sls.nodemanager.NMSimulator_java,2,602,0,209,0.02488,26,2
org.apache.hadoop.util.VersionUtil_java,4,210,1,10,0.092817,2,5
org.apache.hadoop.yarn.util.resource.DominantResourceCalculator_java,1,602,0,125,0.02272,5,3
org.apache.hadoop.fs.swift.http.HttpInputStreamWithRelease_java,5,602,0,151,0.127731,2,3
org.apache.hadoop.mapreduce.v2.hs.HistoryServerStateStoreService_java,3,602,0,56,0.048537000000000004,6,9
org.apache.hadoop.yarn.state.Graph_java,2,602,0,169,0.038507,1,2
org.apache.hadoop.mapred.LocalContainerLauncher_java,7,602,0,382,0.228398,43,3
org.apache.hadoop.security.token.TokenIdentifier_java,2,602,0,32,0.030513,6,104
org.apache.hadoop.yarn.server.resourcemanager.security.DelegationTokenRenewer_java,2,602,0,526,0.026987,20,9
org.apache.hadoop.yarn.client.RMProxy_java,2,602,0,159,0.034573,13,5
org.apache.hadoop.yarn.client.api.impl.AMRMClientImpl_java,5,602,0,517,0.12473799999999999,29,7
org.apache.hadoop.hdfs.DFSUtil_java,20,135,2,1092,0.519768,32,119
org.apache.hadoop.mapreduce.v2.hs.HistoryFileManager_java,23,602,0,829,0.514613,28,11
org.apache.hadoop.yarn.client.api.impl.TimelineClientImpl_java,14,602,0,262,0.37411399999999995,22,2
org.apache.hadoop.io.compress.snappy.SnappyCompressor_java,1,135,2,160,0.01848,3,4
org.apache.hadoop.yarn.server.resourcemanager.scheduler.fair.FSLeafQueue_java,33,602,0,250,0.945278,25,11
org.apache.hadoop.yarn.server.resourcemanager.scheduler.fair.QueueManager_java,115,602,0,236,3.367672000000001,14,7
org.apache.hadoop.hdfs.DFSHedgedReadMetrics_java,33,602,0,25,0.8824130000000003,0,3
org.apache.hadoop.tools.TableListing_java,2,602,0,185,0.043833,1,2
org.apache.hadoop.yarn.server.nodemanager.containermanager.application.ApplicationImpl_java,1,602,0,348,0.013522,36,4
org.apache.hadoop.fs.swift.auth.ApiKeyCredentials_java,1,602,0,29,0.01258,0,2
org.apache.hadoop.streaming.StreamJob_java,5,135,2,878,0.133934,36,21
org.apache.hadoop.contrib.utils.join.JobBase_java,2,602,0,72,0.028913,3,2
org.apache.hadoop.mapred.gridmix.Gridmix_java,25,135,2,503,0.587873,34,10
org.apache.hadoop.hdfs.server.datanode.DataXceiver_java,6,602,0,974,0.175448,41,1
org.apache.hadoop.mapreduce.v2.app.job.impl.JobImpl_java,26,602,0,1793,0.6783940000000004,100,13
org.apache.hadoop.examples.WordStandardDeviation_java,19,210,1,125,0.4581149999999999,14,1
org.apache.hadoop.yarn.util.LinuxResourceCalculatorPlugin_java,1,602,0,278,0.01448,4,4
org.apache.hadoop.yarn.server.resourcemanager.scheduler.fair.QueuePlacementRule_java,24,602,0,222,0.632274,7,3
org.apache.hadoop.hdfs.server.datanode.BlockPoolSliceScanner_java,7,602,0,595,0.173498,20,3
org.apache.hadoop.contrib.bkjournal.EditLogLedgerMetadata_java,2,602,0,169,0.04086,1,4
org.apache.hadoop.hdfs.server.datanode.DataNode_java,111,210,1,1794,3.1894959999999997,108,120
org.apache.hadoop.yarn.client.cli.RMAdminCLI_java,5,602,0,355,0.111786,27,1
org.apache.hadoop.mapred.gridmix.ReplayJobFactory_java,1,602,0,79,0.012522,10,2
org.apache.hadoop.mapreduce.v2.hs.JobHistory_java,23,602,0,280,0.5262020000000001,25,12
org.apache.hadoop.yarn.sls.appmaster.AMSimulator_java,3,602,0,300,0.042908,41,3
org.apache.hadoop.io.file.tfile.BCFile_java,42,602,0,543,1.276833,14,2
org.apache.hadoop.hdfs.server.namenode.ha.ConfiguredFailoverProxyProvider_java,3,602,0,115,0.060679,11,4
org.apache.hadoop.hdfs.RemoteBlockReader2_java,3,602,0,295,0.055456,21,3
org.apache.hadoop.ha.HAAdmin_java,4,210,1,403,0.074197,15,4
org.apache.hadoop.mapreduce.lib.db.DBInputFormat_java,9,602,0,220,0.271593,19,13
org.apache.hadoop.yarn.server.resourcemanager.scheduler.fair.AppSchedulable_java,33,602,0,299,0.925734,27,14
org.apache.hadoop.mapreduce.lib.input.CombineFileInputFormat_java,3,602,0,506,0.04956,21,7
org.apache.hadoop.hdfs.tools.offlineImageViewer.DelimitedImageVisitor_java,4,602,0,100,0.088463,2,1
org.apache.hadoop.ipc.ClientCache_java,1,210,1,56,0.01472,6,2
org.apache.hadoop.hdfs.server.namenode.SecondaryNameNode_java,5,210,1,797,0.151907,51,13
org.apache.hadoop.hdfs.server.namenode.ContentSummaryComputationContext_java,3,602,0,63,0.050373,6,10
org.apache.hadoop.security.JniBasedUnixGroupsMapping_java,1,210,1,48,0.01544,4,3
org.apache.hadoop.mapreduce.lib.input.LineRecordReader_java,1,602,0,176,0.012041,23,9
org.apache.hadoop.yarn.util.FSDownload_java,5,602,0,318,0.122322,18,4
org.apache.hadoop.contrib.utils.join.DataJoinReducerBase_java,3,602,0,119,0.054230999999999994,10,1
org.apache.hadoop.conf.Configuration_java,48,2,38,1506,1.9365910000000002,13,2060
org.apache.hadoop.fs.shell.Stat_java,42,135,2,84,0.8959799999999999,9,0
org.apache.hadoop.tools.DistCpOptionSwitch_java,1,602,0,83,0.01712,2,5
org.apache.hadoop.fs.shell.CopyCommands_java,2,29,8,283,0.033583999999999996,16,3
org.apache.hadoop.yarn.util.ApplicationClassLoader_java,2,602,0,147,0.033113000000000004,2,3
org.apache.hadoop.io.compress.GzipCodec_java,3,96,3,145,0.042466000000000004,16,19
org.apache.hadoop.mapred.gridmix.CompressionEmulationUtil_java,15,602,0,358,0.323708,30,10
org.apache.hadoop.metrics.spi.MetricsRecordImpl_java,1,210,1,93,0.01608,6,3
org.apache.hadoop.ipc.ProtocolProxy_java,1,602,0,65,0.01488,3,10
org.apache.hadoop.hdfs.qjournal.client.IPCLoggerChannel_java,6,602,0,536,0.20183700000000004,22,7
org.apache.hadoop.yarn.server.resourcemanager.ClientRMService_java,24,602,0,856,0.6048379999999999,97,25
org.apache.hadoop.yarn.webapp.hamlet.HamletSpec_java,3,602,0,672,0.060256,2,33
org.apache.hadoop.tools.StubContext_java,1,602,0,82,0.01248,7,3
org.apache.hadoop.mapreduce.v2.hs.protocol.HSAdminRefreshProtocol_java,1,602,0,15,0.013158,5,5
org.apache.hadoop.hdfs.server.datanode.BlockReceiver_java,111,602,0,1004,3.566398000000001,34,3
org.apache.hadoop.tools.rumen.Hadoop20JHParser_java,3,602,0,148,0.037866,12,1
org.apache.hadoop.fs.swift.snative.SwiftNativeFileSystemStore_java,60,210,1,549,1.6433770000000005,17,5
org.apache.hadoop.security.authentication.server.AuthenticationFilter_java,2,29,8,262,0.029571,10,19
org.apache.hadoop.yarn.server.resourcemanager.scheduler.common.fica.FiCaSchedulerApp_java,30,602,0,166,0.8070779999999999,29,16
org.apache.hadoop.hdfs.qjournal.MiniQJMHACluster_java,2,602,0,110,0.033100000000000004,9,7
org.apache.hadoop.yarn.server.resourcemanager.scheduler.fair.FairScheduler_java,152,602,0,1124,4.779046000000001,81,25
org.apache.hadoop.io.compress.BZip2Codec_java,6,96,3,258,0.215277,17,2
org.apache.hadoop.io.serializer.WritableSerialization_java,2,210,1,85,0.041935,9,0
org.apache.hadoop.fs.FileSystem_java,42,3,34,1470,1.151858,43,918
org.apache.hadoop.fs.swift.auth.entities.User_java,4,602,0,42,0.06427,1,1
org.apache.hadoop.mapred.ClientServiceDelegate_java,1,210,1,453,0.02208,57,4
org.apache.hadoop.yarn.api.records.impl.pb.ContainerResourceIncreaseRequestPBImpl_java,4,602,0,105,0.08862099999999999,5,2
org.apache.hadoop.hdfs.server.namenode.INodeDirectory_java,3,602,0,571,0.096689,21,42
org.apache.hadoop.yarn.server.resourcemanager.recovery.RMStateStore_java,5,602,0,575,0.10491400000000001,49,37
org.apache.hadoop.yarn.server.resourcemanager.rmnode.RMNodeImpl_java,4,602,0,577,0.110008,49,4
org.apache.hadoop.hdfs.server.namenode.EditLogFileOutputStream_java,12,602,0,175,0.419378,11,16
org.apache.hadoop.mapred.gridmix.emulators.resourceusage.TotalHeapUsageEmulatorPlugin_java,3,602,0,128,0.060293,5,1
org.apache.hadoop.yarn.server.resourcemanager.scheduler.fair.FSParentQueue_java,3,602,0,180,0.053731,21,7
org.apache.hadoop.metrics.MetricsRecord_java,1,210,1,26,0.0132,2,15
org.apache.hadoop.yarn.api.protocolrecords.MoveApplicationAcrossQueuesRequest_java,2,602,0,21,0.026191,5,9
org.apache.hadoop.yarn.webapp.util.WebAppUtils_java,2,210,1,199,0.029458,10,28
org.apache.hadoop.hdfs.server.datanode.BlockPoolSliceStorage_java,3,602,0,374,0.069406,14,6
org.apache.hadoop.fs.FileStatus_java,2,74,4,217,0.037398,6,369
org.apache.hadoop.yarn.server.resourcemanager.rmnode.RMNode_java,1,602,0,33,0.02032,9,54
org.apache.hadoop.hdfs.protocolPB.ClientNamenodeProtocolServerSideTranslatorPB_java,28,210,1,1175,0.598459,25,1
org.apache.hadoop.yarn.webapp.log.AggregatedLogsBlock_java,3,602,0,267,0.069758,19,3
org.apache.hadoop.yarn.server.resourcemanager.scheduler.fair.Schedulable_java,3,602,0,35,0.043963,8,19
org.apache.hadoop.examples.DBCountPageView_java,3,602,0,311,0.039438,18,1
org.apache.hadoop.yarn.util.ProcfsBasedProcessTree_java,1,602,0,700,0.01448,8,4
org.apache.hadoop.mapreduce.v2.jobhistory.JobHistoryUtils_java,4,602,0,240,0.08566499999999999,19,13
org.apache.hadoop.io.retry.LossyRetryInvocationHandler_java,650,602,0,39,31.687840000000033,5,2
org.apache.hadoop.fs.AvroFSInput_java,4,602,0,41,0.08217600000000001,6,1
org.apache.hadoop.record.compiler.generated.RccTokenManager_java,1,602,0,804,0.02266,6,1
org.apache.hadoop.yarn.server.resourcemanager.ResourceManager_java,59,210,1,869,1.6489079999999996,88,108
org.apache.hadoop.yarn.api.protocolrecords.impl.pb.MoveApplicationAcrossQueuesRequestPBImpl_java,4,602,0,118,0.099528,5,2
org.apache.hadoop.hdfs.server.blockmanagement.DatanodeManager_java,38,602,0,1034,0.985144,53,44
org.apache.hadoop.mapred.FileInputFormat_java,22,602,0,489,0.593244,25,94
org.apache.hadoop.mapred.gridmix.DebugJobProducer_java,4,602,0,246,0.085693,15,5
org.apache.hadoop.io.serializer.avro.AvroSerialization_java,12,210,1,84,0.318125,6,2
org.apache.hadoop.hdfs.server.balancer.Balancer_java,5,602,0,1072,0.164876,34,6
org.apache.hadoop.fs.IOMapperBase_java,5,602,0,65,0.10811499999999999,9,4
org.apache.hadoop.hdfs.server.blockmanagement.DatanodeStorageInfo_java,1,602,0,199,0.012906,6,36
org.apache.hadoop.tools.CopyListing_java,1,602,0,134,0.01904,13,12
org.apache.hadoop.ant.condition.DfsBaseConditional_java,3,602,0,25,0.057419,1,3
org.apache.hadoop.yarn.server.nodemanager.recovery.NMLeveldbStateStoreService_java,67,602,0,371,1.819779,9,2
org.apache.hadoop.mapred.GenericMRLoadGenerator_java,8,602,0,613,0.247214,32,1
org.apache.hadoop.fs.ChecksumFs_java,1,44,6,352,0.01648,18,1
org.apache.hadoop.yarn.client.cli.NodeCLI_java,2,602,0,162,0.035601,11,1
org.apache.hadoop.hdfs.DistributedFileSystem_java,27,74,4,1422,0.7123970000000001,62,183
org.apache.hadoop.yarn.api.records.ApplicationSubmissionContext_java,3,602,0,133,0.052135,10,56
org.apache.hadoop.minikdc.MiniKdc_java,3,74,4,411,0.04284299999999999,0,7
org.apache.hadoop.fs.viewfs.ChRootedFileSystem_java,1,20,11,270,0.0132,22,2
org.apache.hadoop.yarn.server.resourcemanager.Application_java,12,602,0,340,0.33885999999999994,38,5
org.apache.hadoop.nfs.nfs3.IdUserGroup_java,3,96,3,297,0.068575,3,8
org.apache.hadoop.hdfs.server.blockmanagement.InvalidateBlocks_java,1,602,0,133,0.01469,11,2
org.apache.hadoop.hdfs.server.namenode.INodeReference_java,1,602,0,527,0.014772,18,14
org.apache.hadoop.hdfs.tools.offlineImageViewer.NameDistributionVisitor_java,3,602,0,77,0.05088,3,1
org.apache.hadoop.metrics2.sink.ganglia.GangliaSink30_java,14,135,2,165,0.45402400000000004,10,2
org.apache.hadoop.mapred.YARNRunner_java,15,602,0,485,0.3687190000000001,63,3
org.apache.hadoop.yarn.server.timeline.security.TimelineAuthenticationFilterInitializer_java,1,602,0,68,0.019498,8,1
org.apache.hadoop.hdfs.server.common.HdfsServerConstants_java,3,602,0,181,0.056987,2,116
org.apache.hadoop.io.WritableFactories_java,3,602,0,35,0.116838,7,14
org.apache.hadoop.test.MiniDFSClusterManager_java,3,602,0,176,0.053423,4,0
org.apache.hadoop.hdfs.client.HdfsAdmin_java,3,602,0,77,0.052604000000000005,14,3
org.apache.hadoop.yarn.server.resourcemanager.MockNodes_java,1,602,0,200,0.02472,12,7
org.apache.hadoop.fs.TrashPolicyDefault_java,1,96,3,253,0.01416,14,0
org.apache.hadoop.mapred.gridmix.JobMonitor_java,4,602,0,170,0.081758,6,3
org.apache.hadoop.hdfs.protocolPB.NamenodeProtocolServerSideTranslatorPB_java,1,602,0,184,0.01608,11,1
org.apache.hadoop.fs.swift.auth.entities.Tenant_java,3,602,0,33,0.041279,0,1
org.apache.hadoop.yarn.server.resourcemanager.scheduler.fair.SchedulingPolicy_java,3,602,0,71,0.040067,9,15
org.apache.hadoop.fs.http.client.HttpFSFileSystem_java,4,210,1,803,0.070495,31,11
org.apache.hadoop.hdfs.server.namenode.web.resources.NamenodeWebHdfsMethods_java,3,210,1,569,0.09187500000000001,75,7
org.apache.hadoop.ipc.Client_java,45,5,28,1093,1.4790260000000002,28,17
org.apache.hadoop.yarn.api.ApplicationClientProtocol_java,3,602,0,158,0.064603,52,51
org.apache.hadoop.net.ScriptBasedMapping_java,11,96,3,151,0.28011199999999997,10,6
org.apache.hadoop.fs.swift.http.SwiftRestClient_java,147,602,0,1106,4.562851999999998,33,4
org.apache.hadoop.mapred.Task_java,6,602,0,1218,0.175885,67,33
org.apache.hadoop.io.file.tfile.Utils_java,17,602,0,252,0.45227500000000004,3,5
org.apache.hadoop.yarn.server.resourcemanager.scheduler.fair.policies.ComputeFairShares_java,4,602,0,88,0.087676,4,3
org.apache.hadoop.fs.contract.ContractOptions_java,4,210,1,27,0.083823,0,11
org.apache.hadoop.io.compress.bzip2.Bzip2Compressor_java,4,602,0,187,0.09744900000000001,3,1
org.apache.hadoop.fs.swift.snative.SwiftNativeInputStream_java,12,602,0,221,0.310007,10,1
org.apache.hadoop.ipc.MiniRPCBenchmark_java,36,210,1,301,0.8958919999999999,19,1
org.apache.hadoop.tools.SimpleCopyListing_java,1,135,2,226,0.03136,14,3
org.apache.hadoop.yarn.server.resourcemanager.scheduler.SchedulerUtils_java,2,602,0,141,0.057908,15,8
org.apache.hadoop.mapreduce.lib.input.FileInputFormat_java,23,602,0,364,0.570838,23,72
org.apache.hadoop.yarn.applications.distributedshell.Client_java,5,210,1,425,0.160828,43,2
org.apache.hadoop.metrics2.util.SampleQuantiles_java,3,602,0,162,0.061642999999999996,2,3
org.apache.hadoop.hdfs.server.namenode.INode_java,3,602,0,403,0.074374,24,65
org.apache.hadoop.mapred.gridmix.GenerateDistCacheData_java,3,210,1,169,0.062971,31,4
org.apache.hadoop.hdfs.server.namenode.NameNodeRpcServer_java,25,602,0,1178,0.601467,123,5
org.apache.hadoop.hdfs.server.namenode.snapshot.INodeDirectorySnapshottable_java,2,602,0,349,0.028884,25,21
org.apache.hadoop.security.token.delegation.AbstractDelegationTokenSecretManager_java,31,13,15,388,0.824139,14,32
org.apache.hadoop.metrics2.lib.MetricsRegistry_java,1,602,0,183,0.013674,16,22
org.apache.hadoop.hdfs.server.namenode.NNStorageRetentionManager_java,2,602,0,196,0.028807,9,4
org.apache.hadoop.hdfs.protocolPB.ClientNamenodeProtocolTranslatorPB_java,30,602,0,1203,0.7653379999999997,51,2
org.apache.hadoop.metrics2.lib.MutableQuantiles_java,1,210,1,94,0.01536,8,9
org.apache.hadoop.record.compiler.generated.SimpleCharStream_java,1,602,0,352,0.01244,2,2
org.apache.hadoop.yarn.server.nodemanager.containermanager.localizer.ResourceLocalizationService_java,29,602,0,994,0.7895690000000001,82,13
org.apache.hadoop.jmx.JMXJsonServlet_java,5,44,6,268,0.180433,1,2
org.apache.hadoop.contrib.utils.join.DataJoinJob_java,2,602,0,126,0.029282000000000002,15,0
org.apache.hadoop.fs.BlockLocation_java,2,602,0,143,0.03081,2,66
org.apache.hadoop.tools.DistCpV1_java,194,96,3,1310,6.309036000000001,38,2
org.apache.hadoop.mapred.LocalJobRunner_java,22,602,0,697,0.5828540000000001,63,4
org.apache.hadoop.tools.rumen.Folder_java,4,602,0,395,0.058157,15,0
org.apache.hadoop.yarn.server.resourcemanager.ResourceTrackerService_java,3,602,0,353,0.060715,58,16
org.apache.hadoop.mapreduce.v2.hs.HistoryServerFileSystemStateStoreService_java,8,602,0,310,0.213483,18,1
org.apache.hadoop.security.authentication.client.KerberosAuthenticator_java,3,24,9,222,0.07630899999999999,7,6
org.apache.hadoop.mapred.FixedLengthInputFormat_java,3,602,0,48,0.051029000000000005,17,1
org.apache.hadoop.tools.rumen.LoggedTaskAttempt_java,4,210,1,574,0.078554,8,11
org.apache.hadoop.yarn.server.resourcemanager.NodeManager_java,4,602,0,254,0.133216,35,5
org.apache.hadoop.fs.swift.snative.SwiftNativeOutputStream_java,11,602,0,249,0.301249,7,1
org.apache.hadoop.yarn.server.resourcemanager.security.RMContainerTokenSecretManager_java,2,602,0,130,0.028351,14,31
org.apache.hadoop.yarn.api.records.impl.pb.ApplicationReportPBImpl_java,1,602,0,463,0.012245,13,4
org.apache.hadoop.mapred.gridmix.SerialJobFactory_java,2,602,0,114,0.030019000000000004,13,3
org.apache.hadoop.yarn.server.nodemanager.NodeStatusUpdaterImpl_java,11,602,0,481,0.25853000000000004,44,7
org.apache.hadoop.filecache.DistributedCache_java,1,602,0,85,0.012922,8,1
org.apache.hadoop.cli.util.CLICommand_java,2,602,0,8,0.030177,2,8
org.apache.hadoop.hdfs.DFSInputStream_java,541,602,0,1253,33.11526099999999,37,25
org.apache.hadoop.mapreduce.v2.app.rm.RMCommunicator_java,3,602,0,271,0.052458000000000005,33,9
org.apache.hadoop.hdfs.web.WebHdfsFileSystem_java,65,96,3,1096,1.6749360000000006,76,35
org.apache.hadoop.ipc.CallQueueManager_java,1,602,0,90,0.012375,1,2
org.apache.hadoop.yarn.sls.nodemanager.NodeInfo_java,1,602,0,141,0.02272,15,1
org.apache.hadoop.fs.slive.SliveMapper_java,2,602,0,117,0.026604,21,0
org.apache.hadoop.fs.shell.Command_java,2,44,6,212,0.06033,9,20
org.apache.hadoop.io.MapFile_java,5,53,5,554,0.11181500000000001,17,14
org.apache.hadoop.tools.rumen.HadoopLogsAnalyzer_java,20,602,0,1321,0.4437759999999999,30,0
org.apache.hadoop.mapred.ReduceTask_java,4,602,0,519,0.109676,50,6
org.apache.hadoop.hdfs.protocol.LocatedBlock_java,1,602,0,122,0.016879,8,93
org.apache.hadoop.tools.mapred.lib.DynamicInputChunk_java,1,602,0,134,0.01936,16,2
org.apache.hadoop.yarn.applications.unmanagedamlauncher.UnmanagedAMLauncher_java,3,602,0,365,0.044797000000000003,23,1
org.apache.hadoop.yarn.server.nodemanager.recovery.NMNullStateStoreService_java,4,602,0,57,0.133062,4,11
org.apache.hadoop.yarn.server.timeline.security.TimelineClientAuthenticationService_java,3,602,0,174,0.069263,14,0
org.apache.hadoop.mapreduce.v2.app.MockJobs_java,1,602,0,544,0.01296,41,5
org.apache.hadoop.yarn.server.resourcemanager.scheduler.SchedulerApplication_java,20,602,0,33,0.5121560000000001,6,8
org.apache.hadoop.fs.ftp.FTPFileSystem_java,4,96,3,459,0.071018,17,2
org.apache.hadoop.fs.contract.hdfs.HDFSContract_java,2,602,0,57,0.025674000000000002,9,9
org.apache.hadoop.hdfs.protocol.DatanodeID_java,2,602,0,134,0.04062,2,117
org.apache.hadoop.SleepJob_java,4,602,0,221,0.095554,21,4
org.apache.hadoop.fs.swift.util.SwiftUtils_java,5,602,0,98,0.117431,4,10
org.apache.hadoop.hdfs.server.namenode.ha.WrappedFailoverProxyProvider_java,1,602,0,38,0.016565,6,1
org.apache.hadoop.hdfs.shortcircuit.ShortCircuitCache_java,7,602,0,716,0.2775,22,8
org.apache.hadoop.ant.DfsTask_java,14,602,0,107,0.3676330000000001,5,1
org.apache.hadoop.fs.swift.auth.entities.AccessToken_java,3,602,0,34,0.041279,1,2
org.apache.hadoop.tools.DistCpOptions_java,1,135,2,274,0.04224,5,21
org.apache.hadoop.tools.mapred.lib.DynamicInputFormat_java,1,602,0,234,0.02328,20,2
org.apache.hadoop.cli.util.ComparatorData_java,2,602,0,40,0.029792,0,2
org.apache.hadoop.fs.swift.auth.entities.Catalog_java,3,602,0,34,0.041279,1,2
org.apache.hadoop.hdfs.server.namenode.DirectoryWithQuotaFeature_java,2,602,0,96,0.032383,11,9
org.apache.hadoop.yarn.server.applicationhistoryservice.FileSystemApplicationHistoryStore_java,3,602,0,693,0.05784500000000001,35,2
org.apache.hadoop.security.SaslRpcServer_java,10,96,3,335,0.33397,12,15
org.apache.hadoop.fs.s3.Jets3tFileSystemStore_java,3,135,2,362,0.056107,12,3
org.apache.hadoop.conf.ReconfigurableBase_java,8,602,0,43,0.210724,4,1
org.apache.hadoop.yarn.server.nodemanager.containermanager.launcher.ContainerLaunch_java,15,210,1,580,0.339396,37,6
org.apache.hadoop.mapreduce.Cluster_java,1,602,0,223,0.01384,24,28
org.apache.hadoop.examples.WordMean_java,18,210,1,112,0.4158710000000001,14,1
org.apache.hadoop.fs.permission.AclEntry_java,2,96,3,167,0.050134,7,56
org.apache.hadoop.mapred.gridmix.LoadJob_java,18,602,0,524,0.3921320000000001,42,3
org.apache.hadoop.yarn.server.resourcemanager.scheduler.fair.QueuePlacementPolicy_java,6,602,0,124,0.16499400000000003,9,7
org.apache.hadoop.yarn.util.resource.DefaultResourceCalculator_java,1,602,0,73,0.0128,5,11
org.apache.hadoop.yarn.util.ResourceCalculatorPlugin_java,1,602,0,40,0.03968,8,13
org.apache.hadoop.io.compress.CodecPool_java,2,210,1,143,0.060457,7,14
org.apache.hadoop.tools.mapred.lib.DynamicRecordReader_java,1,602,0,111,0.01568,12,1
org.apache.hadoop.yarn.server.nodemanager.recovery.NMMemoryStateStoreService_java,13,602,0,153,0.3850509999999999,4,2
org.apache.hadoop.hdfs.server.namenode.NamenodeFsck_java,3,602,0,693,0.10306,37,4
org.apache.hadoop.hdfs.protocol.datatransfer.PacketReceiver_java,3,602,0,176,0.056833,4,3
org.apache.hadoop.log.Log4Json_java,5,602,0,110,0.142153,0,1
org.apache.hadoop.mapreduce.v2.app.webapp.TaskPage_java,2,210,1,114,0.028389,17,1
org.apache.hadoop.fs.permission.FsPermission_java,3,29,8,208,0.067161,9,254
org.apache.hadoop.examples.pi.DistSum_java,4,602,0,424,0.077762,31,3
org.apache.hadoop.yarn.server.resourcemanager.security.AMRMTokenSecretManager_java,14,602,0,107,0.440499,8,11
org.apache.hadoop.fs.swift.snative.SwiftObjectFileStatus_java,3,602,0,65,0.044227,0,1
org.apache.hadoop.io.Text_java,2,53,5,422,0.031609,6,451
org.apache.hadoop.net.NetworkTopology_java,5,74,4,589,0.126939,7,36
org.apache.hadoop.yarn.webapp.hamlet.Hamlet_java,108,602,0,24985,3.123738000000001,4,76
org.apache.hadoop.yarn.server.resourcemanager.scheduler.capacity.CapacitySchedulerConfiguration_java,3,602,0,278,0.060049000000000005,12,19
org.apache.hadoop.hdfs.protocol.DatanodeLocalInfo_java,1,602,0,32,0.013751,2,5
org.apache.hadoop.mapreduce.v2.app.MRApp_java,3,602,0,668,0.05932900000000001,85,22
org.apache.hadoop.hdfs.server.common.JspHelper_java,4,210,1,596,0.102299,41,21
org.apache.hadoop.hdfs.server.datanode.StorageLocation_java,1,602,0,51,0.012478,3,6
org.apache.hadoop.mapred.ResourceMgrDelegate_java,2,602,0,330,0.040472,39,7
org.apache.hadoop.yarn.server.nodemanager.DirectoryCollection_java,4,602,0,154,0.083093,4,2
org.apache.hadoop.fs.FileUtil_java,62,7,23,839,1.8465579999999995,14,179
org.apache.hadoop.mapred.TaskAttemptListenerImpl_java,3,602,0,311,0.056956999999999994,44,3
org.apache.hadoop.conf.ReconfigurationServlet_java,23,135,2,169,0.659469,6,0
org.apache.hadoop.hdfs.server.namenode.BackupState_java,2,602,0,44,0.026803,7,1
org.apache.hadoop.hdfs.server.namenode.FSPermissionChecker_java,2,602,0,253,0.029306,16,6
org.apache.hadoop.util.MachineList_java,2,602,0,128,0.032566,1,2
org.apache.hadoop.fs.permission.AclStatus_java,2,602,0,92,0.045837,3,37
org.apache.hadoop.hdfs.qjournal.server.Journal_java,28,210,1,664,0.744784,29,9
org.apache.hadoop.util.RunJar_java,2,135,2,149,0.027315,6,4
org.apache.hadoop.hdfs.protocol.DatanodeInfo_java,2,210,1,316,0.029602999999999997,11,126
org.apache.hadoop.io.compress.bzip2.CBZip2InputStream_java,12,602,0,827,0.35929500000000003,3,1
org.apache.hadoop.yarn.server.timeline.EntityIdentifier_java,1,602,0,58,0.013328,2,4
org.apache.hadoop.io.nativeio.Errno_java,1,602,0,41,0.01568,0,4
org.apache.hadoop.ipc.RpcEngine_java,4,210,1,29,0.07740899999999999,10,6
org.apache.hadoop.net.NetUtils_java,4,16,13,487,0.118267,13,159
org.apache.hadoop.net.NetworkTopologyWithNodeGroup_java,2,135,2,239,0.033884,5,5
org.apache.hadoop.fs.HarFileSystem_java,27,9,22,813,0.7130749999999999,20,6
org.apache.hadoop.hdfs.server.namenode.JournalSet_java,8,210,1,510,0.234637,16,11
org.apache.hadoop.fs.swift.util.SwiftObjectPath_java,4,210,1,83,0.09181499999999998,4,6
org.apache.hadoop.util.NativeLibraryChecker_java,1,210,1,73,0.03808,9,1
org.apache.hadoop.hdfs.server.namenode.NameNode_java,39,602,0,1238,1.069101,62,204
org.apache.hadoop.io.compress.zlib.BuiltInGzipDecompressor_java,22,135,2,333,0.563342,3,4
org.apache.hadoop.hdfs.server.namenode.startupprogress.StartupProgress_java,1,602,0,103,0.02112,9,18
org.apache.hadoop.mapred.gridmix.GridmixKey_java,4,602,0,236,0.082106,6,10
org.apache.hadoop.yarn.api.records.impl.pb.ApplicationSubmissionContextPBImpl_java,5,602,0,335,0.13231,12,7
org.apache.hadoop.fs.slive.ConfigExtractor_java,4,602,0,404,0.07525399999999999,9,17
org.apache.hadoop.io.DataOutputByteBuffer_java,83,602,0,105,2.8641020000000004,0,1
org.apache.hadoop.yarn.server.resourcemanager.RMSecretManagerService_java,3,602,0,97,0.057201,12,3
org.apache.hadoop.net.StaticMapping_java,5,96,3,72,0.11494,3,4
org.apache.hadoop.fs.FilterFileSystem_java,6,15,14,375,0.13248100000000002,26,28
org.apache.hadoop.yarn.client.api.impl.YarnClientImpl_java,5,602,0,542,0.131376,71,6
org.apache.hadoop.hdfs.tools.offlineImageViewer.FileDistributionVisitor_java,4,602,0,126,0.099134,2,1
org.apache.hadoop.hdfs.server.namenode.FSDirectory_java,93,602,0,2086,2.6659849999999996,67,49
org.apache.hadoop.metrics.spi.AbstractMetricsContext_java,3,210,1,292,0.055768,10,11
org.apache.hadoop.yarn.server.resourcemanager.scheduler.capacity.ParentQueue_java,4,602,0,591,0.079952,34,7
org.apache.hadoop.hdfs.nfs.nfs3.RpcProgramNfs3_java,13,135,2,1791,0.382711,99,6
org.apache.hadoop.yarn.server.resourcemanager.ApplicationMasterService_java,17,602,0,541,0.42913199999999996,68,23
org.apache.hadoop.yarn.server.resourcemanager.RMServerUtils_java,1,602,0,170,0.01304,24,9
org.apache.hadoop.security.Credentials_java,8,29,8,179,0.23113899999999998,13,107
org.apache.hadoop.fs.loadGenerator.StructureGenerator_java,6,602,0,195,0.16024199999999997,1,3
org.apache.hadoop.mapreduce.util.ConfigUtil_java,4,135,2,501,0.075558,27,4
org.apache.hadoop.hdfs.server.blockmanagement.BlockInfoUnderConstruction_java,3,602,0,226,0.049792,7,22
org.apache.hadoop.hdfs.DFSClient_java,136,74,4,2056,4.032433000000001,105,110
org.apache.hadoop.streaming.io.KeyOnlyTextOutputReader_java,3,602,0,57,0.04649300000000001,6,1
org.apache.hadoop.mapreduce.task.reduce.ShuffleSchedulerImpl_java,3,602,0,401,0.047029,19,5
org.apache.hadoop.examples.RandomTextWriter_java,4,602,0,651,0.08876,19,0
org.apache.hadoop.metrics.ganglia.GangliaContext31_java,257,602,0,89,12.099498000000002,4,0
org.apache.hadoop.mapred.gridmix.FilePool_java,4,602,0,201,0.082106,6,8
org.apache.hadoop.hdfs.server.datanode.metrics.DataNodeMetrics_java,2,602,0,207,0.030004,15,12
org.apache.hadoop.metrics2.sink.ganglia.GangliaConf_java,5,210,1,39,0.159602,1,3
org.apache.hadoop.mapreduce.v2.hs.protocolPB.HSAdminRefreshProtocolClientSideTranslatorPB_java,1,602,0,83,0.013889,7,1
org.apache.hadoop.hdfs.server.blockmanagement.BlockPlacementPolicy_java,1,602,0,116,0.013914,16,14
org.apache.hadoop.hdfs.server.namenode.AclStorage_java,3,602,0,175,0.091822,14,3
org.apache.hadoop.http.HttpServer_java,120,5,28,698,3.838752000000001,19,0
org.apache.hadoop.hdfs.server.namenode.EditLogFileInputStream_java,1,602,0,380,0.01416,17,12
org.apache.hadoop.fs.FileContext_java,58,7,23,949,1.7090420000000004,40,115
org.apache.hadoop.fs.RawLocalFileSystem_java,7,10,19,597,0.174516,26,20
org.apache.hadoop.hdfs.server.namenode.FSEditLogLoader_java,21,602,0,1021,0.5168320000000001,43,12
org.apache.hadoop.io.compress.snappy.SnappyDecompressor_java,1,135,2,201,0.01592,3,3
org.apache.hadoop.mapreduce.jobhistory.JobQueueChangeEvent_java,1,602,0,33,0.012136,2,6
org.apache.hadoop.io.file.tfile.Compression_java,7,602,0,284,0.22096,10,15
org.apache.hadoop.fs.shell.Count_java,1,53,5,45,0.01338,11,0
org.apache.hadoop.http.HttpRequestLog_java,1,210,1,70,0.01408,1,2
org.apache.hadoop.mapreduce.counters.Limits_java,3,602,0,90,0.046877,5,7
org.apache.hadoop.mapreduce.v2.util.MRApps_java,9,602,0,463,0.239337,33,55
org.apache.hadoop.hdfs.server.namenode.NNStorage_java,4,602,0,634,0.153922,23,58
org.apache.hadoop.metrics2.util.MetricsCache_java,1,210,1,108,0.0332,5,2
org.apache.hadoop.mapred.JobClient_java,5,602,0,690,0.11676700000000001,43,85
org.apache.hadoop.mapreduce.task.reduce.Fetcher_java,12,602,0,413,0.313859,18,3
org.apache.hadoop.security.authentication.util.KerberosUtil_java,3,53,5,94,0.07115099999999999,1,9
org.apache.hadoop.contrib.bkjournal.BookKeeperEditLogInputStream_java,3,602,0,178,0.061988,4,2
org.apache.hadoop.security.SaslRpcClient_java,22,53,5,511,0.6690809999999999,21,5
org.apache.hadoop.fs.shell.Delete_java,24,53,5,146,0.901801,16,0
org.apache.hadoop.hdfs.security.token.block.BlockTokenSecretManager_java,1,602,0,286,0.01568,13,16
org.apache.hadoop.fs.contract.localfs.LocalFSContract_java,3,602,0,57,0.045702,8,9
org.apache.hadoop.mapred.gridmix.GridmixJob_java,20,210,1,390,0.4242910000000001,27,17
org.apache.hadoop.io.file.tfile.CompareUtils_java,3,602,0,58,0.040076,3,2
org.apache.hadoop.yarn.server.timeline.LeveldbTimelineStore_java,90,602,0,1126,2.605847,20,2
org.apache.hadoop.hdfs.server.datanode.fsdataset.FsDatasetSpi_java,5,602,0,116,0.160568,26,37
org.apache.hadoop.yarn.server.timeline.security.TimelineACLsManager_java,1,602,0,56,0.012834,8,5
org.apache.hadoop.contrib.bkjournal.BookKeeperEditLogOutputStream_java,1,602,0,129,0.02352,5,1
org.apache.hadoop.yarn.server.timeline.MemoryTimelineStore_java,8,602,0,327,0.177992,12,2
org.apache.hadoop.yarn.server.nodemanager.security.NMContainerTokenSecretManager_java,38,602,0,113,1.0532139999999999,9,11
org.apache.hadoop.fs.DelegationTokenRenewer_java,3,53,5,186,0.056396,6,7
org.apache.hadoop.mapred.gridmix.emulators.resourceusage.CumulativeCpuUsageEmulatorPlugin_java,4,602,0,138,0.087555,5,1
org.apache.hadoop.mapred.Merger_java,4,602,0,637,0.09043299999999999,22,4
org.apache.hadoop.examples.dancing.DistributedPentomino_java,1,602,0,146,0.01208,22,1
org.apache.hadoop.yarn.server.resourcemanager.scheduler.AppSchedulingInfo_java,17,602,0,304,0.444078,20,6
org.apache.hadoop.fs.viewfs.ViewFs_java,4,21,10,594,0.080432,31,1
org.apache.hadoop.security.token.Token_java,6,53,5,264,0.131431,13,226
org.apache.hadoop.io.serializer.avro.Record_java,1,602,0,21,0.023881,0,1
org.apache.hadoop.hdfs.server.namenode.Checkpointer_java,2,602,0,221,0.05175,25,3
org.apache.hadoop.yarn.server.nodemanager.recovery.NMStateStoreService_java,6,602,0,100,0.218574,6,14
org.apache.hadoop.hdfs.server.blockmanagement.DatanodeDescriptor_java,4,602,0,453,0.12917,15,60
org.apache.hadoop.yarn.logaggregation.AggregatedLogFormat_java,2,602,0,456,0.028734,22,7
org.apache.hadoop.record.compiler.JRecord_java,1,602,0,672,0.02185,8,6
org.apache.hadoop.hdfs.server.namenode.FSImageFormat_java,38,602,0,902,0.9284060000000002,61,10
org.apache.hadoop.hdfs.server.common.Storage_java,3,602,0,593,0.050721,8,79
org.apache.hadoop.mapred.MiniMRCluster_java,1,602,0,190,0.012576,13,26
org.apache.hadoop.hdfs.server.namenode.NNThroughputBenchmark_java,18,602,0,1099,0.43025499999999994,44,1
org.apache.hadoop.cli.util.CLICommandFS_java,1,602,0,3,0.012432,1,2
org.apache.hadoop.tools.CopyListingFileStatus_java,1,602,0,143,0.012,8,16
org.apache.hadoop.hdfs.server.namenode.ClusterJspHelper_java,1,135,2,619,0.013206,6,1
org.apache.hadoop.yarn.server.nodemanager.containermanager.localizer.LocalResourcesTrackerImpl_java,1,602,0,328,0.012224,20,3
org.apache.hadoop.security.authorize.DefaultImpersonationProvider_java,4,210,1,104,0.080904,6,10
org.apache.hadoop.hdfs.server.namenode.FSNamesystem_java,388,210,1,6257,15.568566000000004,165,215
org.apache.hadoop.util.AsyncDiskService_java,9,602,0,82,0.28480400000000006,3,2
org.apache.hadoop.mapreduce.v2.hs.protocolPB.HSAdminRefreshProtocolServerSideTranslatorPB_java,1,602,0,81,0.013524,3,1
org.apache.hadoop.yarn.client.api.async.impl.AMRMClientAsyncImpl_java,3,602,0,219,0.045425,19,1
org.apache.hadoop.yarn.client.api.impl.TimelineAuthenticator_java,1,602,0,186,0.029443,12,2
org.apache.hadoop.cli.util.FSCmdExecutor_java,3,602,0,16,0.052346000000000004,3,2
org.apache.hadoop.fs.FileContextURIBase_java,5,210,1,341,0.083598,8,2
org.apache.hadoop.fs.shell.Display_java,9,29,8,239,0.224234,25,1
org.apache.hadoop.examples.terasort.TeraGen_java,1,602,0,219,0.013734,29,2
org.apache.hadoop.fs.swift.auth.entities.Endpoint_java,4,602,0,76,0.09365000000000001,0,2
org.apache.hadoop.mapreduce.lib.input.FixedLengthInputFormat_java,3,602,0,44,0.04649300000000001,14,1
org.apache.hadoop.mapred.JobTracker_java,8,602,0,6,0.23318500000000003,0,2
org.apache.hadoop.yarn.api.protocolrecords.AllocateResponse_java,7,602,0,125,0.17318300000000003,13,41
org.apache.hadoop.hdfs.server.namenode.FSEditLog_java,34,602,0,1022,0.9376110000000001,48,34
org.apache.hadoop.fi.FiConfig_java,4,602,0,21,0.09151500000000001,3,1
org.apache.hadoop.hdfs.DFSClientFaultInjector_java,1,602,0,25,0.014127,1,5
org.apache.hadoop.yarn.api.protocolrecords.impl.pb.GetApplicationsResponsePBImpl_java,4,602,0,127,0.08921299999999999,5,4
org.apache.hadoop.fs.swift.util.DurationStats_java,4,602,0,75,0.075287,1,7
org.apache.hadoop.yarn.api.records.impl.pb.ResourceBlacklistRequestPBImpl_java,1,602,0,124,0.02032,3,1
org.apache.hadoop.fs.swift.http.ExceptionDiags_java,2,602,0,56,0.026701,0,1
org.apache.hadoop.yarn.server.timeline.security.TimelineDelegationTokenSecretManagerService_java,3,602,0,101,0.052389,13,3
org.apache.hadoop.security.authorize.ProxyUsers_java,7,210,1,41,0.16939800000000002,9,21
org.apache.hadoop.hdfs.protocol.CacheDirectiveInfo_java,2,602,0,180,0.02991,4,24
org.apache.hadoop.yarn.server.nodemanager.NodeHealthScriptRunner_java,1,602,0,192,0.02736,6,2
org.apache.hadoop.hdfs.server.namenode.CacheManager_java,44,602,0,909,1.224714,47,10
org.apache.hadoop.mapreduce.Job_java,5,210,1,821,0.110565,34,168
org.apache.hadoop.util.ShutdownThreadsHelper_java,3,602,0,46,0.055564999999999996,0,2
org.apache.hadoop.fs.AbstractFileSystem_java,14,44,6,604,0.346378,30,30
org.apache.hadoop.hdfs.server.namenode.FSImageFormatPBINode_java,2,602,0,486,0.037851,38,4
org.apache.hadoop.tools.util.DistCpUtils_java,2,602,0,260,0.049803,16,14
org.apache.hadoop.yarn.api.protocolrecords.impl.pb.AllocateResponsePBImpl_java,47,602,0,571,1.146115,21,4
org.apache.hadoop.io.BoundedByteArrayOutputStream_java,3,602,0,77,0.072685,2,5
org.apache.hadoop.yarn.client.api.TimelineClient_java,1,602,0,31,0.019298,9,5
org.apache.hadoop.fs.viewfs.ViewFileSystem_java,4,11,17,668,0.10026399999999999,30,2
org.apache.hadoop.security.token.delegation.AbstractDelegationTokenIdentifier_java,5,53,5,178,0.11222499999999999,8,35
org.apache.hadoop.util.PlatformName_java,6,210,1,17,0.199186,2,7
org.apache.hadoop.hdfs.server.datanode.DataXceiverServer_java,3,602,0,155,0.057973,10,3
org.apache.hadoop.fs.http.server.FSOperations_java,3,210,1,581,0.040969,22,1
org.apache.hadoop.ipc.RpcClientUtil_java,1,602,0,138,0.02584,9,14
org.apache.hadoop.hdfs.server.blockmanagement.CorruptReplicasMap_java,1,602,0,125,0.0223,6,3
org.apache.hadoop.hdfs.server.datanode.fsdataset.impl.FsVolumeImpl_java,4,602,0,248,0.071793,16,7
org.apache.hadoop.examples.dancing.DancingLinks_java,1,602,0,270,0.012887,0,3
org.apache.hadoop.util.IdentityHashStore_java,1,210,1,114,0.01712,2,3
org.apache.hadoop.yarn.server.resourcemanager.recovery.ZKRMStateStore_java,92,602,0,886,2.384962000000001,29,3
org.apache.hadoop.mapreduce.task.reduce.OnDiskMapOutput_java,2,602,0,111,0.029695,14,2
org.apache.hadoop.io.file.tfile.TFileDumper_java,5,135,2,250,0.15935,10,1
org.apache.hadoop.mapred.gridmix.ExecutionSummarizer_java,4,602,0,230,0.086435,14,2
org.apache.hadoop.security.SecurityUtil_java,25,12,16,346,0.790837,14,90
org.apache.hadoop.hdfs.BlockReaderFactory_java,3,602,0,540,0.053833,37,7
org.apache.hadoop.mapreduce.lib.input.CompressedSplitLineReader_java,2,602,0,53,0.032437,8,2
org.apache.hadoop.io.serializer.avro.AvroReflectSerialization_java,8,135,2,56,0.204888,5,3
org.apache.hadoop.yarn.util.resource.ResourceCalculator_java,1,602,0,45,0.02096,3,21
org.apache.hadoop.hdfs.nfs.nfs3.OpenFileCtx_java,3,602,0,941,0.10982399999999999,26,6
org.apache.hadoop.hdfs.server.namenode.INodeFile_java,12,602,0,483,0.29173000000000004,24,42
org.apache.hadoop.mapreduce.task.reduce.LocalFetcher_java,4,602,0,101,0.10472,17,1
org.apache.hadoop.io.compress.bzip2.Bzip2Decompressor_java,4,602,0,153,0.079306,1,1
org.apache.hadoop.mapreduce.tools.CLI_java,3,602,0,548,0.039776000000000006,28,6
org.apache.hadoop.io.retry.RetryInvocationHandler_java,177,53,5,162,5.3223670000000025,8,4
org.apache.hadoop.yarn.server.utils.LeveldbIterator_java,4,602,0,126,0.099687,2,3
org.apache.hadoop.yarn.conf.HAUtil_java,5,602,0,228,0.097934,6,23
org.apache.hadoop.hdfs.tools.DFSck_java,1,210,1,264,0.01296,15,4
org.apache.hadoop.mapreduce.jobhistory.JobHistoryParser_java,3,602,0,583,0.048346,39,15
org.apache.hadoop.io.BloomMapFile_java,1,96,3,212,0.013167,18,1
org.apache.hadoop.yarn.server.resourcemanager.scheduler.AbstractYarnScheduler_java,11,602,0,221,0.308369,32,19
org.apache.hadoop.fs.swift.snative.SwiftNativeFileSystem_java,37,602,0,372,0.9835929999999999,24,14
org.apache.hadoop.yarn.server.resourcemanager.scheduler.common.fica.FiCaSchedulerUtils_java,1,602,0,24,0.04384,5,0
org.apache.hadoop.mapreduce.v2.app.rm.RMContainerRequestor_java,3,602,0,362,0.041099000000000004,22,3
org.apache.hadoop.fs.http.server.HttpFSAuthenticationFilter_java,2,602,0,51,0.04138,5,0
org.apache.hadoop.io.retry.UnreliableImplementation_java,3,602,0,136,0.045317,3,2
org.apache.hadoop.mapred.JobInProgress_java,5,602,0,22,0.150122,3,1
org.apache.hadoop.yarn.server.timeline.TimelineReader_java,2,602,0,32,0.032825,6,6
org.apache.hadoop.cli.util.CLICommandTypes_java,1,602,0,3,0.014551,0,10
org.apache.hadoop.mapred.gridmix.GenerateData_java,7,602,0,326,0.148454,33,8
org.apache.hadoop.yarn.server.resourcemanager.scheduler.fair.AllocationConfiguration_java,17,602,0,160,0.46561300000000005,10,13
org.apache.hadoop.hdfs.server.datanode.fsdataset.impl.BlockPoolSlice_java,8,602,0,301,0.219608,24,2
org.apache.hadoop.fs.LocatedFileStatus_java,1,602,0,46,0.014106,6,27
org.apache.hadoop.yarn.server.resourcemanager.rmcontainer.RMContainerImpl_java,6,602,0,424,0.16503800000000002,36,9
org.apache.hadoop.io.nativeio.NativeIO_java,9,44,6,538,0.24936399999999997,9,30
org.apache.hadoop.fs.http.server.HttpFSServer_java,4,602,0,464,0.065709,21,0
org.apache.hadoop.fs.shell.Ls_java,6,29,8,117,0.134956,11,0
org.apache.hadoop.fs.FsShell_java,7,13,15,248,0.197646,12,26
org.apache.hadoop.yarn.server.nodemanager.containermanager.container.ContainerImpl_java,9,602,0,722,0.255126,49,8
org.apache.hadoop.fs.AccumulatingReducer_java,1,602,0,56,0.015032,5,4
org.apache.hadoop.hdfs.protocol.CachePoolInfo_java,2,602,0,137,0.032632999999999995,5,21
org.apache.hadoop.tools.DistCp_java,17,44,6,276,0.42816,24,6
org.apache.hadoop.io.file.tfile.TFile_java,171,135,2,1153,5.608381,23,14
org.apache.hadoop.hdfs.tools.offlineImageViewer.ImageLoaderCurrent_java,61,602,0,532,1.5487170000000006,17,1
org.apache.hadoop.util.ExitUtil_java,2,210,1,90,0.033433,3,44
org.apache.hadoop.io.SecureIOUtils_java,6,135,2,171,0.153279,10,7
org.apache.hadoop.mapred.gridmix.Statistics_java,4,602,0,248,0.108873,12,12
org.apache.hadoop.io.DataInputByteBuffer_java,49,602,0,70,1.7440979999999997,0,12
org.apache.hadoop.conf.ReconfigurationException_java,8,602,0,48,0.181418,0,4
org.apache.hadoop.mapred.ShuffleHandler_java,8,602,0,833,0.21976800000000002,40,6
org.apache.hadoop.hdfs.server.namenode.snapshot.SnapshotManager_java,2,602,0,268,0.026430000000000002,17,15
org.apache.hadoop.ha.protocolPB.HAServiceProtocolServerSideTranslatorPB_java,1,602,0,139,0.0144,7,2
org.apache.hadoop.io.file.tfile.Chunk_java,9,602,0,238,0.28796399999999994,1,1
org.apache.hadoop.io.compress.SnappyCodec_java,1,96,3,109,0.01784,15,4
org.apache.hadoop.tools.rumen.JobBuilder_java,4,602,0,583,0.09099199999999999,39,1
org.apache.hadoop.hdfs.server.namenode.ha.StandbyCheckpointer_java,1,602,0,267,0.012102,17,3
org.apache.hadoop.hdfs.server.namenode.NamenodeJspHelper_java,4,135,2,935,0.113777,47,3
org.apache.hadoop.mapred.gridmix.PseudoLocalFs_java,4,602,0,222,0.090876,10,2
org.apache.hadoop.metrics2.sink.ganglia.GangliaSink31_java,6,210,1,46,0.18597999999999998,3,1
org.apache.hadoop.yarn.server.resourcemanager.MockRM_java,4,602,0,508,0.08441299999999999,70,47
org.apache.hadoop.yarn.server.api.protocolrecords.impl.pb.NodeHeartbeatResponsePBImpl_java,3,602,0,290,0.045807,9,3
org.apache.hadoop.yarn.api.records.impl.pb.ContainerResourceIncreasePBImpl_java,4,602,0,132,0.107709,7,2
org.apache.hadoop.hdfs.protocolPB.PBHelper_java,61,210,1,1970,1.7268179999999997,79,36
org.apache.hadoop.mapred.gridmix.JobFactory_java,4,602,0,181,0.074682,17,10
org.apache.hadoop.conf.Reconfigurable_java,1,602,0,8,0.0134,2,2
org.apache.hadoop.security.Groups_java,2,39,7,157,0.029211,11,21
org.apache.hadoop.fs.slive.ConfigMerger_java,4,602,0,459,0.05797700000000001,9,2
org.apache.hadoop.security.LdapGroupsMapping_java,4,74,4,206,0.098989,6,1
org.apache.hadoop.fs.ContentSummary_java,1,602,0,94,0.020725,3,47
org.apache.hadoop.metrics2.sink.ganglia.AbstractGangliaSink_java,24,135,2,160,0.8635020000000002,5,6
org.apache.hadoop.mapreduce.v2.app.speculate.DefaultSpeculator_java,3,602,0,397,0.083345,22,2
org.apache.hadoop.mapred.gridmix.JobCreator_java,1,602,0,80,0.013331,13,8
org.apache.hadoop.util.ComparableVersion_java,4,135,2,317,0.120151,0,1
org.apache.hadoop.fs.Trash_java,5,39,7,64,0.090262,9,5
org.apache.hadoop.metrics2.lib.DefaultMetricsSystem_java,1,135,2,88,0.02384,6,48
org.apache.hadoop.hdfs.protocolPB.DatanodeProtocolServerSideTranslatorPB_java,4,602,0,243,0.107791,14,1
org.apache.hadoop.yarn.server.nodemanager.util.CgroupsLCEResourcesHandler_java,4,602,0,237,0.090701,9,1
org.apache.hadoop.hdfs.protocol.datatransfer.PipelineAck_java,1,602,0,100,0.015083,6,3
org.apache.hadoop.conf.ReconfigurationUtil_java,4,602,0,36,0.074504,1,2
org.apache.hadoop.fs.contract.AbstractFSContract_java,4,602,0,74,0.097323,5,51
org.apache.hadoop.fs.shell.CommandWithDestination_java,3,24,9,301,0.05475000000000001,20,5
org.apache.hadoop.yarn.server.nodemanager.NodeManager_java,4,210,1,371,0.100661,48,18
org.apache.hadoop.oncrpc.RpcProgram_java,2,210,1,160,0.039408,14,8
org.apache.hadoop.hdfs.protocol.LocatedBlocks_java,2,602,0,114,0.041605,5,70
org.apache.hadoop.yarn.api.records.ContainerResourceDecrease_java,2,602,0,45,0.029464999999999998,4,5
org.apache.hadoop.hdfs.server.datanode.DataStorage_java,16,602,0,519,0.36718,25,17
org.apache.hadoop.mapred.gridmix.InputStriper_java,1,602,0,95,0.013383,8,2
org.apache.hadoop.hdfs.server.namenode.CachePool_java,3,602,0,204,0.055358,12,4
org.apache.hadoop.fi.ProbabilityModel_java,20,602,0,39,0.44397300000000006,2,1
org.apache.hadoop.util.ZKUtil_java,6,210,1,132,0.159804,2,9
org.apache.hadoop.io.retry.RetryPolicies_java,1,602,0,419,0.0144,5,17
org.apache.hadoop.yarn.server.nodemanager.ContainerExecutor_java,2,210,1,197,0.0489,12,24
org.apache.hadoop.yarn.server.resourcemanager.rmapp.attempt.RMAppAttemptImpl_java,17,210,1,1309,0.455908,71,7
org.apache.hadoop.mapred.SortedRanges_java,1,602,0,230,0.01216,1,10
org.apache.hadoop.hdfs.protocolPB.NamenodeProtocolTranslatorPB_java,1,602,0,183,0.02096,18,3
org.apache.hadoop.util.Progress_java,1,210,1,165,0.015817,2,20
org.apache.hadoop.fs.s3native.NativeS3FileSystem_java,21,53,5,600,0.530245,23,5
org.apache.hadoop.security.UserGroupInformation_java,53,1,41,1158,1.8256219999999999,26,429
org.apache.hadoop.hdfs.server.namenode.TransferFsImage_java,9,210,1,449,0.26812699999999995,21,11
org.apache.hadoop.hdfs.HAUtil_java,4,210,1,227,0.11244699999999999,23,36
org.apache.hadoop.mapreduce.RandomWriter_java,1,602,0,185,0.02536,25,1
org.apache.hadoop.hdfs.server.namenode.FSImageSerialization_java,8,602,0,539,0.20689,38,9
org.apache.hadoop.fs.DistributedFSCheck_java,7,602,0,273,0.19263900000000003,17,1
org.apache.hadoop.hdfs.server.namenode.FSImage_java,8,602,0,961,0.261579,51,59
org.apache.hadoop.tools.mapred.UniformSizeInputFormat_java,1,602,0,107,0.01376,18,2
org.apache.hadoop.examples.dancing.Pentomino_java,2,602,0,291,0.02537,1,2
org.apache.hadoop.mapreduce.lib.input.FixedLengthRecordReader_java,6,602,0,177,0.164661,19,2
org.apache.hadoop.cli.util.CommandExecutor_java,3,602,0,80,0.057859,1,13
org.apache.hadoop.hdfs.shortcircuit.ShortCircuitReplica_java,5,602,0,177,0.15373,9,9
org.apache.hadoop.hdfs.security.token.delegation.DelegationTokenSecretManager_java,3,210,1,348,0.071531,21,14
org.apache.hadoop.hdfs.server.namenode.FileJournalManager_java,5,602,0,441,0.137927,20,18
org.apache.hadoop.hdfs.server.namenode.AclTransformation_java,3,602,0,289,0.079701,8,3
org.apache.hadoop.yarn.server.security.http.RMAuthenticationFilterInitializer_java,1,602,0,85,0.019159,9,1
org.apache.hadoop.mapreduce.v2.app.job.impl.TaskImpl_java,4,602,0,980,0.06947,61,7
org.apache.hadoop.fs.swift.auth.PasswordCredentials_java,1,602,0,28,0.01258,0,2
org.apache.hadoop.mapreduce.v2.app.local.LocalContainerAllocator_java,1,602,0,123,0.01392,30,2
org.apache.hadoop.yarn.server.resourcemanager.scheduler.fair.MaxRunningAppsEnforcer_java,24,602,0,216,0.645464,9,3
org.apache.hadoop.hdfs.nfs.nfs3.WriteManager_java,2,602,0,264,0.03773,26,2
org.apache.hadoop.mapred.gridmix.GridmixSplit_java,1,602,0,124,0.014426,2,1
org.apache.hadoop.hdfs.server.namenode.snapshot.DirectoryWithSnapshotFeature_java,2,602,0,563,0.039908,20,14
org.apache.hadoop.fs.CommonConfigurationKeys_java,15,18,12,157,0.37053900000000006,4,161
org.apache.hadoop.hdfs.protocol.CacheDirective_java,1,602,0,187,0.013071,8,3
org.apache.hadoop.tools.rumen.ZombieJob_java,4,602,0,683,0.09626900000000001,35,1
org.apache.hadoop.mapreduce.v2.app.MockAppContext_java,2,602,0,102,0.027041,12,8
org.apache.hadoop.yarn.applications.distributedshell.ApplicationMaster_java,154,210,1,748,4.401908999999998,55,3
org.apache.hadoop.mapred.SortValidator_java,3,602,0,425,0.057405,29,5
org.apache.hadoop.io.nativeio.NativeIOException_java,1,602,0,31,0.01272,2,5
org.apache.hadoop.mapred.gridmix.DistributedCacheEmulator_java,11,210,1,268,0.252816,22,6
org.apache.hadoop.io.WritableComparator_java,2,74,4,155,0.039611,10,67
org.apache.hadoop.mapreduce.v2.app.client.MRClientService_java,5,602,0,353,0.121313,66,5
org.apache.hadoop.io.RandomDatum_java,2,210,1,76,0.030138,2,5
org.apache.hadoop.io.file.tfile.KVGenerator_java,3,602,0,76,0.04247,3,1
org.apache.hadoop.yarn.server.resourcemanager.AdminService_java,6,602,0,484,0.137257,58,14
org.apache.hadoop.yarn.conf.YarnConfiguration_java,46,210,1,749,1.293057,9,305
org.apache.hadoop.yarn.api.impl.pb.service.ApplicationClientProtocolPBServiceImpl_java,3,602,0,345,0.045462,55,0
org.apache.hadoop.tools.mapred.CopyCommitter_java,1,210,1,205,0.02608,20,3
org.apache.hadoop.mapreduce.v2.app.MRAppMaster_java,26,96,3,1121,0.6819500000000001,109,22
org.apache.hadoop.io.serializer.JavaSerialization_java,4,210,1,72,0.089164,5,2
org.apache.hadoop.tools.rumen.LoggedJob_java,4,602,0,494,0.06915,12,12
org.apache.hadoop.hdfs.server.namenode.snapshot.FileDiffList_java,4,602,0,14,0.071778,4,5
org.apache.hadoop.streaming.PipeMapRed_java,4,602,0,482,0.065701,16,14
org.apache.hadoop.hdfs.DFSConfigKeys_java,21,602,0,563,0.6529989999999999,5,419
org.apache.hadoop.yarn.api.protocolrecords.AllocateRequest_java,1,602,0,78,0.01456,9,30
org.apache.hadoop.examples.WordMedian_java,19,210,1,120,0.452852,16,1
org.apache.hadoop.yarn.api.protocolrecords.GetApplicationsRequest_java,7,602,0,155,0.188281,6,22
org.apache.hadoop.fs.s3.InMemoryFileSystemStore_java,6,210,1,153,0.126416,5,2
org.apache.hadoop.security.SaslInputStream_java,9,602,0,193,0.293433,2,5
org.apache.hadoop.yarn.api.protocolrecords.impl.pb.AllocateRequestPBImpl_java,4,602,0,317,0.09006700000000001,11,5
org.apache.hadoop.hdfs.server.namenode.FSImageFormatProtobuf_java,1,210,1,466,0.01616,26,10
org.apache.hadoop.yarn.server.resourcemanager.scheduler.common.fica.FiCaSchedulerNode_java,1,602,0,76,0.01264,11,14
org.apache.hadoop.hdfs.server.datanode.fsdataset.AvailableSpaceVolumeChoosingPolicy_java,3,602,0,185,0.060035000000000005,7,1
org.apache.hadoop.yarn.util.resource.Resources_java,2,602,0,193,0.040854,5,61
org.apache.hadoop.hdfs.server.namenode.BackupImage_java,4,602,0,254,0.074673,16,3
org.apache.hadoop.yarn.server.resourcemanager.security.RMAuthenticationHandler_java,4,602,0,82,0.10343100000000001,9,1
org.apache.hadoop.hdfs.server.namenode.FSImageTransactionalStorageInspector_java,5,602,0,131,0.132903,5,7
org.apache.hadoop.ipc.ProtocolSignature_java,2,135,2,144,0.041692,5,17
org.apache.hadoop.yarn.server.MiniYARNCluster_java,27,602,0,575,0.7081360000000001,53,19
org.apache.hadoop.hdfs.server.namenode.ha.IPFailoverProxyProvider_java,3,602,0,79,0.05532,10,1
org.apache.hadoop.hdfs.server.blockmanagement.BlockInfo_java,3,602,0,243,0.044088,9,33
org.apache.hadoop.yarn.api.records.ResourceOption_java,3,602,0,33,0.089292,4,13
org.apache.hadoop.fs.swift.exceptions.SwiftInvalidResponseException_java,3,602,0,72,0.045702,1,5
org.apache.hadoop.mapreduce.GenericMRLoadGenerator_java,8,602,0,629,0.252435,35,1
org.apache.hadoop.yarn.server.nodemanager.LocalDirsHandlerService_java,4,602,0,223,0.09413099999999999,10,31
org.apache.hadoop.yarn.api.records.impl.pb.ContainerResourceDecreasePBImpl_java,4,602,0,101,0.085894,5,2
org.apache.hadoop.hdfs.server.datanode.BPServiceActor_java,24,602,0,638,0.54292,39,8
org.apache.hadoop.mapreduce.RandomTextWriter_java,3,602,0,651,0.092967,19,2
org.apache.hadoop.io.compress.bzip2.CBZip2OutputStream_java,1,210,1,1365,0.018796,3,1
org.apache.hadoop.hdfs.protocolPB.ClientDatanodeProtocolTranslatorPB_java,2,210,1,218,0.035560999999999995,24,2
org.apache.hadoop.yarn.server.resourcemanager.scheduler.SchedulerApplicationAttempt_java,4,602,0,393,0.087091,33,39
org.apache.hadoop.mapreduce.v2.hs.CachedHistoryStorage_java,1,602,0,189,0.012687,13,3
org.apache.hadoop.yarn.server.nodemanager.containermanager.ContainerManagerImpl_java,14,602,0,745,0.35658399999999996,91,17
org.apache.hadoop.hdfs.server.blockmanagement.CacheReplicationMonitor_java,16,602,0,571,0.43669600000000003,25,3
org.apache.hadoop.mapred.ThreadedMapBenchmark_java,2,602,0,202,0.060546,24,1
org.apache.hadoop.io.compress.bzip2.Bzip2Factory_java,3,602,0,82,0.047793,10,4
org.apache.hadoop.yarn.logaggregation.AggregatedLogDeletionService_java,4,602,0,160,0.071451,9,4
org.apache.hadoop.mapreduce.jobhistory.JobHistoryEventHandler_java,8,602,0,822,0.21394899999999997,44,8
org.apache.hadoop.ipc.RPC_java,101,29,8,541,2.7902470000000013,20,101
org.apache.hadoop.hdfs.server.datanode.DatanodeJspHelper_java,4,210,1,610,0.10096899999999999,26,3
org.apache.hadoop.examples.terasort.TeraOutputFormat_java,5,602,0,69,0.09817200000000001,13,1
org.apache.hadoop.contrib.bkjournal.BookKeeperJournalManager_java,15,602,0,634,0.34343599999999996,15,4
org.apache.hadoop.tools.OptionsParser_java,1,210,1,184,0.01936,3,2
org.apache.hadoop.yarn.server.timeline.GenericObjectMapper_java,1,602,0,54,0.018326,2,4
org.apache.hadoop.mapreduce.MRJobConfig_java,5,602,0,371,0.13500700000000002,4,211
org.apache.hadoop.fs.s3.S3FileSystem_java,5,96,3,304,0.14278600000000002,22,2
org.apache.hadoop.yarn.server.resourcemanager.webapp.SchedulerPageUtil_java,4,602,0,153,0.11043599999999999,2,2
org.apache.hadoop.yarn.server.nodemanager.DeletionService_java,1,602,0,375,0.015748,10,22
org.apache.hadoop.yarn.api.records.impl.pb.ResourceOptionPBImpl_java,5,602,0,56,0.15016700000000002,3,1
org.apache.hadoop.hdfs.server.namenode.NameNodeStatusMXBean_java,4,602,0,11,0.09715199999999999,2,1
org.apache.hadoop.hdfs.NNBenchWithoutMR_java,7,602,0,244,0.189052,7,0
org.apache.hadoop.yarn.server.resourcemanager.webapp.dao.FairSchedulerQueueInfo_java,4,602,0,102,0.074692,11,3
org.apache.hadoop.fs.swift.auth.Roles_java,2,602,0,38,0.026701,0,1
org.apache.hadoop.io.file.tfile.ByteArray_java,3,602,0,37,0.036838,4,1
org.apache.hadoop.hdfs.tools.offlineImageViewer.IndentedImageVisitor_java,3,602,0,69,0.049021999999999996,3,1
org.apache.hadoop.examples.QuasiMonteCarlo_java,2,602,0,211,0.026126,21,1
org.apache.hadoop.net.unix.DomainSocket_java,4,602,0,393,0.081425,3,30
org.apache.hadoop.yarn.server.resourcemanager.webapp.RMWebServices_java,13,602,0,1073,0.380068,92,2
org.apache.hadoop.hdfs.server.datanode.BlockSender_java,15,602,0,484,0.442287,22,4
org.apache.hadoop.util.JvmPauseMonitor_java,4,602,0,155,0.124449,3,4
org.apache.hadoop.mapred.MapReduceChildJVM_java,7,602,0,157,0.214955,12,1
org.apache.hadoop.ha.protocolPB.HAServiceProtocolClientSideTranslatorPB_java,1,602,0,138,0.01344,11,1
org.apache.hadoop.fs.CommonConfigurationKeysPublic_java,11,24,9,147,0.28926,1,245
org.apache.hadoop.yarn.server.resourcemanager.scheduler.fifo.FifoScheduler_java,7,602,0,765,0.206897,69,19
org.apache.hadoop.mapreduce.v2.hs.webapp.HsTasksBlock_java,1,602,0,162,0.02056,17,1
org.apache.hadoop.fs.Globber_java,2,29,8,181,0.055425999999999996,10,2
org.apache.hadoop.hdfs.server.datanode.fsdataset.impl.FsVolumeList_java,4,602,0,189,0.08666199999999999,8,2
org.apache.hadoop.hdfs.protocol.ClientProtocol_java,6,602,0,299,0.17285599999999998,51,103
org.apache.hadoop.mapred.gridmix.JobSubmitter_java,3,602,0,136,0.050845,9,9
org.apache.hadoop.io.compress.lz4.Lz4Compressor_java,1,602,0,163,0.0192,3,4
org.apache.hadoop.yarn.server.resourcemanager.scheduler.capacity.LeafQueue_java,36,602,0,1204,0.9119239999999998,44,11
org.apache.hadoop.mapreduce.v2.hs.client.HSAdmin_java,6,602,0,258,0.14766100000000001,11,1
org.apache.hadoop.examples.terasort.TeraSort_java,1,602,0,235,0.012,18,2
org.apache.hadoop.hdfs.tools.offlineImageViewer.ImageLoader_java,1,602,0,20,0.018052,3,2
org.apache.hadoop.hdfs.server.protocol.ReceivedDeletedBlockInfo_java,3,602,0,77,0.0615,1,13
org.apache.hadoop.tools.HadoopArchives_java,4,39,7,666,0.098443,33,1
org.apache.hadoop.yarn.client.api.AMRMClient_java,3,602,0,113,0.058727,12,8
org.apache.hadoop.yarn.server.resourcemanager.monitor.capacity.ProportionalCapacityPreemptionPolicy_java,81,602,0,510,2.2331840000000005,24,2
org.apache.hadoop.fs.swift.util.JSONUtil_java,4,210,1,72,0.06610600000000001,1,2
org.apache.hadoop.yarn.server.resourcemanager.webapp.JAXBContextResolver_java,1,602,0,55,0.012029,21,0
org.apache.hadoop.io.serializer.avro.AvroReflectSerializable_java,1,602,0,7,0.016852,2,1
org.apache.hadoop.hdfs.protocolPB.ClientDatanodeProtocolServerSideTranslatorPB_java,2,210,1,146,0.036598,10,1
