"Developer","Date","Subject"
"gonzalad <git@git.apache.org>","Fri,  2 Dec 2016 16:07:14 +0000 (UTC)","[GitHub] cxf pull request #209: CXF-7161: OIDC dynreg : NPE for implicit grant"
"asfgit <git@git.apache.org>","Fri,  2 Dec 2016 16:42:49 +0000 (UTC)","[GitHub] cxf pull request #209: CXF-7161: OIDC dynreg : NPE for implicit grant"
"asfgit <git@git.apache.org>","Fri,  2 Dec 2016 16:43:24 +0000 (UTC)","[GitHub] cxf pull request #208: java2ws-plugin - added portName as configuration opti..."
"elrodro83 <git@git.apache.org>","Sat,  3 Dec 2016 02:04:45 +0000 (UTC)","[GitHub] cxf pull request #210: [CXF-7162] Inconsistent reading of formatted xml when..."
"elrodro83 <git@git.apache.org>","Mon,  5 Dec 2016 02:59:12 +0000 (UTC)","[GitHub] cxf issue #210: [CXF-7162] Inconsistent reading of formatted xml when valida..."
"adel <Adel.Hegazy@esrinea.com>","Mon, 5 Dec 2016 08:10:20 -0700 (MST)","org.apache.cxf.transport.http.HTTPException: HTTP response '403: Forbidden' when communicating with  http://localhost:8081/itest/test"
"Sergey Beryozkin <sberyozkin@gmail.com>","Tue, 6 Dec 2016 13:41:15 +0000","Re: cxf git commit: [CXF-7164] Support tracing using Zipkin Brave"
"Christian Schneider <chris@die-schneider.net>","Tue, 6 Dec 2016 19:09:33 +0100","Re: cxf git commit: [CXF-7164] Support tracing using Zipkin Brave"
"Andrey Redko <drreta@gmail.com>","Tue, 6 Dec 2016 13:49:06 -0600","Re: cxf git commit: [CXF-7164] Support tracing using Zipkin Brave"
"Christian Schneider <chris@die-schneider.net>","Wed, 7 Dec 2016 07:34:31 +0100","Re: cxf git commit: [CXF-7164] Support tracing using Zipkin Brave"
"Sergey Beryozkin <sberyozkin@gmail.com>","Wed, 7 Dec 2016 10:46:48 +0000","Re: cxf git commit: [CXF-7164] Support tracing using Zipkin Brave"
"Christian Schneider <chris@die-schneider.net>","Wed, 7 Dec 2016 12:00:36 +0100","Re: cxf git commit: [CXF-7164] Support tracing using Zipkin Brave"
"Andrey Redko <drreta@gmail.com>","Wed, 7 Dec 2016 08:50:32 -0600","Re: cxf git commit: [CXF-7164] Support tracing using Zipkin Brave"
"Christian Schneider <chris@die-schneider.net>","Wed, 7 Dec 2016 19:29:51 +0100","Re: cxf git commit: [CXF-7164] Support tracing using Zipkin Brave"
"Andrey Redko <drreta@gmail.com>","Wed, 7 Dec 2016 20:13:32 -0600","Re: cxf git commit: [CXF-7164] Support tracing using Zipkin Brave"
"Romain Manni-Bucau <rmannibucau@gmail.com>","Thu, 8 Dec 2016 08:58:51 +0100","Re: cxf git commit: [CXF-7164] Support tracing using Zipkin Brave"
"Christian Schneider <chris@die-schneider.net>","Thu, 8 Dec 2016 09:10:12 +0100","Re: cxf git commit: [CXF-7164] Support tracing using Zipkin Brave"
"Romain Manni-Bucau <rmannibucau@gmail.com>","Thu, 8 Dec 2016 09:13:25 +0100","Re: cxf git commit: [CXF-7164] Support tracing using Zipkin Brave"
"michail-nikolaev <git@git.apache.org>","Thu,  8 Dec 2016 13:19:10 +0000 (UTC)","[GitHub] cxf pull request #211: Streaming fix"
"Andrey Redko <drreta@gmail.com>","Thu, 8 Dec 2016 07:24:08 -0600","Re: cxf git commit: [CXF-7164] Support tracing using Zipkin Brave"
"Romain Manni-Bucau <rmannibucau@gmail.com>","Thu, 8 Dec 2016 14:29:10 +0100","Re: cxf git commit: [CXF-7164] Support tracing using Zipkin Brave"
"Sergey Beryozkin <sberyozkin@gmail.com>","Thu, 8 Dec 2016 14:14:56 +0000","Re: cxf git commit: [CXF-7164] Support tracing using Zipkin Brave"
"Romain Manni-Bucau <rmannibucau@gmail.com>","Thu, 8 Dec 2016 15:34:18 +0100","Re: cxf git commit: [CXF-7164] Support tracing using Zipkin Brave"
"Sergey Beryozkin <sberyozkin@gmail.com>","Thu, 8 Dec 2016 16:32:02 +0000","Re: cxf git commit: [CXF-7164] Support tracing using Zipkin Brave"
"sberyozkin <git@git.apache.org>","Thu,  8 Dec 2016 16:50:13 +0000 (UTC)","[GitHub] cxf issue #211: Streaming fix"
"asfgit <git@git.apache.org>","Thu,  8 Dec 2016 16:50:55 +0000 (UTC)","[GitHub] cxf pull request #211: Streaming fix"
"Andrey Redko <drreta@gmail.com>","Thu, 8 Dec 2016 12:35:17 -0600","Re: cxf git commit: [CXF-7164] Support tracing using Zipkin Brave"
"Romain Manni-Bucau <rmannibucau@gmail.com>","Thu, 8 Dec 2016 19:36:37 +0100","Re: cxf git commit: [CXF-7164] Support tracing using Zipkin Brave"
"Andrey Redko <drreta@gmail.com>","Thu, 8 Dec 2016 14:39:17 -0600","Re: cxf git commit: [CXF-7164] Support tracing using Zipkin Brave"
"Romain Manni-Bucau <rmannibucau@gmail.com>","Thu, 8 Dec 2016 21:42:51 +0100","Re: cxf git commit: [CXF-7164] Support tracing using Zipkin Brave"
"RadekKorkosz <git@git.apache.org>","Fri,  9 Dec 2016 13:26:33 +0000 (UTC)","[GitHub] cxf pull request #212: 3.1.x fixes"
"Mark Struberg <struberg@yahoo.de.INVALID>","Fri, 9 Dec 2016 17:10:00 +0100","MediaType matching question"
"Romain Manni-Bucau <rmannibucau@gmail.com>","Fri, 9 Dec 2016 17:14:32 +0100","Re: MediaType matching question"
"Mark Struberg <struberg@yahoo.de.INVALID>","Fri, 9 Dec 2016 16:17:06 +0000 (UTC)","Re: MediaType matching question"
"Sergey Beryozkin <sberyozkin@gmail.com>","Fri, 9 Dec 2016 16:23:49 +0000","Re: MediaType matching question"
"Sergey Beryozkin <sberyozkin@gmail.com>","Fri, 9 Dec 2016 16:32:00 +0000","Re: MediaType matching question"
"Romain Manni-Bucau <rmannibucau@gmail.com>","Fri, 9 Dec 2016 17:36:20 +0100","Re: MediaType matching question"
"asfgit <git@git.apache.org>","Fri,  9 Dec 2016 16:58:55 +0000 (UTC)","[GitHub] cxf pull request #210: [CXF-7162] Inconsistent reading of formatted xml when..."
"Mark Struberg <struberg@yahoo.de.INVALID>","Fri, 9 Dec 2016 17:10:31 +0000 (UTC)","Re: MediaType matching question"
"Mark Struberg <struberg@yahoo.de.INVALID>","Fri, 9 Dec 2016 17:11:51 +0000 (UTC)","Re: MediaType matching question"
"Sergey Beryozkin <sberyozkin@gmail.com>","Fri, 9 Dec 2016 17:22:57 +0000","Re: MediaType matching question"
"Mark Struberg <struberg@yahoo.de.INVALID>","Fri, 9 Dec 2016 19:47:46 +0100","Re: MediaType matching question"
"Sergey Beryozkin <sberyozkin@gmail.com>","Fri, 9 Dec 2016 19:55:53 +0000","Re: MediaType matching question"
"Daniel Kulp <dkulp@apache.org>","Fri, 9 Dec 2016 15:47:05 -0500","[VOTE] CXF 3.1.9 and 3.0.12"
"Sergey Beryozkin <sberyozkin@gmail.com>","Fri, 9 Dec 2016 21:39:08 +0000","Re: [VOTE] CXF 3.1.9 and 3.0.12"
"andymc12 <git@git.apache.org>","Fri,  9 Dec 2016 23:45:30 +0000 (UTC)","[GitHub] cxf pull request #213: CXF-7174: Avoid NPE when content-type not set in http..."
"Andriy Redko <drreta@gmail.com>","Sat, 10 Dec 2016 08:48:16 -0500","Re: [VOTE] CXF 3.1.9 and 3.0.12"
"Romain Manni-Bucau <rmannibucau@gmail.com>","Sat, 10 Dec 2016 18:17:10 +0100","Re: [VOTE] CXF 3.1.9 and 3.0.12"
"Jeff Genender <jgenender@apache.org>","Sat, 10 Dec 2016 11:37:07 -0700","Re: [VOTE] CXF 3.1.9 and 3.0.12"
"=?ISO-8859-1?Q?Francesco_Chicchiricc=F2?= <ilgrosso@apache.org>","Sat, 10 Dec 2016 19:51:36 +0100","Re: [VOTE] CXF 3.1.9 and 3.0.12"
"Christian Schneider <chris@die-schneider.net>","Sun, 11 Dec 2016 08:29:16 +0100","Re: [VOTE] CXF 3.1.9 and 3.0.12"
"""John D. Ament"" <johndament@apache.org>","Sun, 11 Dec 2016 14:16:20 +0000","Re: [VOTE] CXF 3.1.9 and 3.0.12"
"Mark Struberg <struberg@yahoo.de.INVALID>","Sun, 11 Dec 2016 15:34:50 +0100","Re: [VOTE] CXF 3.1.9 and 3.0.12"
"johnament <git@git.apache.org>","Sun, 11 Dec 2016 15:30:41 +0000 (UTC)","[GitHub] cxf pull request #214: [CXF-7175] Use ExtensionManagerBus as the underlying ..."
"Jeff Genender <jgenender@apache.org>","Sun, 11 Dec 2016 09:03:12 -0700","Re: [VOTE] CXF 3.1.9 and 3.0.12"
"Romain Manni-Bucau <rmannibucau@gmail.com>","Sun, 11 Dec 2016 17:05:57 +0100","Re: [VOTE] CXF 3.1.9 and 3.0.12"
"""John D. Ament"" <johndament@apache.org>","Sun, 11 Dec 2016 16:27:11 +0000","Re: [VOTE] CXF 3.1.9 and 3.0.12"
"""John D. Ament"" <johndament@apache.org>","Sun, 11 Dec 2016 16:28:11 +0000","Re: [VOTE] CXF 3.1.9 and 3.0.12"
"Romain Manni-Bucau <rmannibucau@gmail.com>","Sun, 11 Dec 2016 19:42:42 +0100","Re: [VOTE] CXF 3.1.9 and 3.0.12"
"""John D. Ament"" <johndament@apache.org>","Sun, 11 Dec 2016 20:30:09 +0000","[DISCUSS] CDI Beans & BeanManager.getReference"
"Romain Manni-Bucau <rmannibucau@gmail.com>","Sun, 11 Dec 2016 22:08:33 +0100","Re: [DISCUSS] CDI Beans & BeanManager.getReference"
"""John D. Ament"" <johndament@apache.org>","Sun, 11 Dec 2016 21:24:17 +0000","Re: [DISCUSS] CDI Beans & BeanManager.getReference"
"Romain Manni-Bucau <rmannibucau@gmail.com>","Sun, 11 Dec 2016 23:38:13 +0100","Re: [DISCUSS] CDI Beans & BeanManager.getReference"
"""John D. Ament"" <john.d.ament@gmail.com>","Mon, 12 Dec 2016 00:08:08 +0000","Re: [DISCUSS] CDI Beans & BeanManager.getReference"
"Romain Manni-Bucau <rmannibucau@gmail.com>","Mon, 12 Dec 2016 08:30:45 +0100","Re: [DISCUSS] CDI Beans & BeanManager.getReference"
"Mark Struberg <struberg@yahoo.de.INVALID>","Mon, 12 Dec 2016 08:54:26 +0100","Re: [VOTE] CXF 3.1.9 and 3.0.12"
"Mark Struberg <struberg@yahoo.de.INVALID>","Mon, 12 Dec 2016 09:13:05 +0100","Re: [DISCUSS] CDI Beans & BeanManager.getReference"
"Romain Manni-Bucau <rmannibucau@gmail.com>","Mon, 12 Dec 2016 09:25:48 +0100","Re: [DISCUSS] CDI Beans & BeanManager.getReference"
"Christian Schneider <chris@die-schneider.net>","Mon, 12 Dec 2016 09:37:21 +0100","Re: [VOTE] CXF 3.1.9 and 3.0.12"
"asfgit <git@git.apache.org>","Mon, 12 Dec 2016 10:04:18 +0000 (UTC)","[GitHub] cxf pull request #213: CXF-7174: Avoid NPE when content-type not set in http..."
"Alessio Soldano <asoldano@redhat.com>","Mon, 12 Dec 2016 11:29:07 +0100","Re: [VOTE] CXF 3.1.9 and 3.0.12"
"Colm O hEigeartaigh <coheigea@apache.org>","Mon, 12 Dec 2016 10:34:35 +0000","Re: [VOTE] CXF 3.1.9 and 3.0.12"
"John Poth <poth.john@gmail.com>","Mon, 12 Dec 2016 11:47:02 +0100","Re: [VOTE] CXF 3.1.9 and 3.0.12"
"johnament <git@git.apache.org>","Mon, 12 Dec 2016 11:29:53 +0000 (UTC)","[GitHub] cxf pull request #214: [CXF-7175] Use ExtensionManagerBus as the underlying ..."
"""John D. Ament"" <johndament@apache.org>","Mon, 12 Dec 2016 11:38:02 +0000","Re: [DISCUSS] CDI Beans & BeanManager.getReference"
"Daniel Kulp <dkulp@apache.org>","Mon, 12 Dec 2016 16:40:20 -0500","[RESULT][VOTE] CXF 3.1.9 and 3.0.12"
"grgrzybek <git@git.apache.org>","Thu, 15 Dec 2016 09:22:34 +0000 (UTC)","[GitHub] cxf pull request #215: [CXF-7183] Adjust CXF namespace handlers to aries-blu..."
"asfgit <git@git.apache.org>","Thu, 15 Dec 2016 13:30:38 +0000 (UTC)","[GitHub] cxf pull request #215: [CXF-7183] Adjust CXF namespace handlers to aries-blu..."
"Colm O hEigeartaigh <coheigea@apache.org>","Thu, 15 Dec 2016 16:32:59 +0000","[VOTE] - Release Apache CXF XJC Utils 3.1.0"
"Daniel Kulp <dkulp@apache.org>","Thu, 15 Dec 2016 13:17:10 -0500","Re: [VOTE] - Release Apache CXF XJC Utils 3.1.0"
"Christian Schneider <chris@die-schneider.net>","Thu, 15 Dec 2016 20:03:53 +0100","Re: [VOTE] - Release Apache CXF XJC Utils 3.1.0"
"Andriy Redko <drreta@gmail.com>","Thu, 15 Dec 2016 15:14:32 -0500","Re: [VOTE] - Release Apache CXF XJC Utils 3.1.0"
"Jeff Genender <jgenender@apache.org>","Thu, 15 Dec 2016 14:39:21 -0700","Re: [VOTE] - Release Apache CXF XJC Utils 3.1.0"
"Freeman Fang <freeman.fang@gmail.com>","Fri, 16 Dec 2016 10:32:01 +0800","Re: [VOTE] - Release Apache CXF XJC Utils 3.1.0"
"SanjinTulac <git@git.apache.org>","Sat, 17 Dec 2016 02:45:43 +0000 (UTC)","[GitHub] cxf pull request #216: Fixed CXF-7186: Aegis DataBinding ignores JAXB annota..."
"Andrei Shakirin <ashakirin@talend.com>","Sun, 18 Dec 2016 15:34:44 +0000","Small refactoring in STSTokenOutInterceptor"
"Sergey Beryozkin <sberyozkin@gmail.com>","Sun, 18 Dec 2016 16:30:37 +0000","Re: [VOTE] - Release Apache CXF XJC Utils 3.1.0"
"Colm O hEigeartaigh <coheigea@apache.org>","Mon, 19 Dec 2016 09:58:28 +0000","Re: [VOTE] - Release Apache CXF XJC Utils 3.1.0"
"asifhasan1312 <asifhasan1312@gmail.com>","Tue, 20 Dec 2016 04:02:31 -0700 (MST)","I am trying to get soap body as an object in cxf in interceptor"
"Colm O hEigeartaigh <coheigea@apache.org>","Tue, 20 Dec 2016 15:31:42 +0000","Re: Small refactoring in STSTokenOutInterceptor"
"Daniel Kulp <dkulp@apache.org>","Tue, 20 Dec 2016 16:47:16 -0500","Re: I am trying to get soap body as an object in cxf in interceptor"
"Freeman Fang <freeman.fang@gmail.com>","Thu, 22 Dec 2016 11:45:57 +0800","CXF 3.2 support jetty9 only (drop jetty8 support)"
"Daniel Kulp <dkulp@apache.org>","Thu, 22 Dec 2016 08:30:03 -0500","Re: CXF 3.2 support jetty9 only (drop jetty8 support)"
"James Carman <james@carmanconsulting.com>","Thu, 22 Dec 2016 13:46:59 +0000","Re: CXF 3.2 support jetty9 only (drop jetty8 support)"
"Sergey Beryozkin <sberyozkin@gmail.com>","Thu, 22 Dec 2016 14:30:27 +0000","Re: Removing some old modules in 3.2.0-SNAPSHOT"
"Guillaume Nodet <gnodet@apache.org>","Thu, 22 Dec 2016 15:54:43 +0100","Re: CXF 3.2 support jetty9 only (drop jetty8 support)"
"Andrey Redko <drreta@gmail.com>","Thu, 22 Dec 2016 11:24:56 -0500","Re: CXF 3.2 support jetty9 only (drop jetty8 support)"
"Sergey Beryozkin <sberyozkin@gmail.com>","Thu, 22 Dec 2016 16:36:18 +0000","Re: CXF 3.2 support jetty9 only (drop jetty8 support)"
"Colm O hEigeartaigh <coheigea@apache.org>","Thu, 22 Dec 2016 16:38:15 +0000","Re: CXF 3.2 support jetty9 only (drop jetty8 support)"
"Sergey Beryozkin <sberyozkin@gmail.com>","Fri, 23 Dec 2016 11:43:44 +0000","Re: Removing some old modules in 3.2.0-SNAPSHOT"
"grgrzybek <git@git.apache.org>","Fri, 23 Dec 2016 15:44:04 +0000 (UTC)","[GitHub] cxf pull request #217: [CXF-7183] Fix systests/jaxrs"
"Sergey Beryozkin <sberyozkin@gmail.com>","Fri, 23 Dec 2016 16:03:48 +0000","Re: Removing some old modules in 3.2.0-SNAPSHOT"
"asfgit <git@git.apache.org>","Fri, 23 Dec 2016 16:14:40 +0000 (UTC)","[GitHub] cxf pull request #217: [CXF-7183] Fix systests/jaxrs"
"asifhasan1312 <asifhasan1312@gmail.com>","Wed, 28 Dec 2016 23:09:09 -0700 (MST)","Re: I am trying to get soap body as an object in cxf in interceptor"
"elfogre <git@git.apache.org>","Fri, 30 Dec 2016 10:03:55 +0000 (UTC)","[GitHub] cxf pull request #218: [CXF-7201] Correctly format UserInfo response when no..."
"elfogre <git@git.apache.org>","Fri, 30 Dec 2016 11:07:56 +0000 (UTC)","[GitHub] cxf issue #218: [CXF-7201] Correctly format UserInfo response when no signat..."
"Alessio Soldano <asoldano@redhat.com>","Fri, 30 Dec 2016 22:04:15 +0100","Re: Removing some old modules in 3.2.0-SNAPSHOT"
