"Developer","Date","Subject"
"karypid <akarypid@yahoo.gr>","Tue, 1 Sep 2009 01:39:34 -0700 (PDT)","Re: Missing OM* classes"
"""Sergey Beryozkin"" <sberyozk@progress.com>","Tue, 1 Sep 2009 11:57:19 +0100","Re: Seeming JAX-RS mistake"
"""Sergey Beryozkin"" <sberyozk@progress.com>","Tue, 1 Sep 2009 12:21:58 +0100","Re: generics and type mapping in Aegis"
"Sergey Beryozkin <sergey.beryozkin@iona.com>","Tue, 1 Sep 2009 04:45:48 -0700 (PDT)","Re: WARNING: very big commit coming later today...."
"Sergey Beryozkin <sergey.beryozkin@iona.com>","Tue, 1 Sep 2009 04:59:05 -0700 (PDT)","Re: WARNING: very big commit coming later today...."
"Daniel Kulp <dkulp@apache.org>","Tue, 1 Sep 2009 09:24:10 -0400","Re: WARNING: very big commit coming later today...."
"""Sergey Beryozkin"" <sberyozk@progress.com>","Tue, 1 Sep 2009 14:39:15 +0100","Re: WARNING: very big commit coming later today...."
"""Sergey Beryozkin"" <sberyozk@progress.com>","Tue, 1 Sep 2009 14:45:03 +0100","Re: svn commit: r809790 [1/3] "
"Demetris <demetris@ece.neu.edu>","Tue, 01 Sep 2009 17:02:52 -0400","Re: WSDL2JS"
"Benson Margulies <bimargulies@gmail.com>","Tue, 1 Sep 2009 17:29:17 -0400","Re: svn commit: r809790 [1/3]"
"Oisin Hurley <oisin.hurley@gmail.com>","Tue, 1 Sep 2009 22:41:54 +0100","Re: WSDL2JS"
"Benson Margulies <bimargulies@gmail.com>","Tue, 1 Sep 2009 20:51:28 -0400","Continued trimming of Aegis"
"Daniel Kulp <dkulp@apache.org>","Wed, 2 Sep 2009 15:13:29 -0400","Back to normal....."
"Benson Margulies <bimargulies@gmail.com>","Wed, 2 Sep 2009 15:56:58 -0400","Re: Back to normal....."
"Daniel Kulp <dkulp@apache.org>","Wed, 2 Sep 2009 16:26:01 -0400","Re: Back to normal....."
"Demetris <demetris@ece.neu.edu>","Thu, 03 Sep 2009 00:36:03 -0400","Re: WSDL2JS"
"""Sergey Beryozkin"" <sberyozk@progress.com>","Thu, 3 Sep 2009 11:41:03 +0100","Failing JMS Continuations test (Was : Re: Back to normal.....)"
"""Sergey Beryozkin"" <sberyozk@progress.com>","Thu, 3 Sep 2009 15:26:06 +0100","Re: Failing JMS Continuations test (Was : Re: Back to normal.....)"
"Daniel Kulp <dkulp@apache.org>","Thu, 3 Sep 2009 13:53:52 -0400","Re: Failing JMS Continuations test (Was : Re: Back to normal.....)"
"""Sergey Beryozkin"" <sberyozk@progress.com>","Thu, 3 Sep 2009 15:35:37 -0400","RE: Failing JMS Continuations test (Was : Re: Back to normal.....)"
"Daniel Kulp <dkulp@apache.org>","Thu, 3 Sep 2009 17:36:22 -0400","Re: Missing OM* classes"
"Benson Margulies <bimargulies@gmail.com>","Thu, 3 Sep 2009 19:43:31 -0400","What should Aegis do with a naked collection?"
"Daniel Kulp <dkulp@apache.org>","Thu, 3 Sep 2009 20:55:02 -0400","Re: What should Aegis do with a naked collection?"
"Christian Schneider <chris@die-schneider.net>","Fri, 04 Sep 2009 13:10:03 +0200","Directory layout for samples"
"Daniel Kulp <dkulp@apache.org>","Fri, 4 Sep 2009 12:20:57 -0400","Re: svn commit: r811466 - /cxf/trunk/rt/javascript/src/test/java/org/apache/cxf/javascript/AegisTest.java"
"Benson Margulies <bimargulies@gmail.com>","Fri, 4 Sep 2009 12:46:13 -0400","Re: svn commit: r811466 - /cxf/trunk/rt/javascript/src/test/java/org/apache/cxf/javascript/AegisTest.java"
"""Aaron Ehrensberger"" <aehrensberger@docfinity.com>","Fri, 4 Sep 2009 16:35:32 -0400","Websphere and CXF"
"Naresh Tallapelli <naresh.tallapelli@gmail.com>","Sat, 5 Sep 2009 11:49:55 +0530","Element is not a valid SOAP version"
"Benson Margulies <bimargulies@gmail.com>","Sat, 5 Sep 2009 07:45:26 -0400","Have we got a new maven dependency ?"
"Benson Margulies <bimargulies@gmail.com>","Sat, 5 Sep 2009 08:05:59 -0400","codegen problems"
"Benson Margulies <bimargulies@gmail.com>","Sat, 5 Sep 2009 08:29:50 -0400","Re: Handling collections with Aegis in JAX-RS"
"Benson Margulies <bimargulies@gmail.com>","Sat, 5 Sep 2009 08:46:33 -0400","Generics and JAX-RS API"
"Christian Schneider <chris@die-schneider.net>","Sat, 05 Sep 2009 15:02:30 +0200","Re: Have we got a new maven dependency ?"
"Benson Margulies <bimargulies@gmail.com>","Sat, 5 Sep 2009 09:32:55 -0400","Re: Have we got a new maven dependency ?"
"Christian Schneider <chris@die-schneider.net>","Sat, 05 Sep 2009 15:37:29 +0200","Re: Have we got a new maven dependency ?"
"Benson Margulies <bimargulies@gmail.com>","Sat, 5 Sep 2009 09:41:42 -0400","Aegis + JSON = Chaos in namespaces"
"Benson Margulies <bimargulies@gmail.com>","Sat, 5 Sep 2009 09:49:57 -0400","Re: Have we got a new maven dependency ?"
"Daniel Kulp <dkulp@apache.org>","Sat, 5 Sep 2009 10:49:25 -0400","Re: Have we got a new maven dependency ?"
"Benson Margulies <bimargulies@gmail.com>","Sat, 5 Sep 2009 11:51:59 -0400","StaxUtils.copy"
"Benson Margulies <bimargulies@gmail.com>","Sat, 5 Sep 2009 13:52:10 -0400","JSON + Aegis + JAX-RS: Not?"
"Benson Margulies <bimargulies@gmail.com>","Sat, 5 Sep 2009 13:57:53 -0400","JAX-RS and generics"
"Benson Margulies <bimargulies@gmail.com>","Sat, 5 Sep 2009 17:40:23 -0400","Possible alternative source of JSON"
"Benson Margulies <bimargulies@gmail.com>","Sat, 5 Sep 2009 22:15:07 -0400","Re: JAX-RS and generics"
"Sergey Beryozkin <sergey.beryozkin@iona.com>","Sun, 6 Sep 2009 14:58:49 -0700 (PDT)","Re: Handling collections with Aegis in JAX-RS"
"""Sergey Beryozkin"" <sberyozk@progress.com>","Sun, 6 Sep 2009 18:09:28 -0400","RE: JAX-RS and generics"
"""Sergey Beryozkin"" <sberyozk@progress.com>","Sun, 6 Sep 2009 18:11:22 -0400","RE: Possible alternative source of JSON"
"Benson Margulies <bimargulies@gmail.com>","Sun, 6 Sep 2009 18:24:17 -0400","Re: Possible alternative source of JSON"
"Benson Margulies <bimargulies@gmail.com>","Sun, 6 Sep 2009 18:26:37 -0400","Re: JAX-RS and generics"
"Benson Margulies <bimargulies@gmail.com>","Sun, 6 Sep 2009 18:28:13 -0400","Re: Handling collections with Aegis in JAX-RS"
"Benson Margulies <bimargulies@gmail.com>","Sun, 6 Sep 2009 18:34:26 -0400","Re: Possible alternative source of JSON"
"""Sergey Beryozkin"" <sberyozk@progress.com>","Mon, 7 Sep 2009 10:18:17 +0100","Re: Aegis + JSON = Chaos in namespaces"
"""Sergey Beryozkin"" <sberyozk@progress.com>","Mon, 7 Sep 2009 10:20:36 +0100","Re: Possible alternative source of JSON"
"Sergey Beryozkin <sergey.beryozkin@iona.com>","Mon, 7 Sep 2009 02:41:15 -0700 (PDT)","Re: Handling collections with Aegis in JAX-RS"
"""Sergey Beryozkin"" <sberyozk@progress.com>","Mon, 7 Sep 2009 10:50:42 +0100","Re: JAX-RS and generics"
"Benson Margulies <bimargulies@gmail.com>","Mon, 7 Sep 2009 08:06:13 -0400","Re: JAX-RS and generics"
"Benson Margulies <bimargulies@gmail.com>","Mon, 7 Sep 2009 08:08:14 -0400","Re: Possible alternative source of JSON"
"Benson Margulies <bimargulies@gmail.com>","Mon, 7 Sep 2009 08:27:53 -0400","Restating some JAX-RS debates"
"""Sergey Beryozkin"" <sberyozk@progress.com>","Mon, 7 Sep 2009 13:33:34 +0100","Re: JAX-RS and generics"
"Benson Margulies <bimargulies@gmail.com>","Mon, 7 Sep 2009 08:43:42 -0400","Re: JAX-RS and generics"
"Sergey Beryozkin <sergey.beryozkin@iona.com>","Mon, 7 Sep 2009 10:20:37 -0700 (PDT)","Re: Restating some JAX-RS debates"
"Benson Margulies <bimargulies@gmail.com>","Mon, 7 Sep 2009 13:33:36 -0400","Re: Restating some JAX-RS debates"
"""Sergey Beryozkin"" <sberyozk@progress.com>","Tue, 8 Sep 2009 17:04:14 +0100","Merging Aegis updates to 2.2.x"
"Benson Margulies <bimargulies@gmail.com>","Tue, 8 Sep 2009 12:44:16 -0400","Re: Merging Aegis updates to 2.2.x"
"Sergey Beryozkin <sergey.beryozkin@iona.com>","Tue, 8 Sep 2009 09:55:22 -0700 (PDT)","Re: Aegis + JSON = Chaos in namespaces"
"""Sergey Beryozkin"" <sberyozk@progress.com>","Tue, 8 Sep 2009 17:58:15 +0100","Re: Merging Aegis updates to 2.2.x"
"Daniel Kulp <dkulp@apache.org>","Tue, 8 Sep 2009 15:16:25 -0400","Re: Merging Aegis updates to 2.2.x"
"Daniel Kulp <dkulp@apache.org>","Tue, 8 Sep 2009 16:28:18 -0400","Re: JSON + Aegis + JAX-RS: Not?"
"Daniel Kulp <dkulp@apache.org>","Tue, 8 Sep 2009 16:31:57 -0400","Re: Element is not a valid SOAP version"
"Daniel Kulp <dkulp@apache.org>","Tue, 8 Sep 2009 16:36:56 -0400","Re: StaxUtils.copy"
"Daniel Kulp <dkulp@apache.org>","Tue, 8 Sep 2009 16:39:04 -0400","Re: Websphere and CXF"
"Daniel Kulp <dkulp@apache.org>","Tue, 8 Sep 2009 17:54:01 -0400","Re: Directory layout for samples"
"""Aaron Ehrensberger"" <aehrensberger@docfinity.com>","Wed, 9 Sep 2009 07:46:18 -0400","RE: Websphere and CXF"
"=?UTF-8?Q?Pawe=C5=82?= Lipka <p.lipka@amg.net.pl>","Wed, 09 Sep 2009 14:27:35 +0200","RE: Websphere and CXF"
"""Aaron Ehrensberger"" <aehrensberger@docfinity.com>","Wed, 9 Sep 2009 08:35:03 -0400","RE: Websphere and CXF"
"=?UTF-8?Q?Pawe=C5=82?= Lipka <p.lipka@amg.net.pl>","Wed, 09 Sep 2009 14:44:52 +0200","RE: Websphere and CXF"
"Christian Schneider <chris@die-schneider.net>","Wed, 09 Sep 2009 17:09:46 +0200","Wiki: Synching the Navigation to the Wiki Index page"
"Benson Margulies <bimargulies@gmail.com>","Wed, 9 Sep 2009 13:42:41 -0400","Re: [jira] Updated: (CXF-2420) Passing an object to the server 	doesn't work correctly"
"Eamonn Dwyer <eamdwyercxf@hotmail.com>","Thu, 10 Sep 2009 16:44:45 +0100","Capturing Jms headers data"
"""Tom Cassimon"" <tom@cassimon.mine.nu>","Thu, 10 Sep 2009 20:01:21 +0200","Problem with primary key in Persisted object list"
"Benson Margulies <bimargulies@gmail.com>","Thu, 10 Sep 2009 14:48:26 -0400","Re: Problem with primary key in Persisted object list"
"""Tom Cassimon"" <tom@cassimon.mine.nu>","Thu, 10 Sep 2009 21:19:12 +0200","RE: Problem with primary key in Persisted object list"
"Daniel Kulp <dkulp@apache.org>","Thu, 10 Sep 2009 15:48:13 -0400","Re: Problem with primary key in Persisted object list"
"""Tom Cassimon"" <tom@cassimon.mine.nu>","Thu, 10 Sep 2009 22:06:28 +0200","RE: Problem with primary key in Persisted object list"
"Daniel Kulp <dkulp@apache.org>","Thu, 10 Sep 2009 16:13:55 -0400","Re: Problem with primary key in Persisted object list"
"""Tom Cassimon"" <tom@cassimon.mine.nu>","Thu, 10 Sep 2009 22:24:07 +0200","RE: Problem with primary key in Persisted object list"
"Daniel Kulp <dkulp@apache.org>","Thu, 10 Sep 2009 17:10:10 -0400","Re: Problem with primary key in Persisted object list"
"Daniel Kulp <dkulp@apache.org>","Thu, 10 Sep 2009 17:11:40 -0400","Re: Wiki: Synching the Navigation to the Wiki Index page"
"""Tom Cassimon"" <tom@cassimon.mine.nu>","Thu, 10 Sep 2009 23:32:46 +0200","RE: Problem with primary key in Persisted object list"
"liucong <liucong07@gmail.com>","Fri, 11 Sep 2009 09:13:32 +0800","Re: Capturing Jms headers data"
"Eamonn Dwyer <eamdwyercxf@hotmail.com>","Fri, 11 Sep 2009 08:49:10 +0100","RE: Capturing Jms headers data"
"liucong <liucong07@gmail.com>","Fri, 11 Sep 2009 16:55:20 +0800","Re: Capturing Jms headers data"
"Daniel Kulp <dkulp@apache.org>","Fri, 11 Sep 2009 11:27:44 -0400","Re: Directory layout for samples"
"Christian Schneider <chris@die-schneider.net>","Fri, 11 Sep 2009 18:21:46 +0200","Re: Wiki: Synching the Navigation to the Wiki Index page"
"Daniel Kulp <dkulp@apache.org>","Fri, 11 Sep 2009 12:32:37 -0400","Re: Wiki: Synching the Navigation to the Wiki Index page"
"Daniel Kulp <dkulp@apache.org>","Fri, 11 Sep 2009 12:40:53 -0400","Re: Problem with primary key in Persisted object list"
"""Peter Jones"" <pjones@progress.com>","Fri, 11 Sep 2009 15:04:05 -0400","JMSConduitTest failure with ibm jdk"
"Christian Schneider <chris@die-schneider.net>","Fri, 11 Sep 2009 22:50:24 +0200","Re: JMSConduitTest failure with ibm jdk"
"""Peter Jones"" <pjones@progress.com>","Fri, 11 Sep 2009 17:08:47 -0400","RE: JMSConduitTest failure with ibm jdk"
"Benson Margulies <bimargulies@gmail.com>","Tue, 15 Sep 2009 10:55:20 -0400","Here we go again with the maven situation"
"Daniel Kulp <dkulp@apache.org>","Tue, 15 Sep 2009 11:15:13 -0400","Re: Here we go again with the maven situation"
"superk888 <superk888@gmail.com>","Tue, 15 Sep 2009 14:10:40 -0700 (PDT)","CXF web service + JPA persistence ?!"
"Christian Schneider <chris@die-schneider.net>","Tue, 15 Sep 2009 23:58:45 +0200","Re: Here we go again with the maven situation"
"Daniel Kulp <dkulp@apache.org>","Tue, 15 Sep 2009 22:15:34 -0400","Re: Here we go again with the maven situation"
"Christian Schneider <chris@die-schneider.net>","Wed, 16 Sep 2009 13:34:02 +0200","How do I write and test a sample?"
"Eamonn Dwyer <eamdwyercxf@hotmail.com>","Wed, 16 Sep 2009 13:17:14 +0100","RE: How do I write and test a sample?"
"Christian Schneider <chris@die-schneider.net>","Wed, 16 Sep 2009 14:33:14 +0200","Re: How do I write and test a sample?"
"superk888 <superk888@gmail.com>","Wed, 16 Sep 2009 08:31:45 -0700 (PDT)","Re: CXF web service + JPA persistence ?!"
"Glen Mazza <glen.mazza@gmail.com>","Wed, 16 Sep 2009 13:44:25 -0700 (PDT)","Re: How do I write and test a sample?"
"Daniel Kulp <dkulp@apache.org>","Wed, 16 Sep 2009 22:12:42 -0400","Re: How do I write and test a sample?"
"David Bosschaert <david.bosschaert@gmail.com>","Thu, 17 Sep 2009 13:58:28 +0100","Hudson failure on CXF-DOSGi"
"Oisin Hurley <oisin.hurley@gmail.com>","Thu, 17 Sep 2009 14:07:06 +0100","Re: Hudson failure on CXF-DOSGi"
"David Bosschaert <david.bosschaert@gmail.com>","Thu, 17 Sep 2009 14:15:42 +0100","Re: Hudson failure on CXF-DOSGi"
"Daniel Kulp <dkulp@apache.org>","Thu, 17 Sep 2009 10:49:23 -0400","Re: Hudson failure on CXF-DOSGi"
"Daniel Kulp <dkulp@apache.org>","Thu, 17 Sep 2009 10:52:23 -0400","Re: Hudson failure on CXF-DOSGi"
"""Aaron Ehrensberger"" <aehrensberger@docfinity.com>","Thu, 17 Sep 2009 16:30:01 -0400","RE: Websphere and CXF"
"Christian Schneider <chris@die-schneider.net>","Fri, 18 Sep 2009 00:28:09 +0200","Re: How do I write and test a sample?"
"Glen Mazza <glen.mazza@gmail.com>","Thu, 17 Sep 2009 18:29:43 -0700 (PDT)","Re: How do I write and test a sample?"
"Christian Schneider <chris@die-schneider.net>","Fri, 18 Sep 2009 08:38:50 +0200","Re: How do I write and test a sample?"
"Daniel Kulp <dkulp@apache.org>","Fri, 18 Sep 2009 11:30:31 -0400","Re: How do I write and test a sample?"
"Benson Margulies <bimargulies@gmail.com>","Fri, 18 Sep 2009 16:32:58 -0400","Part with no name or type?"
"Daniel Kulp <dkulp@apache.org>","Fri, 18 Sep 2009 16:50:20 -0400","Re: Part with no name or type?"
"Andreas Veithen <andreas.veithen@gmail.com>","Fri, 18 Sep 2009 22:55:21 +0200","Re: Websphere and CXF"
"Benson Margulies <bimargulies@gmail.com>","Fri, 18 Sep 2009 21:01:21 -0400","Re: [jira] Commented: (CXF-2438) NPE creating dynamic client"
"""Aaron Ehrensberger"" <aehrensberger@docfinity.com>","Fri, 18 Sep 2009 21:34:44 -0400","RE: Websphere and CXF"
"Benson Margulies <bimargulies@gmail.com>","Fri, 18 Sep 2009 21:41:12 -0400","Wikipedia page"
"Benson Margulies <bimargulies@gmail.com>","Sat, 19 Sep 2009 14:37:59 -0400","Dead link on our web site"
"Benson Margulies <bimargulies@gmail.com>","Sat, 19 Sep 2009 14:39:47 -0400","Re: Dead link on our web site"
"Demetris <demetris@ece.neu.edu>","Wed, 23 Sep 2009 03:13:05 -0400","D-OSGi and REST"
"""Sergey Beryozkin"" <sberyozk@progress.com>","Wed, 23 Sep 2009 05:01:05 -0400","RE: D-OSGi and REST"
"Demetris <demetris@ece.neu.edu>","Wed, 23 Sep 2009 13:12:03 -0400","Re: D-OSGi and REST"
"Glen Mazza <glen.mazza@gmail.com>","Wed, 23 Sep 2009 10:30:56 -0700 (PDT)","Re: Wikipedia page"
"Benson Margulies <bimargulies@gmail.com>","Wed, 23 Sep 2009 14:47:20 -0400","Re: Wikipedia page"
"""Eric Johnson"" <EMJOHNSO@progress.com>","Wed, 23 Sep 2009 15:29:24 -0400","RE: Wikipedia page"
"Benson Margulies <bimargulies@gmail.com>","Wed, 23 Sep 2009 15:37:25 -0400","Re: Wikipedia page"
"Demetris <demetris@ece.neu.edu>","Fri, 25 Sep 2009 15:56:03 -0400","Re: D-OSGi and REST"
"Demetris <demetris@ece.neu.edu>","Fri, 25 Sep 2009 15:59:20 -0400","Re: D-OSGi and REST"
"Sergey Beryozkin <sergey.beryozkin@iona.com>","Sun, 27 Sep 2009 10:24:51 -0700 (PDT)","Re: D-OSGi and REST"
"Demetris <demetris@ece.neu.edu>","Sun, 27 Sep 2009 23:13:13 -0400","Re: D-OSGi and REST"
"Demetris <demetris@ece.neu.edu>","Sun, 27 Sep 2009 23:16:14 -0400","Re: D-OSGi and REST"
"jim ma <mail2jimma@gmail.com>","Mon, 28 Sep 2009 13:26:11 +0800","geronimo jars"
"""Ralf Josephy"" <Ralf.Josephy@gmx.de>","Mon, 28 Sep 2009 09:23:08 +0200","Implementing Binary Security Token"
"""Ralf Josephy"" <Ralf.Josephy@gmx.de>","Mon, 28 Sep 2009 10:50:59 +0200","Fwd: Implementing Binary Security Token"
"Jeff Genender <jgenender@apache.org>","Mon, 28 Sep 2009 07:13:49 -0600","Re: geronimo jars"
"Daniel Kulp <dkulp@apache.org>","Mon, 28 Sep 2009 09:49:03 -0400","Re: geronimo jars"
"Sergey Beryozkin <sergey.beryozkin@iona.com>","Mon, 28 Sep 2009 07:33:40 -0700 (PDT)","Re: D-OSGi and REST"
"Demetris <demetris@ece.neu.edu>","Tue, 29 Sep 2009 01:35:00 -0400","Re: D-OSGi and REST"
"Sreejith Sreekumar <Sreejith.Sreekumar@ibsplc.com>","Tue, 29 Sep 2009 11:59:31 +0530","Default namespace and xsi:schemaLocation in response"
"David Bosschaert <david.bosschaert@gmail.com>","Tue, 29 Sep 2009 01:33:19 -0700","Re: D-OSGi and REST"
"""Sergey Beryozkin"" <sberyozk@progress.com>","Tue, 29 Sep 2009 15:52:00 +0100","Re: [jira] Updated: (CXF-2452) DOSGI CXF Distributed Software Bundle (1.1.0.SNAPSHOT) fails on startup"
"""Sergey Beryozkin"" <sberyozk@progress.com>","Tue, 29 Sep 2009 15:59:22 +0100","Re: [jira] Updated: (CXF-2452) DOSGI CXF Distributed Software Bundle (1.1.0.SNAPSHOT) fails on startup"
"Benson Margulies <bimargulies@gmail.com>","Tue, 29 Sep 2009 11:30:22 -0400","Gmail thinks we're spam"
"Demetris <demetris@ece.neu.edu>","Tue, 29 Sep 2009 11:41:06 -0400","Re: D-OSGi and REST"
"John Fuhr <ejfuhr@gmail.com>","Tue, 29 Sep 2009 10:45:04 -0500","Re: Gmail thinks we're spam"
"Benson Margulies <bimargulies@gmail.com>","Tue, 29 Sep 2009 11:47:51 -0400","Re: Gmail thinks we're spam"
"Daniel Kulp <dkulp@apache.org>","Tue, 29 Sep 2009 12:02:25 -0400","2.2.4 and 2.1.7"
"Alessio Soldano <asoldano@redhat.com>","Tue, 29 Sep 2009 18:18:31 +0200","Re: 2.2.4 and 2.1.7"
"Daniel Kulp <dkulp@apache.org>","Tue, 29 Sep 2009 12:21:39 -0400","CXF-2275, CXF-2276, and the new sample....."
"""Sergey Beryozkin"" <sberyozk@progress.com>","Tue, 29 Sep 2009 17:26:38 +0100","Re: JAXRS : moving to JAX-RS 1.1 api"
"""Sergey Beryozkin"" <sberyozk@progress.com>","Tue, 29 Sep 2009 17:34:44 +0100","Re: 2.2.4 and 2.1.7"
"Oisin Hurley <oisin.hurley@gmail.com>","Tue, 29 Sep 2009 18:34:38 +0100","Re: Gmail thinks we're spam"
"Daniel Kulp <dkulp@apache.org>","Tue, 29 Sep 2009 13:39:35 -0400","Re: Gmail thinks we're spam"
"Christian Schneider <chris@die-schneider.net>","Wed, 30 Sep 2009 10:06:43 +0200","maven jaxb plugin"
"Christian Schneider <chris@die-schneider.net>","Wed, 30 Sep 2009 10:55:10 +0200","Re: maven jaxb plugin"
"""Sergey Beryozkin"" <sberyozk@progress.com>","Wed, 30 Sep 2009 14:51:33 +0100","Re: [jira] Updated: (CXF-2452) DOSGI CXF Distributed Software Bundle (1.1.0.SNAPSHOT) fails on startup"
"Daniel Kulp <dkulp@apache.org>","Wed, 30 Sep 2009 12:01:21 -0400","Re: maven jaxb plugin"
"Daniel Kulp <dkulp@apache.org>","Wed, 30 Sep 2009 12:26:11 -0400","Re: maven jaxb plugin"
