"Developer","Date","Subject"
"Jim Ma <mail2jimma@gmail.com>","Mon, 3 Aug 2015 16:22:29 +0800","Re: [VOTE] CXF 3.0.6 and 3.1.2"
"Daniel Kulp <dkulp@apache.org>","Mon, 3 Aug 2015 09:28:31 -0400","[RESULT][VOTE] CXF 3.0.6 and 3.1.2"
"iris ding <irisdingbj@gmail.com>","Wed, 5 Aug 2015 19:56:47 -0700 (MST)","Re: What dataType in Dispatch API should I use to gain best performance?"
"Colm O hEigeartaigh <coheigea@apache.org>","Thu, 6 Aug 2015 15:02:39 +0100","[VOTE] - Release Apache CXF Fediz 1.2.1"
"Colm O hEigeartaigh <coheigea@apache.org>","Thu, 6 Aug 2015 15:03:36 +0100","[VOTE] - Release Apache CXF Fediz 1.1.3"
"Sergey Beryozkin <sberyozkin@gmail.com>","Thu, 06 Aug 2015 15:43:50 +0100","Re: [VOTE] - Release Apache CXF Fediz 1.2.1"
"Sergey Beryozkin <sberyozkin@gmail.com>","Thu, 06 Aug 2015 15:44:11 +0100","Re: [VOTE] - Release Apache CXF Fediz 1.1.3"
"Christian Schneider <chris@die-schneider.net>","Thu, 06 Aug 2015 16:57:37 +0200","Re: [VOTE] - Release Apache CXF Fediz 1.2.1"
"Christian Schneider <chris@die-schneider.net>","Thu, 06 Aug 2015 16:57:52 +0200","Re: [VOTE] - Release Apache CXF Fediz 1.1.3"
"Andrey Redko <drreta@gmail.com>","Thu, 6 Aug 2015 11:06:22 -0400","Re: [VOTE] - Release Apache CXF Fediz 1.2.1"
"Andrey Redko <drreta@gmail.com>","Thu, 6 Aug 2015 11:06:34 -0400","Re: [VOTE] - Release Apache CXF Fediz 1.1.3"
"=?ISO-8859-1?Q?Jean-Baptiste_Onofr=E9?= <jb@nanthrax.net>","Thu, 06 Aug 2015 18:52:03 +0200","RE: [VOTE] - Release Apache CXF Fediz 1.2.1"
"Daniel Kulp <dkulp@apache.org>","Thu, 6 Aug 2015 21:01:48 -0400","Re: [VOTE] - Release Apache CXF Fediz 1.1.3"
"Daniel Kulp <dkulp@apache.org>","Thu, 6 Aug 2015 21:02:04 -0400","Re: [VOTE] - Release Apache CXF Fediz 1.2.1"
"Jeff Genender <jgenender@apache.org>","Thu, 6 Aug 2015 20:04:42 -0600","Re: [VOTE] - Release Apache CXF Fediz 1.2.1"
"Jeff Genender <jgenender@apache.org>","Thu, 6 Aug 2015 20:04:59 -0600","Re: [VOTE] - Release Apache CXF Fediz 1.1.3"
"Romain Manni-Bucau <rmannibucau@gmail.com>","Fri, 7 Aug 2015 10:30:23 -0700","reduce CXF dependencies for JAXRS?"
"Laxmi Narayan NIT DGP <nit.dgp673@gmail.com>","Fri, 7 Aug 2015 23:03:38 +0530","Re: reduce CXF dependencies for JAXRS?"
"Daniel Kulp <dkulp@apache.org>","Fri, 7 Aug 2015 14:13:30 -0400","Re: reduce CXF dependencies for JAXRS?"
"Daniel Kulp <dkulp@apache.org>","Fri, 7 Aug 2015 14:18:34 -0400","Re: reduce CXF dependencies for JAXRS?"
"Romain Manni-Bucau <rmannibucau@gmail.com>","Fri, 7 Aug 2015 12:23:07 -0700","Re: reduce CXF dependencies for JAXRS?"
"Daniel Kulp <dkulp@apache.org>","Fri, 7 Aug 2015 16:25:51 -0400","Re: reduce CXF dependencies for JAXRS?"
"Romain Manni-Bucau <rmannibucau@gmail.com>","Fri, 7 Aug 2015 13:28:35 -0700","Re: reduce CXF dependencies for JAXRS?"
"Sergey Beryozkin <sberyozkin@gmail.com>","Sun, 09 Aug 2015 19:21:25 +0100","Re: reduce CXF dependencies for JAXRS?"
"Romain Manni-Bucau <rmannibucau@gmail.com>","Sun, 9 Aug 2015 11:42:44 -0700","Re: reduce CXF dependencies for JAXRS?"
"komm <kommunikatsioon@mail.ru>","Mon, 10 Aug 2015 05:28:21 -0700 (MST)","Binding style vs part type R2203 And R2204 problems in wsdl document"
"Colm O hEigeartaigh <coheigea@apache.org>","Wed, 12 Aug 2015 11:10:57 +0100","Re: [VOTE] - Release Apache CXF Fediz 1.1.3"
"Colm O hEigeartaigh <coheigea@apache.org>","Wed, 12 Aug 2015 11:11:14 +0100","Re: [VOTE] - Release Apache CXF Fediz 1.2.1"
"=?UTF-8?B?SsOpcsO0bWUgUmV2aWxsYXJk?= <jrevillard@gnubila.fr>","Thu, 13 Aug 2015 21:42:28 +0200","CXF + Karaf 4: how to access the CXFNonSpringServlet"
"Christian Schneider <chris@die-schneider.net>","Fri, 14 Aug 2015 07:57:37 +0200","Re: CXF + Karaf 4: how to access the CXFNonSpringServlet"
"jrevillard <jrevillard@gnubila.fr>","Fri, 14 Aug 2015 02:10:10 -0700 (MST)","Re: CXF + Karaf 4: how to access the CXFNonSpringServlet"
"jrevillard <jrevillard@gnubila.fr>","Fri, 14 Aug 2015 02:15:03 -0700 (MST)","Re: CXF + Karaf 4: how to access the CXFNonSpringServlet"
"jrevillard <jrevillard@gnubila.fr>","Fri, 14 Aug 2015 02:31:45 -0700 (MST)","Re: CXF + Karaf 4: how to access the CXFNonSpringServlet"
"Sergey Beryozkin <sberyozkin@gmail.com>","Fri, 14 Aug 2015 12:16:39 +0100","Re: CXF + Karaf 4: how to access the CXFNonSpringServlet"
"=?windows-1252?Q?J=E9r=F4me_Revillard?= <jrevillard@gnubila.fr>","Fri, 14 Aug 2015 13:40:24 +0200","Re: CXF + Karaf 4: how to access the CXFNonSpringServlet"
"Sergey Beryozkin <sberyozkin@gmail.com>","Fri, 14 Aug 2015 12:49:18 +0100","Re: CXF + Karaf 4: how to access the CXFNonSpringServlet"
"=?windows-1252?Q?J=E9r=F4me_Revillard?= <jrevillard@gnubila.fr>","Fri, 14 Aug 2015 14:24:25 +0200","Re: CXF + Karaf 4: how to access the CXFNonSpringServlet"
"Sergey Beryozkin <sberyozkin@gmail.com>","Fri, 14 Aug 2015 13:31:19 +0100","Re: CXF + Karaf 4: how to access the CXFNonSpringServlet"
"=?windows-1252?Q?J=E9r=F4me_Revillard?= <jrevillard@gnubila.fr>","Fri, 14 Aug 2015 16:18:33 +0200","Re: CXF + Karaf 4: how to access the CXFNonSpringServlet"
"Sergey Beryozkin <sberyozkin@gmail.com>","Fri, 14 Aug 2015 16:19:10 +0100","Re: CXF + Karaf 4: how to access the CXFNonSpringServlet"
"=?windows-1252?Q?J=E9r=F4me_Revillard?= <jrevillard@gnubila.fr>","Fri, 14 Aug 2015 17:27:38 +0200","Re: CXF + Karaf 4: how to access the CXFNonSpringServlet"
"Sergey Beryozkin <sberyozkin@gmail.com>","Fri, 14 Aug 2015 16:41:10 +0100","Re: CXF + Karaf 4: how to access the CXFNonSpringServlet"
"Ehris <mrehris@gmail.com>","Mon, 17 Aug 2015 06:48:03 -0700 (MST)","Jboss WS interceptor configuration injection"
"jwcarman <git@git.apache.org>","Tue, 18 Aug 2015 03:19:10 +0000 (UTC)","[GitHub] cxf pull request: CXF-6547: HTTPTransportActivator Does Not Propag..."
"=?windows-1252?Q?J=E9r=F4me_Revillard?= <jrevillard@gnubila.fr>","Tue, 18 Aug 2015 14:22:26 +0200","Re: CXF + Karaf 4: how to access the CXFNonSpringServlet"
"craigrs84 <cschulte@kellerschroeder.com>","Tue, 18 Aug 2015 12:40:50 -0700 (MST)","Can't Get Jackson jaxrs:providers Working!!!"
"Sergey Beryozkin <sberyozkin@gmail.com>","Tue, 18 Aug 2015 21:19:51 +0100","Re: Can't Get Jackson jaxrs:providers Working!!!"
"craigrs84 <cschulte@kellerschroeder.com>","Tue, 18 Aug 2015 13:36:45 -0700 (MST)","Re: Can't Get Jackson jaxrs:providers Working!!!"
"Sergey Beryozkin <sberyozkin@gmail.com>","Tue, 18 Aug 2015 21:43:54 +0100","Re: Can't Get Jackson jaxrs:providers Working!!!"
"craigrs84 <cschulte@kellerschroeder.com>","Tue, 18 Aug 2015 14:06:20 -0700 (MST)","Re: Can't Get Jackson jaxrs:providers Working!!!"
"Sergey Beryozkin <sberyozkin@gmail.com>","Tue, 18 Aug 2015 22:19:21 +0100","Re: Can't Get Jackson jaxrs:providers Working!!!"
"vineetkala11 <vineetkala11@gmail.com>","Thu, 20 Aug 2015 00:09:06 -0700 (MST)","Missing dependency for method public void org.apache.cxf ..."
"vineetkala11 <vineetkala11@gmail.com>","Thu, 20 Aug 2015 00:10:00 -0700 (MST)","Re: Why Apache CXF not being used in WebLogic 12c ?"
"Sergey Beryozkin <sberyozkin@gmail.com>","Thu, 20 Aug 2015 14:05:08 +0100","Re: Missing dependency for method public void org.apache.cxf ..."
"vineetkala11 <vineetkala11@gmail.com>","Thu, 20 Aug 2015 23:59:15 -0700 (MST)","Re: Missing dependency for method public void org.apache.cxf ..."
"Aki Yoshida <elakito@gmail.com>","Tue, 25 Aug 2015 20:12:00 +0200","Describe those bean based features in the features list document page more consistently"
"Aki Yoshida <elakito@gmail.com>","Tue, 25 Aug 2015 20:16:04 +0200","Re: Describe those bean based features in the features list document page more consistently"
"Sergey Beryozkin <sberyozkin@gmail.com>","Wed, 26 Aug 2015 10:20:44 +0100","Re: cxf git commit: [CXF-6557] add a CORS filter for swagger2 samples"
"Aki Yoshida <elakito@gmail.com>","Wed, 26 Aug 2015 11:52:27 +0200","Re: cxf git commit: [CXF-6557] add a CORS filter for swagger2 samples"
"Colm O hEigeartaigh <coheigea@apache.org>","Wed, 26 Aug 2015 15:53:02 +0100","New security vulnerability for Apache CXF Fediz - CVE-2015-5175"
"karlvr <git@git.apache.org>","Wed, 26 Aug 2015 23:49:21 +0000 (UTC)","[GitHub] cxf pull request: [CXF-6561] [CXF-6562] ResourceOwnerGrantHandler ..."
"asfgit <git@git.apache.org>","Thu, 27 Aug 2015 16:28:42 +0000 (UTC)","[GitHub] cxf pull request: [CXF-6561] [CXF-6562] ResourceOwnerGrantHandler ..."
