"Developer","Date","Subject"
"Jim Ma <mail2jimma@gmail.com>","Mon, 1 Apr 2013 09:59:13 +0800","Re: [VOTE] Release Apache CXF 2.5.10/2.6.7/2.7.4"
"Daniel Kulp <dkulp@apache.org>","Mon, 1 Apr 2013 11:27:03 -0400","[RESULT][VOTE] Release Apache CXF 2.5.10/2.6.7/2.7.4"
"Romain Manni-Bucau <rmannibucau@gmail.com>","Tue, 2 Apr 2013 09:19:59 +0200","woodstox mandatory?"
"Freeman Fang <freeman.fang@gmail.com>","Tue, 2 Apr 2013 15:40:20 +0800","Re: woodstox mandatory?"
"Romain Manni-Bucau <rmannibucau@gmail.com>","Tue, 2 Apr 2013 09:42:37 +0200","Re: woodstox mandatory?"
"Sergey Beryozkin <sberyozkin@gmail.com>","Tue, 02 Apr 2013 10:56:58 +0300","Re: woodstox mandatory?"
"Romain Manni-Bucau <rmannibucau@gmail.com>","Tue, 2 Apr 2013 10:01:31 +0200","Re: woodstox mandatory?"
"Sergey Beryozkin <sberyozkin@gmail.com>","Tue, 02 Apr 2013 11:19:07 +0300","Re: woodstox mandatory?"
"Aki Yoshida <elakito@gmail.com>","Tue, 2 Apr 2013 11:25:10 +0200","Re: woodstox mandatory?"
"Daniel Kulp <dkulp@apache.org>","Tue, 2 Apr 2013 08:12:36 -0400","Re: woodstox mandatory?"
"Daniel Kulp <dkulp@apache.org>","Tue, 2 Apr 2013 08:13:54 -0400","Re: woodstox mandatory?"
"Daniel Kulp <dkulp@apache.org>","Tue, 2 Apr 2013 09:10:47 -0400","Re: woodstox mandatory?"
"Jason Pell <jason@pellcorp.com>","Wed, 3 Apr 2013 00:24:40 +1100","Re: woodstox mandatory?"
"Sergey Beryozkin <sberyozkin@gmail.com>","Tue, 02 Apr 2013 16:26:58 +0300","Re: woodstox mandatory?"
"Aki Yoshida <elakito@gmail.com>","Tue, 2 Apr 2013 16:21:11 +0200","Re: woodstox mandatory?"
"Freeman Fang <freeman.fang@gmail.com>","Tue, 2 Apr 2013 22:44:58 +0800","Re: woodstox mandatory?"
"Colm O hEigeartaigh <coheigea@apache.org>","Tue, 2 Apr 2013 15:52:10 +0100","Re: svn commit: r1462277 [1/2] - in /cxf/fediz/trunk: ./ examples/simpleWebapp/src/main/config/ examples/simpleWebapp/src/main/resources/ examples/springWebapp/src/main/config/ examples/wsclientWebapp/webapp/ examples/wsclientWebapp/webapp/src/main/config/..."
"Daniel Kulp <dkulp@apache.org>","Tue, 2 Apr 2013 11:06:54 -0400","Re: woodstox mandatory?"
"Daniel Kulp <dkulp@apache.org>","Tue, 2 Apr 2013 11:10:12 -0400","Re: woodstox mandatory?"
"Oliver Wulff <owulff@talend.com>","Tue, 2 Apr 2013 20:49:03 +0000","RE: svn commit: r1462277 [1/2] - in /cxf/fediz/trunk: ./ examples/simpleWebapp/src/main/config/ examples/simpleWebapp/src/main/resources/ examples/springWebapp/src/main/config/ examples/wsclientWebapp/webapp/ examples/wsclientWebapp/webapp/src/main/con..."
"Daniel Kulp <dkulp@apache.org>","Tue, 2 Apr 2013 21:08:41 -0400","[ANN] Apache CXF 2.7.4/2.6.7/2.5.10 Released"
"Rex Wang <rwonly@gmail.com>","Wed, 3 Apr 2013 15:48:07 +0800","SoftReference as jaxb context cache?"
"Oliver Wulff <owulff@talend.com>","Wed, 3 Apr 2013 15:24:20 +0000","Fediz IDP refactored, next steps"
"Daniel Kulp <dkulp@apache.org>","Wed, 3 Apr 2013 13:29:41 -0400","Re: SoftReference as jaxb context cache?"
"Daniel Kulp <dkulp@apache.org>","Wed, 3 Apr 2013 14:29:25 -0400","Re: SoftReference as jaxb context cache?"
"""A. Rothman"" <amichai2@amichais.net>","Thu, 04 Apr 2013 13:46:12 +0300","DOSGi - NullPointerException in Aegis when interface method declares throws exception"
"""A. Rothman"" <amichai2@amichais.net>","Thu, 04 Apr 2013 16:43:37 +0300","Re: DOSGi - NullPointerException in Aegis when interface method declares throws exception"
"Christian Schneider <chris@die-schneider.net>","Fri, 05 Apr 2013 14:51:20 +0200","[Discuss] Remove DOSGi single bundle distro for 1.5.0"
"Beucher Thierry <thierry.beucher@atos.net>","Fri, 5 Apr 2013 17:14:07 +0200","RE: Fediz IDP refactored, next steps"
"Daniel Kulp <dkulp@apache.org>","Mon, 8 Apr 2013 10:38:29 -0400","Re: [Discuss] Remove DOSGi single bundle distro for 1.5.0"
"""Willem.Jiang"" <willem.jiang@gmail.com>","Tue, 9 Apr 2013 01:53:08 -0700 (PDT)","Re: filtering of features at automatic features loading over osgi service"
"Daniel Kulp <dkulp@apache.org>","Tue, 9 Apr 2013 07:33:15 -0400","Re: filtering of features at automatic features loading over osgi service"
"Willem jiang <willem.jiang@gmail.com>","Wed, 10 Apr 2013 09:54:21 +0800","Re: filtering of features at automatic features loading over osgi service"
"Jason Pell <jason@pellcorp.com>","Wed, 10 Apr 2013 20:25:16 +1000","Spring integration"
"Daniel Kulp <dkulp@apache.org>","Wed, 10 Apr 2013 10:26:55 -0400","Re: svn commit: r1466355 - /cxf/trunk/osgi/karaf/features/src/main/resources/features.xml"
"Freeman Fang <freeman.fang@gmail.com>","Wed, 10 Apr 2013 22:40:28 +0800","Re: svn commit: r1466355 - /cxf/trunk/osgi/karaf/features/src/main/resources/features.xml"
"Daniel Kulp <dkulp@apache.org>","Thu, 11 Apr 2013 11:16:40 -0400","=?windows-1252?Q?Re=3A_Thoughts_about_a_2=2E8_release_=28or_not?= =?windows-1252?Q?=29=85?="
"chanlee <chandrika.paturi@gmail.com>","Thu, 11 Apr 2013 12:48:49 -0700 (PDT)","doubts in steps to create top down aproach to create Jax-ws webservices"
"Jason Pell <jason@pellcorp.com>","Fri, 12 Apr 2013 10:27:58 +1000","Re: Spring integration"
"Jason Pell <jason@pellcorp.com>","Fri, 12 Apr 2013 12:16:00 +1000","Re: Spring integration"
"Willem jiang <willem.jiang@gmail.com>","Fri, 12 Apr 2013 11:06:30 +0800","Re: Spring integration"
"Jason Pell <jason@pellcorp.com>","Fri, 12 Apr 2013 13:19:42 +1000","Re: Spring integration"
"Jason Pell <jason@pellcorp.com>","Fri, 12 Apr 2013 13:26:50 +1000","Re: Spring integration"
"Beucher Thierry <thierry.beucher@atos.net>","Fri, 12 Apr 2013 15:48:31 +0200","RE: Fediz IDP refactored, next steps"
"Christian Schneider <chris@die-schneider.net>","Fri, 12 Apr 2013 16:24:37 +0200","Improvements for CXF OSGi packaging"
"Oliver Wulff <owulff@talend.com>","Mon, 15 Apr 2013 07:38:35 +0000","RE: Fediz IDP refactored, next steps"
"Andrei Shakirin <ashakirin@talend.com>","Mon, 15 Apr 2013 08:30:09 +0000","RE: Improvements for CXF OSGi packaging"
"Andrei Shakirin <ashakirin@talend.com>","Mon, 15 Apr 2013 10:17:48 +0000","=?Windows-1252?Q?RE:_Thoughts_about_a_2.8_release_(or_not)=85?="
"Colm O hEigeartaigh <coheigea@apache.org>","Mon, 15 Apr 2013 13:52:24 +0100","=?windows-1252?Q?Re=3A_Thoughts_about_a_2=2E8_release_=28or_not=29=85?="
"Colm O hEigeartaigh <coheigea@apache.org>","Mon, 15 Apr 2013 14:14:47 +0100","CVE-2012-5575"
"Christian Schneider <chris@die-schneider.net>","Mon, 15 Apr 2013 15:23:43 +0200","Re: Thoughts about a 2.8 release (or =?windows-1252?Q?not=29=85?="
"Rex Wang <rwonly@gmail.com>","Tue, 16 Apr 2013 16:28:33 +0800","Re: SoftReference as jaxb context cache?"
"Oliver Wulff <owulff@talend.com>","Wed, 17 Apr 2013 14:52:22 +0000","Web GUI for Fediz IDP"
"Sergey Beryozkin <sberyozkin@gmail.com>","Wed, 17 Apr 2013 16:11:52 +0100","Re: Web GUI for Fediz IDP"
"Jim Ma <mail2jimma@gmail.com>","Thu, 18 Apr 2013 15:17:37 +0800","Fwd: ws-i bsp compliance issue"
"Oliver Wulff <owulff@talend.com>","Thu, 18 Apr 2013 13:57:00 +0000","RE: Web GUI for Fediz IDP"
"Jim Ma <mail2jimma@gmail.com>","Tue, 23 Apr 2013 14:56:27 +0800","KerberosTokenTest"
"Colm O hEigeartaigh <coheigea@apache.org>","Tue, 23 Apr 2013 10:11:50 +0100","Re: KerberosTokenTest"
"Jim Ma <mail2jimma@gmail.com>","Tue, 23 Apr 2013 17:16:02 +0800","Re: KerberosTokenTest"
"""gayatri.guthikonda@hp.com"" <gayatri.guthikonda@hp.com>","Tue, 23 Apr 2013 07:14:25 -0700 (PDT)","nullpointer exception while querying simpleType in Dynamicclient"
"Jim Ma <mail2jimma@gmail.com>","Wed, 24 Apr 2013 15:10:27 +0800","Re: KerberosTokenTest"
"Colm O hEigeartaigh <coheigea@apache.org>","Wed, 24 Apr 2013 10:03:00 +0100","Re: KerberosTokenTest"
"Alessio Soldano <asoldano@redhat.com>","Wed, 24 Apr 2013 12:24:03 +0200","On classloading and EH-Cache availability checks"
"Matthew Hardin <matthew@exigentsol.com>","Thu, 25 Apr 2013 11:35:06 -0400","wadl2java with xjc extensions"
"Sergey Beryozkin <sberyozkin@gmail.com>","Thu, 25 Apr 2013 17:24:08 +0100","Re: wadl2java with xjc extensions"
"Colm O hEigeartaigh <coheigea@apache.org>","Thu, 25 Apr 2013 17:38:26 +0100","Re: On classloading and EH-Cache availability checks"
"Daniel Kulp <dkulp@apache.org>","Thu, 25 Apr 2013 18:22:57 -0400","Re: SoftReference as jaxb context cache?"
"Colm O hEigeartaigh <coheigea@apache.org>","Tue, 30 Apr 2013 17:06:20 +0100","Status update on WSS4J 2.0 port"
