"Developer","Date","Subject"
"""Sean Busbey (JIRA)"" <jira@apache.org>","Tue, 1 Sep 2015 01:22:45 +0000 (UTC)","[jira] [Created] (HBASE-14349) pre-commit zombie finder is overly broad"
"""Stephen Yuan Jiang (JIRA)"" <jira@apache.org>","Tue, 1 Sep 2015 06:07:45 +0000 (UTC)","[jira] [Created] (HBASE-14350) Procedure V2 Phase 2: Assignment Manager"
"""Stephen Yuan Jiang (JIRA)"" <jira@apache.org>","Tue, 1 Sep 2015 06:18:46 +0000 (UTC)","[jira] [Created] (HBASE-14351) Procedure V2 Phase 3: Notification Bus"
"""Abhishek Singh Chouhan (JIRA)"" <jira@apache.org>","Tue, 1 Sep 2015 07:00:53 +0000 (UTC)","[jira] [Created] (HBASE-14352) Replication is terribly slow with WAL compression"
"Nick Dimiduk <ndimiduk@apache.org>","Tue, 1 Sep 2015 09:00:11 -0700","Re: [VOTE] Third release candidate for HBase 1.1.2 (RC2) is available"
"""Stephen Yuan Jiang (JIRA)"" <jira@apache.org>","Tue, 1 Sep 2015 16:40:46 +0000 (UTC)","[jira] [Created] (HBASE-14353) Procedure V2 Phase 1.1 - master branch only cleanups and DDL updates (incompatible with branch-1.x)"
"Nick Dimiduk <ndimiduk@apache.org>","Tue, 1 Sep 2015 09:43:14 -0700","[RESULT][VOTE] Third release candidate for HBase 1.1.2 (RC2) is available"
"beeshma r <beeshma48@gmail.com>","Tue, 1 Sep 2015 09:44:34 -0700","Hbase Master error"
"Ted Yu <yuzhihong@gmail.com>","Tue, 1 Sep 2015 09:52:52 -0700","Re: Hbase Master error"
"beeshma r <beeshma48@gmail.com>","Tue, 1 Sep 2015 10:34:47 -0700","Re: Hbase Master error"
"beeshma r <beeshma48@gmail.com>","Tue, 1 Sep 2015 10:39:48 -0700","Re: Hbase Master error"
"Sean Busbey <busbey@cloudera.com>","Tue, 1 Sep 2015 14:01:06 -0500","Re: Current status of 1.2.0RC0"
"Elliott Clark <eclark@apache.org>","Tue, 1 Sep 2015 12:23:24 -0700","Re: Current status of 1.2.0RC0"
"Sean Busbey <busbey@cloudera.com>","Tue, 1 Sep 2015 14:36:22 -0500","Re: Current status of 1.2.0RC0"
"""Esteban Gutierrez (JIRA)"" <jira@apache.org>","Tue, 1 Sep 2015 20:50:46 +0000 (UTC)","[jira] [Created] (HBASE-14354) Minor improvements for usage of the mlock agent"
"Andrew Purtell <apurtell@apache.org>","Tue, 1 Sep 2015 14:09:13 -0700","[ANNOUNCE] HBase 0.98.14 is now available for download"
"=?UTF-8?Q?Enis_S=C3=B6ztutar?= <enis@apache.org>","Tue, 1 Sep 2015 18:56:04 -0700","[ANNOUNCE] Apache HBase 1.0.2 is now available for download"
"Nick Dimiduk <ndimiduk@apache.org>","Wed, 2 Sep 2015 11:02:34 -0700","[ANNOUNCE] Apache HBase 1.1.2 is now available for download"
"""Alicia Ying Shu (JIRA)"" <jira@apache.org>","Wed, 2 Sep 2015 18:19:46 +0000 (UTC)","[jira] [Resolved] (HBASE-12465) HBase master start fails due to incorrect file creations"
"Nick Dimiduk <ndimiduk@apache.org>","Wed, 2 Sep 2015 11:26:17 -0700","[DISCUSS] Updating stable release to 1.1.x"
"Stephen Jiang <syuanjiangdev@gmail.com>","Wed, 2 Sep 2015 12:36:59 -0700","Re: [DISCUSS] Updating stable release to 1.1.x"
"""Dave Latham (JIRA)"" <jira@apache.org>","Wed, 2 Sep 2015 19:48:45 +0000 (UTC)","[jira] [Created] (HBASE-14355) Scan different TimeRange for each column family"
"=?UTF-8?Q?Enis_S=C3=B6ztutar?= <enis@apache.org>","Wed, 2 Sep 2015 14:09:04 -0700","Re: [DISCUSS] Updating stable release to 1.1.x"
"""stack (JIRA)"" <jira@apache.org>","Wed, 2 Sep 2015 22:39:45 +0000 (UTC)","[jira] [Created] (HBASE-14356) Add parent timeout rule to all unit tests"
"""Mikhail Antonov (JIRA)"" <jira@apache.org>","Wed, 2 Sep 2015 23:31:45 +0000 (UTC)","[jira] [Created] (HBASE-14357) HFilePrettyPrinter can interpret recovered.edits files as storefiles"
"""Vladimir Rodionov (JIRA)"" <jira@apache.org>","Thu, 3 Sep 2015 00:57:46 +0000 (UTC)","[jira] [Resolved] (HBASE-14137) HBase Backup/Restore Phase 2: Backup throttling"
"""Vladimir Rodionov (JIRA)"" <jira@apache.org>","Thu, 3 Sep 2015 01:02:45 +0000 (UTC)","[jira] [Resolved] (HBASE-14235) HBase Backup/Restore Phase 2: Async backup procedure"
"Andrew Purtell <apurtell@apache.org>","Wed, 2 Sep 2015 18:19:27 -0700","Re: [DISCUSS] Updating stable release to 1.1.x"
"""Esteban Gutierrez (JIRA)"" <jira@apache.org>","Thu, 3 Sep 2015 11:03:45 +0000 (UTC)","[jira] [Created] (HBASE-14358) Parent region is not removed from regionstates after a successful split"
"""Yu Li (JIRA)"" <jira@apache.org>","Thu, 3 Sep 2015 11:17:45 +0000 (UTC)","[jira] [Created] (HBASE-14359) HTable#close will hang forever if unchecked error/exception thrown in AsyncProcess#sendMultiAction"
"""Nick Dimiduk (JIRA)"" <jira@apache.org>","Thu, 3 Sep 2015 18:02:46 +0000 (UTC)","[jira] [Created] (HBASE-14360) Client GC log path is not computed"
"""Nick Dimiduk (JIRA)"" <jira@apache.org>","Thu, 3 Sep 2015 19:05:45 +0000 (UTC)","[jira] [Created] (HBASE-14361) Investigate unused connection objects"
"""Dima Spivak (JIRA)"" <jira@apache.org>","Thu, 3 Sep 2015 22:29:45 +0000 (UTC)","[jira] [Created] (HBASE-14362) org.apache.hadoop.hbase.master.procedure.TestWALProcedureStoreOnHDFS is super duper flaky"
"""Harsh J (JIRA)"" <jira@apache.org>","Fri, 4 Sep 2015 04:13:45 +0000 (UTC)","[jira] [Created] (HBASE-14363) Print more details on the row behind an Empty REGIONINFO_QUALIFIER warning"
"""Lars Hofhansl (JIRA)"" <jira@apache.org>","Fri, 4 Sep 2015 04:45:46 +0000 (UTC)","[jira] [Created] (HBASE-14364) hlog_roll and compact_rs broken in shell"
"""Y. SREENIVASULU REDDY (JIRA)"" <jira@apache.org>","Fri, 4 Sep 2015 09:36:46 +0000 (UTC)","[jira] [Created] (HBASE-14365) Error scanning 'labels' table in logs with exception while running bulkload, even visibility feature is disabled"
"""Y. SREENIVASULU REDDY (JIRA)"" <jira@apache.org>","Fri, 4 Sep 2015 09:48:46 +0000 (UTC)","[jira] [Created] (HBASE-14366) NPE in case visibility expression is not present in labels table during importtsv run"
"""Lars George (JIRA)"" <jira@apache.org>","Fri, 4 Sep 2015 13:15:45 +0000 (UTC)","[jira] [Created] (HBASE-14367) Add normalization support to shell"
"Nick Dimiduk <ndimiduk@apache.org>","Fri, 4 Sep 2015 08:11:09 -0700","HBASE-14317 and 1.1.3"
"Sean Busbey <busbey@cloudera.com>","Fri, 4 Sep 2015 10:46:19 -0500","Re: HBASE-14317 and 1.1.3"
"Sean Busbey <busbey@cloudera.com>","Fri, 4 Sep 2015 12:24:20 -0500","Re: Testing and CI -- Apache Jenkins Builds"
"Stack <stack@duboce.net>","Fri, 4 Sep 2015 10:42:16 -0700","Re: Testing and CI -- Apache Jenkins Builds"
"""stack (JIRA)"" <jira@apache.org>","Fri, 4 Sep 2015 22:42:46 +0000 (UTC)","[jira] [Created] (HBASE-14368) New TestWALLockup broken by addendum added to parent issue"
"""Andrew Purtell (JIRA)"" <jira@apache.org>","Fri, 4 Sep 2015 23:04:45 +0000 (UTC)","[jira] [Resolved] (HBASE-14364) hlog_roll and compact_rs broken in shell"
"Andrew Purtell <apurtell@apache.org>","Fri, 4 Sep 2015 16:08:17 -0700","Re: HBASE-14317 and 1.1.3"
"Eric Owhadi <eric.owhadi@esgyn.com>","Fri, 4 Sep 2015 19:06:24 -0500","RE: Question on hbase.client.scanner.timeout.period"
"""Elliott Clark (JIRA)"" <jira@apache.org>","Sat, 5 Sep 2015 01:41:45 +0000 (UTC)","[jira] [Created] (HBASE-14369) Add package to protobuf files"
"Stack <stack@duboce.net>","Sat, 5 Sep 2015 09:07:47 -0700","Re: Question on hbase.client.scanner.timeout.period"
"""Ted Yu (JIRA)"" <jira@apache.org>","Sat, 5 Sep 2015 16:15:45 +0000 (UTC)","[jira] [Created] (HBASE-14370) Use separate thread for calling ZKPermissionWatcher#refreshNodes()"
"Jerry He <jerryjch@gmail.com>","Sat, 5 Sep 2015 11:47:08 -0700","Re: Question on hbase.client.scanner.timeout.period"
"""Andrew Purtell (JIRA)"" <jira@apache.org>","Sat, 5 Sep 2015 21:52:45 +0000 (UTC)","[jira] [Created] (HBASE-14371) Backport the MasterKillingMonkeyFactory from HBASE-13470 to 0.98"
"""Sean Busbey (JIRA)"" <jira@apache.org>","Sat, 5 Sep 2015 22:18:45 +0000 (UTC)","[jira] [Created] (HBASE-14372) test-patch doesn't properly account for flakey tests"
"""Sean Busbey (JIRA)"" <jira@apache.org>","Sat, 5 Sep 2015 23:04:46 +0000 (UTC)","[jira] [Resolved] (HBASE-14339) HBase Bulk Load and super wide rows"
"""Pankaj Kumar (JIRA)"" <jira@apache.org>","Sun, 6 Sep 2015 04:06:45 +0000 (UTC)","[jira] [Created] (HBASE-14373) PerformanceEvaluation tool should support huge number of rows beyond int range"
"""Pankaj Kumar (JIRA)"" <jira@apache.org>","Sun, 6 Sep 2015 07:38:45 +0000 (UTC)","[jira] [Resolved] (HBASE-14373) PerformanceEvaluation tool should support huge number of rows beyond int range"
"""wangyongqiang0617@163.com"" <wangyongqiang0617@163.com>","Mon, 7 Sep 2015 09:15:32 +0800","improvement in htable.doput"
"Ted Yu <yuzhihong@gmail.com>","Sun, 6 Sep 2015 19:06:11 -0700","Re: improvement in htable.doput"
"""wangyongqiang0617@163.com"" <wangyongqiang0617@163.com>","Mon, 7 Sep 2015 10:44:06 +0800","Re: Re: improvement in htable.doput"
"""stack (JIRA)"" <jira@apache.org>","Mon, 7 Sep 2015 04:57:45 +0000 (UTC)","[jira] [Created] (HBASE-14374) Backport parent issue to 1.1 and 1.0"
"""Sean Busbey (JIRA)"" <jira@apache.org>","Mon, 7 Sep 2015 14:34:46 +0000 (UTC)","[jira] [Created] (HBASE-14375) define public API for spark integration module"
"""Sean Busbey (JIRA)"" <jira@apache.org>","Mon, 7 Sep 2015 14:39:45 +0000 (UTC)","[jira] [Created] (HBASE-14376) move hbase spark integration examples into their own module"
"""Sean Busbey (JIRA)"" <jira@apache.org>","Mon, 7 Sep 2015 14:42:46 +0000 (UTC)","[jira] [Created] (HBASE-14377) JavaHBaseContextSuite not being run"
"""Elliott Clark (JIRA)"" <jira@apache.org>","Mon, 7 Sep 2015 23:33:45 +0000 (UTC)","[jira] [Resolved] (HBASE-14369) Add package to protobuf files"
"Matteo Bertozzi <mbertozzi@apache.org>","Mon, 7 Sep 2015 20:42:39 -0700","Planning for HBase 2.0"
"""stack (JIRA)"" <jira@apache.org>","Tue, 8 Sep 2015 03:43:45 +0000 (UTC)","[jira] [Created] (HBASE-14378) Get TestAccessController* passing again on branch-1"
"Ted Yu <yuzhihong@gmail.com>","Mon, 7 Sep 2015 21:14:01 -0700","Re: Planning for HBase 2.0"
"Matteo Bertozzi <theo.bertozzi@gmail.com>","Mon, 7 Sep 2015 21:42:30 -0700","Re: Planning for HBase 2.0"
"""Andrew Purtell (JIRA)"" <jira@apache.org>","Tue, 8 Sep 2015 04:42:45 +0000 (UTC)","[jira] [Created] (HBASE-14379) Replication V2"
"""Andrew Purtell (JIRA)"" <jira@apache.org>","Tue, 8 Sep 2015 04:48:46 +0000 (UTC)","[jira] [Resolved] (HBASE-8253) A corrupted log blocked ReplicationSource"
"Andrew Purtell <apurtell@apache.org>","Mon, 7 Sep 2015 22:01:03 -0700","Re: Planning for HBase 2.0"
"Andrew Purtell <apurtell@apache.org>","Mon, 7 Sep 2015 22:43:26 -0700","Considering a completely different administrative approach for Replication v2"
"Jerry He <jerryjch@gmail.com>","Mon, 7 Sep 2015 23:48:23 -0700","Re: Considering a completely different administrative approach for Replication v2"
"=?UTF-8?B?5a6+6I6J6YeR?= <binlijin@gmail.com>","Tue, 8 Sep 2015 15:49:11 +0800","Should we reset after snapshot in MutableHistogram?"
"=?UTF-8?B?5a6+6I6J6YeR?= <binlijin@gmail.com>","Tue, 8 Sep 2015 16:23:57 +0800","Re: Should we reset after snapshot in MutableHistogram?"
"=?UTF-8?B?6Yi05pyo5L+K6KOV?= <brfrn169@gmail.com>","Tue, 8 Sep 2015 18:01:35 +0900","Performance degradation between CDH5.3.1(HBase0.98.6) and CDH5.4.5(HBase1.0.0)"
"""zhou_shuaifeng@sina.com"" <zhou_shuaifeng@sina.com>","Tue, 8 Sep 2015 19:10:28 +0800","RpcRetryingCaller error message is too simple"
"""Bhupendra Kumar Jain (JIRA)"" <jira@apache.org>","Tue, 8 Sep 2015 12:27:47 +0000 (UTC)","[jira] [Created] (HBASE-14380) Correct data also getting skipped along with bad data in importTsv bulk load thru TsvImporterTextMapper"
"Ted Yu <yuzhihong@gmail.com>","Tue, 8 Sep 2015 08:05:46 -0700","Re: Performance degradation between CDH5.3.1(HBase0.98.6) and CDH5.4.5(HBase1.0.0)"
"Andrew Purtell <apurtell@apache.org>","Tue, 8 Sep 2015 08:59:49 -0700","Re: Considering a completely different administrative approach for Replication v2"
"""stack (JIRA)"" <jira@apache.org>","Tue, 8 Sep 2015 16:28:46 +0000 (UTC)","[jira] [Resolved] (HBASE-6198) Sometimes we synchronize on RegionState instance updating it, most of the time we don't.  Fix"
"""stack (JIRA)"" <jira@apache.org>","Tue, 8 Sep 2015 16:36:46 +0000 (UTC)","[jira] [Resolved] (HBASE-6672) Split reads/writes from HBaseClient into smaller chunks, to avoid allocating large directMemoryBuffers"
"""stack (JIRA)"" <jira@apache.org>","Tue, 8 Sep 2015 16:37:46 +0000 (UTC)","[jira] [Resolved] (HBASE-5326) splitlogmanager zk async handlers after shutdown"
"""stack (JIRA)"" <jira@apache.org>","Tue, 8 Sep 2015 16:37:47 +0000 (UTC)","[jira] [Resolved] (HBASE-6462) TestAcidGuarantees failed on trunk"
"""stack (JIRA)"" <jira@apache.org>","Tue, 8 Sep 2015 16:38:45 +0000 (UTC)","[jira] [Resolved] (HBASE-6452) get rid of processSingleMultiput"
"""stack (JIRA)"" <jira@apache.org>","Tue, 8 Sep 2015 16:39:46 +0000 (UTC)","[jira] [Resolved] (HBASE-5249) Using a stale explicit row lock in a Put triggers an NPE"
"""stack (JIRA)"" <jira@apache.org>","Tue, 8 Sep 2015 16:39:47 +0000 (UTC)","[jira] [Resolved] (HBASE-4762) ROOT and META region never be assigned if IOE throws in verifyRootRegionLocation"
"""stack (JIRA)"" <jira@apache.org>","Tue, 8 Sep 2015 16:40:46 +0000 (UTC)","[jira] [Resolved] (HBASE-6342) Setup apache jenkins trunk builds with stable and flaky builds"
"""stack (JIRA)"" <jira@apache.org>","Tue, 8 Sep 2015 16:42:46 +0000 (UTC)","[jira] [Resolved] (HBASE-5362) ZK connection leak"
"""stack (JIRA)"" <jira@apache.org>","Tue, 8 Sep 2015 16:44:45 +0000 (UTC)","[jira] [Resolved] (HBASE-5789) Offer the ability to delete a stale connection by using a configuration instead of HConnection"
"""stack (JIRA)"" <jira@apache.org>","Tue, 8 Sep 2015 16:45:48 +0000 (UTC)","[jira] [Resolved] (HBASE-6215) per-request profiling"
"Vladimir Rodionov <vladrodionov@gmail.com>","Tue, 8 Sep 2015 09:56:17 -0700","Re: Considering a completely different administrative approach for Replication v2"
"""stack (JIRA)"" <jira@apache.org>","Tue, 8 Sep 2015 17:01:45 +0000 (UTC)","[jira] [Resolved] (HBASE-7085) HTableInterface with isAutoFlush()==false does not flushCommits when unlockRow is is called."
"""stack (JIRA)"" <jira@apache.org>","Tue, 8 Sep 2015 17:01:46 +0000 (UTC)","[jira] [Resolved] (HBASE-7068) Create a Get benchmark"
"""stack (JIRA)"" <jira@apache.org>","Tue, 8 Sep 2015 17:03:47 +0000 (UTC)","[jira] [Resolved] (HBASE-7029) Result array serialization improvements"
"""stack (JIRA)"" <jira@apache.org>","Tue, 8 Sep 2015 17:03:49 +0000 (UTC)","[jira] [Resolved] (HBASE-5341) Push the security 0.92 profile to maven repo"
"""stack (JIRA)"" <jira@apache.org>","Tue, 8 Sep 2015 17:04:46 +0000 (UTC)","[jira] [Resolved] (HBASE-6922) HBase scanner performance improvements"
"""stack (JIRA)"" <jira@apache.org>","Tue, 8 Sep 2015 17:05:46 +0000 (UTC)","[jira] [Resolved] (HBASE-5122) Provide flexible method for loading ColumnInterpreters"
"""stack (JIRA)"" <jira@apache.org>","Tue, 8 Sep 2015 17:06:47 +0000 (UTC)","[jira] [Resolved] (HBASE-6857) Investigate slow operations"
"""stack (JIRA)"" <jira@apache.org>","Tue, 8 Sep 2015 17:07:46 +0000 (UTC)","[jira] [Resolved] (HBASE-6836) [89-fb] Parallel deletes in HBase Thrift server"
"""stack (JIRA)"" <jira@apache.org>","Tue, 8 Sep 2015 17:08:45 +0000 (UTC)","[jira] [Resolved] (HBASE-6754) Import .META. table exported from 0.94"
"""stack (JIRA)"" <jira@apache.org>","Tue, 8 Sep 2015 17:10:46 +0000 (UTC)","[jira] [Resolved] (HBASE-6729) [89-fb] Fix broken test - TestSplitLogWorker"
"""stack (JIRA)"" <jira@apache.org>","Tue, 8 Sep 2015 17:10:46 +0000 (UTC)","[jira] [Resolved] (HBASE-3803) Make the load balancer run with a gentle hand"
"""stack (JIRA)"" <jira@apache.org>","Tue, 8 Sep 2015 17:11:46 +0000 (UTC)","[jira] [Resolved] (HBASE-4926) DebugFilter; counts how many KVs skipped before result found, counts storefiles we tripped over"
"""Nick Dimiduk (JIRA)"" <jira@apache.org>","Tue, 8 Sep 2015 17:12:45 +0000 (UTC)","[jira] [Created] (HBASE-14381) Expose client-side metrics via Connection API"
"""stack (JIRA)"" <jira@apache.org>","Tue, 8 Sep 2015 17:13:46 +0000 (UTC)","[jira] [Resolved] (HBASE-6636) [0.92 UNIT TESTS] TestMasterZKSessionRecovery.testRegionAssignmentAfterMasterRecoveryDueToZKExpiry failed in 0.92 #513 and #496"
"""stack (JIRA)"" <jira@apache.org>","Tue, 8 Sep 2015 17:14:46 +0000 (UTC)","[jira] [Resolved] (HBASE-3945) Load balancer shouldn't move the same region in two consective balancing actions"
"""Nick Dimiduk (JIRA)"" <jira@apache.org>","Tue, 8 Sep 2015 19:10:45 +0000 (UTC)","[jira] [Created] (HBASE-14382) Missing interface audience annotations"
"""Nick Dimiduk (JIRA)"" <jira@apache.org>","Tue, 8 Sep 2015 20:20:46 +0000 (UTC)","[jira] [Resolved] (HBASE-14382) Missing interface audience annotations"
"Nick Dimiduk <ndimiduk@gmail.com>","Tue, 8 Sep 2015 13:58:22 -0700","Re: [DISCUSS] Updating stable release to 1.1.x"
"Nick Dimiduk <ndimiduk@apache.org>","Tue, 8 Sep 2015 14:28:50 -0700","Re: Planning for HBase 2.0"
"Ted Yu <yuzhihong@gmail.com>","Tue, 8 Sep 2015 14:36:06 -0700","Re: Planning for HBase 2.0"
"Matteo Bertozzi <theo.bertozzi@gmail.com>","Tue, 8 Sep 2015 14:41:39 -0700","Re: Planning for HBase 2.0"
"""Nick Dimiduk (JIRA)"" <jira@apache.org>","Tue, 8 Sep 2015 22:32:46 +0000 (UTC)","[jira] [Reopened] (HBASE-14382) Missing interface audience annotations"
"Stephen Jiang <syuanjiangdev@gmail.com>","Tue, 8 Sep 2015 16:13:06 -0700","Re: Planning for HBase 2.0"
"""Vladimir Rodionov (JIRA)"" <jira@apache.org>","Wed, 9 Sep 2015 00:09:46 +0000 (UTC)","[jira] [Created] (HBASE-14383) Compaction improvements"
"""Sanjeev Srivatsa (JIRA)"" <jira@apache.org>","Wed, 9 Sep 2015 01:01:46 +0000 (UTC)","[jira] [Created] (HBASE-14384) Trying to run canary locally with -regionserver option causes exception"
"""Srikanth Srungarapu (JIRA)"" <jira@apache.org>","Wed, 9 Sep 2015 01:39:45 +0000 (UTC)","[jira] [Created] (HBASE-14385) Close the sockets that is missing in connection closure."
"""binlijin (JIRA)"" <jira@apache.org>","Wed, 9 Sep 2015 02:00:50 +0000 (UTC)","[jira] [Created] (HBASE-14386) Reset MutableHistogram's min/max/sum after snapshot"
"""Vladimir Rodionov (JIRA)"" <jira@apache.org>","Wed, 9 Sep 2015 03:59:45 +0000 (UTC)","[jira] [Created] (HBASE-14387) Compaction improvements: maximum compaction size"
"""Vladimir Rodionov (JIRA)"" <jira@apache.org>","Wed, 9 Sep 2015 04:07:45 +0000 (UTC)","[jira] [Created] (HBASE-14388) Compaction improvements: avoid flush storms by jittering flush interval and max log files"
"""Vladimir Rodionov (JIRA)"" <jira@apache.org>","Wed, 9 Sep 2015 04:13:45 +0000 (UTC)","[jira] [Created] (HBASE-14389) Compaction improvements: ExploringCompactionPolicy selection evaluation algorithm"
"=?UTF-8?B?6Yi05pyo5L+K6KOV?= <brfrn169@gmail.com>","Wed, 9 Sep 2015 14:22:43 +0900","Re: Performance degradation between CDH5.3.1(HBase0.98.6) and CDH5.4.5(HBase1.0.0)"
"Stack <stack@duboce.net>","Tue, 8 Sep 2015 23:29:36 -0700","Re: Performance degradation between CDH5.3.1(HBase0.98.6) and CDH5.4.5(HBase1.0.0)"
"""Heng Chen (JIRA)"" <jira@apache.org>","Wed, 9 Sep 2015 07:23:45 +0000 (UTC)","[jira] [Created] (HBASE-14390) Compile failed after merge HBASE-14147"
"""Qianxi Zhang (JIRA)"" <jira@apache.org>","Wed, 9 Sep 2015 08:13:45 +0000 (UTC)","[jira] [Created] (HBASE-14391) Empty regionserver WAL will never be deleted although the coresponding regionserver has been stale"
"""stack (JIRA)"" <jira@apache.org>","Wed, 9 Sep 2015 13:54:46 +0000 (UTC)","[jira] [Reopened] (HBASE-14147) REST Support for Namespaces"
"""stack (JIRA)"" <jira@apache.org>","Wed, 9 Sep 2015 17:18:45 +0000 (UTC)","[jira] [Created] (HBASE-14392) [tests] TestLogRollingNoCluster fails on master from time to time"
"""stack (JIRA)"" <jira@apache.org>","Wed, 9 Sep 2015 22:23:46 +0000 (UTC)","[jira] [Created] (HBASE-14393) Have TestHFileEncryption clean up after itself"
"Andrew Purtell <apurtell@apache.org>","Wed, 9 Sep 2015 16:14:57 -0700","Any interest in a meetup in October?"
"Vladimir Rodionov <vladrodionov@gmail.com>","Wed, 9 Sep 2015 16:23:46 -0700","Re: Any interest in a meetup in October?"
"""Andrew Purtell (JIRA)"" <jira@apache.org>","Wed, 9 Sep 2015 23:35:46 +0000 (UTC)","[jira] [Resolved] (HBASE-14390) Compile failed after merge HBASE-14147"
"Mikhail Antonov <olorinbant@gmail.com>","Wed, 9 Sep 2015 19:22:50 -0700","Re: Any interest in a meetup in October?"
"""stack (JIRA)"" <jira@apache.org>","Thu, 10 Sep 2015 04:16:46 +0000 (UTC)","[jira] [Resolved] (HBASE-14147) REST Support for Namespaces"
"""stack (JIRA)"" <jira@apache.org>","Thu, 10 Sep 2015 04:38:45 +0000 (UTC)","[jira] [Reopened] (HBASE-14147) REST Support for Namespaces"
"""Srikanth Srungarapu (JIRA)"" <jira@apache.org>","Thu, 10 Sep 2015 06:26:46 +0000 (UTC)","[jira] [Created] (HBASE-14394) Properly close the connection while reading records from table."
"""Anoop Sam John (JIRA)"" <jira@apache.org>","Thu, 10 Sep 2015 11:49:45 +0000 (UTC)","[jira] [Created] (HBASE-14395) Short circuit last byte check in CellUtil#matchingXXX methods for ByteBufferedCells"
"""sunhaitao (JIRA)"" <jira@apache.org>","Thu, 10 Sep 2015 12:09:45 +0000 (UTC)","[jira] [Created] (HBASE-14396) audit log should  record the operation object"
"""cuijianwei (JIRA)"" <jira@apache.org>","Thu, 10 Sep 2015 13:01:46 +0000 (UTC)","[jira] [Created] (HBASE-14397) PrefixFilter fail to filter all remainings if the prefix is longer than compared rowkey"
"""zhou_shuaifeng@sina.com"" <zhou_shuaifeng@sina.com>","Thu, 10 Sep 2015 21:09:51 +0800","NotServingRegion: hbase region closed forever when open region response time out"
"""ramkrishna.s.vasudevan (JIRA)"" <jira@apache.org>","Thu, 10 Sep 2015 13:37:45 +0000 (UTC)","[jira] [Created] (HBASE-14398) Create the fake keys required in the scan path to avoid copy to byte[]"
"Ted Yu <yuzhihong@gmail.com>","Thu, 10 Sep 2015 07:23:24 -0700","Re: NotServingRegion: hbase region closed forever when open region response time out"
"""songwanging (JIRA)"" <jira@apache.org>","Thu, 10 Sep 2015 16:21:46 +0000 (UTC)","[jira] [Created] (HBASE-14399) unhandled exception"
"Gary Helmling <ghelmling@gmail.com>","Thu, 10 Sep 2015 16:44:54 +0000","Re: Any interest in a meetup in October?"
"Eric Owhadi <eric.owhadi@esgyn.com>","Thu, 10 Sep 2015 12:21:04 -0500","RE: Question on hbase.client.scanner.timeout.period"
"""Apekshit Sharma (JIRA)"" <jira@apache.org>","Thu, 10 Sep 2015 19:50:45 +0000 (UTC)","[jira] [Created] (HBASE-14400) Fix HBase RPC protection"
"""stack (JIRA)"" <jira@apache.org>","Thu, 10 Sep 2015 20:33:45 +0000 (UTC)","[jira] [Created] (HBASE-14401) Stamp failed appends with sequenceid too.... Cleans up latches"
"""Vladimir Rodionov (JIRA)"" <jira@apache.org>","Thu, 10 Sep 2015 20:36:45 +0000 (UTC)","[jira] [Resolved] (HBASE-14134) HBase Backup/Restore Phase 2: Backup sets management"
"""stack (JIRA)"" <jira@apache.org>","Thu, 10 Sep 2015 21:13:47 +0000 (UTC)","[jira] [Reopened] (HBASE-14361) ReplicationSink should create Connection instances lazily"
"Stack <stack@duboce.net>","Thu, 10 Sep 2015 14:23:23 -0700","Re: Question on hbase.client.scanner.timeout.period"
"Dima Spivak <dspivak@cloudera.com>","Thu, 10 Sep 2015 15:07:40 -0700","Re: Any interest in a meetup in October?"
"Stack <stack@duboce.net>","Thu, 10 Sep 2015 15:09:13 -0700","Re: Testing and CI -- Apache Jenkins Builds"
"Eric Owhadi <eric.owhadi@esgyn.com>","Thu, 10 Sep 2015 17:14:41 -0500","RE: Question on hbase.client.scanner.timeout.period"
"""Andrew Purtell (JIRA)"" <jira@apache.org>","Thu, 10 Sep 2015 22:23:46 +0000 (UTC)","[jira] [Resolved] (HBASE-14396) audit log should  record the operation object"
"""Andrew Purtell (JIRA)"" <jira@apache.org>","Thu, 10 Sep 2015 22:26:46 +0000 (UTC)","[jira] [Resolved] (HBASE-14399) unhandled exception"
"Stack <stack@duboce.net>","Thu, 10 Sep 2015 15:48:47 -0700","Re: Question on hbase.client.scanner.timeout.period"
"""stack (JIRA)"" <jira@apache.org>","Thu, 10 Sep 2015 22:53:45 +0000 (UTC)","[jira] [Created] (HBASE-14402) TestFastFail.testFastFail:274 There should be atleast one PreemptiveFastFail exception, otherwise, the test makes little sense.numPreemptiveFastFailExceptions"
"""Nick Dimiduk (JIRA)"" <jira@apache.org>","Thu, 10 Sep 2015 23:24:47 +0000 (UTC)","[jira] [Reopened] (HBASE-14382) TestInterfaceAudienceAnnotations should hadoop-compt module resources"
"Eric Owhadi <eric.owhadi@esgyn.com>","Thu, 10 Sep 2015 18:26:13 -0500","RE: Question on hbase.client.scanner.timeout.period"
"""Nick Dimiduk (JIRA)"" <jira@apache.org>","Thu, 10 Sep 2015 23:43:45 +0000 (UTC)","[jira] [Created] (HBASE-14403) [0.98] fix InterfaceAudience annotations"
"Stack <stack@duboce.net>","Thu, 10 Sep 2015 16:45:36 -0700","Re: Question on hbase.client.scanner.timeout.period"
"""Nick Dimiduk (JIRA)"" <jira@apache.org>","Thu, 10 Sep 2015 23:45:46 +0000 (UTC)","[jira] [Resolved] (HBASE-14382) TestInterfaceAudienceAnnotations should hadoop-compt module resources"
"""Andrew Purtell (JIRA)"" <jira@apache.org>","Thu, 10 Sep 2015 23:56:46 +0000 (UTC)","[jira] [Created] (HBASE-14404) Backport HBASE-14098 (Allow dropping caches behind compactions) to 0.9"
"""Esteban Gutierrez (JIRA)"" <jira@apache.org>","Fri, 11 Sep 2015 00:01:42 +0000 (UTC)","[jira] [Created] (HBASE-14405) region_mover.rb should verify the location of the region that is being scanned by isSuccessfulScan()"
"""sunhaitao (JIRA)"" <jira@apache.org>","Fri, 11 Sep 2015 01:02:45 +0000 (UTC)","[jira] [Reopened] (HBASE-14396) audit log should  record the operation object"
"""zhou_shuaifeng@sina.com"" <zhou_shuaifeng@sina.com>","Fri, 11 Sep 2015 09:05:27 +0800","Re: Re: NotServingRegion: hbase region closed forever when open region response time out"
"""Zhan Zhang (JIRA)"" <jira@apache.org>","Fri, 11 Sep 2015 05:00:48 +0000 (UTC)","[jira] [Created] (HBASE-14406) The dataframe datasource filter is wrong, and will result in data loss or unexpected behavior"
"""Shuaifeng Zhou (JIRA)"" <jira@apache.org>","Fri, 11 Sep 2015 05:47:45 +0000 (UTC)","[jira] [Created] (HBASE-14407) NotServingRegion: hbase region closed forever"
"""Daisuke Kobayashi (JIRA)"" <jira@apache.org>","Fri, 11 Sep 2015 06:29:45 +0000 (UTC)","[jira] [Created] (HBASE-14408) Separate RPC pool for metadata and data related RPCs, for better HBCK use"
"""sunhaitao (JIRA)"" <jira@apache.org>","Fri, 11 Sep 2015 07:56:46 +0000 (UTC)","[jira] [Resolved] (HBASE-14396) audit log should  record the operation object"
"""Ashish Singhi (JIRA)"" <jira@apache.org>","Fri, 11 Sep 2015 08:24:45 +0000 (UTC)","[jira] [Reopened] (HBASE-14396) audit log should  record the operation object"
"""Ashish Singhi (JIRA)"" <jira@apache.org>","Fri, 11 Sep 2015 08:24:46 +0000 (UTC)","[jira] [Resolved] (HBASE-14396) audit log should  record the operation object"
"""Lars George (JIRA)"" <jira@apache.org>","Fri, 11 Sep 2015 14:16:46 +0000 (UTC)","[jira] [Created] (HBASE-14409) Clarify use of hbase.hstore.compaction.max.size in ExploringCompactionPolicy"
"""Jonathan Leech (JIRA)"" <jira@apache.org>","Fri, 11 Sep 2015 17:40:46 +0000 (UTC)","[jira] [Created] (HBASE-14410) HBase replication hangs"
"""Yu Li (JIRA)"" <jira@apache.org>","Fri, 11 Sep 2015 18:58:45 +0000 (UTC)","[jira] [Created] (HBASE-14411) Fix UT failures when using multiwal as default provider"
"""Biju Nair (JIRA)"" <jira@apache.org>","Fri, 11 Sep 2015 18:59:45 +0000 (UTC)","[jira] [Created] (HBASE-14412) remove_peer of replication peers with hyphens in name doesn't remove ZK entries"
"""Vladimir Rodionov (JIRA)"" <jira@apache.org>","Fri, 11 Sep 2015 22:10:45 +0000 (UTC)","[jira] [Created] (HBASE-14413) HBase snapshots v2"
"""Vladimir Rodionov (JIRA)"" <jira@apache.org>","Fri, 11 Sep 2015 22:22:46 +0000 (UTC)","[jira] [Created] (HBASE-14414) HBase Backup/Restore Phase 3"
"""Vladimir Rodionov (JIRA)"" <jira@apache.org>","Fri, 11 Sep 2015 22:24:45 +0000 (UTC)","[jira] [Created] (HBASE-14415) Full backup based on Snapshot v2"
"""Geoffrey Jacoby (JIRA)"" <jira@apache.org>","Fri, 11 Sep 2015 22:26:45 +0000 (UTC)","[jira] [Created] (HBASE-14416) HBase Backup/Restore Phase 2: Create plugin hooks for Backup tools"
"""Vladimir Rodionov (JIRA)"" <jira@apache.org>","Fri, 11 Sep 2015 22:31:46 +0000 (UTC)","[jira] [Created] (HBASE-14417) Incremental backup and bulk loading"
"""Lars Hofhansl (JIRA)"" <jira@apache.org>","Sat, 12 Sep 2015 00:07:45 +0000 (UTC)","[jira] [Created] (HBASE-14418) Make better SEEK vs SKIP decision with seek hints."
"""chenlong (JIRA)"" <jira@apache.org>","Sat, 12 Sep 2015 14:34:45 +0000 (UTC)","[jira] [Created] (HBASE-14419) Error: Could not find or load main class org.apache.hadoop.hbase.util.HBaseConfTool"
"=?UTF-8?B?6Yi05pyo5L+K6KOV?= <brfrn169@gmail.com>","Sun, 13 Sep 2015 00:09:31 +0900","Re: Performance degradation between CDH5.3.1(HBase0.98.6) and CDH5.4.5(HBase1.0.0)"
"""Ashish Singhi (JIRA)"" <jira@apache.org>","Sat, 12 Sep 2015 15:39:45 +0000 (UTC)","[jira] [Resolved] (HBASE-14419) Error: Could not find or load main class org.apache.hadoop.hbase.util.HBaseConfTool"
"""stack (JIRA)"" <jira@apache.org>","Sat, 12 Sep 2015 18:53:45 +0000 (UTC)","[jira] [Created] (HBASE-14420) Zombie Stomping Session"
"""Lars Hofhansl (JIRA)"" <jira@apache.org>","Sat, 12 Sep 2015 23:38:46 +0000 (UTC)","[jira] [Resolved] (HBASE-14418) Make better SEEK vs SKIP decision with seek hints."
"Stack <stack@duboce.net>","Sat, 12 Sep 2015 22:11:06 -0700","Re: Performance degradation between CDH5.3.1(HBase0.98.6) and CDH5.4.5(HBase1.0.0)"
"""stack (JIRA)"" <jira@apache.org>","Sun, 13 Sep 2015 05:32:46 +0000 (UTC)","[jira] [Created] (HBASE-14421) TestFastFail* are flakey"
"""stack (JIRA)"" <jira@apache.org>","Sun, 13 Sep 2015 05:45:47 +0000 (UTC)","[jira] [Created] (HBASE-14422) Fix TestFastFailWithoutTestUtil"
"""stack (JIRA)"" <jira@apache.org>","Sun, 13 Sep 2015 14:19:45 +0000 (UTC)","[jira] [Created] (HBASE-14423) TestStochasticBalancerJmxMetrics.testJmxMetrics_PerTableMode:183 NullPointer"
"""stack (JIRA)"" <jira@apache.org>","Sun, 13 Sep 2015 14:39:46 +0000 (UTC)","[jira] [Resolved] (HBASE-14423) TestStochasticBalancerJmxMetrics.testJmxMetrics_PerTableMode:183 NullPointer"
"""Misty Stanley-Jones (JIRA)"" <jira@apache.org>","Mon, 14 Sep 2015 00:45:45 +0000 (UTC)","[jira] [Created] (HBASE-14424) Document that DisabledRegionSplitPolicy blocks manual splits"
"=?UTF-8?B?6Yi05pyo5L+K6KOV?= <brfrn169@gmail.com>","Mon, 14 Sep 2015 20:15:21 +0900","Re: Performance degradation between CDH5.3.1(HBase0.98.6) and CDH5.4.5(HBase1.0.0)"
"""Pankaj Kumar (JIRA)"" <jira@apache.org>","Mon, 14 Sep 2015 13:01:45 +0000 (UTC)","[jira] [Created] (HBASE-14425) In Secure Zookeeper cluster superuser will not have sufficient permission if muliple values are configured in ""hbase.superuser"""
"""Pankaj Kumar (JIRA)"" <jira@apache.org>","Mon, 14 Sep 2015 13:09:45 +0000 (UTC)","[jira] [Created] (HBASE-14426) Authentication provider is hard coded as ""auth"""
"""Ted Yu (JIRA)"" <jira@apache.org>","Mon, 14 Sep 2015 14:00:50 +0000 (UTC)","[jira] [Resolved] (HBASE-14380) Correct data gets skipped along with bad data in importTsv bulk load thru TsvImporterTextMapper"
"""stack (JIRA)"" <jira@apache.org>","Mon, 14 Sep 2015 15:39:45 +0000 (UTC)","[jira] [Created] (HBASE-14427) Fix 'should' assertions in TestFastFail"
"""stack (JIRA)"" <jira@apache.org>","Mon, 14 Sep 2015 15:45:45 +0000 (UTC)","[jira] [Created] (HBASE-14428) Upgrade our surefire-plugin from 2.18 to 2.18.1"
"""Daniel Templeton (JIRA)"" <jira@apache.org>","Mon, 14 Sep 2015 16:01:46 +0000 (UTC)","[jira] [Created] (HBASE-14429) Checkstyle report is broken"
"""Ted Yu (JIRA)"" <jira@apache.org>","Mon, 14 Sep 2015 16:04:46 +0000 (UTC)","[jira] [Reopened] (HBASE-14380) Correct data gets skipped along with bad data in importTsv bulk load thru TsvImporterTextMapper"
"""stack (JIRA)"" <jira@apache.org>","Mon, 14 Sep 2015 16:46:45 +0000 (UTC)","[jira] [Resolved] (HBASE-14402) TestFastFail.testFastFail:274 There should be atleast one PreemptiveFastFail exception, otherwise, the test makes little sense.numPreemptiveFastFailExceptions"
"""stack (JIRA)"" <jira@apache.org>","Mon, 14 Sep 2015 16:57:46 +0000 (UTC)","[jira] [Created] (HBASE-14430) TestHttpServerLifecycle#testStartedServerIsAlive times out"
"""Samir Ahmic (JIRA)"" <jira@apache.org>","Mon, 14 Sep 2015 17:44:46 +0000 (UTC)","[jira] [Created] (HBASE-14431) AsyncRpcClient#removeConnection() never removes connection from connections pool if server fails"
"""stack (JIRA)"" <jira@apache.org>","Mon, 14 Sep 2015 18:23:46 +0000 (UTC)","[jira] [Resolved] (HBASE-14421) TestFastFail* are flakey"
"""Stephen Yuan Jiang (JIRA)"" <jira@apache.org>","Mon, 14 Sep 2015 18:55:47 +0000 (UTC)","[jira] [Created] (HBASE-14432) Procedure V2 - Procedure.owner field should be set to enforce ACL on admin tasks"
"""stack (JIRA)"" <jira@apache.org>","Mon, 14 Sep 2015 20:24:46 +0000 (UTC)","[jira] [Created] (HBASE-14433) Set down the client executor core thread count from 256 to number of processors"
"""Andrew Purtell (JIRA)"" <jira@apache.org>","Mon, 14 Sep 2015 21:42:46 +0000 (UTC)","[jira] [Created] (HBASE-14434) Merge of HBASE-7332 to 0.98 dropped a hunk"
"""stack (JIRA)"" <jira@apache.org>","Mon, 14 Sep 2015 22:21:46 +0000 (UTC)","[jira] [Created] (HBASE-14435) thrift tests don't have test-specific hbase-site.xml so 'BindException: Address already in use' because info port is not turned off"
"""Enis Soztutar (JIRA)"" <jira@apache.org>","Mon, 14 Sep 2015 23:06:46 +0000 (UTC)","[jira] [Resolved] (HBASE-14412) remove_peer of replication peers with hyphens in name doesn't remove ZK entries"
"Stack <stack@duboce.net>","Mon, 14 Sep 2015 19:42:12 -0700","Re: Testing and CI -- Apache Jenkins Builds"
"""cuijianwei (JIRA)"" <jira@apache.org>","Tue, 15 Sep 2015 10:21:45 +0000 (UTC)","[jira] [Created] (HBASE-14436) HTableDescriptor#addCoprocessor will always make RegionCoprocessorHost create new Configuration"
"""ramkrishna.s.vasudevan (JIRA)"" <jira@apache.org>","Tue, 15 Sep 2015 10:39:45 +0000 (UTC)","[jira] [Created] (HBASE-14437) ArithmeticException in ReplicationInterClusterEndpoint"
"""cuijianwei (JIRA)"" <jira@apache.org>","Tue, 15 Sep 2015 11:10:46 +0000 (UTC)","[jira] [Created] (HBASE-14438) admin.rb#alter should invoke HTableDescriptor#addCoprocessorWithSpec instead of HTableDescriptor#addCoprocessorWith"
"""zhou_shuaifeng@sina.com"" <zhou_shuaifeng@sina.com>","Tue, 15 Sep 2015 19:33:35 +0800","Re: Re: NotServingRegion: hbase region closed forever when open region response time out"
"Stack <stack@duboce.net>","Tue, 15 Sep 2015 05:31:39 -0700","Re: Testing and CI -- Apache Jenkins Builds"
"Sean Busbey <busbey@cloudera.com>","Tue, 15 Sep 2015 09:25:44 -0500","Re: Testing and CI -- Apache Jenkins Builds"
"Stack <stack@duboce.net>","Tue, 15 Sep 2015 08:15:36 -0700","Re: Testing and CI -- Apache Jenkins Builds"
"""Vladimir Rodionov (JIRA)"" <jira@apache.org>","Tue, 15 Sep 2015 18:04:46 +0000 (UTC)","[jira] [Resolved] (HBASE-14136) HBase Backup/Restore Phase 2: Convert backup image(s)"
"""Ben Lau (JIRA)"" <jira@apache.org>","Tue, 15 Sep 2015 22:02:45 +0000 (UTC)","[jira] [Created] (HBASE-14439) New Filesystem Abstraction Layer"
"""Vladimir Rodionov (JIRA)"" <jira@apache.org>","Tue, 15 Sep 2015 22:28:47 +0000 (UTC)","[jira] [Created] (HBASE-14440) Restore to snapshot"
"""Vladimir Rodionov (JIRA)"" <jira@apache.org>","Tue, 15 Sep 2015 22:30:45 +0000 (UTC)","[jira] [Created] (HBASE-14441) HBase Backup/Restore Phase 2: Multiple RS per host support"
"Andrew Purtell <apurtell@apache.org>","Tue, 15 Sep 2015 17:41:44 -0700","Re: Any interest in a meetup in October?"
"""Nathan (JIRA)"" <jira@apache.org>","Wed, 16 Sep 2015 06:28:45 +0000 (UTC)","[jira] [Created] (HBASE-14442) MultiTableInputFormatBase.getSplits function dosenot build split for edge row"
"""Elliott Clark (JIRA)"" <jira@apache.org>","Wed, 16 Sep 2015 09:05:46 +0000 (UTC)","[jira] [Resolved] (HBASE-8810) Bring in code constants in line with default xml's"
"""Jianwei Cui (JIRA)"" <jira@apache.org>","Wed, 16 Sep 2015 12:34:46 +0000 (UTC)","[jira] [Created] (HBASE-14443) Add request parameter to the TooSlow/TooLarge warn message of RpcServer"
"""Pankaj Kumar (JIRA)"" <jira@apache.org>","Wed, 16 Sep 2015 12:45:45 +0000 (UTC)","[jira] [Created] (HBASE-14444) ""Home"" link at home page of Master/RegionServer/Thrift is redirecting to jsp file"
"""Pankaj Kumar (JIRA)"" <jira@apache.org>","Wed, 16 Sep 2015 13:02:46 +0000 (UTC)","[jira] [Resolved] (HBASE-14444) ""Home"" link at home page of Master/RegionServer/Thrift is redirecting to jsp file"
"Stephen Jiang <syuanjiangdev@gmail.com>","Wed, 16 Sep 2015 09:50:05 -0700","formatter.rb not respect width > 2 columns"
"Stack <stack@duboce.net>","Wed, 16 Sep 2015 10:06:25 -0700","Re: formatter.rb not respect width > 2 columns"
"""Ted Yu (JIRA)"" <jira@apache.org>","Wed, 16 Sep 2015 19:05:46 +0000 (UTC)","[jira] [Created] (HBASE-14445) ExportSnapshot does not honor -chuser, -chgroup, -chmod options"
"""Ted Yu (JIRA)"" <jira@apache.org>","Wed, 16 Sep 2015 19:18:45 +0000 (UTC)","[jira] [Resolved] (HBASE-14445) ExportSnapshot does not honor -chuser, -chgroup, -chmod options"
"""Ted Yu (JIRA)"" <jira@apache.org>","Wed, 16 Sep 2015 21:16:46 +0000 (UTC)","[jira] [Reopened] (HBASE-13250) chown of ExportSnapshot does not cover all path and files"
"""Ted Yu (JIRA)"" <jira@apache.org>","Wed, 16 Sep 2015 22:40:46 +0000 (UTC)","[jira] [Resolved] (HBASE-13250) chown of ExportSnapshot does not cover all path and files"
"""Vladimir Rodionov (JIRA)"" <jira@apache.org>","Wed, 16 Sep 2015 23:59:46 +0000 (UTC)","[jira] [Created] (HBASE-14446) Save table descriptors and region infos during incremental backup"
"""Andrew Purtell (JIRA)"" <jira@apache.org>","Thu, 17 Sep 2015 01:47:46 +0000 (UTC)","[jira] [Reopened] (HBASE-14275) Backport to 0.98 HBASE-10785 Metas own location should be cached"
"""stack (JIRA)"" <jira@apache.org>","Thu, 17 Sep 2015 04:12:45 +0000 (UTC)","[jira] [Created] (HBASE-14447) Spark tests failing: bind exception when putting up info server"
"""Yu Li (JIRA)"" <jira@apache.org>","Thu, 17 Sep 2015 06:39:45 +0000 (UTC)","[jira] [Created] (HBASE-14448) Refine RegionGroupingProvider Phase-2: remove provider nesting and formalize wal group name"
"""Ted Yu (JIRA)"" <jira@apache.org>","Fri, 18 Sep 2015 15:25:05 +0000 (UTC)","[jira] [Created] (HBASE-14449) Rewrite deadlock prevention due to concurrent connection close"
"""Vladimir Rodionov (JIRA)"" <jira@apache.org>","Fri, 18 Sep 2015 17:10:04 +0000 (UTC)","[jira] [Created] (HBASE-14450) HBase Backup/Restore Phase 2: Multiwal support"
"""Vladimir Rodionov (JIRA)"" <jira@apache.org>","Fri, 18 Sep 2015 17:12:04 +0000 (UTC)","[jira] [Resolved] (HBASE-14446) Save table descriptors and region infos during incremental backup"
"""stack (JIRA)"" <jira@apache.org>","Fri, 18 Sep 2015 18:37:05 +0000 (UTC)","[jira] [Created] (HBASE-14451) Move on to htrace-4.0.0 (from htrace-3.2.0)"
"""Nick Dimiduk (JIRA)"" <jira@apache.org>","Fri, 18 Sep 2015 18:59:04 +0000 (UTC)","[jira] [Created] (HBASE-14452) Allow enabling tracing from configuration"
"""Nick Dimiduk (JIRA)"" <jira@apache.org>","Fri, 18 Sep 2015 20:34:04 +0000 (UTC)","[jira] [Reopened] (HBASE-14230) replace reflection in FSHlog with HdfsDataOutputStream#getCurrentBlockReplication()"
"""Andrew Purtell (JIRA)"" <jira@apache.org>","Fri, 18 Sep 2015 21:32:04 +0000 (UTC)","[jira] [Created] (HBASE-14453) Relocate META when cached location is stale"
"""Andrew Purtell (JIRA)"" <jira@apache.org>","Fri, 18 Sep 2015 21:33:04 +0000 (UTC)","[jira] [Resolved] (HBASE-14275) Backport to 0.98 HBASE-10785 Metas own location should be cached"
"""Nick Dimiduk (JIRA)"" <jira@apache.org>","Fri, 18 Sep 2015 21:37:05 +0000 (UTC)","[jira] [Resolved] (HBASE-14333) responseTooLarge/Slow logs are not actionable when the rpc method is ExecService"
"Nick Dimiduk <ndimiduk@apache.org>","Fri, 18 Sep 2015 14:47:43 -0700","JIRA contributor role"
"Ted Yu <yuzhihong@gmail.com>","Fri, 18 Sep 2015 14:50:58 -0700","Re: JIRA contributor role"
"Sean Busbey <busbey@cloudera.com>","Fri, 18 Sep 2015 16:53:50 -0500","Re: JIRA contributor role"
"Sean Busbey <busbey@cloudera.com>","Fri, 18 Sep 2015 16:54:44 -0500","Re: JIRA contributor role"
"Andrew Purtell <apurtell@apache.org>","Fri, 18 Sep 2015 14:58:02 -0700","Re: JIRA contributor role"
"Nick Dimiduk <ndimiduk@apache.org>","Fri, 18 Sep 2015 15:02:52 -0700","Re: JIRA contributor role"
"""stack (JIRA)"" <jira@apache.org>","Sat, 19 Sep 2015 00:10:04 +0000 (UTC)","[jira] [Created] (HBASE-14454) TestFailedAppendAndSync fail"
"Siva <sbhavanari@gmail.com>","Mon, 21 Sep 2015 00:45:47 -0700","HBase Spark Streaming issue"
"""Heng Chen (JIRA)"" <jira@apache.org>","Mon, 21 Sep 2015 09:14:04 +0000 (UTC)","[jira] [Created] (HBASE-14455) Try to get rid of unused HConnection instance"
"""Yu Li (JIRA)"" <jira@apache.org>","Mon, 21 Sep 2015 14:35:04 +0000 (UTC)","[jira] [Created] (HBASE-14456) Implement a namespace-based region grouping strategy for RegionGoupingProvider"
"""Yu Li (JIRA)"" <jira@apache.org>","Mon, 21 Sep 2015 15:12:04 +0000 (UTC)","[jira] [Created] (HBASE-14457) Umbrella: Improve Multiple WAL for production usage"
"""Ted Yu (JIRA)"" <jira@apache.org>","Mon, 21 Sep 2015 16:50:04 +0000 (UTC)","[jira] [Reopened] (HBASE-14280) Bulk Upload from HA cluster to remote HA hbase cluster fails"
"""stack (JIRA)"" <jira@apache.org>","Mon, 21 Sep 2015 18:45:04 +0000 (UTC)","[jira] [Resolved] (HBASE-14454) TestFailedAppendAndSync fail"
"""Samir Ahmic (JIRA)"" <jira@apache.org>","Mon, 21 Sep 2015 19:20:05 +0000 (UTC)","[jira] [Created] (HBASE-14458) AsyncRpcClient#createRpcChannel() should check and remove dead channel before creating new one to same server"
"Nick Dimiduk <ndimiduk@apache.org>","Mon, 21 Sep 2015 15:18:43 -0700","Thinking of HBase 1.1.3 [was HBASE-14317 and 1.1.3]"
"Andrew Purtell <apurtell@apache.org>","Mon, 21 Sep 2015 15:19:31 -0700","About that time for 0.98.15"
"""Andrew Purtell (JIRA)"" <jira@apache.org>","Mon, 21 Sep 2015 22:26:04 +0000 (UTC)","[jira] [Resolved] (HBASE-14079) improve error message when Master fails to connect to Hadoop-auth"
"""Andrew Purtell (JIRA)"" <jira@apache.org>","Mon, 21 Sep 2015 22:28:04 +0000 (UTC)","[jira] [Resolved] (HBASE-13267) Deprecate or remove isFileDeletable from SnapshotHFileCleaner"
"""Sanjeev Srivatsa (JIRA)"" <jira@apache.org>","Mon, 21 Sep 2015 23:14:04 +0000 (UTC)","[jira] [Created] (HBASE-14459) Add request and response sizes metrics"
"Elliott Clark <eclark@apache.org>","Mon, 21 Sep 2015 18:22:58 -0700","Re: Current status of 1.2.0RC0"
"""Ted Yu (JIRA)"" <jira@apache.org>","Tue, 22 Sep 2015 01:57:04 +0000 (UTC)","[jira] [Resolved] (HBASE-11245) Add top N function to Aggregations Protocol"
"""Andrew Purtell (JIRA)"" <jira@apache.org>","Tue, 22 Sep 2015 02:04:05 +0000 (UTC)","[jira] [Resolved] (HBASE-14147) REST Support for Namespaces"
"""Jerry He (JIRA)"" <jira@apache.org>","Tue, 22 Sep 2015 03:05:05 +0000 (UTC)","[jira] [Reopened] (HBASE-14391) Empty regionserver WAL will never be deleted although the coresponding regionserver has been stale"
"""stack (JIRA)"" <jira@apache.org>","Tue, 22 Sep 2015 03:57:04 +0000 (UTC)","[jira] [Resolved] (HBASE-13567) [DLR] Region stuck in recovering mode"
"""stack (JIRA)"" <jira@apache.org>","Tue, 22 Sep 2015 03:57:06 +0000 (UTC)","[jira] [Resolved] (HBASE-14028) DistributedLogReplay drops edits when ITBLL 125M"
"""stack (JIRA)"" <jira@apache.org>","Tue, 22 Sep 2015 03:58:04 +0000 (UTC)","[jira] [Resolved] (HBASE-11889) Turn distributedLogReplay off by default for HBase1.0"
"""Ted Yu (JIRA)"" <jira@apache.org>","Tue, 22 Sep 2015 04:12:04 +0000 (UTC)","[jira] [Reopened] (HBASE-14445) ExportSnapshot does not honor -chmod option"
"""stack (JIRA)"" <jira@apache.org>","Tue, 22 Sep 2015 05:09:04 +0000 (UTC)","[jira] [Created] (HBASE-14460) [Perf Regression] Merge of MVCC and SequenceId (HBASE-HBASE-8763) slowed Increments, CheckAndPuts, batch operations"
"Stack <stack@duboce.net>","Mon, 21 Sep 2015 22:14:28 -0700","Re: Performance degradation between CDH5.3.1(HBase0.98.6) and CDH5.4.5(HBase1.0.0)"
"Elliott Clark <eclark@apache.org>","Mon, 21 Sep 2015 23:12:44 -0700","Re: Performance degradation between CDH5.3.1(HBase0.98.6) and CDH5.4.5(HBase1.0.0)"
"""Lars Francke (JIRA)"" <jira@apache.org>","Tue, 22 Sep 2015 13:19:05 +0000 (UTC)","[jira] [Created] (HBASE-14461) Cleanup IncreasingToUpperBoundRegionSplitPolicy"
"""Samir Ahmic (JIRA)"" <jira@apache.org>","Tue, 22 Sep 2015 13:40:04 +0000 (UTC)","[jira] [Created] (HBASE-14462) rolling_restart.sh --master-only throws ""line 142: test: 0: unary operator expected"""
"""Yu Li (JIRA)"" <jira@apache.org>","Tue, 22 Sep 2015 13:49:05 +0000 (UTC)","[jira] [Created] (HBASE-14463) Severe performance downgrade when parallel reading a single key from BucketCache"
"""Andrew Purtell (JIRA)"" <jira@apache.org>","Tue, 22 Sep 2015 16:51:05 +0000 (UTC)","[jira] [Reopened] (HBASE-14397) PrefixFilter doesn't filter all remaining rows if the prefix is longer than rowkey being compared"
"""Matteo Bertozzi (JIRA)"" <jira@apache.org>","Tue, 22 Sep 2015 19:54:04 +0000 (UTC)","[jira] [Created] (HBASE-14464) Removed unused fs code"
"""Andrew Purtell (JIRA)"" <jira@apache.org>","Tue, 22 Sep 2015 20:24:04 +0000 (UTC)","[jira] [Resolved] (HBASE-14410) HBase replication hangs"
"Sean Busbey <busbey@cloudera.com>","Tue, 22 Sep 2015 16:43:16 -0500","Re: Current status of 1.2.0RC0"
"""stack (JIRA)"" <jira@apache.org>","Wed, 23 Sep 2015 00:59:04 +0000 (UTC)","[jira] [Created] (HBASE-14465) Backport 'Allow rowlock to be reader/write' to branch-1"
"""Andrew Purtell (JIRA)"" <jira@apache.org>","Wed, 23 Sep 2015 01:31:04 +0000 (UTC)","[jira] [Resolved] (HBASE-3424) Coprocessors: Add metrics for custom RPC methods called through HTable.coprocessorExec()"
"""Matteo Bertozzi (JIRA)"" <jira@apache.org>","Wed, 23 Sep 2015 01:32:05 +0000 (UTC)","[jira] [Created] (HBASE-14466) Remove duplicated code from MOB snapshot tests"
"""Vladimir Rodionov (JIRA)"" <jira@apache.org>","Wed, 23 Sep 2015 03:58:04 +0000 (UTC)","[jira] [Created] (HBASE-14467) Compaction improvements: DefaultCompactor should not compact TTL-expired files"
"""Vladimir Rodionov (JIRA)"" <jira@apache.org>","Wed, 23 Sep 2015 04:11:05 +0000 (UTC)","[jira] [Created] (HBASE-14468) Compaction improvements: FIFO compaction policy"
"""Apekshit Sharma (JIRA)"" <jira@apache.org>","Wed, 23 Sep 2015 08:13:04 +0000 (UTC)","[jira] [Created] (HBASE-14469) Fix some comment, validation and logging around memstore lower limit configuration"
"""Nick Dimiduk (JIRA)"" <jira@apache.org>","Wed, 23 Sep 2015 16:25:04 +0000 (UTC)","[jira] [Created] (HBASE-14470) Reduce memory pressure generated by client"
"""huaxiang sun (JIRA)"" <jira@apache.org>","Wed, 23 Sep 2015 17:04:04 +0000 (UTC)","[jira] [Created] (HBASE-14471) Thrift -  HTTP Error 413 full HEAD if using kerberos authentication"
"""Nick Dimiduk (JIRA)"" <jira@apache.org>","Wed, 23 Sep 2015 18:05:05 +0000 (UTC)","[jira] [Reopened] (HBASE-14373) PerformanceEvaluation tool should support huge number of rows beyond int range"
"""stack (JIRA)"" <jira@apache.org>","Wed, 23 Sep 2015 18:05:05 +0000 (UTC)","[jira] [Created] (HBASE-14472) TestHCM and TestRegionServerNoMaster fixes"
"""stack (JIRA)"" <jira@apache.org>","Wed, 23 Sep 2015 18:48:04 +0000 (UTC)","[jira] [Resolved] (HBASE-14470) Reduce memory pressure generated by client"
"""stack (JIRA)"" <jira@apache.org>","Wed, 23 Sep 2015 18:49:04 +0000 (UTC)","[jira] [Resolved] (HBASE-14472) TestHCM and TestRegionServerNoMaster fixes"
"""stack (JIRA)"" <jira@apache.org>","Wed, 23 Sep 2015 18:50:04 +0000 (UTC)","[jira] [Reopened] (HBASE-14470) Reduce memory pressure generated by client"
"""Nick Dimiduk (JIRA)"" <jira@apache.org>","Wed, 23 Sep 2015 18:56:04 +0000 (UTC)","[jira] [Resolved] (HBASE-14373) PerformanceEvaluation tool should support huge number of rows beyond int range"
"""Nick Dimiduk (JIRA)"" <jira@apache.org>","Wed, 23 Sep 2015 18:57:04 +0000 (UTC)","[jira] [Reopened] (HBASE-14374) Backport parent 'HBASE-14317 Stuck FSHLog' issue to 1.1"
"""Elliott Clark (JIRA)"" <jira@apache.org>","Wed, 23 Sep 2015 18:58:04 +0000 (UTC)","[jira] [Created] (HBASE-14473) Compute region locality in parallel"
"""Nick Dimiduk (JIRA)"" <jira@apache.org>","Wed, 23 Sep 2015 19:21:05 +0000 (UTC)","[jira] [Resolved] (HBASE-14374) Backport parent 'HBASE-14317 Stuck FSHLog' issue to 1.1"
"""stack (JIRA)"" <jira@apache.org>","Wed, 23 Sep 2015 22:28:04 +0000 (UTC)","[jira] [Reopened] (HBASE-14378) Get TestAccessController* passing again on branch-1"
"Nick Dimiduk <ndimiduk@apache.org>","Wed, 23 Sep 2015 15:50:32 -0700","Re: Thinking of HBase 1.1.3 [was HBASE-14317 and 1.1.3]"
"""Enis Soztutar (JIRA)"" <jira@apache.org>","Thu, 24 Sep 2015 00:54:04 +0000 (UTC)","[jira] [Created] (HBASE-14474) DeadLock in RpcClientImpl.Connection.close()"
"=?UTF-8?Q?Enis_S=C3=B6ztutar?= <enis.soz@gmail.com>","Wed, 23 Sep 2015 18:01:20 -0700","Re: Thinking of HBase 1.1.3 [was HBASE-14317 and 1.1.3]"
"""Enis Soztutar (JIRA)"" <jira@apache.org>","Thu, 24 Sep 2015 01:49:04 +0000 (UTC)","[jira] [Created] (HBASE-14475) Region split requests are always audited with ""hbase"" user rather than request user"
"""Jianwei Cui (JIRA)"" <jira@apache.org>","Thu, 24 Sep 2015 02:28:04 +0000 (UTC)","[jira] [Created] (HBASE-14476) ReplicationQueuesZKImpl#copyQueuesFromRSUsingMulti will fail if there are orphaned queues under dead region server"
"""Vladimir Rodionov (JIRA)"" <jira@apache.org>","Thu, 24 Sep 2015 04:51:04 +0000 (UTC)","[jira] [Created] (HBASE-14477) Compaction improvements: generational compaction"
"""Jingcheng Du (JIRA)"" <jira@apache.org>","Thu, 24 Sep 2015 06:36:04 +0000 (UTC)","[jira] [Created] (HBASE-14478) A ThreadPoolExecutor with a LinkedBlockingQueue cannot execute tasks concurrently"
"Tuan Le Dinh <ldtuanbk@gmail.com>","Thu, 24 Sep 2015 15:49:42 +0900","Change Zookeeper clientPort from HbaseTestingUtility"
"""Hiroshi Ikeda (JIRA)"" <jira@apache.org>","Thu, 24 Sep 2015 06:53:04 +0000 (UTC)","[jira] [Created] (HBASE-14479) Apply the Leader/Followers pattern to RpcServer's Reader"
"""wangyongqiang0617@163.com"" <wangyongqiang0617@163.com>","Thu, 24 Sep 2015 16:27:12 +0800","hbase0.98.10 online schema modify"
"""wangyongqiang0617@163.com"" <wangyongqiang0617@163.com>","Thu, 24 Sep 2015 16:33:20 +0800","hbase0.98.10 open region speed"
"=?UTF-8?B?6Yi05pyo5L+K6KOV?= <brfrn169@gmail.com>","Thu, 24 Sep 2015 18:06:03 +0900","Re: Performance degradation between CDH5.3.1(HBase0.98.6) and CDH5.4.5(HBase1.0.0)"
"""Liu Shaohui (JIRA)"" <jira@apache.org>","Thu, 24 Sep 2015 09:33:04 +0000 (UTC)","[jira] [Reopened] (HBASE-14404) Backport HBASE-14098 (Allow dropping caches behind compactions) to 0.98"
"""Anoop Sam John (JIRA)"" <jira@apache.org>","Thu, 24 Sep 2015 09:55:52 +0000 (UTC)","[jira] [Created] (HBASE-14480) Small optimization in SingleByteBuff"
"Jean-Marc Spaggiari <jean-marc@spaggiari.org>","Thu, 24 Sep 2015 10:51:24 -0400","Branch 2 build failing?"
"Ted Yu <yuzhihong@gmail.com>","Thu, 24 Sep 2015 08:02:53 -0700","Re: Branch 2 build failing?"
"Jean-Marc Spaggiari <jean-marc@spaggiari.org>","Thu, 24 Sep 2015 11:06:11 -0400","Re: Branch 2 build failing?"
"Ted Yu <yuzhihong@gmail.com>","Thu, 24 Sep 2015 08:43:06 -0700","Re: Change Zookeeper clientPort from HbaseTestingUtility"
"Ted Yu <yuzhihong@gmail.com>","Thu, 24 Sep 2015 08:47:50 -0700","Re: Branch 2 build failing?"
"Sean Busbey <busbey@cloudera.com>","Thu, 24 Sep 2015 10:51:28 -0500","branch-2"
"Ted Yu <yuzhihong@gmail.com>","Thu, 24 Sep 2015 08:53:45 -0700","Re: branch-2"
"Ted Yu <yuzhihong@gmail.com>","Thu, 24 Sep 2015 09:01:37 -0700","Re: hbase0.98.10 open region speed"
"""Nick Dimiduk (JIRA)"" <jira@apache.org>","Thu, 24 Sep 2015 16:42:04 +0000 (UTC)","[jira] [Created] (HBASE-14481) Decommission HBase wiki"
"""Nick Dimiduk (JIRA)"" <jira@apache.org>","Thu, 24 Sep 2015 16:54:04 +0000 (UTC)","[jira] [Reopened] (HBASE-14394) Properly close the connection after reading records from table."
"""Nick Dimiduk (JIRA)"" <jira@apache.org>","Thu, 24 Sep 2015 17:59:04 +0000 (UTC)","[jira] [Created] (HBASE-14482) Add hadoop 2.6.1 to the test-patch build list"
"Andrew Purtell <apurtell@apache.org>","Thu, 24 Sep 2015 11:10:56 -0700","Re: branch-2"
"Benjamin Lau <benlau@yahoo-inc.com.INVALID>","Thu, 24 Sep 2015 18:13:38 +0000 (UTC)","HFileV4"
"""Vladimir Rodionov (JIRA)"" <jira@apache.org>","Thu, 24 Sep 2015 20:35:04 +0000 (UTC)","[jira] [Created] (HBASE-14483) Add max -per-cell TTL to HFile meta section"
"""stack (JIRA)"" <jira@apache.org>","Thu, 24 Sep 2015 20:49:04 +0000 (UTC)","[jira] [Created] (HBASE-14484) Follow-on from HBASE-14421, just disable TestFastFail* until someone digs in and fixes it"
"""stack (JIRA)"" <jira@apache.org>","Thu, 24 Sep 2015 20:54:05 +0000 (UTC)","[jira] [Resolved] (HBASE-14484) Follow-on from HBASE-14421, just disable TestFastFail* until someone digs in and fixes it"
"""Matteo Bertozzi (JIRA)"" <jira@apache.org>","Thu, 24 Sep 2015 22:20:04 +0000 (UTC)","[jira] [Created] (HBASE-14485) ConnectionImplementation leaks on construction failure"
"""stack (JIRA)"" <jira@apache.org>","Thu, 24 Sep 2015 22:42:04 +0000 (UTC)","[jira] [Created] (HBASE-14486) Disable TestRegionPlacement, a flakey test for an unfinished feature"
"""stack (JIRA)"" <jira@apache.org>","Thu, 24 Sep 2015 23:01:04 +0000 (UTC)","[jira] [Resolved] (HBASE-14486) Disable TestRegionPlacement, a flakey test for an unfinished feature"
"""Stephen Yuan Jiang (JIRA)"" <jira@apache.org>","Thu, 24 Sep 2015 23:05:04 +0000 (UTC)","[jira] [Created] (HBASE-14487) Procedure V2 - shell command to list all procedures"
"""Stephen Yuan Jiang (JIRA)"" <jira@apache.org>","Fri, 25 Sep 2015 00:31:04 +0000 (UTC)","[jira] [Created] (HBASE-14488) Procedure V2 - shell command to abort a procedure"
"""Du, Jingcheng"" <jingcheng.du@intel.com>","Fri, 25 Sep 2015 02:15:16 +0000","Is it necessary to use an individual wait time for each procedure"
"Ted Yu <yuzhihong@gmail.com>","Thu, 24 Sep 2015 19:23:27 -0700","Re: Is it necessary to use an individual wait time for each procedure"
"Jingcheng Du <jingcheng.du@intel.com>","Thu, 24 Sep 2015 19:35:03 -0700 (MST)","Re: Is it necessary to use an individual wait time for each procedure"
"""Ted Yu (JIRA)"" <jira@apache.org>","Fri, 25 Sep 2015 04:18:04 +0000 (UTC)","[jira] [Reopened] (HBASE-14370) Use separate thread for calling ZKPermissionWatcher#refreshNodes()"
"""Lars Hofhansl (JIRA)"" <jira@apache.org>","Fri, 25 Sep 2015 04:41:04 +0000 (UTC)","[jira] [Created] (HBASE-14489) postScannerFilterRow consumes a lot of CPU"
"""Zephyr Guo (JIRA)"" <jira@apache.org>","Fri, 25 Sep 2015 08:38:04 +0000 (UTC)","[jira] [Created] (HBASE-14490) [RpcServer] reuse buffer and more stricter code"
"""Ashish Singhi (JIRA)"" <jira@apache.org>","Fri, 25 Sep 2015 08:54:04 +0000 (UTC)","[jira] [Created] (HBASE-14491) ReplicationSource#countDistinctRowKeys code logic is not correct"
"""huaxiang sun (JIRA)"" <jira@apache.org>","Fri, 25 Sep 2015 16:39:04 +0000 (UTC)","[jira] [Created] (HBASE-14492) Increase REST server http header size from 8k to 64k"
"""Newton Alex (JIRA)"" <jira@apache.org>","Fri, 25 Sep 2015 21:37:04 +0000 (UTC)","[jira] [Created] (HBASE-14493) Upgrade the jamon-runtime dependency to the newer version MPL 2.0"
"""Josh Elser (JIRA)"" <jira@apache.org>","Fri, 25 Sep 2015 21:45:04 +0000 (UTC)","[jira] [Created] (HBASE-14494) Wrong usage messages on shell commands"
"""stack (JIRA)"" <jira@apache.org>","Fri, 25 Sep 2015 22:19:04 +0000 (UTC)","[jira] [Created] (HBASE-14495) TestHRegion#testFlushCacheWhileScanning goes zombie"
"""Lars Hofhansl (JIRA)"" <jira@apache.org>","Sat, 26 Sep 2015 23:49:04 +0000 (UTC)","[jira] [Resolved] (HBASE-14489) postScannerFilterRow consumes a lot of CPU"
"""Vladimir Rodionov (JIRA)"" <jira@apache.org>","Sun, 27 Sep 2015 04:20:04 +0000 (UTC)","[jira] [Created] (HBASE-14496) Compaction improvements: delayed compaction"
"""Yerui Sun (JIRA)"" <jira@apache.org>","Sun, 27 Sep 2015 11:18:04 +0000 (UTC)","[jira] [Created] (HBASE-14497) Reverse Scan threw StackOverflow caused by readPt checking"
"""Y. SREENIVASULU REDDY (JIRA)"" <jira@apache.org>","Mon, 28 Sep 2015 03:11:04 +0000 (UTC)","[jira] [Created] (HBASE-14498) Master stuck in infinite loop when all Zookeeper servers are unreachable."
"""Pankaj Kumar (JIRA)"" <jira@apache.org>","Mon, 28 Sep 2015 04:11:04 +0000 (UTC)","[jira] [Created] (HBASE-14499) Master coprocessors shutdown will not happen on master abort"
"""Vladimir Rodionov (JIRA)"" <jira@apache.org>","Mon, 28 Sep 2015 05:24:04 +0000 (UTC)","[jira] [Resolved] (HBASE-14483) Add max -per-cell TTL to HFile meta section"
"Stephen Jiang <syuanjiangdev@gmail.com>","Mon, 28 Sep 2015 10:35:15 -0700","master shell break? - LoadError: no such file to load -- shell/commands/compact_mob"
"Jonathan Hsieh <jon@cloudera.com>","Mon, 28 Sep 2015 10:46:00 -0700","Re: master shell break? - LoadError: no such file to load -- shell/commands/compact_mob"
"Esteban Gutierrez <esteban@cloudera.com>","Mon, 28 Sep 2015 10:47:18 -0700","Re: master shell break? - LoadError: no such file to load -- shell/commands/compact_mob"
"""Esteban Gutierrez (JIRA)"" <jira@apache.org>","Mon, 28 Sep 2015 17:49:04 +0000 (UTC)","[jira] [Created] (HBASE-14500) Remove load of deprecated MOB ruby scripts after HBASE-14227"
"Stephen Jiang <syuanjiangdev@gmail.com>","Mon, 28 Sep 2015 11:00:56 -0700","Re: master shell break? - LoadError: no such file to load -- shell/commands/compact_mob"
"""Enis Soztutar (JIRA)"" <jira@apache.org>","Mon, 28 Sep 2015 18:21:04 +0000 (UTC)","[jira] [Created] (HBASE-14501) NPE in replication with TDE"
"Andrew Purtell <andrew.purtell@gmail.com>","Mon, 28 Sep 2015 12:53:21 -0700","Re: master shell break? - LoadError: no such file to load -- shell/commands/compact_mob"
"Ted Yu <yuzhihong@gmail.com>","Mon, 28 Sep 2015 12:57:01 -0700","Re: master shell break? - LoadError: no such file to load -- shell/commands/compact_mob"
"Andrew Purtell <andrew.purtell@gmail.com>","Mon, 28 Sep 2015 12:59:38 -0700","Re: master shell break? - LoadError: no such file to load -- shell/commands/compact_mob"
"Esteban Gutierrez <esteban@cloudera.com>","Mon, 28 Sep 2015 14:27:44 -0700","Re: master shell break? - LoadError: no such file to load -- shell/commands/compact_mob"
"Ted Yu <yuzhihong@gmail.com>","Mon, 28 Sep 2015 14:30:20 -0700","Re: master shell break? - LoadError: no such file to load -- shell/commands/compact_mob"
"""Enis Soztutar (JIRA)"" <jira@apache.org>","Mon, 28 Sep 2015 22:47:05 +0000 (UTC)","[jira] [Reopened] (HBASE-14474) DeadLock in RpcClientImpl.Connection.close()"
"""=?utf-8?B?6ZmI5oGS?="" <chenheng@fenbi.com>","Tue, 29 Sep 2015 07:43:33 +0800","Re: master shell break? - LoadError: no such file to load -- shell/commands/compact_mob"
"""stack (JIRA)"" <jira@apache.org>","Tue, 29 Sep 2015 00:45:05 +0000 (UTC)","[jira] [Created] (HBASE-14502) Purge use of jmock and remove as dependency"
"""Elliott Clark (JIRA)"" <jira@apache.org>","Tue, 29 Sep 2015 01:16:04 +0000 (UTC)","[jira] [Created] (HBASE-14503) ColumnFamily deletes don't work well with empty qualifiers"
"""nijel (JIRA)"" <jira@apache.org>","Tue, 29 Sep 2015 04:12:04 +0000 (UTC)","[jira] [Created] (HBASE-14504) Improve the master exception handling in Region server using zookeeper watcher"
"""stack (JIRA)"" <jira@apache.org>","Tue, 29 Sep 2015 04:35:04 +0000 (UTC)","[jira] [Created] (HBASE-14505) Reenable tests disabled by HBASE-14430 in TestHttpServerLifecycle"
"""stack (JIRA)"" <jira@apache.org>","Tue, 29 Sep 2015 04:40:04 +0000 (UTC)","[jira] [Resolved] (HBASE-14430) TestHttpServerLifecycle#testStartedServerIsAlive times out"
"""stack (JIRA)"" <jira@apache.org>","Tue, 29 Sep 2015 05:20:04 +0000 (UTC)","[jira] [Created] (HBASE-14506) Reenable TestDistributedLogSplitting#testWorkerAbort"
"""stack (JIRA)"" <jira@apache.org>","Tue, 29 Sep 2015 05:32:04 +0000 (UTC)","[jira] [Created] (HBASE-14507) Disable TestDistributedLogSplitting#testWorkerAbort Its flakey with tenuous chance of success"
"""Lav Mudgal (JIRA)"" <jira@apache.org>","Tue, 29 Sep 2015 06:25:04 +0000 (UTC)","[jira] [Created] (HBASE-14508) Hbase scan not returning all rows when setting heigher value in scan.setCaching(cacheRow)"
"""Lars Hofhansl (JIRA)"" <jira@apache.org>","Tue, 29 Sep 2015 07:15:04 +0000 (UTC)","[jira] [Created] (HBASE-14509) Configurable sparse indexes?"
"Nick Dimiduk <ndimiduk@apache.org>","Tue, 29 Sep 2015 01:09:33 -0700","Re: Thinking of HBase 1.1.3 [was HBASE-14317 and 1.1.3]"
"""Yerui Sun (JIRA)"" <jira@apache.org>","Tue, 29 Sep 2015 09:03:04 +0000 (UTC)","[jira] [Created] (HBASE-14510) Can not set coprocessor from Shell after HBASE-14224"
"""stack (JIRA)"" <jira@apache.org>","Tue, 29 Sep 2015 12:29:04 +0000 (UTC)","[jira] [Resolved] (HBASE-14507) Disable TestDistributedLogSplitting#testWorkerAbort Its flakey with tenuous chance of success"
"""Vladimir Rodionov (JIRA)"" <jira@apache.org>","Tue, 29 Sep 2015 20:35:04 +0000 (UTC)","[jira] [Created] (HBASE-14511) StoreFile.Writer Meta Plugin"
"""Elliott Clark (JIRA)"" <jira@apache.org>","Tue, 29 Sep 2015 21:01:04 +0000 (UTC)","[jira] [Created] (HBASE-14512) Cache UGI groups"
"""stack (JIRA)"" <jira@apache.org>","Tue, 29 Sep 2015 23:19:04 +0000 (UTC)","[jira] [Created] (HBASE-14513) TestBucketCache runs obnoxious 1k threads in a unit test"
"""stack (JIRA)"" <jira@apache.org>","Tue, 29 Sep 2015 23:23:05 +0000 (UTC)","[jira] [Resolved] (HBASE-14513) TestBucketCache runs obnoxious 1k threads in a unit test"
"""Ted Yu (JIRA)"" <jira@apache.org>","Wed, 30 Sep 2015 02:21:04 +0000 (UTC)","[jira] [Created] (HBASE-14514) Vulnerability to XSS attack due to printing HTML output"
"Sean Busbey <busbey@cloudera.com>","Tue, 29 Sep 2015 22:06:30 -0500","[DISCUSS] getting postcommit tests back to green."
"""Sean Busbey (JIRA)"" <jira@apache.org>","Wed, 30 Sep 2015 03:17:04 +0000 (UTC)","[jira] [Created] (HBASE-14515) Allow spark module unit tests to be skipped with a profile"
"""Sean Busbey (JIRA)"" <jira@apache.org>","Wed, 30 Sep 2015 04:03:04 +0000 (UTC)","[jira] [Created] (HBASE-14516) categorize hadoop-compat tests"
"""Liu Shaohui (JIRA)"" <jira@apache.org>","Wed, 30 Sep 2015 05:31:04 +0000 (UTC)","[jira] [Created] (HBASE-14517) Show regionserver's version in master status page"
"""stack (JIRA)"" <jira@apache.org>","Wed, 30 Sep 2015 05:31:04 +0000 (UTC)","[jira] [Created] (HBASE-14518) Give TestScanEarlyTermination the same treatment as 'HBASE-14378 Get TestAccessController* passing again...' -- up priority handlers"
"""stack (JIRA)"" <jira@apache.org>","Wed, 30 Sep 2015 05:47:04 +0000 (UTC)","[jira] [Resolved] (HBASE-14518) Give TestScanEarlyTermination the same treatment as 'HBASE-14378 Get TestAccessController* passing again...' -- up priority handlers"
"""stack (JIRA)"" <jira@apache.org>","Wed, 30 Sep 2015 06:26:04 +0000 (UTC)","[jira] [Created] (HBASE-14519) Purge TestFavoredNodeAssignmentHelper, a test for an abandoned feature that can hang"
"""Bhupendra Kumar Jain (JIRA)"" <jira@apache.org>","Wed, 30 Sep 2015 07:24:04 +0000 (UTC)","[jira] [Created] (HBASE-14520) Optimnize the number of calls for tags creation in bulk load"
"""Yu Li (JIRA)"" <jira@apache.org>","Wed, 30 Sep 2015 07:37:04 +0000 (UTC)","[jira] [Created] (HBASE-14521) Uniform the semantic of hbase.client.retries.number"
"""Nick Dimiduk (JIRA)"" <jira@apache.org>","Wed, 30 Sep 2015 10:45:04 +0000 (UTC)","[jira] [Created] (HBASE-14522) Document or disable hsperfdata"
"""Samir Ahmic (JIRA)"" <jira@apache.org>","Wed, 30 Sep 2015 12:03:04 +0000 (UTC)","[jira] [Created] (HBASE-14523) rolling-restart.sh --graceful will start regionserver process on master node"
"""Lars Francke (JIRA)"" <jira@apache.org>","Wed, 30 Sep 2015 12:11:04 +0000 (UTC)","[jira] [Created] (HBASE-14524) Short-circuit comparison of rows in CellComparator"
"""Abhishek Kumar (JIRA)"" <jira@apache.org>","Wed, 30 Sep 2015 13:16:04 +0000 (UTC)","[jira] [Created] (HBASE-14525) Append operation throws NullPointerException when appending on non-existing column families."
"Stack <stack@duboce.net>","Wed, 30 Sep 2015 11:43:38 -0700","Re: [DISCUSS] getting postcommit tests back to green."
"Andrew Purtell <apurtell@apache.org>","Wed, 30 Sep 2015 11:52:07 -0700","Re: [DISCUSS] getting postcommit tests back to green."
"""Elliott Clark (JIRA)"" <jira@apache.org>","Wed, 30 Sep 2015 20:17:04 +0000 (UTC)","[jira] [Created] (HBASE-14526) Remove delayed rpc"
"""Vladimir Rodionov (JIRA)"" <jira@apache.org>","Wed, 30 Sep 2015 20:19:06 +0000 (UTC)","[jira] [Created] (HBASE-14527) Implement StoreFile Writer plugin (HBASE-14511)"
"""Vladimir Rodionov (JIRA)"" <jira@apache.org>","Wed, 30 Sep 2015 20:21:04 +0000 (UTC)","[jira] [Created] (HBASE-14528) Implement StoreFile Writer Plugin (HBASE-14511) for Gen Compaction Policy"
"""Robert Yokota (JIRA)"" <jira@apache.org>","Wed, 30 Sep 2015 21:05:04 +0000 (UTC)","[jira] [Reopened] (HBASE-14292) Call Me Maybe HBase links haved moved"
"""Elliott Clark (JIRA)"" <jira@apache.org>","Wed, 30 Sep 2015 22:30:04 +0000 (UTC)","[jira] [Created] (HBASE-14529) Respond to SIGHUP to reload config"
