"Developer","Date","Subject"
"Matt Corgan <mcorgan@hotpads.com>","Sun, 30 Sep 2012 17:47:34 -0700","KeyValue equals and compareTo methods"
"Ted Yu <yuzhihong@gmail.com>","Sun, 30 Sep 2012 18:09:55 -0700","Re: KeyValue equals and compareTo methods"
"Ted Yu <yuzhihong@gmail.com>","Sun, 30 Sep 2012 20:30:31 -0700","Re: KeyValue equals and compareTo methods"
"Stack <stack@duboce.net>","Mon, 1 Oct 2012 10:00:34 -0700","Re: KeyValue equals and compareTo methods"
"Matt Corgan <mcorgan@hotpads.com>","Mon, 1 Oct 2012 10:27:34 -0700","Re: KeyValue equals and compareTo methods"
"Apache Jenkins Server  <jenkins@builds.apache.org>","Mon, 1 Oct 2012 19:05:49 +0000 (UTC)","Build failed in Jenkins: HBase-TRUNK #3399"
"Apache Jenkins Server  <jenkins@builds.apache.org>","Mon, 1 Oct 2012 19:14:32 +0000 (UTC)","Build failed in Jenkins: HBase-0.94 #500"
"Apache Jenkins Server  <jenkins@builds.apache.org>","Mon, 1 Oct 2012 20:14:03 +0000 (UTC)","Build failed in Jenkins: HBase-0.92 #588"
"Apache Jenkins Server  <jenkins@builds.apache.org>","Mon, 1 Oct 2012 21:08:39 +0000 (UTC)","Build failed in Jenkins: HBase-TRUNK #3400"
"Stack <stack@duboce.net>","Mon, 1 Oct 2012 14:14:16 -0700","0.96.0"
"Jesse Yates <jesse.k.yates@gmail.com>","Mon, 1 Oct 2012 14:25:09 -0700","Re: 0.96.0"
"Jonathan Hsieh <jon@cloudera.com>","Mon, 1 Oct 2012 14:26:59 -0700","Re: 0.96.0"
"Matt Corgan <mcorgan@hotpads.com>","Mon, 1 Oct 2012 15:00:45 -0700","Re: 0.96.0"
"lars hofhansl <lhofhansl@yahoo.com>","Mon, 1 Oct 2012 15:08:11 -0700 (PDT)","Re: 0.96.0"
"Jonathan Hsieh <jon@cloudera.com>","Mon, 1 Oct 2012 15:10:55 -0700","Re: 0.96.0"
"Dave Wang <dsw@cloudera.com>","Mon, 1 Oct 2012 15:11:37 -0700","Re: 0.96.0"
"yuzhihong@gmail.com","Mon, 1 Oct 2012 15:12:56 -0700","Re: 0.96.0"
"lars hofhansl <lhofhansl@yahoo.com>","Mon, 1 Oct 2012 15:14:49 -0700 (PDT)","Re: ANN: The 3rd hbase 0.94.2 release candidate is available for download"
"Stack <stack@duboce.net>","Mon, 1 Oct 2012 15:19:35 -0700","Re: 0.96.0"
"Jesse Yates <jesse.k.yates@gmail.com>","Mon, 1 Oct 2012 15:19:43 -0700","Re: 0.96.0"
"Stack <stack@duboce.net>","Mon, 1 Oct 2012 15:20:08 -0700","Re: 0.96.0"
"lars hofhansl <lhofhansl@yahoo.com>","Mon, 1 Oct 2012 15:24:58 -0700 (PDT)","Re: 0.96.0"
"Andrew Purtell <apurtell@apache.org>","Tue, 2 Oct 2012 06:30:30 +0800","Re: 0.96.0"
"Stack <stack@duboce.net>","Mon, 1 Oct 2012 15:37:24 -0700","Re: 0.96.0"
"Andrew Purtell <apurtell@apache.org>","Tue, 2 Oct 2012 06:38:33 +0800","Re: 0.96.0"
"Apache Jenkins Server  <jenkins@builds.apache.org>","Mon, 1 Oct 2012 22:40:03 +0000 (UTC)","Build failed in Jenkins: HBase-0.92 #589"
"Apache Jenkins Server  <jenkins@builds.apache.org>","Mon, 1 Oct 2012 22:55:47 +0000 (UTC)","Jenkins build is back to normal : HBase-0.94 #501"
"Apache Jenkins Server  <jenkins@builds.apache.org>","Mon, 1 Oct 2012 23:20:28 +0000 (UTC)","Build failed in Jenkins: HBase-TRUNK-on-Hadoop-2.0.0 #202"
"Elliott Clark <eclark@apache.org>","Mon, 1 Oct 2012 16:24:51 -0700","Re: 0.96.0"
"Apache Jenkins Server  <jenkins@builds.apache.org>","Mon, 1 Oct 2012 23:42:30 +0000 (UTC)","Build failed in Jenkins: HBase-TRUNK #3401"
"Otis Gospodnetic <otis.gospodnetic@gmail.com>","Mon, 1 Oct 2012 20:58:30 -0400","Re: 0.96.0"
"Jean-Daniel Cryans <jdcryans@apache.org>","Mon, 1 Oct 2012 18:17:59 -0700","Re: ANN: hbase-0.92.2 is available for download"
"Ted Yu <yuzhihong@gmail.com>","Mon, 1 Oct 2012 18:33:51 -0700","Re: ANN: hbase-0.92.2 is available for download"
"Jean-Daniel Cryans <jdcryans@apache.org>","Mon, 1 Oct 2012 18:38:35 -0700","Re: ANN: hbase-0.92.2 is available for download"
"Jonathan Hsieh <jon@cloudera.com>","Mon, 1 Oct 2012 18:41:38 -0700","Re: ANN: hbase-0.92.2 is available for download"
"Stack <stack@duboce.net>","Mon, 1 Oct 2012 18:54:16 -0700","Re: ANN: hbase-0.92.2 is available for download"
"Apache Jenkins Server  <jenkins@builds.apache.org>","Tue, 2 Oct 2012 04:04:10 +0000 (UTC)","Build failed in Jenkins: hbase-0.90 #526"
"lars hofhansl <lhofhansl@yahoo.com>","Mon, 1 Oct 2012 21:05:26 -0700 (PDT)","Re: ANN: hbase-0.92.2 is available for download"
"Stack <stack@duboce.net>","Mon, 1 Oct 2012 21:37:13 -0700","Re: ANN: The 3rd hbase 0.94.2 release candidate is available for download"
"Jonathan Hsieh <jon@cloudera.com>","Mon, 1 Oct 2012 21:47:48 -0700","Re: ANN: hbase-0.92.2 is available for download"
"Apache Jenkins Server  <jenkins@builds.apache.org>","Tue, 2 Oct 2012 05:21:47 +0000 (UTC)","Build failed in Jenkins: HBase-TRUNK #3402"
"Apache Jenkins Server  <jenkins@builds.apache.org>","Tue, 2 Oct 2012 05:33:44 +0000 (UTC)","Build failed in Jenkins: hbase-0.90 #527"
"lars hofhansl <lhofhansl@yahoo.com>","Mon, 1 Oct 2012 22:42:41 -0700 (PDT)","Re: ANN: hbase-0.92.2 is available for download"
"Apache Jenkins Server  <jenkins@builds.apache.org>","Tue, 2 Oct 2012 05:47:16 +0000 (UTC)","Jenkins build is back to normal : HBase-0.92 #590"
"lars hofhansl <lhofhansl@yahoo.com>","Mon, 1 Oct 2012 22:50:15 -0700 (PDT)","Re: ANN: The 3rd hbase 0.94.2 release candidate is available for download"
"Apache Jenkins Server  <jenkins@builds.apache.org>","Tue, 2 Oct 2012 06:10:29 +0000 (UTC)","Build failed in Jenkins: HBase-TRUNK #3403"
"Apache Jenkins Server  <jenkins@builds.apache.org>","Tue, 2 Oct 2012 07:01:17 +0000 (UTC)","Build failed in Jenkins: hbase-0.90 #528"
"Apache Jenkins Server  <jenkins@builds.apache.org>","Tue, 2 Oct 2012 07:09:54 +0000 (UTC)","Build failed in Jenkins: HBase-TRUNK #3404"
"Apache Jenkins Server  <jenkins@builds.apache.org>","Tue, 2 Oct 2012 10:09:05 +0000 (UTC)","Build failed in Jenkins: HBase-TRUNK #3405"
"Apache Jenkins Server  <jenkins@builds.apache.org>","Tue, 2 Oct 2012 11:42:44 +0000 (UTC)","Build failed in Jenkins: HBase-TRUNK-on-Hadoop-2.0.0 #203"
"Gregory Chanan <gchanan@cloudera.com>","Tue, 2 Oct 2012 10:20:36 -0700","Re: ANN: The 3rd hbase 0.94.2 release candidate is available for download"
"Elliott Clark <eclark@apache.org>","Tue, 2 Oct 2012 10:45:25 -0700","Re: ANN: The 3rd hbase 0.94.2 release candidate is available for download"
"Apache Jenkins Server  <jenkins@builds.apache.org>","Tue, 2 Oct 2012 18:21:44 +0000 (UTC)","Build failed in Jenkins: HBase-TRUNK #3406"
"Apache Jenkins Server  <jenkins@builds.apache.org>","Tue, 2 Oct 2012 19:10:28 +0000 (UTC)","Build failed in Jenkins: HBase-TRUNK #3407"
"Apache Jenkins Server  <jenkins@builds.apache.org>","Tue, 2 Oct 2012 21:25:32 +0000 (UTC)","Build failed in Jenkins: HBase-TRUNK #3408"
"Apache Jenkins Server  <jenkins@builds.apache.org>","Tue, 2 Oct 2012 22:05:44 +0000 (UTC)","Build failed in Jenkins: HBase-0.92 #592"
"Apache Jenkins Server  <jenkins@builds.apache.org>","Tue, 2 Oct 2012 22:58:28 +0000 (UTC)","Build failed in Jenkins: HBase-0.94 #502"
"Apache Jenkins Server  <jenkins@builds.apache.org>","Tue, 2 Oct 2012 23:29:57 +0000 (UTC)","Build failed in Jenkins: HBase-TRUNK #3409"
"Apache Jenkins Server  <jenkins@builds.apache.org>","Tue, 2 Oct 2012 23:33:42 +0000 (UTC)","Build failed in Jenkins: HBase-TRUNK-on-Hadoop-2.0.0 #204"
"Apache Jenkins Server  <jenkins@builds.apache.org>","Tue, 2 Oct 2012 23:50:41 +0000 (UTC)","Build failed in Jenkins: HBase-TRUNK #3410"
"lars hofhansl <lhofhansl@yahoo.com>","Tue, 2 Oct 2012 17:09:00 -0700 (PDT)","Re: ANN: The 3rd hbase 0.94.2 release candidate is available for download"
"Gregory Chanan <gchanan@cloudera.com>","Tue, 2 Oct 2012 17:22:36 -0700","Re: ANN: The 3rd hbase 0.94.2 release candidate is available for download"
"Apache Jenkins Server  <jenkins@builds.apache.org>","Wed, 3 Oct 2012 00:29:01 +0000 (UTC)","Build failed in Jenkins: HBase-0.94 #503"
"lars hofhansl <lhofhansl@yahoo.com>","Tue, 2 Oct 2012 17:48:23 -0700 (PDT)","Re: ANN: The 3rd hbase 0.94.2 release candidate is available for download"
"Apache Jenkins Server  <jenkins@builds.apache.org>","Wed, 3 Oct 2012 01:31:17 +0000 (UTC)","Jenkins build is back to normal : HBase-0.92 #593"
"Andrew Purtell <apurtell@apache.org>","Wed, 3 Oct 2012 09:33:13 +0800","Re: ANN: The 3rd hbase 0.94.2 release candidate is available for download"
"Stack <stack@duboce.net>","Tue, 2 Oct 2012 21:32:41 -0700","Re: ANN: The 3rd hbase 0.94.2 release candidate is available for download"
"Apache Jenkins Server  <jenkins@builds.apache.org>","Wed, 3 Oct 2012 05:41:37 +0000 (UTC)","Build failed in Jenkins: HBase-TRUNK #3411"
"Apache Jenkins Server  <jenkins@builds.apache.org>","Wed, 3 Oct 2012 06:50:08 +0000 (UTC)","Build failed in Jenkins: HBase-TRUNK #3412"
"Apache Jenkins Server  <jenkins@builds.apache.org>","Wed, 3 Oct 2012 11:41:59 +0000 (UTC)","Build failed in Jenkins: HBase-TRUNK-on-Hadoop-2.0.0 #205"
"Apache Jenkins Server  <jenkins@builds.apache.org>","Wed, 3 Oct 2012 16:08:58 +0000 (UTC)","Build failed in Jenkins: HBase-TRUNK #3413"
"Apache Jenkins Server  <jenkins@builds.apache.org>","Wed, 3 Oct 2012 16:52:40 +0000 (UTC)","Build failed in Jenkins: HBase-TRUNK #3414"
"Apache Jenkins Server  <jenkins@builds.apache.org>","Wed, 3 Oct 2012 17:07:52 +0000 (UTC)","Build failed in Jenkins: HBase-TRUNK #3415"
"Apache Jenkins Server  <jenkins@builds.apache.org>","Wed, 3 Oct 2012 19:20:32 +0000 (UTC)","Build failed in Jenkins: HBase-TRUNK #3416"
"Apache Jenkins Server  <jenkins@builds.apache.org>","Wed, 3 Oct 2012 21:35:29 +0000 (UTC)","Build failed in Jenkins: HBase-TRUNK #3417"
"Apache Jenkins Server  <jenkins@builds.apache.org>","Thu, 4 Oct 2012 02:02:37 +0000 (UTC)","Jenkins build is back to normal : HBase-TRUNK #3419"
"Apache Jenkins Server  <jenkins@builds.apache.org>","Thu, 4 Oct 2012 02:14:09 +0000 (UTC)","Build failed in Jenkins: HBase-0.94 #504"
"Apache Jenkins Server  <jenkins@builds.apache.org>","Thu, 4 Oct 2012 06:07:44 +0000 (UTC)","Build failed in Jenkins: HBase-TRUNK #3420"
"Apache Jenkins Server  <jenkins@builds.apache.org>","Thu, 4 Oct 2012 06:46:42 +0000 (UTC)","Build failed in Jenkins: HBase-TRUNK #3421"
"Apache Jenkins Server  <jenkins@builds.apache.org>","Thu, 4 Oct 2012 11:43:02 +0000 (UTC)","Jenkins build is back to normal : HBase-TRUNK-on-Hadoop-2.0.0 #207"
"Apache Jenkins Server  <jenkins@builds.apache.org>","Thu, 4 Oct 2012 13:26:20 +0000 (UTC)","Build failed in Jenkins: HBase-TRUNK-on-Hadoop-2.0.0 #208"
"Apache Jenkins Server  <jenkins@builds.apache.org>","Thu, 4 Oct 2012 14:54:51 +0000 (UTC)","Build failed in Jenkins: HBase-TRUNK #3424"
"lars hofhansl <lhofhansl@yahoo.com>","Thu, 4 Oct 2012 08:56:55 -0700 (PDT)","Re: ANN: The 3rd hbase 0.94.2 release candidate is available for download"
"lars hofhansl <lhofhansl@yahoo.com>","Thu, 4 Oct 2012 09:29:13 -0700 (PDT)","Re: ANN: The 3rd hbase 0.94.2 release candidate is available for download"
"Apache Jenkins Server  <jenkins@builds.apache.org>","Thu, 4 Oct 2012 22:54:08 +0000 (UTC)","Build failed in Jenkins: HBase-TRUNK #3426"
"Apache Jenkins Server  <jenkins@builds.apache.org>","Thu, 4 Oct 2012 23:48:28 +0000 (UTC)","Build failed in Jenkins: HBase-TRUNK-on-Hadoop-2.0.0 #209"
"Apache Jenkins Server  <jenkins@builds.apache.org>","Fri, 5 Oct 2012 01:03:21 +0000 (UTC)","Build failed in Jenkins: HBase-0.94-security #59"
"Apache Jenkins Server  <jenkins@builds.apache.org>","Fri, 5 Oct 2012 01:43:10 +0000 (UTC)","Build failed in Jenkins: HBase-TRUNK #3427"
"Apache Jenkins Server  <jenkins@builds.apache.org>","Fri, 5 Oct 2012 02:48:40 +0000 (UTC)","Build failed in Jenkins: HBase-TRUNK #3428"
"Apache Jenkins Server  <jenkins@builds.apache.org>","Fri, 5 Oct 2012 02:59:48 +0000 (UTC)","Build failed in Jenkins: HBase-0.92-security #143"
"""Ramkrishna.S.Vasudevan"" <ramkrishna.vasudevan@huawei.com>","Fri, 5 Oct 2012 10:42:20 +0530","Bugs related to Usage of different filters and filter lists"
"lars hofhansl <lhofhansl@yahoo.com>","Thu, 4 Oct 2012 22:33:09 -0700 (PDT)","Re: Bugs related to Usage of different filters and filter lists"
"Apache Jenkins Server  <jenkins@builds.apache.org>","Fri, 5 Oct 2012 06:00:44 +0000 (UTC)","Build failed in Jenkins: HBase-0.92-security #144"
"Apache Jenkins Server  <jenkins@builds.apache.org>","Fri, 5 Oct 2012 08:26:38 +0000 (UTC)","Build failed in Jenkins: HBase-TRUNK #3429"
"Apache Jenkins Server  <jenkins@builds.apache.org>","Fri, 5 Oct 2012 08:27:33 +0000 (UTC)","Build failed in Jenkins: HBase-0.94 #507"
"Apache Jenkins Server  <jenkins@builds.apache.org>","Fri, 5 Oct 2012 11:46:47 +0000 (UTC)","Build failed in Jenkins: HBase-TRUNK-on-Hadoop-2.0.0 #210"
"Apache Jenkins Server  <jenkins@builds.apache.org>","Fri, 5 Oct 2012 12:28:14 +0000 (UTC)","Build failed in Jenkins: HBase-TRUNK #3430"
"Apache Jenkins Server  <jenkins@builds.apache.org>","Fri, 5 Oct 2012 23:01:48 +0000 (UTC)","Build failed in Jenkins: HBase-TRUNK #3431"
"Apache Jenkins Server  <jenkins@builds.apache.org>","Sat, 6 Oct 2012 00:11:59 +0000 (UTC)","Build failed in Jenkins: HBase-TRUNK-on-Hadoop-2.0.0 #211"
"Apache Jenkins Server  <jenkins@builds.apache.org>","Sat, 6 Oct 2012 00:32:56 +0000 (UTC)","Build failed in Jenkins: HBase-0.92 #595"
"Apache Jenkins Server  <jenkins@builds.apache.org>","Sat, 6 Oct 2012 00:53:47 +0000 (UTC)","Build failed in Jenkins: HBase-TRUNK #3432"
"Apache Jenkins Server  <jenkins@builds.apache.org>","Sat, 6 Oct 2012 01:58:03 +0000 (UTC)","Build failed in Jenkins: HBase-0.94 #509"
"Apache Jenkins Server  <jenkins@builds.apache.org>","Sat, 6 Oct 2012 02:35:52 +0000 (UTC)","Build failed in Jenkins: HBase-0.94-security #60"
"Apache Jenkins Server  <jenkins@builds.apache.org>","Sat, 6 Oct 2012 02:43:30 +0000 (UTC)","Build failed in Jenkins: HBase-TRUNK #3433"
"Apache Jenkins Server  <jenkins@builds.apache.org>","Sat, 6 Oct 2012 02:44:27 +0000 (UTC)","Build failed in Jenkins: HBase-0.94-security #61"
"Apache Jenkins Server  <jenkins@builds.apache.org>","Sat, 6 Oct 2012 03:34:48 +0000 (UTC)","Build failed in Jenkins: HBase-0.94-security #62"
"Apache Jenkins Server  <jenkins@builds.apache.org>","Sat, 6 Oct 2012 03:44:02 +0000 (UTC)","Jenkins build is back to normal : HBase-0.94 #511"
"Apache Jenkins Server  <jenkins@builds.apache.org>","Sat, 6 Oct 2012 03:57:56 +0000 (UTC)","Build failed in Jenkins: HBase-0.94-security #63"
"Apache Jenkins Server  <jenkins@builds.apache.org>","Sat, 6 Oct 2012 04:26:15 +0000 (UTC)","Build failed in Jenkins: HBase-0.94-security #64"
"Apache Jenkins Server  <jenkins@builds.apache.org>","Sat, 6 Oct 2012 04:59:53 +0000 (UTC)","Build failed in Jenkins: HBase-0.94-security #65"
"Apache Jenkins Server  <jenkins@builds.apache.org>","Sat, 6 Oct 2012 05:06:10 +0000 (UTC)","Jenkins build is back to normal : HBase-0.92 #596"
"Apache Jenkins Server  <jenkins@builds.apache.org>","Sat, 6 Oct 2012 05:08:54 +0000 (UTC)","Build failed in Jenkins: HBase-0.94-security #66"
"Apache Jenkins Server  <jenkins@builds.apache.org>","Sat, 6 Oct 2012 05:12:45 +0000 (UTC)","Build failed in Jenkins: HBase-0.94-security #67"
"Apache Jenkins Server  <jenkins@builds.apache.org>","Sat, 6 Oct 2012 05:15:04 +0000 (UTC)","Build failed in Jenkins: HBase-0.94-security #68"
"Apache Jenkins Server  <jenkins@builds.apache.org>","Sat, 6 Oct 2012 05:33:00 +0000 (UTC)","Build failed in Jenkins: HBase-0.94-security #69"
"Apache Jenkins Server  <jenkins@builds.apache.org>","Sat, 6 Oct 2012 05:51:43 +0000 (UTC)","Build failed in Jenkins: HBase-0.94-security #70"
"lars hofhansl <lhofhansl@yahoo.com>","Fri, 5 Oct 2012 23:22:38 -0700 (PDT)","No 0.94 commits, please."
"Apache Jenkins Server  <jenkins@builds.apache.org>","Sat, 6 Oct 2012 07:00:12 +0000 (UTC)","Build failed in Jenkins: HBase-0.94-security #72"
"Apache Jenkins Server  <jenkins@builds.apache.org>","Sat, 6 Oct 2012 11:46:37 +0000 (UTC)","Build failed in Jenkins: HBase-TRUNK-on-Hadoop-2.0.0 #212"
"Apache Jenkins Server  <jenkins@builds.apache.org>","Sat, 6 Oct 2012 13:57:49 +0000 (UTC)","Jenkins build is back to normal : HBase-0.92-security #145"
"Apache Jenkins Server  <jenkins@builds.apache.org>","Sat, 6 Oct 2012 14:14:31 +0000 (UTC)","Build failed in Jenkins: HBase-TRUNK-on-Hadoop-2.0.0 #213"
"Apache Jenkins Server  <jenkins@builds.apache.org>","Sat, 6 Oct 2012 15:40:11 +0000 (UTC)","Jenkins build is back to normal : HBase-0.94-security #73"
"Ted Yu <yuzhihong@gmail.com>","Sat, 6 Oct 2012 09:14:14 -0700","Re: Switching trunk build to jdk1.7; will break some tests"
"Apache Jenkins Server  <jenkins@builds.apache.org>","Sat, 6 Oct 2012 16:19:20 +0000 (UTC)","Jenkins build is back to normal : HBase-TRUNK #3434"
"Apache Jenkins Server  <jenkins@builds.apache.org>","Sat, 6 Oct 2012 17:42:54 +0000 (UTC)","Build failed in Jenkins: HBase-0.94 #514"
"Apache Jenkins Server  <jenkins@builds.apache.org>","Sat, 6 Oct 2012 18:42:38 +0000 (UTC)","Build failed in Jenkins: HBase-0.94 #515"
"Apache Jenkins Server  <jenkins@builds.apache.org>","Sat, 6 Oct 2012 20:27:28 +0000 (UTC)","Build failed in Jenkins: HBase-0.94 #516"
"Apache Jenkins Server  <jenkins@builds.apache.org>","Sat, 6 Oct 2012 21:26:36 +0000 (UTC)","Build failed in Jenkins: HBase-0.94 #517"
"Apache Jenkins Server  <jenkins@builds.apache.org>","Sat, 6 Oct 2012 22:26:02 +0000 (UTC)","Build failed in Jenkins: HBase-0.94 #518"
"Apache Jenkins Server  <jenkins@builds.apache.org>","Sat, 6 Oct 2012 23:51:49 +0000 (UTC)","Build failed in Jenkins: HBase-0.94 #519"
"Apache Jenkins Server  <jenkins@builds.apache.org>","Sun, 7 Oct 2012 01:37:19 +0000 (UTC)","Build failed in Jenkins: HBase-TRUNK-on-Hadoop-2.0.0 #214"
"Apache Jenkins Server  <jenkins@builds.apache.org>","Sun, 7 Oct 2012 02:06:31 +0000 (UTC)","Build failed in Jenkins: HBase-0.94 #520"
"Apache Jenkins Server  <jenkins@builds.apache.org>","Sun, 7 Oct 2012 03:28:46 +0000 (UTC)","Build failed in Jenkins: HBase-0.94 #521"
"Apache Jenkins Server  <jenkins@builds.apache.org>","Sun, 7 Oct 2012 04:27:57 +0000 (UTC)","Build failed in Jenkins: HBase-0.94 #522"
"Apache Jenkins Server  <jenkins@builds.apache.org>","Sun, 7 Oct 2012 05:34:11 +0000 (UTC)","Build failed in Jenkins: HBase-0.94 #523"
"lars hofhansl <lhofhansl@yahoo.com>","Sat, 6 Oct 2012 23:11:27 -0700 (PDT)","State of the 0.94 tests"
"Apache Jenkins Server  <jenkins@builds.apache.org>","Sun, 7 Oct 2012 06:38:43 +0000 (UTC)","Jenkins build is back to normal : HBase-0.94 #524"
"lars hofhansl <lhofhansl@yahoo.com>","Sat, 6 Oct 2012 23:41:37 -0700 (PDT)","Re: State of the 0.94 tests"
"Apache Jenkins Server  <jenkins@builds.apache.org>","Sun, 7 Oct 2012 07:06:55 +0000 (UTC)","Build failed in Jenkins: HBase-0.94-security #74"
"Apache Jenkins Server  <jenkins@builds.apache.org>","Sun, 7 Oct 2012 07:49:24 +0000 (UTC)","Jenkins build is back to normal : HBase-0.94-security #75"
"Apache Jenkins Server  <jenkins@builds.apache.org>","Sun, 7 Oct 2012 07:53:53 +0000 (UTC)","Build failed in Jenkins: HBase-0.94 #525"
"Andrew Purtell <andrew.purtell@gmail.com>","Sun, 7 Oct 2012 16:36:45 +0800","Re: State of the 0.94 tests"
"Andrew Purtell <apurtell@apache.org>","Sun, 7 Oct 2012 01:46:12 -0700","Re: State of the 0.94 tests"
"Andrew Purtell <apurtell@apache.org>","Sun, 7 Oct 2012 01:48:51 -0700","Re: State of the 0.94 tests"
"Apache Jenkins Server  <jenkins@builds.apache.org>","Sun, 7 Oct 2012 09:03:05 +0000 (UTC)","Build failed in Jenkins: HBase-0.94 #526"
"lars hofhansl <lhofhansl@yahoo.com>","Sun, 7 Oct 2012 09:21:49 -0700 (PDT)","Re: State of the 0.94 tests"
"lars hofhansl <lhofhansl@yahoo.com>","Sun, 7 Oct 2012 09:26:05 -0700 (PDT)","Re: State of the 0.94 tests"
"lars hofhansl <lhofhansl@yahoo.com>","Sun, 7 Oct 2012 09:44:57 -0700 (PDT)","Re: State of the 0.94 tests"
"Apache Jenkins Server  <jenkins@builds.apache.org>","Sun, 7 Oct 2012 16:52:04 +0000 (UTC)","Build failed in Jenkins: HBase-0.94-security #77"
"Apache Jenkins Server  <jenkins@builds.apache.org>","Sun, 7 Oct 2012 17:19:10 +0000 (UTC)","Build failed in Jenkins: HBase-0.94 #527"
"Apache Jenkins Server  <jenkins@builds.apache.org>","Sun, 7 Oct 2012 17:27:38 +0000 (UTC)","Jenkins build is back to normal : HBase-0.94-security #78"
"Apache Jenkins Server  <jenkins@builds.apache.org>","Sun, 7 Oct 2012 18:16:16 +0000 (UTC)","Build failed in Jenkins: HBase-0.94 #528"
"lars hofhansl <lhofhansl@yahoo.com>","Sun, 7 Oct 2012 11:23:26 -0700 (PDT)","Re: State of the 0.94 tests"
"Apache Jenkins Server  <jenkins@builds.apache.org>","Sun, 7 Oct 2012 18:59:50 +0000 (UTC)","Jenkins build is back to normal : HBase-0.94 #529"
"Apache Jenkins Server  <jenkins@builds.apache.org>","Sun, 7 Oct 2012 19:26:31 +0000 (UTC)","Build failed in Jenkins: HBase-0.94-security #79"
"Apache Jenkins Server  <jenkins@builds.apache.org>","Sun, 7 Oct 2012 20:07:43 +0000 (UTC)","Jenkins build is back to normal : HBase-0.94-security #80"
"lars hofhansl <lhofhansl@yahoo.com>","Sun, 7 Oct 2012 13:36:41 -0700 (PDT)","Re: State of the 0.94 tests"
"lars hofhansl <lhofhansl@yahoo.com>","Sun, 7 Oct 2012 13:56:42 -0700 (PDT)","ANN: The 4th hbase 0.94.2 release candidate is available for download"
"lars hofhansl <lhofhansl@yahoo.com>","Sun, 7 Oct 2012 14:00:53 -0700 (PDT)","Re: ANN: The 4th hbase 0.94.2 release candidate is available for download"
"Apache Jenkins Server  <jenkins@builds.apache.org>","Sun, 7 Oct 2012 21:27:38 +0000 (UTC)","Build failed in Jenkins: HBase-0.94 #532"
"Apache Jenkins Server  <jenkins@builds.apache.org>","Sun, 7 Oct 2012 21:54:34 +0000 (UTC)","Build failed in Jenkins: HBase-TRUNK #3435"
"Apache Jenkins Server  <jenkins@builds.apache.org>","Sun, 7 Oct 2012 22:26:59 +0000 (UTC)","Build failed in Jenkins: HBase-0.94 #533"
"Apache Jenkins Server  <jenkins@builds.apache.org>","Mon, 8 Oct 2012 00:28:43 +0000 (UTC)","Build failed in Jenkins: HBase-0.94 #534"
"""Ramkrishna.S.Vasudevan"" <ramkrishna.vasudevan@huawei.com>","Mon, 8 Oct 2012 09:31:26 +0530","RE: State of the 0.94 tests"
"lars hofhansl <lhofhansl@yahoo.com>","Sun, 7 Oct 2012 21:15:43 -0700 (PDT)","Re: State of the 0.94 tests"
"Flavio Junqueira <fpj@yahoo-inc.com>","Mon, 8 Oct 2012 21:54:14 +0200","Question about WALEdit"
"Ted Yu <yuzhihong@gmail.com>","Mon, 8 Oct 2012 14:10:40 -0700","Re: Question about WALEdit"
"Flavio Junqueira <fpj@yahoo-inc.com>","Mon, 8 Oct 2012 23:34:25 +0200","Re: Question about WALEdit"
"Ted Yu <yuzhihong@gmail.com>","Mon, 8 Oct 2012 14:39:04 -0700","Re: Question about WALEdit"
"Jonathan Hsieh <jon@cloudera.com>","Tue, 9 Oct 2012 11:32:53 -0700","Re: ANN: The 4th hbase 0.94.2 release candidate is available for download"
"Apache Jenkins Server  <jenkins@builds.apache.org>","Tue, 9 Oct 2012 18:59:07 +0000 (UTC)","Build failed in Jenkins: HBase-TRUNK #3436"
"Apache Jenkins Server  <jenkins@builds.apache.org>","Tue, 9 Oct 2012 22:50:22 +0000 (UTC)","Jenkins build is back to normal : HBase-TRUNK #3437"
"Apache Jenkins Server  <jenkins@builds.apache.org>","Wed, 10 Oct 2012 00:34:30 +0000 (UTC)","Build failed in Jenkins: HBase-TRUNK-on-Hadoop-2.0.0 #215"
"Apache Jenkins Server  <jenkins@builds.apache.org>","Wed, 10 Oct 2012 00:40:03 +0000 (UTC)","Build failed in Jenkins: HBase-TRUNK #3438"
"Apache Jenkins Server  <jenkins@builds.apache.org>","Wed, 10 Oct 2012 02:29:37 +0000 (UTC)","Build failed in Jenkins: HBase-TRUNK #3439"
"Stack <stack@duboce.net>","Tue, 9 Oct 2012 21:13:20 -0700","Re: 0.96.0"
"Apache Jenkins Server  <jenkins@builds.apache.org>","Wed, 10 Oct 2012 05:56:15 +0000 (UTC)","Jenkins build is back to normal : HBase-TRUNK #3440"
"Lars George <lars.george@gmail.com>","Wed, 10 Oct 2012 17:48:20 +0900","HBASE-3857"
"Apache Jenkins Server  <jenkins@builds.apache.org>","Wed, 10 Oct 2012 11:22:12 +0000 (UTC)","Build failed in Jenkins: HBase-TRUNK-on-Hadoop-2.0.0 #216"
"Jonathan Hsieh <jon@cloudera.com>","Wed, 10 Oct 2012 08:10:20 -0700","Re: HBASE-3857"
"Apache Jenkins Server  <jenkins@builds.apache.org>","Wed, 10 Oct 2012 19:06:47 +0000 (UTC)","Jenkins build is back to normal : HBase-0.94 #535"
"Apache Jenkins Server  <jenkins@builds.apache.org>","Wed, 10 Oct 2012 22:55:49 +0000 (UTC)","Build failed in Jenkins: HBase-TRUNK #3441"
"Apache Jenkins Server  <jenkins@builds.apache.org>","Wed, 10 Oct 2012 23:54:14 +0000 (UTC)","Build failed in Jenkins: HBase-TRUNK-on-Hadoop-2.0.0 #217"
"Apache Jenkins Server  <jenkins@builds.apache.org>","Thu, 11 Oct 2012 02:21:13 +0000 (UTC)","Build failed in Jenkins: HBase-TRUNK #3442"
"Apache Jenkins Server  <jenkins@builds.apache.org>","Thu, 11 Oct 2012 05:43:40 +0000 (UTC)","Build failed in Jenkins: HBase-TRUNK #3443"
"Apache Jenkins Server  <jenkins@builds.apache.org>","Thu, 11 Oct 2012 08:11:33 +0000 (UTC)","Build failed in Jenkins: HBase-TRUNK #3444"
"Apache Jenkins Server  <jenkins@builds.apache.org>","Thu, 11 Oct 2012 11:49:05 +0000 (UTC)","Jenkins build is back to normal : HBase-TRUNK-on-Hadoop-2.0.0 #218"
"lars hofhansl <lhofhansl@yahoo.com>","Thu, 11 Oct 2012 10:11:06 -0700 (PDT)","Re: ANN: The 4th hbase 0.94.2 release candidate is available for download"
"Jimmy Xiang <jxiang@cloudera.com>","Thu, 11 Oct 2012 10:31:55 -0700","Re: AssignmentManager enhancement HBASE-6611 ready for review."
"Stack <stack@duboce.net>","Thu, 11 Oct 2012 13:21:44 -0700","Report submitted to the Apache Board"
"Jean-Daniel Cryans <jdcryans@apache.org>","Thu, 11 Oct 2012 18:10:51 -0700","Re: ANN: The 4th hbase 0.94.2 release candidate is available for download"
"lars hofhansl <lhofhansl@yahoo.com>","Thu, 11 Oct 2012 18:40:26 -0700 (PDT)","Re: ANN: The 4th hbase 0.94.2 release candidate is available for download"
"lars hofhansl <lhofhansl@yahoo.com>","Thu, 11 Oct 2012 21:08:32 -0700 (PDT)","Re: Closing issues (as opposed to Resolving)."
"lars hofhansl <lhofhansl@yahoo.com>","Thu, 11 Oct 2012 22:10:53 -0700 (PDT)","ANN: HBase 0.94.2 is available for download"
"Stack <stack@duboce.net>","Thu, 11 Oct 2012 22:28:34 -0700","Re: Closing issues (as opposed to Resolving)."
"lars hofhansl <lhofhansl@yahoo.com>","Thu, 11 Oct 2012 22:36:58 -0700 (PDT)","Re: Closing issues (as opposed to Resolving)."
"Stack <stack@duboce.net>","Thu, 11 Oct 2012 23:21:59 -0700","Re: Closing issues (as opposed to Resolving)."
"Apache Jenkins Server  <jenkins@builds.apache.org>","Fri, 12 Oct 2012 07:03:43 +0000 (UTC)","Build failed in Jenkins: HBase-TRUNK #3445"
"Apache Jenkins Server  <jenkins@builds.apache.org>","Fri, 12 Oct 2012 11:45:41 +0000 (UTC)","Build failed in Jenkins: HBase-TRUNK-on-Hadoop-2.0.0 #219"
"lars hofhansl <lhofhansl@yahoo.com>","Fri, 12 Oct 2012 09:14:44 -0700 (PDT)","Re: Closing issues (as opposed to Resolving)."
"Aditya <adityakishore@gmail.com>","Fri, 12 Oct 2012 11:45:23 -0700","Re: ANN: HBase 0.94.2 is available for download"
"Stack <stack@duboce.net>","Fri, 12 Oct 2012 13:07:52 -0700","Re: ANN: HBase 0.94.2 is available for download"
"Apache Jenkins Server  <jenkins@builds.apache.org>","Fri, 12 Oct 2012 21:13:43 +0000 (UTC)","Build failed in Jenkins: HBase-TRUNK #3446"
"Apache Jenkins Server  <jenkins@builds.apache.org>","Fri, 12 Oct 2012 23:38:55 +0000 (UTC)","Build failed in Jenkins: HBase-TRUNK-on-Hadoop-2.0.0 #220"
"Jean-Daniel Cryans <jdcryans@apache.org>","Fri, 12 Oct 2012 17:22:27 -0700","Re: ANN: HBase 0.94.2 is available for download"
"lars hofhansl <lhofhansl@yahoo.com>","Fri, 12 Oct 2012 18:03:16 -0700 (PDT)","Re: ANN: HBase 0.94.2 is available for download"
"Apache Jenkins Server  <jenkins@builds.apache.org>","Mon, 15 Oct 2012 03:35:32 +0000 (UTC)","Build failed in Jenkins: HBase-TRUNK #3447"
"Apache Jenkins Server  <jenkins@builds.apache.org>","Mon, 15 Oct 2012 04:28:42 +0000 (UTC)","Build failed in Jenkins: HBase-TRUNK #3448"
"""Ramkrishna.S.Vasudevan"" <ramkrishna.vasudevan@huawei.com>","Mon, 15 Oct 2012 17:28:39 +0530","mutateRow() does not check for checkResources() and startRegionOperation()"
"Apache Jenkins Server  <jenkins@builds.apache.org>","Mon, 15 Oct 2012 12:05:34 +0000 (UTC)","Build failed in Jenkins: HBase-TRUNK-on-Hadoop-2.0.0 #221"
"Sergey Shelukhin <sergey@hortonworks.com>","Mon, 15 Oct 2012 10:58:12 -0700","COMPRESSION_COMPACT bug in shell?"
"Stack <stack@duboce.net>","Mon, 15 Oct 2012 11:35:46 -0700","Re: COMPRESSION_COMPACT bug in shell?"
"lars hofhansl <lhofhansl@yahoo.com>","Mon, 15 Oct 2012 11:39:28 -0700 (PDT)","Re: mutateRow() does not check for checkResources() and startRegionOperation()"
"=?UTF-8?Q?Enis_S=C3=B6ztutar?= <enis@apache.org>","Mon, 15 Oct 2012 15:22:32 -0700","Re: ANN: HBase 0.94.2 is available for download"
"Apache Jenkins Server  <jenkins@builds.apache.org>","Tue, 16 Oct 2012 01:44:24 +0000 (UTC)","Build failed in Jenkins: HBase-TRUNK #3449"
"=?gb2312?B?1cXA2g==?= <zhanglei@youku.com>","Tue, 16 Oct 2012 12:29:18 +0800","Build HBase source code error"
"lars hofhansl <lhofhansl@yahoo.com>","Mon, 15 Oct 2012 21:40:07 -0700 (PDT)","Re: mutateRow() does not check for checkResources() and startRegionOperation()"
"=?gb2312?B?0LvBvA==?= <xieliang@xiaomi.com>","Tue, 16 Oct 2012 04:41:41 +0000","=?gb2312?B?tPC4tDogQnVpbGQgSEJhc2Ugc291cmNlIGNvZGUgZXJyb3I=?="
"=?gb2312?B?1cXA2g==?= <zhanglei@youku.com>","Tue, 16 Oct 2012 05:31:05 +0000","RE: Build HBase source code error"
"Apache Jenkins Server  <jenkins@builds.apache.org>","Tue, 16 Oct 2012 11:42:49 +0000 (UTC)","Build failed in Jenkins: HBase-TRUNK-on-Hadoop-2.0.0 #222"
"Apache Jenkins Server  <jenkins@builds.apache.org>","Tue, 16 Oct 2012 20:09:57 +0000 (UTC)","Build failed in Jenkins: HBase-TRUNK #3450"
"Apache Jenkins Server  <jenkins@builds.apache.org>","Wed, 17 Oct 2012 00:31:46 +0000 (UTC)","Build failed in Jenkins: HBase-TRUNK-on-Hadoop-2.0.0 #223"
"lars hofhansl <lhofhansl@yahoo.com>","Tue, 16 Oct 2012 20:25:45 -0700 (PDT)","Set scanner caching to a better default?"
"Andrew Purtell <apurtell@apache.org>","Tue, 16 Oct 2012 20:48:02 -0700","Re: Set scanner caching to a better default?"
"Stack <stack@duboce.net>","Tue, 16 Oct 2012 22:12:07 -0700","Re: Set scanner caching to a better default?"
"Apache Jenkins Server  <jenkins@builds.apache.org>","Wed, 17 Oct 2012 08:07:35 +0000 (UTC)","Build failed in Jenkins: HBase-TRUNK #3451"
"Apache Jenkins Server  <jenkins@builds.apache.org>","Wed, 17 Oct 2012 11:46:20 +0000 (UTC)","Build failed in Jenkins: HBase-TRUNK-on-Hadoop-2.0.0 #224"
"Doug Meil <doug.meil@explorysmedical.com>","Wed, 17 Oct 2012 12:27:13 +0000","Re: Set scanner caching to a better default?"
"Apache Jenkins Server  <jenkins@builds.apache.org>","Wed, 17 Oct 2012 18:59:47 +0000 (UTC)","Build failed in Jenkins: HBase-TRUNK #3452"
"Apache Jenkins Server  <jenkins@builds.apache.org>","Wed, 17 Oct 2012 22:01:32 +0000 (UTC)","Build failed in Jenkins: HBase-TRUNK #3453"
"Apache Jenkins Server  <jenkins@builds.apache.org>","Wed, 17 Oct 2012 23:18:49 +0000 (UTC)","Build failed in Jenkins: HBase-TRUNK #3454"
"Apache Jenkins Server  <jenkins@builds.apache.org>","Wed, 17 Oct 2012 23:47:50 +0000 (UTC)","Build failed in Jenkins: HBase-TRUNK-on-Hadoop-2.0.0 #225"
"Apache Jenkins Server  <jenkins@builds.apache.org>","Thu, 18 Oct 2012 05:16:50 +0000 (UTC)","Build failed in Jenkins: HBase-0.94 #539"
"Apache Jenkins Server  <jenkins@builds.apache.org>","Thu, 18 Oct 2012 06:43:21 +0000 (UTC)","Build failed in Jenkins: HBase-TRUNK #3455"
"Apache Jenkins Server  <jenkins@builds.apache.org>","Thu, 18 Oct 2012 08:14:40 +0000 (UTC)","Build failed in Jenkins: HBase-0.94 #540"
"Apache Jenkins Server  <jenkins@builds.apache.org>","Thu, 18 Oct 2012 08:31:44 +0000 (UTC)","Build failed in Jenkins: HBase-TRUNK #3456"
"Apache Jenkins Server  <jenkins@builds.apache.org>","Thu, 18 Oct 2012 11:46:07 +0000 (UTC)","Build failed in Jenkins: HBase-TRUNK-on-Hadoop-2.0.0 #226"
"Shrijeet Paliwal <shrijeet@rocketfuel.com>","Thu, 18 Oct 2012 10:36:54 -0700","Re: renaming table"
"Apache Jenkins Server  <jenkins@builds.apache.org>","Thu, 18 Oct 2012 17:57:05 +0000 (UTC)","Build failed in Jenkins: HBase-TRUNK #3457"
"Apache Jenkins Server  <jenkins@builds.apache.org>","Thu, 18 Oct 2012 18:53:03 +0000 (UTC)","Build failed in Jenkins: HBase-TRUNK #3458"
"Stack <stack@duboce.net>","Thu, 18 Oct 2012 14:45:48 -0700","Re: renaming table"
"Apache Jenkins Server  <jenkins@builds.apache.org>","Thu, 18 Oct 2012 23:09:56 +0000 (UTC)","Build failed in Jenkins: HBase-TRUNK #3459"
"Apache Jenkins Server  <jenkins@builds.apache.org>","Thu, 18 Oct 2012 23:16:10 +0000 (UTC)","Build failed in Jenkins: HBase-0.94 #541"
"Apache Jenkins Server  <jenkins@builds.apache.org>","Thu, 18 Oct 2012 23:50:33 +0000 (UTC)","Build failed in Jenkins: HBase-TRUNK-on-Hadoop-2.0.0 #227"
"lars hofhansl <lhofhansl@yahoo.com>","Thu, 18 Oct 2012 22:39:29 -0700 (PDT)","[DISCUSS] Default to Hadoop 1.1 in HBase 0.94?"
"Jean-Daniel Cryans <jdcryans@apache.org>","Fri, 19 Oct 2012 08:50:28 -0700","Re: [DISCUSS] Default to Hadoop 1.1 in HBase 0.94?"
"Ted Yu <yuzhihong@gmail.com>","Fri, 19 Oct 2012 09:29:05 -0700","Re: [DISCUSS] Default to Hadoop 1.1 in HBase 0.94?"
"Apache Jenkins Server  <jenkins@builds.apache.org>","Fri, 19 Oct 2012 18:20:33 +0000 (UTC)","Build failed in Jenkins: HBase-TRUNK #3460"
"Apache Jenkins Server  <jenkins@builds.apache.org>","Fri, 19 Oct 2012 18:52:02 +0000 (UTC)","Build failed in Jenkins: HBase-TRUNK #3461"
"Apache Jenkins Server  <jenkins@builds.apache.org>","Fri, 19 Oct 2012 19:53:35 +0000 (UTC)","Build failed in Jenkins: HBase-TRUNK #3462"
"Ian Varley <ivarley@salesforce.com>","Fri, 19 Oct 2012 12:59:19 -0700","speaking of out-of-the-box configuration ..."
"Apache Jenkins Server  <jenkins@builds.apache.org>","Fri, 19 Oct 2012 20:40:58 +0000 (UTC)","Jenkins build is back to normal : HBase-0.94 #542"
"Andrew Purtell <apurtell@apache.org>","Fri, 19 Oct 2012 14:02:03 -0700","Re: speaking of out-of-the-box configuration ..."
"Ian Varley <ivarley@salesforce.com>","Fri, 19 Oct 2012 14:03:46 -0700","Re: speaking of out-of-the-box configuration ..."
"Andrew Purtell <apurtell@apache.org>","Fri, 19 Oct 2012 14:08:59 -0700","Re: speaking of out-of-the-box configuration ..."
"Apache Jenkins Server  <jenkins@builds.apache.org>","Fri, 19 Oct 2012 21:34:35 +0000 (UTC)","Build failed in Jenkins: HBase-0.92 #597"
"Apache Jenkins Server  <jenkins@builds.apache.org>","Fri, 19 Oct 2012 21:42:19 +0000 (UTC)","Build failed in Jenkins: HBase-TRUNK #3463"
"Apache Jenkins Server  <jenkins@builds.apache.org>","Fri, 19 Oct 2012 22:50:34 +0000 (UTC)","Build failed in Jenkins: HBase-TRUNK #3464"
"Apache Jenkins Server  <jenkins@builds.apache.org>","Fri, 19 Oct 2012 23:58:18 +0000 (UTC)","Build failed in Jenkins: HBase-TRUNK-on-Hadoop-2.0.0 #228"
"Stack <stack@duboce.net>","Fri, 19 Oct 2012 17:47:34 -0700","Re: speaking of out-of-the-box configuration ..."
"Andrew Purtell <apurtell@apache.org>","Fri, 19 Oct 2012 17:55:24 -0700","Re: speaking of out-of-the-box configuration ..."
"Andrew Purtell <apurtell@apache.org>","Fri, 19 Oct 2012 17:57:28 -0700","Is it just me or did someone turn off JIRA mails to issues@ ?"
"lars hofhansl <lhofhansl@yahoo.com>","Fri, 19 Oct 2012 18:21:15 -0700 (PDT)","Re: [DISCUSS] Default to Hadoop 1.1 in HBase 0.94?"
"Apache Jenkins Server  <jenkins@builds.apache.org>","Sat, 20 Oct 2012 03:35:45 +0000 (UTC)","Build failed in Jenkins: HBase-TRUNK #3465"
"Apache Jenkins Server  <jenkins@builds.apache.org>","Sat, 20 Oct 2012 04:42:21 +0000 (UTC)","Build failed in Jenkins: HBase-TRUNK #3466"
"Apache Jenkins Server  <jenkins@builds.apache.org>","Sat, 20 Oct 2012 05:55:36 +0000 (UTC)","Build failed in Jenkins: HBase-0.94 #544"
"ramkrishna vasudevan <ramkrishna.s.vasudevan@gmail.com>","Sat, 20 Oct 2012 11:29:38 +0530","Re: speaking of out-of-the-box configuration ..."
"Apache Jenkins Server  <jenkins@builds.apache.org>","Sat, 20 Oct 2012 06:13:48 +0000 (UTC)","Build failed in Jenkins: HBase-TRUNK #3467"
"Apache Jenkins Server  <jenkins@builds.apache.org>","Sat, 20 Oct 2012 12:00:02 +0000 (UTC)","Build failed in Jenkins: HBase-TRUNK-on-Hadoop-2.0.0 #229"
"Apache Jenkins Server  <jenkins@builds.apache.org>","Sat, 20 Oct 2012 20:03:41 +0000 (UTC)","Build failed in Jenkins: HBase-TRUNK #3468"
"Stack <stack@duboce.net>","Sat, 20 Oct 2012 15:44:01 -0700","Re: speaking of out-of-the-box configuration ..."
"Apache Jenkins Server  <jenkins@builds.apache.org>","Sat, 20 Oct 2012 23:42:14 +0000 (UTC)","Build failed in Jenkins: HBase-TRUNK #3469"
"Apache Jenkins Server  <jenkins@builds.apache.org>","Sat, 20 Oct 2012 23:46:45 +0000 (UTC)","Build failed in Jenkins: HBase-TRUNK-on-Hadoop-2.0.0 #230"
"Apache Jenkins Server  <jenkins@builds.apache.org>","Mon, 22 Oct 2012 17:40:15 +0000 (UTC)","Build failed in Jenkins: HBase-TRUNK #3470"
"Apache Jenkins Server  <jenkins@builds.apache.org>","Mon, 22 Oct 2012 18:12:16 +0000 (UTC)","Build failed in Jenkins: HBase-0.94 #545"
"Andrew Purtell <apurtell@apache.org>","Mon, 22 Oct 2012 11:15:23 -0700","Re: Is it just me or did someone turn off JIRA mails to issues@ ?"
"Jimmy Xiang <jxiang@cloudera.com>","Mon, 22 Oct 2012 11:37:08 -0700","Re: Is it just me or did someone turn off JIRA mails to issues@ ?"
"Andrew Purtell <apurtell@apache.org>","Mon, 22 Oct 2012 11:38:21 -0700","Re: Is it just me or did someone turn off JIRA mails to issues@ ?"
"Apache Jenkins Server  <jenkins@builds.apache.org>","Mon, 22 Oct 2012 19:10:03 +0000 (UTC)","Build failed in Jenkins: HBase-TRUNK #3471"
"Apache Jenkins Server  <jenkins@builds.apache.org>","Mon, 22 Oct 2012 19:15:56 +0000 (UTC)","Jenkins build is back to normal : HBase-0.92 #598"
"Apache Jenkins Server  <jenkins@builds.apache.org>","Mon, 22 Oct 2012 20:51:58 +0000 (UTC)","Build failed in Jenkins: HBase-TRUNK #3472"
"Apache Jenkins Server  <jenkins@builds.apache.org>","Tue, 23 Oct 2012 00:13:08 +0000 (UTC)","Build failed in Jenkins: HBase-TRUNK-on-Hadoop-2.0.0 #231"
"Apache Jenkins Server  <jenkins@builds.apache.org>","Tue, 23 Oct 2012 00:25:04 +0000 (UTC)","Jenkins build is back to normal : HBase-0.94 #546"
"Apache Jenkins Server  <jenkins@builds.apache.org>","Tue, 23 Oct 2012 17:31:58 +0000 (UTC)","Build failed in Jenkins: HBase-0.94 #548"
"Apache Jenkins Server  <jenkins@builds.apache.org>","Tue, 23 Oct 2012 17:40:09 +0000 (UTC)","Build failed in Jenkins: HBase-TRUNK #3474"
"Apache Jenkins Server  <jenkins@builds.apache.org>","Tue, 23 Oct 2012 18:32:22 +0000 (UTC)","Build failed in Jenkins: HBase-TRUNK #3475"
"Apache Jenkins Server  <jenkins@builds.apache.org>","Tue, 23 Oct 2012 19:19:56 +0000 (UTC)","Build failed in Jenkins: HBase-TRUNK #3476"
"Apache Jenkins Server  <jenkins@builds.apache.org>","Tue, 23 Oct 2012 20:15:57 +0000 (UTC)","Jenkins build is back to normal : HBase-0.94 #549"
"Apache Jenkins Server  <jenkins@builds.apache.org>","Tue, 23 Oct 2012 22:21:17 +0000 (UTC)","Build failed in Jenkins: HBase-TRUNK #3477"
"Apache Jenkins Server  <jenkins@builds.apache.org>","Tue, 23 Oct 2012 23:48:28 +0000 (UTC)","Build failed in Jenkins: HBase-TRUNK-on-Hadoop-2.0.0 #232"
"Apache Jenkins Server  <jenkins@builds.apache.org>","Wed, 24 Oct 2012 02:04:24 +0000 (UTC)","Build failed in Jenkins: HBase-0.94 #550"
"Apache Jenkins Server  <jenkins@builds.apache.org>","Wed, 24 Oct 2012 02:40:48 +0000 (UTC)","Build failed in Jenkins: HBase-TRUNK #3478"
"Apache Jenkins Server  <jenkins@builds.apache.org>","Wed, 24 Oct 2012 06:04:53 +0000 (UTC)","Build failed in Jenkins: HBase-TRUNK #3479"
"Apache Jenkins Server  <jenkins@builds.apache.org>","Wed, 24 Oct 2012 06:32:07 +0000 (UTC)","Build failed in Jenkins: HBase-0.94 #551"
"Apache Jenkins Server  <jenkins@builds.apache.org>","Wed, 24 Oct 2012 08:26:43 +0000 (UTC)","Build failed in Jenkins: HBase-0.94 #552"
"Apache Jenkins Server  <jenkins@builds.apache.org>","Wed, 24 Oct 2012 08:50:44 +0000 (UTC)","Build failed in Jenkins: HBase-TRUNK #3480"
"Apache Jenkins Server  <jenkins@builds.apache.org>","Wed, 24 Oct 2012 12:25:25 +0000 (UTC)","Build failed in Jenkins: HBase-TRUNK-on-Hadoop-2.0.0 #233"
"Apache Jenkins Server  <jenkins@builds.apache.org>","Wed, 24 Oct 2012 16:00:50 +0000 (UTC)","Build failed in Jenkins: HBase-TRUNK #3481"
"Apache Jenkins Server  <jenkins@builds.apache.org>","Wed, 24 Oct 2012 17:16:10 +0000 (UTC)","Build failed in Jenkins: HBase-TRUNK #3482"
"Apache Jenkins Server  <jenkins@builds.apache.org>","Thu, 25 Oct 2012 01:16:06 +0000 (UTC)","Build failed in Jenkins: HBase-TRUNK-on-Hadoop-2.0.0 #234"
"Apache Jenkins Server  <jenkins@builds.apache.org>","Thu, 25 Oct 2012 01:20:28 +0000 (UTC)","Build failed in Jenkins: HBase-TRUNK #3483"
"Apache Jenkins Server  <jenkins@builds.apache.org>","Thu, 25 Oct 2012 04:51:11 +0000 (UTC)","Build failed in Jenkins: HBase-TRUNK #3484"
"Apache Jenkins Server  <jenkins@builds.apache.org>","Thu, 25 Oct 2012 11:59:38 +0000 (UTC)","Build failed in Jenkins: HBase-TRUNK-on-Hadoop-2.0.0 #235"
"Apache Jenkins Server  <jenkins@builds.apache.org>","Thu, 25 Oct 2012 17:15:42 +0000 (UTC)","Build failed in Jenkins: HBase-0.94 #553"
"Apache Jenkins Server  <jenkins@builds.apache.org>","Thu, 25 Oct 2012 17:27:06 +0000 (UTC)","Build failed in Jenkins: HBase-0.92 #599"
"Apache Jenkins Server  <jenkins@builds.apache.org>","Thu, 25 Oct 2012 18:06:42 +0000 (UTC)","Build failed in Jenkins: HBase-TRUNK #3485"
"Apache Jenkins Server  <jenkins@builds.apache.org>","Thu, 25 Oct 2012 18:24:33 +0000 (UTC)","Build failed in Jenkins: HBase-0.94 #554"
"Apache Jenkins Server  <jenkins@builds.apache.org>","Thu, 25 Oct 2012 18:54:50 +0000 (UTC)","Build failed in Jenkins: HBase-TRUNK #3486"
"Apache Jenkins Server  <jenkins@builds.apache.org>","Thu, 25 Oct 2012 19:43:36 +0000 (UTC)","Build failed in Jenkins: HBase-TRUNK-on-Hadoop-2.0.0 #236"
"Apache Jenkins Server  <jenkins@builds.apache.org>","Thu, 25 Oct 2012 20:49:15 +0000 (UTC)","Build failed in Jenkins: HBase-0.92 #600"
"Apache Jenkins Server  <jenkins@builds.apache.org>","Thu, 25 Oct 2012 21:59:12 +0000 (UTC)","Build failed in Jenkins: HBase-TRUNK #3487"
"Apache Jenkins Server  <jenkins@builds.apache.org>","Fri, 26 Oct 2012 00:06:56 +0000 (UTC)","Build failed in Jenkins: HBase-TRUNK-on-Hadoop-2.0.0 #237"
"Apache Jenkins Server  <jenkins@builds.apache.org>","Fri, 26 Oct 2012 02:30:07 +0000 (UTC)","Build failed in Jenkins: HBase-TRUNK-on-Hadoop-2.0.0 #238"
"Apache Jenkins Server  <jenkins@builds.apache.org>","Fri, 26 Oct 2012 04:54:53 +0000 (UTC)","Jenkins build is back to normal : HBase-0.94 #555"
"Apache Jenkins Server  <jenkins@builds.apache.org>","Fri, 26 Oct 2012 06:31:25 +0000 (UTC)","Build failed in Jenkins: HBase-0.94 #556"
"Apache Jenkins Server  <jenkins@builds.apache.org>","Fri, 26 Oct 2012 07:10:14 +0000 (UTC)","Build failed in Jenkins: HBase-TRUNK #3488"
"Apache Jenkins Server  <jenkins@builds.apache.org>","Fri, 26 Oct 2012 12:09:49 +0000 (UTC)","Build failed in Jenkins: HBase-TRUNK-on-Hadoop-2.0.0 #239"
"Apache Jenkins Server  <jenkins@builds.apache.org>","Fri, 26 Oct 2012 19:14:26 +0000 (UTC)","Build failed in Jenkins: HBase-0.94 #557"
"Apache Jenkins Server  <jenkins@builds.apache.org>","Fri, 26 Oct 2012 21:44:45 +0000 (UTC)","Build failed in Jenkins: HBase-TRUNK #3489"
"Apache Jenkins Server  <jenkins@builds.apache.org>","Fri, 26 Oct 2012 23:47:56 +0000 (UTC)","Build failed in Jenkins: HBase-TRUNK #3490"
"Apache Jenkins Server  <jenkins@builds.apache.org>","Sat, 27 Oct 2012 00:07:59 +0000 (UTC)","Build failed in Jenkins: HBase-TRUNK-on-Hadoop-2.0.0 #240"
"Apache Jenkins Server  <jenkins@builds.apache.org>","Sat, 27 Oct 2012 23:30:57 +0000 (UTC)","Jenkins build is back to normal : HBase-0.94 #558"
"Apache Jenkins Server  <jenkins@builds.apache.org>","Sun, 28 Oct 2012 00:33:02 +0000 (UTC)","Build failed in Jenkins: HBase-TRUNK #3491"
"Apache Jenkins Server  <jenkins@builds.apache.org>","Sun, 28 Oct 2012 00:37:49 +0000 (UTC)","Build failed in Jenkins: HBase-TRUNK-on-Hadoop-2.0.0 #241"
"lars hofhansl <lhofhansl@yahoo.com>","Sat, 27 Oct 2012 17:46:36 -0700 (PDT)","[DISCUSS] Set scanner caching to a better default? HBASE-7008"
"Stack <stack@duboce.net>","Sat, 27 Oct 2012 18:56:34 -0700","Re: [DISCUSS] Set scanner caching to a better default? HBASE-7008"
"Apache Jenkins Server  <jenkins@builds.apache.org>","Sun, 28 Oct 2012 02:36:57 +0000 (UTC)","Build failed in Jenkins: HBase-TRUNK #3492"
"lars hofhansl <lhofhansl@yahoo.com>","Sat, 27 Oct 2012 21:30:47 -0700 (PDT)","Re: [DISCUSS] Set scanner caching to a better default? HBASE-7008"
"Apache Jenkins Server  <jenkins@builds.apache.org>","Sun, 28 Oct 2012 11:53:36 +0000 (UTC)","Build failed in Jenkins: HBase-TRUNK-on-Hadoop-2.0.0 #242"
"Apache Jenkins Server  <jenkins@builds.apache.org>","Sun, 28 Oct 2012 18:05:30 +0000 (UTC)","Build failed in Jenkins: HBase-TRUNK #3493"
"Apache Jenkins Server  <jenkins@builds.apache.org>","Sun, 28 Oct 2012 23:06:09 +0000 (UTC)","Build failed in Jenkins: HBase-TRUNK #3494"
"Apache Jenkins Server  <jenkins@builds.apache.org>","Mon, 29 Oct 2012 00:10:43 +0000 (UTC)","Build failed in Jenkins: HBase-TRUNK-on-Hadoop-2.0.0 #243"
"Apache Jenkins Server  <jenkins@builds.apache.org>","Mon, 29 Oct 2012 22:05:13 +0000 (UTC)","Jenkins build is back to normal : HBase-TRUNK #3495"
"Apache Jenkins Server  <jenkins@builds.apache.org>","Mon, 29 Oct 2012 23:35:33 +0000 (UTC)","Build failed in Jenkins: HBase-TRUNK #3496"
"Apache Jenkins Server  <jenkins@builds.apache.org>","Tue, 30 Oct 2012 01:12:26 +0000 (UTC)","Build failed in Jenkins: HBase-TRUNK-on-Hadoop-2.0.0 #244"
"Apache Jenkins Server  <jenkins@builds.apache.org>","Tue, 30 Oct 2012 03:30:22 +0000 (UTC)","Build failed in Jenkins: HBase-TRUNK #3497"
"Ted Yu <yuzhihong@gmail.com>","Mon, 29 Oct 2012 20:37:36 -0700","Re: hbase 0.94.0 failed to individually run test case with org.apache.hadoop.hbase.TestZookeeper"
"Ted Yu <yuzhihong@gmail.com>","Mon, 29 Oct 2012 20:43:24 -0700","Re: hbase 0.94.0 failed to individually run test case with org.apache.hadoop.hbase.TestZookeeper"
"Apache Jenkins Server  <jenkins@builds.apache.org>","Tue, 30 Oct 2012 03:55:59 +0000 (UTC)","Build failed in Jenkins: HBase-0.94 #559"
"Liping Zhang <zlpdaisy@gmail.com>","Tue, 30 Oct 2012 11:58:21 +0800","Re: hbase 0.94.0 failed to individually run test case with org.apache.hadoop.hbase.TestZookeeper"
"Liping Zhang <zlpdaisy@gmail.com>","Tue, 30 Oct 2012 12:07:15 +0800","Re: hbase 0.94.0 failed to individually run test case with org.apache.hadoop.hbase.TestZookeeper"
"Ted Yu <yuzhihong@gmail.com>","Mon, 29 Oct 2012 21:50:54 -0700","Re: hbase 0.94.0 failed to individually run test case with org.apache.hadoop.hbase.TestZookeeper"
"bpon <git@git.apache.org>","Tue, 30 Oct 2012 08:13:42 +0000 (UTC)","hbase pull request: Update hbase-server/src/main/java/org/apache/hadoop/hba..."
"Nicolas Liochon <nkeywal@gmail.com>","Tue, 30 Oct 2012 10:27:18 +0100","Re: hbase 0.94.0 failed to individually run test case with org.apache.hadoop.hbase.TestZookeeper"
"Mike <mike20007@gmail.com>","Tue, 30 Oct 2012 10:33:45 -0400","Adding column family to hbase table"
"Ted Yu <yuzhihong@gmail.com>","Tue, 30 Oct 2012 08:59:49 -0700","Re: hbase pull request: Update hbase-server/src/main/java/org/apache/hadoop/hba..."
"tsuna <tsunanet@gmail.com>","Tue, 30 Oct 2012 09:16:22 -0700","Re: [DISCUSS] Set scanner caching to a better default? HBASE-7008"
"Ted Yu <yuzhihong@gmail.com>","Tue, 30 Oct 2012 11:20:17 -0700","Review Request: HBASE-6651: Thread safety of HTablePool is doubtful"
"Apache Jenkins Server  <jenkins@builds.apache.org>","Tue, 30 Oct 2012 20:36:18 +0000 (UTC)","Build failed in Jenkins: HBase-TRUNK #3498"
"Bryan Pon <bryan@bre.ad>","Tue, 30 Oct 2012 13:40:35 -0700","Re: hbase pull request: Update hbase-server/src/main/java/org/apache/hadoop/hba..."
"Ted Yu <yuzhihong@gmail.com>","Tue, 30 Oct 2012 13:56:07 -0700","Re: Build failed in Jenkins: HBase-TRUNK #3498"
"Apache Jenkins Server  <jenkins@builds.apache.org>","Tue, 30 Oct 2012 21:37:13 +0000 (UTC)","Jenkins build is back to normal : HBase-0.94 #560"
"=?UTF-8?Q?Enis_S=C3=B6ztutar?= <enis@hortonworks.com>","Tue, 30 Oct 2012 16:19:56 -0700","HBase on Windows status update"
"Apache Jenkins Server  <jenkins@builds.apache.org>","Wed, 31 Oct 2012 02:21:39 +0000 (UTC)","Build failed in Jenkins: HBase-TRUNK #3499"
"Stack <stack@duboce.net>","Tue, 30 Oct 2012 20:27:58 -0700","Re: HBase on Windows status update"
"Apache Jenkins Server  <jenkins@builds.apache.org>","Wed, 31 Oct 2012 08:34:22 +0000 (UTC)","Build failed in Jenkins: HBase-TRUNK-on-Hadoop-2.0.0 #245"
"Aditya <adityakishore@gmail.com>","Wed, 31 Oct 2012 01:48:52 -0700","Re: Adding column family to hbase table"
"Apache Jenkins Server  <jenkins@builds.apache.org>","Wed, 31 Oct 2012 08:58:28 +0000 (UTC)","Jenkins build is back to normal : HBase-TRUNK #3500"
"Apache Jenkins Server  <jenkins@builds.apache.org>","Wed, 31 Oct 2012 19:01:37 +0000 (UTC)","Build failed in Jenkins: HBase-TRUNK #3501"
"=?UTF-8?Q?Enis_S=C3=B6ztutar?= <enis.soz@gmail.com>","Wed, 31 Oct 2012 14:54:40 -0700","Re: HBase on Windows status update"
"Apache Jenkins Server  <jenkins@builds.apache.org>","Wed, 31 Oct 2012 22:31:43 +0000 (UTC)","Build failed in Jenkins: HBase-TRUNK #3502"
