"Developer","Date","Subject"
"Apache Hudson Server <hudson@hudson.zones.apache.org>","Sat, 1 Nov 2008 00:00:21 +0000 (UTC)","Hudson build is back to normal: HBase-Patch #384"
"""Rong-En Fan (JIRA)"" <jira@apache.org>","Fri, 31 Oct 2008 19:15:44 -0700 (PDT)","[jira] Commented: (HBASE-789) add clover coverage report targets"
"""Billy Pearson (JIRA)"" <jira@apache.org>","Fri, 31 Oct 2008 20:11:44 -0700 (PDT)","[jira] Commented: (HBASE-938) major compaction period is not checked periodically"
"""stack (JIRA)"" <jira@apache.org>","Fri, 31 Oct 2008 21:01:45 -0700 (PDT)","[jira] Commented: (HBASE-789) add clover coverage report targets"
"""stack (JIRA)"" <jira@apache.org>","Fri, 31 Oct 2008 21:03:44 -0700 (PDT)","[jira] Assigned: (HBASE-975) Improve MapFile performance for start and end key"
"""stack (JIRA)"" <jira@apache.org>","Fri, 31 Oct 2008 21:41:44 -0700 (PDT)","[jira] Updated: (HBASE-975) Improve MapFile performance for start and end key"
"""Rong-En Fan (JIRA)"" <jira@apache.org>","Sat, 1 Nov 2008 05:49:44 -0700 (PDT)","[jira] Commented: (HBASE-789) add clover coverage report targets"
"""stack (JIRA)"" <jira@apache.org>","Sat, 1 Nov 2008 18:13:44 -0700 (PDT)","[jira] Created: (HBASE-977) Arcane HStoreKey comparator bug"
"""stack (JIRA)"" <jira@apache.org>","Sat, 1 Nov 2008 18:15:44 -0700 (PDT)","[jira] Assigned: (HBASE-977) Arcane HStoreKey comparator bug"
"""stack (JIRA)"" <jira@apache.org>","Sat, 1 Nov 2008 18:15:44 -0700 (PDT)","[jira] Resolved: (HBASE-977) Arcane HStoreKey comparator bug"
"""stack (JIRA)"" <jira@apache.org>","Sat, 1 Nov 2008 18:15:44 -0700 (PDT)","[jira] Updated: (HBASE-977) Arcane HStoreKey comparator bug"
"""Andrew Purtell (JIRA)"" <jira@apache.org>","Sat, 1 Nov 2008 19:23:44 -0700 (PDT)","[jira] Reopened: (HBASE-902) Add force compaction and force split operations to UI and Admin"
"""Jim Kellerman (JIRA)"" <jira@apache.org>","Sun, 2 Nov 2008 00:07:44 -0700 (PDT)","[jira] Updated: (HBASE-698) HLog recovery is not performed after master failure"
"""stack (JIRA)"" <jira@apache.org>","Sun, 2 Nov 2008 00:13:44 -0700 (PDT)","[jira] Updated: (HBASE-975) Improve MapFile performance for start and end key"
"""Jim Kellerman (JIRA)"" <jira@apache.org>","Sun, 2 Nov 2008 00:49:44 -0700 (PDT)","[jira] Updated: (HBASE-922) Bloom filters will not work if enabled after table is created and contains data"
"""Jim Kellerman (JIRA)"" <jira@apache.org>","Sun, 2 Nov 2008 01:37:44 -0700 (PDT)","[jira] Resolved: (HBASE-81) [hbase] When a scanner lease times out, throw a more ""user friendly"" exception"
"""Jim Kellerman (JIRA)"" <jira@apache.org>","Sun, 2 Nov 2008 01:45:44 -0700 (PDT)","[jira] Created: (HBASE-978) Remove BloomFilterDescriptor. It is no longer used."
"""Jim Kellerman (JIRA)"" <jira@apache.org>","Sun, 2 Nov 2008 01:57:44 -0700 (PDT)","[jira] Resolved: (HBASE-978) Remove BloomFilterDescriptor. It is no longer used."
"""sishen (JIRA)"" <jira@apache.org>","Sun, 2 Nov 2008 10:50:44 -0800 (PST)","[jira] Created: (HBASE-979) REST web app is not started automatically"
"""sishen (JIRA)"" <jira@apache.org>","Sun, 2 Nov 2008 10:52:46 -0800 (PST)","[jira] Updated: (HBASE-979) REST web app is not started automatically"
"""sishen (JIRA)"" <jira@apache.org>","Sun, 2 Nov 2008 10:52:46 -0800 (PST)","[jira] Updated: (HBASE-979) REST web app is not started automatically"
"""stack (JIRA)"" <jira@apache.org>","Sun, 2 Nov 2008 13:18:44 -0800 (PST)","[jira] Commented: (HBASE-979) REST web app is not started automatically"
"""sishen (JIRA)"" <jira@apache.org>","Sun, 2 Nov 2008 13:32:46 -0800 (PST)","[jira] Commented: (HBASE-979) REST web app is not started automatically"
"""Andrew Purtell (JIRA)"" <jira@apache.org>","Sun, 2 Nov 2008 14:40:44 -0800 (PST)","[jira] Commented: (HBASE-979) REST web app is not started automatically"
"""sishen (JIRA)"" <jira@apache.org>","Mon, 3 Nov 2008 01:26:44 -0800 (PST)","[jira] Commented: (HBASE-974) New Backup Export/Import MR for 0.18/0.19"
"Cosmin Lehene <clehene@adobe.com>","Mon, 3 Nov 2008 09:34:41 +0000","Re: [jira] Commented: (HBASE-974) New Backup Export/Import MR for 0.18/0.19"
"""Dingding Ye"" <yedingding@gmail.com>","Mon, 3 Nov 2008 17:40:54 +0800","Re: [jira] Commented: (HBASE-974) New Backup Export/Import MR for 0.18/0.19"
"Cosmin Lehene <clehene@adobe.com>","Mon, 3 Nov 2008 10:15:20 +0000","Re: [jira] Commented: (HBASE-974) New Backup Export/Import MR for 0.18/0.19"
"""stack (JIRA)"" <jira@apache.org>","Mon, 3 Nov 2008 09:40:44 -0800 (PST)","[jira] Updated: (HBASE-979) REST web app is not started automatically"
"""Billy Pearson (JIRA)"" <jira@apache.org>","Mon, 3 Nov 2008 12:24:44 -0800 (PST)","[jira] Updated: (HBASE-345) [hbase] Change configuration on running cluster"
"""Jim Kellerman (JIRA)"" <jira@apache.org>","Mon, 3 Nov 2008 17:01:44 -0800 (PST)","[jira] Resolved: (HBASE-964) Startup stuck ""waiting for root region"""
"""stack (JIRA)"" <jira@apache.org>","Mon, 3 Nov 2008 17:31:44 -0800 (PST)","[jira] Resolved: (HBASE-975) Improve MapFile performance for start and end key"
"""stack (JIRA)"" <jira@apache.org>","Mon, 3 Nov 2008 17:35:44 -0800 (PST)","[jira] Commented: (HBASE-975) Improve MapFile performance for start and end key"
"""stack (JIRA)"" <jira@apache.org>","Mon, 3 Nov 2008 22:48:44 -0800 (PST)","[jira] Created: (HBASE-980) Undo core of HBASE-975, caching of start and end row"
"""stack (JIRA)"" <jira@apache.org>","Mon, 3 Nov 2008 23:56:46 -0800 (PST)","[jira] Created: (HBASE-981) hbase.io.index.interval doesn't seem to have an effect; interval is 128 rather than the configured 32"
"""stack (JIRA)"" <jira@apache.org>","Tue, 4 Nov 2008 00:04:44 -0800 (PST)","[jira] Commented: (HBASE-964) Startup stuck ""waiting for root region"""
"""stack (JIRA)"" <jira@apache.org>","Tue, 4 Nov 2008 00:28:46 -0800 (PST)","[jira] Updated: (HBASE-980) Undo core of HBASE-975, caching of start and end row"
"""stack (JIRA)"" <jira@apache.org>","Tue, 4 Nov 2008 00:30:44 -0800 (PST)","[jira] Assigned: (HBASE-980) Undo core of HBASE-975, caching of start and end row"
"""stack (JIRA)"" <jira@apache.org>","Tue, 4 Nov 2008 00:30:44 -0800 (PST)","[jira] Resolved: (HBASE-980) Undo core of HBASE-975, caching of start and end row"
"""Samuel Guo (JIRA)"" <jira@apache.org>","Tue, 4 Nov 2008 05:40:44 -0800 (PST)","[jira] Commented: (HBASE-961) Delete multiple columns by regular expression"
"""Slava (JIRA)"" <jira@apache.org>","Tue, 4 Nov 2008 05:48:49 -0800 (PST)","[jira] Commented: (HBASE-961) Delete multiple columns by regular expression"
"""Jim Kellerman (JIRA)"" <jira@apache.org>","Tue, 4 Nov 2008 08:38:44 -0800 (PST)","[jira] Assigned: (HBASE-961) Delete multiple columns by regular expression"
"=?utf-8?Q?Do=C4=9Facan_G=C3=BCney_=28JIRA=29?= <jira@apache.org>","Tue, 4 Nov 2008 12:56:44 -0800 (PST)","[jira] Created: (HBASE-982) Deleting a column in MapReduce fails"
"=?utf-8?Q?Do=C4=9Facan_G=C3=BCney_=28JIRA=29?= <jira@apache.org>","Tue, 4 Nov 2008 12:58:44 -0800 (PST)","[jira] Updated: (HBASE-982) Deleting a column in MapReduce fails"
"=?utf-8?Q?Do=C4=9Facan_G=C3=BCney_=28JIRA=29?= <jira@apache.org>","Tue, 4 Nov 2008 13:16:46 -0800 (PST)","[jira] Updated: (HBASE-982) Deleting a column in MapReduce fails"
"""stack (JIRA)"" <jira@apache.org>","Tue, 4 Nov 2008 13:40:44 -0800 (PST)","[jira] Assigned: (HBASE-982) Deleting a column in MapReduce fails"
"""stack (JIRA)"" <jira@apache.org>","Tue, 4 Nov 2008 13:40:44 -0800 (PST)","[jira] Resolved: (HBASE-982) Deleting a column in MapReduce fails"
"""stack (JIRA)"" <jira@apache.org>","Tue, 4 Nov 2008 14:02:44 -0800 (PST)","[jira] Commented: (HBASE-951) Either shut down master or let it finish cleanup"
"""stack (JIRA)"" <jira@apache.org>","Tue, 4 Nov 2008 15:20:44 -0800 (PST)","[jira] Assigned: (HBASE-722) Shutdown and Compactions"
"""stack (JIRA)"" <jira@apache.org>","Tue, 4 Nov 2008 15:26:44 -0800 (PST)","[jira] Updated: (HBASE-722) Shutdown and Compactions"
"""stack (JIRA)"" <jira@apache.org>","Tue, 4 Nov 2008 15:32:44 -0800 (PST)","[jira] Commented: (HBASE-722) Shutdown and Compactions"
"""stack (JIRA)"" <jira@apache.org>","Tue, 4 Nov 2008 16:22:44 -0800 (PST)","[jira] Assigned: (HBASE-867) If millions of columns in a column family, hbase scanner won't come up"
"""Jim Kellerman (JIRA)"" <jira@apache.org>","Tue, 4 Nov 2008 16:38:44 -0800 (PST)","[jira] Commented: (HBASE-964) Startup stuck ""waiting for root region"""
"""stack (JIRA)"" <jira@apache.org>","Tue, 4 Nov 2008 17:49:44 -0800 (PST)","[jira] Commented: (HBASE-964) Startup stuck ""waiting for root region"""
"""Jim Kellerman (JIRA)"" <jira@apache.org>","Tue, 4 Nov 2008 17:53:44 -0800 (PST)","[jira] Commented: (HBASE-964) Startup stuck ""waiting for root region"""
"""stack (JIRA)"" <jira@apache.org>","Tue, 4 Nov 2008 17:55:44 -0800 (PST)","[jira] Assigned: (HBASE-964) Startup stuck ""waiting for root region"""
"""stack (JIRA)"" <jira@apache.org>","Tue, 4 Nov 2008 17:57:44 -0800 (PST)","[jira] Commented: (HBASE-964) Startup stuck ""waiting for root region"""
"""Jim Kellerman (JIRA)"" <jira@apache.org>","Wed, 5 Nov 2008 10:05:44 -0800 (PST)","[jira] Reopened: (HBASE-964) Startup stuck ""waiting for root region"""
"""Jim Kellerman (JIRA)"" <jira@apache.org>","Wed, 5 Nov 2008 10:07:44 -0800 (PST)","[jira] Reopened: (HBASE-975) Improve MapFile performance for start and end key"
"""Jim Kellerman (JIRA)"" <jira@apache.org>","Wed, 5 Nov 2008 10:07:44 -0800 (PST)","[jira] Resolved: (HBASE-975) Improve MapFile performance for start and end key"
"""stack (JIRA)"" <jira@apache.org>","Wed, 5 Nov 2008 10:33:44 -0800 (PST)","[jira] Commented: (HBASE-964) Startup stuck ""waiting for root region"""
"""Andrew Purtell (JIRA)"" <jira@apache.org>","Wed, 5 Nov 2008 10:57:44 -0800 (PST)","[jira] Updated: (HBASE-964) Startup stuck ""waiting for root region"""
"""Andrew Purtell (JIRA)"" <jira@apache.org>","Wed, 5 Nov 2008 11:31:46 -0800 (PST)","[jira] Assigned: (HBASE-981) hbase.io.index.interval doesn't seem to have an effect; interval is 128 rather than the configured 32"
"""Andrew Purtell (JIRA)"" <jira@apache.org>","Wed, 5 Nov 2008 11:55:44 -0800 (PST)","[jira] Updated: (HBASE-981) hbase.io.index.interval doesn't seem to have an effect; interval is 128 rather than the configured 32"
"""Andrew Purtell (JIRA)"" <jira@apache.org>","Wed, 5 Nov 2008 11:57:44 -0800 (PST)","[jira] Updated: (HBASE-981) hbase.io.index.interval doesn't seem to have an effect; interval is 128 rather than the configured 32"
"""Carlos Valiente (JIRA)"" <jira@apache.org>","Wed, 5 Nov 2008 14:14:44 -0800 (PST)","[jira] Created: (HBASE-983) Declare Perl namespace in Hbase.thrift"
"""Carlos Valiente (JIRA)"" <jira@apache.org>","Wed, 5 Nov 2008 14:14:44 -0800 (PST)","[jira] Updated: (HBASE-983) Declare Perl namespace in Hbase.thrift"
"""Samuel Guo (JIRA)"" <jira@apache.org>","Wed, 5 Nov 2008 18:35:44 -0800 (PST)","[jira] Updated: (HBASE-961) Delete multiple columns by regular expression"
"""stack (JIRA)"" <jira@apache.org>","Thu, 6 Nov 2008 00:05:44 -0800 (PST)","[jira] Commented: (HBASE-961) Delete multiple columns by regular expression"
"""Samuel Guo (JIRA)"" <jira@apache.org>","Thu, 6 Nov 2008 00:47:44 -0800 (PST)","[jira] Commented: (HBASE-961) Delete multiple columns by regular expression"
"""stack (JIRA)"" <jira@apache.org>","Thu, 6 Nov 2008 01:25:45 -0800 (PST)","[jira] Commented: (HBASE-961) Delete multiple columns by regular expression"
"""Samuel Guo (JIRA)"" <jira@apache.org>","Thu, 6 Nov 2008 01:33:44 -0800 (PST)","[jira] Updated: (HBASE-961) Delete multiple columns by regular expression"
"""Andrew Purtell (JIRA)"" <jira@apache.org>","Thu, 6 Nov 2008 10:54:45 -0800 (PST)","[jira] Updated: (HBASE-981) hbase.io.index.interval doesn't seem to have an effect; interval is 128 rather than the configured 32"
"Apache Hudson Server <hudson@hudson.zones.apache.org>","Thu, 6 Nov 2008 20:27:45 +0000 (UTC)","Build failed in Hudson: HBase-Patch #391"
"Andrew Purtell <apurtell@yahoo.com>","Thu, 6 Nov 2008 13:43:34 -0800 (PST)","Re: Build failed in Hudson: HBase-Patch #391"
"stack <stack@duboce.net>","Thu, 6 Nov 2008 15:25:13 -0800","Re: Build failed in Hudson: HBase-Patch #391"
"""Jim Kellerman (JIRA)"" <jira@apache.org>","Thu, 6 Nov 2008 20:16:44 -0800 (PST)","[jira] Created: (HBASE-984) Fix javadoc warnings"
"""Jim Kellerman (JIRA)"" <jira@apache.org>","Thu, 6 Nov 2008 20:40:44 -0800 (PST)","[jira] Created: (HBASE-985) javadoc error"
"""stack (JIRA)"" <jira@apache.org>","Thu, 6 Nov 2008 20:54:44 -0800 (PST)","[jira] Assigned: (HBASE-985) javadoc error"
"""stack (JIRA)"" <jira@apache.org>","Thu, 6 Nov 2008 20:54:44 -0800 (PST)","[jira] Resolved: (HBASE-985) javadoc error"
"""stack (JIRA)"" <jira@apache.org>","Thu, 6 Nov 2008 21:44:44 -0800 (PST)","[jira] Created: (HBASE-986) Cache sockets in DFSClient"
"""stack (JIRA)"" <jira@apache.org>","Thu, 6 Nov 2008 21:46:44 -0800 (PST)","[jira] Assigned: (HBASE-986) Cache sockets in DFSClient"
"""stack (JIRA)"" <jira@apache.org>","Thu, 6 Nov 2008 21:46:44 -0800 (PST)","[jira] Updated: (HBASE-986) Cache sockets in DFSClient"
"Apache Hudson Server <hudson@hudson.zones.apache.org>","Fri, 7 Nov 2008 05:51:02 +0000 (UTC)","Hudson build is back to normal: HBase-Patch #392"
"""stack (JIRA)"" <jira@apache.org>","Thu, 6 Nov 2008 22:04:46 -0800 (PST)","[jira] Resolved: (HBASE-961) Delete multiple columns by regular expression"
"Apache Hudson Server <hudson@hudson.zones.apache.org>","Fri, 7 Nov 2008 06:46:33 +0000 (UTC)","Build failed in Hudson: HBase-Patch #393"
"""Slava (JIRA)"" <jira@apache.org>","Thu, 6 Nov 2008 23:08:47 -0800 (PST)","[jira] Commented: (HBASE-961) Delete multiple columns by regular expression"
"""stack (JIRA)"" <jira@apache.org>","Thu, 6 Nov 2008 23:20:44 -0800 (PST)","[jira] Commented: (HBASE-986) Cache sockets in DFSClient"
"""stack (JIRA)"" <jira@apache.org>","Thu, 6 Nov 2008 23:52:44 -0800 (PST)","[jira] Commented: (HBASE-986) Cache sockets in DFSClient"
"""Jim Kellerman (JIRA)"" <jira@apache.org>","Fri, 7 Nov 2008 09:26:48 -0800 (PST)","[jira] Resolved: (HBASE-951) Either shut down master or let it finish cleanup"
"Apache Hudson Server <hudson@hudson.zones.apache.org>","Fri, 7 Nov 2008 18:46:02 +0000 (UTC)","Hudson build is back to normal: HBase-Patch #394"
"""stack (JIRA)"" <jira@apache.org>","Fri, 7 Nov 2008 13:25:44 -0800 (PST)","[jira] Updated: (HBASE-986) Cache sockets in DFSClient"
"""Billy Pearson (JIRA)"" <jira@apache.org>","Sat, 8 Nov 2008 16:42:44 -0800 (PST)","[jira] Commented: (HBASE-722) Shutdown and Compactions"
"""Jean-Daniel Cryans (JIRA)"" <jira@apache.org>","Sun, 9 Nov 2008 16:16:44 -0800 (PST)","[jira] Updated: (HBASE-964) Startup stuck ""waiting for root region"""
"Apache Hudson Server <hudson@hudson.zones.apache.org>","Mon, 10 Nov 2008 00:53:51 +0000 (UTC)","Build failed in Hudson: HBase-Patch #396"
"""Jean-Daniel Cryans"" <jdcryans@apache.org>","Sun, 9 Nov 2008 20:17:23 -0500","Re: Build failed in Hudson: HBase-Patch #396"
"""Billy Pearson (JIRA)"" <jira@apache.org>","Sun, 9 Nov 2008 17:22:44 -0800 (PST)","[jira] Commented: (HBASE-722) Shutdown and Compactions"
"""Billy Pearson (JIRA)"" <jira@apache.org>","Sun, 9 Nov 2008 17:56:44 -0800 (PST)","[jira] Created: (HBASE-987) We need a Hbase Partitioner for TableMapReduceUtil.initTableReduceJob MR Jobs"
"""Billy Pearson (JIRA)"" <jira@apache.org>","Sun, 9 Nov 2008 18:02:46 -0800 (PST)","[jira] Commented: (HBASE-947) [Optimization] Major compaction should remove deletes as well as the deleted cell"
"""Billy Pearson (JIRA)"" <jira@apache.org>","Sun, 9 Nov 2008 22:30:45 -0800 (PST)","[jira] Updated: (HBASE-987) We need a Hbase Partitioner for TableMapReduceUtil.initTableReduceJob MR Jobs"
"""Billy Pearson (JIRA)"" <jira@apache.org>","Sun, 9 Nov 2008 22:30:45 -0800 (PST)","[jira] Assigned: (HBASE-987) We need a Hbase Partitioner for TableMapReduceUtil.initTableReduceJob MR Jobs"
"""Billy Pearson (JIRA)"" <jira@apache.org>","Sun, 9 Nov 2008 23:58:44 -0800 (PST)","[jira] Updated: (HBASE-987) We need a Hbase Partitioner for TableMapReduceUtil.initTableReduceJob MR Jobs"
"""Billy Pearson (JIRA)"" <jira@apache.org>","Sun, 9 Nov 2008 23:58:44 -0800 (PST)","[jira] Updated: (HBASE-987) We need a Hbase Partitioner for TableMapReduceUtil.initTableReduceJob MR Jobs"
"""Billy Pearson (JIRA)"" <jira@apache.org>","Mon, 10 Nov 2008 00:22:44 -0800 (PST)","[jira] Commented: (HBASE-987) We need a Hbase Partitioner for TableMapReduceUtil.initTableReduceJob MR Jobs"
"""Billy Pearson (JIRA)"" <jira@apache.org>","Mon, 10 Nov 2008 01:36:44 -0800 (PST)","[jira] Updated: (HBASE-987) We need a Hbase Partitioner for TableMapReduceUtil.initTableReduceJob MR Jobs"
"""Jim Kellerman (JIRA)"" <jira@apache.org>","Mon, 10 Nov 2008 09:15:44 -0800 (PST)","[jira] Updated: (HBASE-964) Startup stuck ""waiting for root region"""
"""Jim Kellerman (JIRA)"" <jira@apache.org>","Mon, 10 Nov 2008 10:09:44 -0800 (PST)","[jira] Assigned: (HBASE-964) Startup stuck ""waiting for root region"""
"""Jim Kellerman (JIRA)"" <jira@apache.org>","Mon, 10 Nov 2008 10:09:44 -0800 (PST)","[jira] Updated: (HBASE-964) Startup stuck ""waiting for root region"""
"""Jean-Daniel Cryans (JIRA)"" <jira@apache.org>","Mon, 10 Nov 2008 10:29:44 -0800 (PST)","[jira] Commented: (HBASE-964) Startup stuck ""waiting for root region"""
"""stack (JIRA)"" <jira@apache.org>","Mon, 10 Nov 2008 10:57:44 -0800 (PST)","[jira] Resolved: (HBASE-722) Shutdown and Compactions"
"""stack (JIRA)"" <jira@apache.org>","Mon, 10 Nov 2008 10:59:44 -0800 (PST)","[jira] Resolved: (HBASE-983) Declare Perl namespace in Hbase.thrift"
"""Jim Kellerman (JIRA)"" <jira@apache.org>","Mon, 10 Nov 2008 11:05:44 -0800 (PST)","[jira] Resolved: (HBASE-964) Startup stuck ""waiting for root region"""
"""Jim Kellerman (JIRA)"" <jira@apache.org>","Mon, 10 Nov 2008 11:07:44 -0800 (PST)","[jira] Created: (HBASE-988) Enhance web ui to include ""safe-mode"""
"Apache Hudson Server <hudson@hudson.zones.apache.org>","Mon, 10 Nov 2008 20:06:21 +0000 (UTC)","Hudson build is back to normal: HBase-Patch #397"
"""Jim Kellerman (JIRA)"" <jira@apache.org>","Mon, 10 Nov 2008 12:07:44 -0800 (PST)","[jira] Commented: (HBASE-698) HLog recovery is not performed after master failure"
"""stack (JIRA)"" <jira@apache.org>","Mon, 10 Nov 2008 13:39:44 -0800 (PST)","[jira] Created: (HBASE-989) Cannot add columnfamily in shell"
"""Jim Kellerman (JIRA)"" <jira@apache.org>","Mon, 10 Nov 2008 13:51:44 -0800 (PST)","[jira] Commented: (HBASE-698) HLog recovery is not performed after master failure"
"""stack (JIRA)"" <jira@apache.org>","Mon, 10 Nov 2008 13:55:44 -0800 (PST)","[jira] Commented: (HBASE-987) We need a Hbase Partitioner for TableMapReduceUtil.initTableReduceJob MR Jobs"
"""Jim Kellerman (JIRA)"" <jira@apache.org>","Mon, 10 Nov 2008 14:29:44 -0800 (PST)","[jira] Updated: (HBASE-698) HLog recovery is not performed after master failure"
"""Jim Kellerman (JIRA)"" <jira@apache.org>","Mon, 10 Nov 2008 15:19:44 -0800 (PST)","[jira] Updated: (HBASE-698) HLog recovery is not performed after master failure"
"""Billy Pearson (JIRA)"" <jira@apache.org>","Mon, 10 Nov 2008 15:47:44 -0800 (PST)","[jira] Commented: (HBASE-987) We need a Hbase Partitioner for TableMapReduceUtil.initTableReduceJob MR Jobs"
"""stack (JIRA)"" <jira@apache.org>","Mon, 10 Nov 2008 15:59:44 -0800 (PST)","[jira] Commented: (HBASE-987) We need a Hbase Partitioner for TableMapReduceUtil.initTableReduceJob MR Jobs"
"""Billy Pearson (JIRA)"" <jira@apache.org>","Mon, 10 Nov 2008 16:11:45 -0800 (PST)","[jira] Updated: (HBASE-987) We need a Hbase Partitioner for TableMapReduceUtil.initTableReduceJob MR Jobs"
"""stack (JIRA)"" <jira@apache.org>","Mon, 10 Nov 2008 21:31:44 -0800 (PST)","[jira] Assigned: (HBASE-990) NoSuchElementException in flushSomeRegions"
"""stack (JIRA)"" <jira@apache.org>","Mon, 10 Nov 2008 21:31:44 -0800 (PST)","[jira] Resolved: (HBASE-990) NoSuchElementException in flushSomeRegions"
"""stack (JIRA)"" <jira@apache.org>","Mon, 10 Nov 2008 21:31:44 -0800 (PST)","[jira] Created: (HBASE-990) NoSuchElementException in flushSomeRegions"
"""stack (JIRA)"" <jira@apache.org>","Mon, 10 Nov 2008 22:24:44 -0800 (PST)","[jira] Updated: (HBASE-987) We need a Hbase Partitioner for TableMapReduceUtil.initTableReduceJob MR Jobs"
"""stack (JIRA)"" <jira@apache.org>","Mon, 10 Nov 2008 22:24:44 -0800 (PST)","[jira] Created: (HBASE-991) Update the mapred package document examples so they work with TRUNK/0.19.0."
"""Billy Pearson (JIRA)"" <jira@apache.org>","Mon, 10 Nov 2008 22:36:46 -0800 (PST)","[jira] Commented: (HBASE-987) We need a Hbase Partitioner for TableMapReduceUtil.initTableReduceJob MR Jobs"
"Apache Hudson Server <hudson@hudson.zones.apache.org>","Tue, 11 Nov 2008 07:51:10 +0000 (UTC)","Build failed in Hudson: HBase-Patch #399"
"Michael Stack <stack@duboce.net>","Tue, 11 Nov 2008 08:00:52 -0800","Re: [jira] Commented: (HBASE-987) We need a Hbase Partitioner for TableMapReduceUtil.initTableReduceJob MR Jobs"
"Apache Hudson Server <hudson@hudson.zones.apache.org>","Tue, 11 Nov 2008 16:44:48 +0000 (UTC)","Hudson build is back to normal: HBase-Patch #400"
"""stack (JIRA)"" <jira@apache.org>","Tue, 11 Nov 2008 10:25:44 -0800 (PST)","[jira] Created: (HBASE-993) Turn of logging of every catalog table row entry on every scan"
"""stack (JIRA)"" <jira@apache.org>","Tue, 11 Nov 2008 10:25:44 -0800 (PST)","[jira] Created: (HBASE-992) Up the versions kept by catalog tables; currently 1.  Make it 10?"
"""Jean-Daniel Cryans (JIRA)"" <jira@apache.org>","Tue, 11 Nov 2008 11:07:44 -0800 (PST)","[jira] Updated: (HBASE-708) Provide a HBase implementation of the Zookeeper interface"
"""stack (JIRA)"" <jira@apache.org>","Tue, 11 Nov 2008 11:21:44 -0800 (PST)","[jira] Commented: (HBASE-546) Use Zookeeper in HBase"
"""Jean-Daniel Cryans (JIRA)"" <jira@apache.org>","Tue, 11 Nov 2008 11:37:44 -0800 (PST)","[jira] Updated: (HBASE-988) Enhance web ui to include ""safe-mode"""
"""Jim Kellerman (JIRA)"" <jira@apache.org>","Tue, 11 Nov 2008 11:39:44 -0800 (PST)","[jira] Created: (HBASE-994) IPC interfaces with different versions can cause problems"
"""stack (JIRA)"" <jira@apache.org>","Tue, 11 Nov 2008 13:09:44 -0800 (PST)","[jira] Updated: (HBASE-546) Use Zookeeper in HBase"
"""stack (JIRA)"" <jira@apache.org>","Tue, 11 Nov 2008 13:43:45 -0800 (PST)","[jira] Commented: (HBASE-988) Enhance web ui to include ""safe-mode"""
"""stack (JIRA)"" <jira@apache.org>","Tue, 11 Nov 2008 13:49:46 -0800 (PST)","[jira] Resolved: (HBASE-708) Provide a HBase implementation of the Zookeeper interface"
"""Jean-Daniel Cryans (JIRA)"" <jira@apache.org>","Tue, 11 Nov 2008 13:57:47 -0800 (PST)","[jira] Updated: (HBASE-546) Use Zookeeper in HBase"
"""stack (JIRA)"" <jira@apache.org>","Tue, 11 Nov 2008 13:57:47 -0800 (PST)","[jira] Resolved: (HBASE-993) Turn of logging of every catalog table row entry on every scan"
"""stack (JIRA)"" <jira@apache.org>","Tue, 11 Nov 2008 13:57:47 -0800 (PST)","[jira] Updated: (HBASE-993) Turn of logging of every catalog table row entry on every scan"
"""stack (JIRA)"" <jira@apache.org>","Tue, 11 Nov 2008 14:01:45 -0800 (PST)","[jira] Created: (HBASE-995) Allow alter of catalog tables; currently fails because columnfamily is 'illegal'"
"""Jean-Daniel Cryans (JIRA)"" <jira@apache.org>","Tue, 11 Nov 2008 14:07:44 -0800 (PST)","[jira] Resolved: (HBASE-988) Enhance web ui to include ""safe-mode"""
"""stack (JIRA)"" <jira@apache.org>","Tue, 11 Nov 2008 14:07:44 -0800 (PST)","[jira] Resolved: (HBASE-992) Up the versions kept by catalog tables; currently 1.  Make it 10?"
"""stack (JIRA)"" <jira@apache.org>","Tue, 11 Nov 2008 14:15:44 -0800 (PST)","[jira] Updated: (HBASE-995) Allow alter of catalog tables; currently fails because columnfamily is 'illegal'"
"""stack (JIRA)"" <jira@apache.org>","Tue, 11 Nov 2008 14:19:44 -0800 (PST)","[jira] Commented: (HBASE-984) Fix javadoc warnings"
"""stack (JIRA)"" <jira@apache.org>","Tue, 11 Nov 2008 14:27:44 -0800 (PST)","[jira] Created: (HBASE-996) Migration script to up the versions in catalog tables"
"""Jim Kellerman (JIRA)"" <jira@apache.org>","Tue, 11 Nov 2008 14:39:44 -0800 (PST)","[jira] Commented: (HBASE-984) Fix javadoc warnings"
"Apache Hudson Server <hudson@hudson.zones.apache.org>","Tue, 11 Nov 2008 22:55:54 +0000 (UTC)","Build failed in Hudson: HBase-Patch #401"
"""stack (JIRA)"" <jira@apache.org>","Tue, 11 Nov 2008 14:59:44 -0800 (PST)","[jira] Commented: (HBASE-984) Fix javadoc warnings"
"""Jim Kellerman (JIRA)"" <jira@apache.org>","Tue, 11 Nov 2008 15:03:44 -0800 (PST)","[jira] Resolved: (HBASE-984) Fix javadoc warnings"
"""Jim Kellerman (JIRA)"" <jira@apache.org>","Tue, 11 Nov 2008 15:05:44 -0800 (PST)","[jira] Resolved: (HBASE-678) hbase needs a 'safe-mode'"
"""Jim Kellerman (JIRA)"" <jira@apache.org>","Tue, 11 Nov 2008 15:11:44 -0800 (PST)","[jira] Resolved: (HBASE-994) IPC interfaces with different versions can cause problems"
"""stack (JIRA)"" <jira@apache.org>","Tue, 11 Nov 2008 15:17:44 -0800 (PST)","[jira] Updated: (HBASE-938) major compaction period is not checked periodically"
"""stack (JIRA)"" <jira@apache.org>","Tue, 11 Nov 2008 17:11:44 -0800 (PST)","[jira] Assigned: (HBASE-938) major compaction period is not checked periodically"
"""stack (JIRA)"" <jira@apache.org>","Tue, 11 Nov 2008 17:11:44 -0800 (PST)","[jira] Updated: (HBASE-938) major compaction period is not checked periodically"
"Apache Hudson Server <hudson@hudson.zones.apache.org>","Wed, 12 Nov 2008 01:25:57 +0000 (UTC)","Hudson build is back to normal: HBase-Patch #402"
"""stack (JIRA)"" <jira@apache.org>","Tue, 11 Nov 2008 18:01:46 -0800 (PST)","[jira] Updated: (HBASE-996) Migration script to up the versions in catalog tables"
"""stack (JIRA)"" <jira@apache.org>","Tue, 11 Nov 2008 21:27:44 -0800 (PST)","[jira] Commented: (HBASE-938) major compaction period is not checked periodically"
"""Billy Pearson (JIRA)"" <jira@apache.org>","Tue, 11 Nov 2008 22:15:44 -0800 (PST)","[jira] Commented: (HBASE-938) major compaction period is not checked periodically"
"""stack (JIRA)"" <jira@apache.org>","Tue, 11 Nov 2008 22:37:44 -0800 (PST)","[jira] Commented: (HBASE-938) major compaction period is not checked periodically"
"""Billy Pearson (JIRA)"" <jira@apache.org>","Tue, 11 Nov 2008 23:33:44 -0800 (PST)","[jira] Commented: (HBASE-938) major compaction period is not checked periodically"
"""stack (JIRA)"" <jira@apache.org>","Wed, 12 Nov 2008 07:05:44 -0800 (PST)","[jira] Commented: (HBASE-938) major compaction period is not checked periodically"
"""Billy Pearson (JIRA)"" <jira@apache.org>","Wed, 12 Nov 2008 08:15:44 -0800 (PST)","[jira] Commented: (HBASE-938) major compaction period is not checked periodically"
"""Jim Kellerman (JIRA)"" <jira@apache.org>","Wed, 12 Nov 2008 10:45:46 -0800 (PST)","[jira] Commented: (HBASE-602) HBase Crash when network card has a IPv6 address"
"""Jim Kellerman (JIRA)"" <jira@apache.org>","Wed, 12 Nov 2008 10:55:46 -0800 (PST)","[jira] Updated: (HBASE-602) HBase Crash when network card has a IPv6 address"
"stack <stack@duboce.net>","Wed, 12 Nov 2008 11:34:01 -0800","Re: svn commit: r713467 - in /hadoop/hbase/branches/0.18: ./ src/java/org/apache/hadoop/hbase/ src/java/org/apache/hadoop/hbase/master/ src/java/org/apache/hadoop/hbase/regionserver/"
"""stack (JIRA)"" <jira@apache.org>","Wed, 12 Nov 2008 12:45:44 -0800 (PST)","[jira] Commented: (HBASE-996) Migration script to up the versions in catalog tables"
"""stack (JIRA)"" <jira@apache.org>","Wed, 12 Nov 2008 12:45:44 -0800 (PST)","[jira] Resolved: (HBASE-996) Migration script to up the versions in catalog tables"
"""Jim Kellerman (JIRA)"" <jira@apache.org>","Wed, 12 Nov 2008 12:45:44 -0800 (PST)","[jira] Resolved: (HBASE-602) HBase Crash when network card has a IPv6 address"
"""stack (JIRA)"" <jira@apache.org>","Wed, 12 Nov 2008 12:45:44 -0800 (PST)","[jira] Assigned: (HBASE-996) Migration script to up the versions in catalog tables"
"Apache Hudson Server <hudson@hudson.zones.apache.org>","Wed, 12 Nov 2008 22:57:07 +0000 (UTC)","Build failed in Hudson: HBase-Patch #403"
"""stack (JIRA)"" <jira@apache.org>","Wed, 12 Nov 2008 16:33:44 -0800 (PST)","[jira] Commented: (HBASE-938) major compaction period is not checked periodically"
"=?gb2312?B?1dTF9A==?= <zhaopeng@chinamobile.com>","Thu, 13 Nov 2008 10:55:22 +0800","ZK integration"
"""stack (JIRA)"" <jira@apache.org>","Thu, 13 Nov 2008 09:36:44 -0800 (PST)","[jira] Created: (HBASE-997) Count versions with same r/c/ts as one instance with most recent addition the winner"
"""stack (JIRA)"" <jira@apache.org>","Thu, 13 Nov 2008 09:44:44 -0800 (PST)","[jira] Created: (HBASE-998) Narrow getClosestRowBefore by passing column family"
"""stack (JIRA)"" <jira@apache.org>","Thu, 13 Nov 2008 10:30:44 -0800 (PST)","[jira] Created: (HBASE-999) Up versions on historian and keep history of deleted regions for a while rather than delete immediately"
"""Nitay Joffe (JIRA)"" <jira@apache.org>","Thu, 13 Nov 2008 11:20:44 -0800 (PST)","[jira] Created: (HBASE-1000) Sleeper.sleep does not go back to sleep when interrupted and no stop flag given."
"""Nitay Joffe (JIRA)"" <jira@apache.org>","Thu, 13 Nov 2008 11:22:44 -0800 (PST)","[jira] Updated: (HBASE-1000) Sleeper.sleep does not go back to sleep when interrupted and no stop flag given."
"""stack (JIRA)"" <jira@apache.org>","Thu, 13 Nov 2008 14:38:44 -0800 (PST)","[jira] Updated: (HBASE-938) major compaction period is not checked periodically"
"""stack (JIRA)"" <jira@apache.org>","Thu, 13 Nov 2008 16:36:44 -0800 (PST)","[jira] Updated: (HBASE-998) Narrow getClosestRowBefore by passing column family"
"""stack (JIRA)"" <jira@apache.org>","Thu, 13 Nov 2008 16:44:46 -0800 (PST)","[jira] Assigned: (HBASE-998) Narrow getClosestRowBefore by passing column family"
"""stack (JIRA)"" <jira@apache.org>","Thu, 13 Nov 2008 16:44:46 -0800 (PST)","[jira] Resolved: (HBASE-998) Narrow getClosestRowBefore by passing column family"
"Apache Hudson Server <hudson@hudson.zones.apache.org>","Fri, 14 Nov 2008 01:58:32 +0000 (UTC)","Build failed in Hudson: HBase-Patch #404"
"""Billy Pearson"" <billy_pearson@sbcglobal.net>","Fri, 14 Nov 2008 01:18:55 -0600","Re: ZK integration"
"""Jean-Daniel Cryans"" <jdcryans@apache.org>","Fri, 14 Nov 2008 07:57:25 -0500","Re: ZK integration"
"Apache Hudson Server <hudson@hudson.zones.apache.org>","Fri, 14 Nov 2008 20:23:49 +0000 (UTC)","Hudson build is back to normal: HBase-Patch #405"
"""stack (JIRA)"" <jira@apache.org>","Fri, 14 Nov 2008 12:29:44 -0800 (PST)","[jira] Updated: (HBASE-938) major compaction period is not checked periodically"
"""stack (JIRA)"" <jira@apache.org>","Fri, 14 Nov 2008 13:35:44 -0800 (PST)","[jira] Updated: (HBASE-999) Up versions on historian and keep history of deleted regions for a while rather than delete immediately"
"""stack (JIRA)"" <jira@apache.org>","Fri, 14 Nov 2008 15:26:55 -0800 (PST)","[jira] Updated: (HBASE-999) Up versions on historian and keep history of deleted regions for a while rather than delete immediately"
"""stack (JIRA)"" <jira@apache.org>","Fri, 14 Nov 2008 15:48:44 -0800 (PST)","[jira] Resolved: (HBASE-999) Up versions on historian and keep history of deleted regions for a while rather than delete immediately"
"""stack (JIRA)"" <jira@apache.org>","Fri, 14 Nov 2008 16:30:46 -0800 (PST)","[jira] Updated: (HBASE-938) major compaction period is not checked periodically"
"""stack (JIRA)"" <jira@apache.org>","Fri, 14 Nov 2008 16:36:59 -0800 (PST)","[jira] Resolved: (HBASE-938) major compaction period is not checked periodically"
"""stack (JIRA)"" <jira@apache.org>","Fri, 14 Nov 2008 16:40:44 -0800 (PST)","[jira] Assigned: (HBASE-999) Up versions on historian and keep history of deleted regions for a while rather than delete immediately"
"""stack (JIRA)"" <jira@apache.org>","Fri, 14 Nov 2008 16:40:45 -0800 (PST)","[jira] Assigned: (HBASE-993) Turn of logging of every catalog table row entry on every scan"
"""stack (JIRA)"" <jira@apache.org>","Fri, 14 Nov 2008 16:40:45 -0800 (PST)","[jira] Assigned: (HBASE-992) Up the versions kept by catalog tables; currently 1.  Make it 10?"
"""stack (JIRA)"" <jira@apache.org>","Fri, 14 Nov 2008 16:42:44 -0800 (PST)","[jira] Assigned: (HBASE-991) Update the mapred package document examples so they work with TRUNK/0.19.0."
"Michael Schulman <mschulman@lightboxcap.com>","Sat, 15 Nov 2008 00:53:43 +0000","Re: svn commit: r714193 - in /hadoop/hbase/trunk: ./ src/java/org/apache/hadoop/hbase/ src/java/org/apache/hadoop/hbase/regionserver/ src/java/org/apache/hadoop/hbase/util/ src/test/org/apache/hadoop/hbase/ src/webapps/master/"
"Michael Schulman <mschulman@lightboxcap.com>","Sat, 15 Nov 2008 00:55:47 +0000","Re: svn commit: r714203 - /hadoop/hbase/trunk/conf/hbase-env.sh"
"Michael Schulman <mschulman@lightboxcap.com>","Sat, 15 Nov 2008 00:55:49 +0000","Re: svn commit: r714203 - /hadoop/hbase/trunk/conf/hbase-env.sh"
"Michael Schulman <mschulman@lightboxcap.com>","Sat, 15 Nov 2008 01:01:30 +0000","Re: svn commit: r714193 - in /hadoop/hbase/trunk: ./ src/java/org/apache/hadoop/hbase/ src/java/org/apache/hadoop/hbase/regionserver/ src/java/org/apache/hadoop/hbase/util/ src/test/org/apache/hadoop/hbase/ src/webapps/master/"
"Michael Schulman <mschulman@lightboxcap.com>","Sat, 15 Nov 2008 01:02:25 +0000","Re: svn commit: r714200 - in /hadoop/hbase/trunk: ./ src/java/org/apache/hadoop/hbase/regionserver/ src/java/org/apache/hadoop/hbase/util/"
"""stack (JIRA)"" <jira@apache.org>","Sun, 16 Nov 2008 15:00:44 -0800 (PST)","[jira] Updated: (HBASE-991) Update the mapred package document examples so they work with TRUNK/0.19.0."
"""stack (JIRA)"" <jira@apache.org>","Sun, 16 Nov 2008 18:30:44 -0800 (PST)","[jira] Resolved: (HBASE-991) Update the mapred package document examples so they work with TRUNK/0.19.0."
"""stack (JIRA)"" <jira@apache.org>","Mon, 17 Nov 2008 09:39:44 -0800 (PST)","[jira] Updated: (HBASE-867) If millions of columns in a column family, hbase scanner won't come up"
"""stack (JIRA)"" <jira@apache.org>","Mon, 17 Nov 2008 09:41:44 -0800 (PST)","[jira] Updated: (HBASE-902) Add force compaction and force split operations to UI and Admin"
"""stack (JIRA)"" <jira@apache.org>","Mon, 17 Nov 2008 09:41:44 -0800 (PST)","[jira] Updated: (HBASE-797) IllegalAccessError running RowCounter"
"""stack (JIRA)"" <jira@apache.org>","Mon, 17 Nov 2008 09:43:44 -0800 (PST)","[jira] Updated: (HBASE-902) Add force compaction and force split operations to UI and Admin"
"""stack (JIRA)"" <jira@apache.org>","Mon, 17 Nov 2008 09:45:44 -0800 (PST)","[jira] Updated: (HBASE-883) Secondary Indexes"
"""Andrew Purtell (JIRA)"" <jira@apache.org>","Mon, 17 Nov 2008 09:59:44 -0800 (PST)","[jira] Updated: (HBASE-883) Secondary Indexes"
"""Andrew Purtell (JIRA)"" <jira@apache.org>","Mon, 17 Nov 2008 09:59:44 -0800 (PST)","[jira] Assigned: (HBASE-883) Secondary Indexes"
"""Andrew Purtell (JIRA)"" <jira@apache.org>","Mon, 17 Nov 2008 09:59:44 -0800 (PST)","[jira] Updated: (HBASE-883) Secondary Indexes"
"""stack (JIRA)"" <jira@apache.org>","Mon, 17 Nov 2008 10:03:44 -0800 (PST)","[jira] Commented: (HBASE-883) Secondary Indexes"
"""stack (JIRA)"" <jira@apache.org>","Mon, 17 Nov 2008 10:45:44 -0800 (PST)","[jira] Created: (HBASE-1001) Remove deleted cells compacting if no corresponding overshadowed value cell"
"""Andrew Purtell (JIRA)"" <jira@apache.org>","Mon, 17 Nov 2008 10:49:44 -0800 (PST)","[jira] Updated: (HBASE-883) Secondary Indexes"
"""Ding, Hui"" <hui.ding@sap.com>","Mon, 17 Nov 2008 14:17:10 -0500","RE: [jira] Updated: (HBASE-883) Secondary Indexes"
"""Andrew Purtell (JIRA)"" <jira@apache.org>","Mon, 17 Nov 2008 11:21:44 -0800 (PST)","[jira] Created: (HBASE-1002) Small query language for filters"
"""Andrew Purtell (JIRA)"" <jira@apache.org>","Mon, 17 Nov 2008 11:27:44 -0800 (PST)","[jira] Commented: (HBASE-1002) Small query language for filters"
"""stack (JIRA)"" <jira@apache.org>","Mon, 17 Nov 2008 11:27:44 -0800 (PST)","[jira] Updated: (HBASE-947) [Optimization] Major compaction should remove deletes as well as the deleted cell"
"""stack (JIRA)"" <jira@apache.org>","Mon, 17 Nov 2008 11:29:44 -0800 (PST)","[jira] Updated: (HBASE-1003) If cell exceeds TTL but not VERSIONs, will not be removed during major compaction"
"""stack (JIRA)"" <jira@apache.org>","Mon, 17 Nov 2008 11:29:44 -0800 (PST)","[jira] Created: (HBASE-1003) If cell exceeds TTL but not VERSIONs, will not be removed during major compaction"
"""Andrew Purtell (JIRA)"" <jira@apache.org>","Mon, 17 Nov 2008 11:43:44 -0800 (PST)","[jira] Updated: (HBASE-1004) Run HBase TRUNK on HBase 0.18.2"
"""Andrew Purtell (JIRA)"" <jira@apache.org>","Mon, 17 Nov 2008 11:43:44 -0800 (PST)","[jira] Resolved: (HBASE-1004) Run HBase TRUNK on HBase 0.18.2"
"""Andrew Purtell (JIRA)"" <jira@apache.org>","Mon, 17 Nov 2008 11:43:44 -0800 (PST)","[jira] Created: (HBASE-1004) Run HBase TRUNK on HBase 0.18.2"
"""Andrew Purtell (JIRA)"" <jira@apache.org>","Mon, 17 Nov 2008 11:45:44 -0800 (PST)","[jira] Updated: (HBASE-1004) Run HBase TRUNK on Hadoop 0.18.2"
"Andrew Purtell <apurtell@yahoo.com>","Mon, 17 Nov 2008 12:00:10 -0800 (PST)","RE: [jira] Updated: (HBASE-883) Secondary Indexes"
"""Andrew Purtell (JIRA)"" <jira@apache.org>","Mon, 17 Nov 2008 12:30:44 -0800 (PST)","[jira] Commented: (HBASE-1004) Run HBase TRUNK on Hadoop 0.18.2"
"""stack (JIRA)"" <jira@apache.org>","Mon, 17 Nov 2008 12:38:44 -0800 (PST)","[jira] Issue Comment Edited: (HBASE-1003) If cell exceeds TTL but not VERSIONs, will not be removed during major compaction"
"""stack (JIRA)"" <jira@apache.org>","Mon, 17 Nov 2008 12:38:44 -0800 (PST)","[jira] Resolved: (HBASE-1003) If cell exceeds TTL but not VERSIONs, will not be removed during major compaction"
"Apache Hudson Server <hudson@hudson.zones.apache.org>","Mon, 17 Nov 2008 21:57:24 +0000 (UTC)","Build failed in Hudson: HBase-Patch #410"
"""Andrew Purtell (JIRA)"" <jira@apache.org>","Mon, 17 Nov 2008 14:33:44 -0800 (PST)","[jira] Assigned: (HBASE-1005) REGEX_STRING operator for ColumnValueFilter"
"""Andrew Purtell (JIRA)"" <jira@apache.org>","Mon, 17 Nov 2008 14:33:44 -0800 (PST)","[jira] Created: (HBASE-1005) REGEX_STRING operator for ColumnValueFilter"
"stack <stack@duboce.net>","Mon, 17 Nov 2008 14:44:29 -0800","Re: [jira] Updated: (HBASE-883) Secondary Indexes"
"""stack (JIRA)"" <jira@apache.org>","Mon, 17 Nov 2008 14:51:44 -0800 (PST)","[jira] Resolved: (HBASE-1001) Remove deleted cells compacting if no corresponding overshadowed value cell"
"""Andrew Purtell (JIRA)"" <jira@apache.org>","Mon, 17 Nov 2008 15:03:44 -0800 (PST)","[jira] Updated: (HBASE-1005) REGEX_STRING operator for ColumnValueFilter"
"""Andrew Purtell (JIRA)"" <jira@apache.org>","Mon, 17 Nov 2008 15:03:44 -0800 (PST)","[jira] Updated: (HBASE-1005) REGEX_STRING operator for ColumnValueFilter"
"""Andrew Purtell (JIRA)"" <jira@apache.org>","Mon, 17 Nov 2008 15:07:44 -0800 (PST)","[jira] Updated: (HBASE-1005) Regex and string comparison operators for ColumnValueFilter"
"""stack (JIRA)"" <jira@apache.org>","Mon, 17 Nov 2008 15:09:44 -0800 (PST)","[jira] Assigned: (HBASE-947) [Optimization] Major compaction should remove deletes as well as the deleted cell"
"""stack (JIRA)"" <jira@apache.org>","Mon, 17 Nov 2008 15:11:44 -0800 (PST)","[jira] Resolved: (HBASE-947) [Optimization] Major compaction should remove deletes as well as the deleted cell"
"""stack (JIRA)"" <jira@apache.org>","Mon, 17 Nov 2008 16:27:44 -0800 (PST)","[jira] Updated: (HBASE-675) Report correct server hosting a table split for assignment to for MR Jobs"
"Apache Hudson Server <hudson@hudson.zones.apache.org>","Tue, 18 Nov 2008 00:29:38 +0000 (UTC)","Hudson build is back to normal: HBase-Patch #411"
"""Rong-En Fan (JIRA)"" <jira@apache.org>","Mon, 17 Nov 2008 19:13:44 -0800 (PST)","[jira] Reopened: (HBASE-990) NoSuchElementException in flushSomeRegions"
"""stack (JIRA)"" <jira@apache.org>","Mon, 17 Nov 2008 20:55:44 -0800 (PST)","[jira] Commented: (HBASE-990) NoSuchElementException in flushSomeRegions"
"""Rong-En Fan (JIRA)"" <jira@apache.org>","Mon, 17 Nov 2008 21:51:44 -0800 (PST)","[jira] Commented: (HBASE-990) NoSuchElementException in flushSomeRegions"
"""stack (JIRA)"" <jira@apache.org>","Mon, 17 Nov 2008 22:11:44 -0800 (PST)","[jira] Commented: (HBASE-990) NoSuchElementException in flushSomeRegions"
"""stack (JIRA)"" <jira@apache.org>","Mon, 17 Nov 2008 23:03:44 -0800 (PST)","[jira] Updated: (HBASE-675) Report correct server hosting a table split for assignment to for MR Jobs"
"""stack (JIRA)"" <jira@apache.org>","Mon, 17 Nov 2008 23:03:44 -0800 (PST)","[jira] Resolved: (HBASE-675) Report correct server hosting a table split for assignment to for MR Jobs"
"""stack (JIRA)"" <jira@apache.org>","Mon, 17 Nov 2008 23:11:44 -0800 (PST)","[jira] Updated: (HBASE-990) NoSuchElementException in flushSomeRegions"
"""Rong-En Fan (JIRA)"" <jira@apache.org>","Tue, 18 Nov 2008 07:47:44 -0800 (PST)","[jira] Commented: (HBASE-990) NoSuchElementException in flushSomeRegions"
"""stack (JIRA)"" <jira@apache.org>","Tue, 18 Nov 2008 07:51:44 -0800 (PST)","[jira] Resolved: (HBASE-990) NoSuchElementException in flushSomeRegions"
"""stack (JIRA)"" <jira@apache.org>","Tue, 18 Nov 2008 09:43:44 -0800 (PST)","[jira] Commented: (HBASE-1005) Regex and string comparison operators for ColumnValueFilter"
"""stack (JIRA)"" <jira@apache.org>","Tue, 18 Nov 2008 09:47:44 -0800 (PST)","[jira] Updated: (HBASE-637) Update filter test to ue ColumnValueFilter instead of RegExpRowFilter"
"""stack (JIRA)"" <jira@apache.org>","Tue, 18 Nov 2008 09:51:44 -0800 (PST)","[jira] Commented: (HBASE-927) We don't recover if HRS hosting -ROOT-/.META. goes down"
"""Andrew Purtell (JIRA)"" <jira@apache.org>","Tue, 18 Nov 2008 10:31:44 -0800 (PST)","[jira] Updated: (HBASE-1005) Regex and string comparison operators for ColumnValueFilter"
"""stack (JIRA)"" <jira@apache.org>","Tue, 18 Nov 2008 10:35:44 -0800 (PST)","[jira] Commented: (HBASE-1005) Regex and string comparison operators for ColumnValueFilter"
"""stack (JIRA)"" <jira@apache.org>","Tue, 18 Nov 2008 11:01:44 -0800 (PST)","[jira] Assigned: (HBASE-910) Scanner misses columns / rows when the scanner is obtained durring a memcache flush"
"""stack (JIRA)"" <jira@apache.org>","Tue, 18 Nov 2008 11:09:44 -0800 (PST)","[jira] Commented: (HBASE-910) Scanner misses columns / rows when the scanner is obtained durring a memcache flush"
"""stack (JIRA)"" <jira@apache.org>","Tue, 18 Nov 2008 11:45:44 -0800 (PST)","[jira] Commented: (HBASE-927) We don't recover if HRS hosting -ROOT-/.META. goes down"
"""stack (JIRA)"" <jira@apache.org>","Tue, 18 Nov 2008 13:25:44 -0800 (PST)","[jira] Created: (HBASE-1006) Resevoir of memory not freed on OOME"
"""stack (JIRA)"" <jira@apache.org>","Tue, 18 Nov 2008 15:29:52 -0800 (PST)","[jira] Updated: (HBASE-883) Secondary Indexes"
"""stack (JIRA)"" <jira@apache.org>","Tue, 18 Nov 2008 15:29:52 -0800 (PST)","[jira] Reopened: (HBASE-883) Secondary Indexes"
"""stack (JIRA)"" <jira@apache.org>","Tue, 18 Nov 2008 15:51:44 -0800 (PST)","[jira] Resolved: (HBASE-883) Secondary Indexes"
"""Andrew Purtell (JIRA)"" <jira@apache.org>","Tue, 18 Nov 2008 15:53:44 -0800 (PST)","[jira] Commented: (HBASE-883) Secondary Indexes"
"""Andrew Purtell (JIRA)"" <jira@apache.org>","Tue, 18 Nov 2008 16:09:44 -0800 (PST)","[jira] Reopened: (HBASE-883) Secondary Indexes"
"""Andrew Purtell (JIRA)"" <jira@apache.org>","Tue, 18 Nov 2008 16:17:44 -0800 (PST)","[jira] Issue Comment Edited: (HBASE-883) Secondary Indexes"
"Apache Hudson Server <hudson@hudson.zones.apache.org>","Wed, 19 Nov 2008 00:23:55 +0000 (UTC)","Build failed in Hudson: HBase-Patch #414"
"""Clint Morgan (JIRA)"" <jira@apache.org>","Tue, 18 Nov 2008 16:27:44 -0800 (PST)","[jira] Commented: (HBASE-883) Secondary Indexes"
"""Andrew Purtell (JIRA)"" <jira@apache.org>","Tue, 18 Nov 2008 16:47:44 -0800 (PST)","[jira] Resolved: (HBASE-883) Secondary Indexes"
"""stack (JIRA)"" <jira@apache.org>","Tue, 18 Nov 2008 16:53:44 -0800 (PST)","[jira] Commented: (HBASE-883) Secondary Indexes"
"Apache Hudson Server <hudson@hudson.zones.apache.org>","Wed, 19 Nov 2008 01:47:17 +0000 (UTC)","Hudson build is back to normal: HBase-Patch #415"
"""Andrew Purtell (JIRA)"" <jira@apache.org>","Tue, 18 Nov 2008 18:03:44 -0800 (PST)","[jira] Updated: (HBASE-1005) Regex and string comparison operators for ColumnValueFilter"
"""stack (JIRA)"" <jira@apache.org>","Tue, 18 Nov 2008 20:54:44 -0800 (PST)","[jira] Created: (HBASE-1007) MSG_REPORT_CLOSE but region still thought to be out on closed server"
"""stack (JIRA)"" <jira@apache.org>","Tue, 18 Nov 2008 22:48:45 -0800 (PST)","[jira] Updated: (HBASE-910) Scanner misses columns / rows when the scanner is obtained durring a memcache flush"
"""stack (JIRA)"" <jira@apache.org>","Tue, 18 Nov 2008 22:50:44 -0800 (PST)","[jira] Resolved: (HBASE-910) Scanner misses columns / rows when the scanner is obtained durring a memcache flush"
"""stack (JIRA)"" <jira@apache.org>","Wed, 19 Nov 2008 10:28:44 -0800 (PST)","[jira] Created: (HBASE-1008) [performance] The replay of logs on server crash takes way too long"
"""stack (JIRA)"" <jira@apache.org>","Wed, 19 Nov 2008 10:30:44 -0800 (PST)","[jira] Commented: (HBASE-1008) [performance] The replay of logs on server crash takes way too long"
"""stack (JIRA)"" <jira@apache.org>","Wed, 19 Nov 2008 10:40:44 -0800 (PST)","[jira] Created: (HBASE-1009) Master stuck in loop wanting to assign but regions are closing"
"""stack (JIRA)"" <jira@apache.org>","Wed, 19 Nov 2008 10:56:44 -0800 (PST)","[jira] Updated: (HBASE-1008) [performance] The replay of logs on server crash takes way too long"
"""stack (JIRA)"" <jira@apache.org>","Wed, 19 Nov 2008 11:38:44 -0800 (PST)","[jira] Created: (HBASE-1010) IOE on regionserver shutdown because hadn't opened an HLog."
"""Brian Beggs"" <bbeggs@enernoc.com>","Wed, 19 Nov 2008 15:43:50 -0500","JSON support for HBaseRest"
"""Jonathan Gray (JIRA)"" <jira@apache.org>","Wed, 19 Nov 2008 12:46:44 -0800 (PST)","[jira] Created: (HBASE-1011) Keep data in Memcache until specified TTL or memory pressure"
"""stack (JIRA)"" <jira@apache.org>","Wed, 19 Nov 2008 13:00:46 -0800 (PST)","[jira] Created: (HBASE-1012) [performance] Try doctoring a dfsclient so it shortcircuits hdfs when blocks are local"
"Andrew Purtell <apurtell@yahoo.com>","Wed, 19 Nov 2008 13:04:54 -0800 (PST)","Re: JSON support for HBaseRest"
"stack <stack@duboce.net>","Wed, 19 Nov 2008 13:06:26 -0800","Re: JSON support for HBaseRest"
"""stack (JIRA)"" <jira@apache.org>","Wed, 19 Nov 2008 13:54:44 -0800 (PST)","[jira] Commented: (HBASE-1009) Master stuck in loop wanting to assign but regions are closing"
"Andrew Purtell <apurtell@yahoo.com>","Wed, 19 Nov 2008 14:50:39 -0800 (PST)","Re: JSON support for HBaseRest"
"""Tom Nichols"" <tmnichols@gmail.com>","Wed, 19 Nov 2008 18:48:23 -0500","Re: JSON support for HBaseRest"
"Michael Stack <stack@duboce.net>","Wed, 19 Nov 2008 16:08:19 -0800","Re: JSON support for HBaseRest"
"""stack (JIRA)"" <jira@apache.org>","Wed, 19 Nov 2008 17:21:44 -0800 (PST)","[jira] Commented: (HBASE-1009) Master stuck in loop wanting to assign but regions are closing"
"""stack (JIRA)"" <jira@apache.org>","Wed, 19 Nov 2008 17:29:44 -0800 (PST)","[jira] Updated: (HBASE-1009) Master stuck in loop wanting to assign but regions are closing"
"""stack (JIRA)"" <jira@apache.org>","Wed, 19 Nov 2008 17:29:44 -0800 (PST)","[jira] Assigned: (HBASE-1009) Master stuck in loop wanting to assign but regions are closing"
"""Andrew Purtell (JIRA)"" <jira@apache.org>","Wed, 19 Nov 2008 18:01:47 -0800 (PST)","[jira] Commented: (HBASE-1009) Master stuck in loop wanting to assign but regions are closing"
"""stack (JIRA)"" <jira@apache.org>","Wed, 19 Nov 2008 18:03:44 -0800 (PST)","[jira] Resolved: (HBASE-1009) Master stuck in loop wanting to assign but regions are closing"
"Andrew Purtell <apurtell@apache.org>","Wed, 19 Nov 2008 18:08:58 -0800 (PST)","adding commit information when resolving an issue"
"""stack (JIRA)"" <jira@apache.org>","Wed, 19 Nov 2008 18:10:44 -0800 (PST)","[jira] Commented: (HBASE-1008) [performance] The replay of logs on server crash takes way too long"
"Michael Gottesman <gottesmm@reed.edu>","Wed, 19 Nov 2008 19:41:17 -0800","Re: JSON support for HBaseRest"
"Michael Gottesman <gottesmm@reed.edu>","Wed, 19 Nov 2008 19:45:47 -0800","Re: JSON support for HBaseRest"
"""Brian Beggs"" <bbeggs@enernoc.com>","Thu, 20 Nov 2008 10:00:39 -0500","RE: JSON support for HBaseRest"
"stack <stack@duboce.net>","Thu, 20 Nov 2008 09:30:24 -0800","Re: JSON support for HBaseRest"
"sishen <sishen.freecity@gmail.com>","Fri, 21 Nov 2008 01:47:38 +0800","Re: JSON support for HBaseRest"
"""stack (JIRA)"" <jira@apache.org>","Thu, 20 Nov 2008 11:48:44 -0800 (PST)","[jira] Commented: (HBASE-1010) IOE on regionserver shutdown because hadn't opened an HLog."
"""stack (JIRA)"" <jira@apache.org>","Thu, 20 Nov 2008 13:04:44 -0800 (PST)","[jira] Commented: (HBASE-667) Hung regionserver; hung on hdfs: writeChunk, DFSClient.java:2126, DataStreamer socketWrite"
"""stack (JIRA)"" <jira@apache.org>","Thu, 20 Nov 2008 14:54:44 -0800 (PST)","[jira] Updated: (HBASE-1008) [performance] The replay of logs on server crash takes way too long"
"""stack (JIRA)"" <jira@apache.org>","Thu, 20 Nov 2008 14:56:44 -0800 (PST)","[jira] Updated: (HBASE-1008) [performance] The replay of logs on server crash takes way too long"
"""Jim Kellerman (JIRA)"" <jira@apache.org>","Thu, 20 Nov 2008 16:14:44 -0800 (PST)","[jira] Resolved: (HBASE-927) We don't recover if HRS hosting -ROOT-/.META. goes down"
"stack <stack@duboce.net>","Thu, 20 Nov 2008 16:48:44 -0800","Re: svn commit: r719433 - in /hadoop/hbase/trunk: CHANGES.txt src/java/org/apache/hadoop/hbase/regionserver/HRegionServer.java"
"""stack (JIRA)"" <jira@apache.org>","Thu, 20 Nov 2008 17:06:44 -0800 (PST)","[jira] Created: (HBASE-1013) Add debugging around commit log cleanup"
"""Jim Kellerman (JIRA)"" <jira@apache.org>","Thu, 20 Nov 2008 17:22:44 -0800 (PST)","[jira] Reopened: (HBASE-927) We don't recover if HRS hosting -ROOT-/.META. goes down"
"""Jim Kellerman (POWERSET)"" <Jim.Kellerman@microsoft.com>","Thu, 20 Nov 2008 17:23:49 -0800","RE: svn commit: r719433 - in /hadoop/hbase/trunk: CHANGES.txt src/java/org/apache/hadoop/hbase/regionserver/HRegionServer.java"
"""stack (JIRA)"" <jira@apache.org>","Thu, 20 Nov 2008 17:24:44 -0800 (PST)","[jira] Updated: (HBASE-1013) Add debugging around commit log cleanup"
"""stack (JIRA)"" <jira@apache.org>","Thu, 20 Nov 2008 17:26:44 -0800 (PST)","[jira] Commented: (HBASE-927) We don't recover if HRS hosting -ROOT-/.META. goes down"
"""stack (JIRA)"" <jira@apache.org>","Thu, 20 Nov 2008 17:28:44 -0800 (PST)","[jira] Assigned: (HBASE-1013) Add debugging around commit log cleanup"
"""stack (JIRA)"" <jira@apache.org>","Thu, 20 Nov 2008 17:28:44 -0800 (PST)","[jira] Resolved: (HBASE-1013) Add debugging around commit log cleanup"
"""stack (JIRA)"" <jira@apache.org>","Thu, 20 Nov 2008 22:02:44 -0800 (PST)","[jira] Assigned: (HBASE-972) Update hbase trunk to use released hadoop 0.19.0"
"""stack (JIRA)"" <jira@apache.org>","Thu, 20 Nov 2008 22:14:44 -0800 (PST)","[jira] Resolved: (HBASE-972) Update hbase trunk to use released hadoop 0.19.0"
"""Slava (JIRA)"" <jira@apache.org>","Thu, 20 Nov 2008 22:20:46 -0800 (PST)","[jira] Created: (HBASE-1014) commit(BatchUpdate)  method should return timestamp"
"Apache Hudson Server <hudson@hudson.zones.apache.org>","Fri, 21 Nov 2008 07:28:28 +0000 (UTC)","Build failed in Hudson: HBase-Patch #421"
"Apache Hudson Server <hudson@hudson.zones.apache.org>","Fri, 21 Nov 2008 16:02:21 +0000 (UTC)","Build failed in Hudson: HBase-Patch #422"
"""Jean-Daniel Cryans (JIRA)"" <jira@apache.org>","Fri, 21 Nov 2008 12:01:49 -0800 (PST)","[jira] Updated: (HBASE-546) Use Zookeeper in HBase"
"""Andrew Purtell (JIRA)"" <jira@apache.org>","Fri, 21 Nov 2008 12:05:44 -0800 (PST)","[jira] Created: (HBASE-1015) pure C and C++ client libraries"
"""Andrew Purtell (JIRA)"" <jira@apache.org>","Fri, 21 Nov 2008 12:07:44 -0800 (PST)","[jira] Commented: (HBASE-1015) pure C and C++ client libraries"
"""stack (JIRA)"" <jira@apache.org>","Fri, 21 Nov 2008 13:13:44 -0800 (PST)","[jira] Created: (HBASE-1016) Fix example in javadoc overview"
"""stack (JIRA)"" <jira@apache.org>","Fri, 21 Nov 2008 13:17:44 -0800 (PST)","[jira] Resolved: (HBASE-1016) Fix example in javadoc overview"
"""stack (JIRA)"" <jira@apache.org>","Fri, 21 Nov 2008 13:19:44 -0800 (PST)","[jira] Assigned: (HBASE-1016) Fix example in javadoc overview"
"""Jean-Daniel Cryans (JIRA)"" <jira@apache.org>","Fri, 21 Nov 2008 13:43:44 -0800 (PST)","[jira] Commented: (HBASE-1014) commit(BatchUpdate)  method should return timestamp"
"Apache Hudson Server <hudson@hudson.zones.apache.org>","Fri, 21 Nov 2008 22:46:09 +0000 (UTC)","Build failed in Hudson: HBase-Patch #423"
"""stack (JIRA)"" <jira@apache.org>","Fri, 21 Nov 2008 15:31:44 -0800 (PST)","[jira] Updated: (HBASE-1014) commit(BatchUpdate)  method should return timestamp"
"""stack (JIRA)"" <jira@apache.org>","Fri, 21 Nov 2008 15:33:44 -0800 (PST)","[jira] Updated: (HBASE-1007) MSG_REPORT_CLOSE but region still thought to be out on closed server"
"""Jim Kellerman (JIRA)"" <jira@apache.org>","Fri, 21 Nov 2008 16:08:44 -0800 (PST)","[jira] Commented: (HBASE-1014) commit(BatchUpdate)  method should return timestamp"
"""stack (JIRA)"" <jira@apache.org>","Fri, 21 Nov 2008 17:02:44 -0800 (PST)","[jira] Updated: (HBASE-880) Improve the current client API by creating new container classes"
"""Jonathan Gray (JIRA)"" <jira@apache.org>","Fri, 21 Nov 2008 19:12:44 -0800 (PST)","[jira] Created: (HBASE-1017) Region balancing does not bring newly added node within acceptable range"
"""Andrew Purtell (JIRA)"" <jira@apache.org>","Fri, 21 Nov 2008 21:34:44 -0800 (PST)","[jira] Commented: (HBASE-900) Regionserver memory leak causing OOME during relatively modest bulk importing"
"""Andrew Purtell (JIRA)"" <jira@apache.org>","Fri, 21 Nov 2008 21:36:44 -0800 (PST)","[jira] Updated: (HBASE-900) Regionserver memory leak causing OOME during relatively modest bulk importing"
"""stack (JIRA)"" <jira@apache.org>","Fri, 21 Nov 2008 23:00:45 -0800 (PST)","[jira] Commented: (HBASE-900) Regionserver memory leak causing OOME during relatively modest bulk importing"
"""Andrew Purtell (JIRA)"" <jira@apache.org>","Sat, 22 Nov 2008 11:12:44 -0800 (PST)","[jira] Created: (HBASE-1018) Regionservers should report detailed health to master; master should flag troubled regionservers in UI"
"""Andrew Purtell (JIRA)"" <jira@apache.org>","Sat, 22 Nov 2008 11:16:44 -0800 (PST)","[jira] Updated: (HBASE-1018) Regionservers should report detailed health to master; master should flag troubled regionservers in UI"
"""Andrew Purtell (JIRA)"" <jira@apache.org>","Sat, 22 Nov 2008 11:18:44 -0800 (PST)","[jira] Created: (HBASE-1019) Master should reassign regions away from regionservers under heap stress"
"""Andrew Purtell (JIRA)"" <jira@apache.org>","Sat, 22 Nov 2008 11:52:44 -0800 (PST)","[jira] Commented: (HBASE-900) Regionserver memory leak causing OOME during relatively modest bulk importing"
"""Andrew Purtell (JIRA)"" <jira@apache.org>","Sat, 22 Nov 2008 11:54:44 -0800 (PST)","[jira] Issue Comment Edited: (HBASE-900) Regionserver memory leak causing OOME during relatively modest bulk importing"
"""Andrew Purtell (JIRA)"" <jira@apache.org>","Sat, 22 Nov 2008 11:58:44 -0800 (PST)","[jira] Issue Comment Edited: (HBASE-900) Regionserver memory leak causing OOME during relatively modest bulk importing"
"""Andrew Purtell (JIRA)"" <jira@apache.org>","Sat, 22 Nov 2008 12:02:44 -0800 (PST)","[jira] Commented: (HBASE-1019) Master should reassign regions away from regionservers under heap stress"
"""stack (JIRA)"" <jira@apache.org>","Sat, 22 Nov 2008 14:08:44 -0800 (PST)","[jira] Commented: (HBASE-1018) Regionservers should report detailed health to master; master should flag troubled regionservers in UI"
"""Andrew Purtell (JIRA)"" <jira@apache.org>","Sat, 22 Nov 2008 15:11:44 -0800 (PST)","[jira] Created: (HBASE-1020) Regionserver OOME handler should dump vital stats"
"""stack (JIRA)"" <jira@apache.org>","Sat, 22 Nov 2008 15:25:44 -0800 (PST)","[jira] Commented: (HBASE-1020) Regionserver OOME handler should dump vital stats"
"""stack (JIRA)"" <jira@apache.org>","Sat, 22 Nov 2008 16:19:44 -0800 (PST)","[jira] Created: (HBASE-1021) hbase metrics FileContext not working"
"""stack (JIRA)"" <jira@apache.org>","Sat, 22 Nov 2008 16:43:44 -0800 (PST)","[jira] Created: (HBASE-1022) Add count of stores to hbase metrics"
"""stack (JIRA)"" <jira@apache.org>","Sat, 22 Nov 2008 16:51:44 -0800 (PST)","[jira] Created: (HBASE-1023) Check global flusher"
"""Andrew Purtell (JIRA)"" <jira@apache.org>","Sat, 22 Nov 2008 16:53:44 -0800 (PST)","[jira] Commented: (HBASE-1020) Regionserver OOME handler should dump vital stats"
"""Andrew Purtell (JIRA)"" <jira@apache.org>","Sat, 22 Nov 2008 16:53:44 -0800 (PST)","[jira] Commented: (HBASE-1018) Regionservers should report detailed health to master; master should flag troubled regionservers in UI"
"""stack (JIRA)"" <jira@apache.org>","Sat, 22 Nov 2008 16:55:44 -0800 (PST)","[jira] Commented: (HBASE-1023) Check global flusher"
"""Slava (JIRA)"" <jira@apache.org>","Sun, 23 Nov 2008 00:29:44 -0800 (PST)","[jira] Commented: (HBASE-1014) commit(BatchUpdate)  method should return timestamp"
"""Andrew Purtell (JIRA)"" <jira@apache.org>","Sun, 23 Nov 2008 10:55:44 -0800 (PST)","[jira] Commented: (HBASE-1018) Regionservers should report detailed health to master; master should flag troubled regionservers in UI"
"""Andrew Purtell (JIRA)"" <jira@apache.org>","Sun, 23 Nov 2008 10:55:44 -0800 (PST)","[jira] Commented: (HBASE-1019) Master should reassign regions away from regionservers under heap stress"
"""Andrew Purtell (JIRA)"" <jira@apache.org>","Sun, 23 Nov 2008 12:09:44 -0800 (PST)","[jira] Commented: (HBASE-900) Regionserver memory leak causing OOME during relatively modest bulk importing"
"""Bruce Williams"" <williams.bruce@gmail.com>","Sun, 23 Nov 2008 12:31:31 -0800","Bloom filters"
"Michael Stack <stack@duboce.net>","Sun, 23 Nov 2008 13:45:03 -0800","Re: Bloom filters"
"""stack (JIRA)"" <jira@apache.org>","Sun, 23 Nov 2008 14:17:44 -0800 (PST)","[jira] Commented: (HBASE-900) Regionserver memory leak causing OOME during relatively modest bulk importing"
"""Andrew Purtell (JIRA)"" <jira@apache.org>","Sun, 23 Nov 2008 14:17:44 -0800 (PST)","[jira] Resolved: (HBASE-714) Showing bytes in log when should be string (2)"
"""Andrew Purtell (JIRA)"" <jira@apache.org>","Sun, 23 Nov 2008 14:41:44 -0800 (PST)","[jira] Created: (HBASE-1024) Rearchitect regionserver I/O"
"""Andrew Purtell (JIRA)"" <jira@apache.org>","Sun, 23 Nov 2008 14:53:44 -0800 (PST)","[jira] Commented: (HBASE-900) Regionserver memory leak causing OOME during relatively modest bulk importing"
"""stack (JIRA)"" <jira@apache.org>","Sun, 23 Nov 2008 14:53:44 -0800 (PST)","[jira] Created: (HBASE-1025) Reconstruction log playback has no bounds on memory used"
"""Andrew Purtell (JIRA)"" <jira@apache.org>","Sun, 23 Nov 2008 14:59:44 -0800 (PST)","[jira] Updated: (HBASE-1022) Add count of stores to hbase metrics"
"""stack (JIRA)"" <jira@apache.org>","Sun, 23 Nov 2008 15:03:44 -0800 (PST)","[jira] Commented: (HBASE-1021) hbase metrics FileContext not working"
"""stack (JIRA)"" <jira@apache.org>","Sun, 23 Nov 2008 15:07:44 -0800 (PST)","[jira] Commented: (HBASE-616) "" We slept XXXXXX ms, ten times longer than scheduled: 3000"" happens frequently."
"""stack (JIRA)"" <jira@apache.org>","Sun, 23 Nov 2008 15:07:44 -0800 (PST)","[jira] Commented: (HBASE-616) "" We slept XXXXXX ms, ten times longer than scheduled: 3000"" happens frequently."
"""stack (JIRA)"" <jira@apache.org>","Sun, 23 Nov 2008 15:25:44 -0800 (PST)","[jira] Commented: (HBASE-616) "" We slept XXXXXX ms, ten times longer than scheduled: 3000"" happens frequently."
"""Andrew Purtell (JIRA)"" <jira@apache.org>","Sun, 23 Nov 2008 20:53:44 -0800 (PST)","[jira] Updated: (HBASE-1022) Add count of stores to hbase metrics"
"""Andrew Purtell (JIRA)"" <jira@apache.org>","Sun, 23 Nov 2008 20:55:44 -0800 (PST)","[jira] Updated: (HBASE-1022) Add count of stores to hbase metrics"
"""Andrew Purtell (JIRA)"" <jira@apache.org>","Sun, 23 Nov 2008 20:55:44 -0800 (PST)","[jira] Assigned: (HBASE-1022) Add count of stores to hbase metrics"
"""Andrew Purtell (JIRA)"" <jira@apache.org>","Sun, 23 Nov 2008 23:55:44 -0800 (PST)","[jira] Updated: (HBASE-1018) Regionservers should report detailed health to master; master should flag troubled regionservers in UI"
"""Andrew Purtell (JIRA)"" <jira@apache.org>","Sun, 23 Nov 2008 23:55:44 -0800 (PST)","[jira] Assigned: (HBASE-1018) Regionservers should report detailed health to master; master should flag troubled regionservers in UI"
"""Andrew Purtell (JIRA)"" <jira@apache.org>","Sun, 23 Nov 2008 23:55:44 -0800 (PST)","[jira] Updated: (HBASE-1018) Regionservers should report detailed health to master; master should flag troubled regionservers in UI"
"""Andrew Purtell (JIRA)"" <jira@apache.org>","Mon, 24 Nov 2008 00:03:44 -0800 (PST)","[jira] Commented: (HBASE-1018) Regionservers should report detailed health to master; master should flag troubled regionservers in UI"
"Isabel Drost <isabel@apache.org>","Mon, 24 Nov 2008 19:37:01 +0100","Third Hadoop Get Together @ Berlin"
"""stack (JIRA)"" <jira@apache.org>","Mon, 24 Nov 2008 11:09:44 -0800 (PST)","[jira] Commented: (HBASE-1022) Add count of stores to hbase metrics"
"""stack (JIRA)"" <jira@apache.org>","Mon, 24 Nov 2008 11:09:44 -0800 (PST)","[jira] Commented: (HBASE-1022) Add count of stores to hbase metrics"
"""stack (JIRA)"" <jira@apache.org>","Mon, 24 Nov 2008 11:17:44 -0800 (PST)","[jira] Commented: (HBASE-1018) Regionservers should report detailed health to master; master should flag troubled regionservers in UI"
"""Andrew Purtell (JIRA)"" <jira@apache.org>","Mon, 24 Nov 2008 11:25:44 -0800 (PST)","[jira] Commented: (HBASE-1018) Regionservers should report detailed health to master; master should flag troubled regionservers in UI"
"""Andrew Purtell (JIRA)"" <jira@apache.org>","Mon, 24 Nov 2008 11:41:44 -0800 (PST)","[jira] Updated: (HBASE-1022) Add count of stores to hbase metrics"
"""Andrew Purtell (JIRA)"" <jira@apache.org>","Mon, 24 Nov 2008 11:49:44 -0800 (PST)","[jira] Commented: (HBASE-1018) Regionservers should report detailed health to master; master should flag troubled regionservers in UI"
"""stack (JIRA)"" <jira@apache.org>","Mon, 24 Nov 2008 11:55:44 -0800 (PST)","[jira] Commented: (HBASE-1022) Add count of stores to hbase metrics"
"""stack (JIRA)"" <jira@apache.org>","Mon, 24 Nov 2008 12:01:47 -0800 (PST)","[jira] Commented: (HBASE-1018) Regionservers should report detailed health to master; master should flag troubled regionservers in UI"
"""stack (JIRA)"" <jira@apache.org>","Mon, 24 Nov 2008 12:15:44 -0800 (PST)","[jira] Commented: (HBASE-1021) hbase metrics FileContext not working"
"""stack (JIRA)"" <jira@apache.org>","Mon, 24 Nov 2008 12:47:44 -0800 (PST)","[jira] Commented: (HBASE-1021) hbase metrics FileContext not working"
"""stack (JIRA)"" <jira@apache.org>","Mon, 24 Nov 2008 12:49:44 -0800 (PST)","[jira] Resolved: (HBASE-1021) hbase metrics FileContext not working"
"""stack (JIRA)"" <jira@apache.org>","Mon, 24 Nov 2008 12:49:44 -0800 (PST)","[jira] Assigned: (HBASE-1021) hbase metrics FileContext not working"
"""stack (JIRA)"" <jira@apache.org>","Mon, 24 Nov 2008 12:53:44 -0800 (PST)","[jira] Commented: (HBASE-1023) Check global flusher"
"""stack (JIRA)"" <jira@apache.org>","Mon, 24 Nov 2008 13:07:44 -0800 (PST)","[jira] Commented: (HBASE-1022) Add count of stores to hbase metrics"
"""Andrew Purtell (JIRA)"" <jira@apache.org>","Mon, 24 Nov 2008 13:17:44 -0800 (PST)","[jira] Updated: (HBASE-1022) Add  storefile index size to hbase metrics"
"""Andrew Purtell (JIRA)"" <jira@apache.org>","Mon, 24 Nov 2008 13:19:44 -0800 (PST)","[jira] Updated: (HBASE-1022) Add  storefile index size to hbase metrics"
"""Andrew Purtell (JIRA)"" <jira@apache.org>","Mon, 24 Nov 2008 13:21:44 -0800 (PST)","[jira] Reopened: (HBASE-1022) Add  storefile index size to hbase metrics"
"""Andrew Purtell (JIRA)"" <jira@apache.org>","Mon, 24 Nov 2008 13:51:44 -0800 (PST)","[jira] Resolved: (HBASE-1022) Add  storefile index size to hbase metrics"
"""Jean-Daniel Cryans (JIRA)"" <jira@apache.org>","Mon, 24 Nov 2008 14:01:44 -0800 (PST)","[jira] Created: (HBASE-1026) Tests in mapred are failing"
"""Jean-Daniel Cryans (JIRA)"" <jira@apache.org>","Mon, 24 Nov 2008 14:03:44 -0800 (PST)","[jira] Commented: (HBASE-1026) Tests in mapred are failing"
"""stack (JIRA)"" <jira@apache.org>","Mon, 24 Nov 2008 14:07:44 -0800 (PST)","[jira] Commented: (HBASE-1022) Add  storefile index size to hbase metrics"
"""stack (JIRA)"" <jira@apache.org>","Mon, 24 Nov 2008 14:57:44 -0800 (PST)","[jira] Created: (HBASE-1027) Make global flusher check work with percentages rather than hard code memory sizes."
"""stack (JIRA)"" <jira@apache.org>","Mon, 24 Nov 2008 14:59:44 -0800 (PST)","[jira] Resolved: (HBASE-1023) Check global flusher"
"""stack (JIRA)"" <jira@apache.org>","Mon, 24 Nov 2008 16:31:44 -0800 (PST)","[jira] Commented: (HBASE-900) Regionserver memory leak causing OOME during relatively modest bulk importing"
"""stack (JIRA)"" <jira@apache.org>","Mon, 24 Nov 2008 16:37:44 -0800 (PST)","[jira] Commented: (HBASE-1024) Rearchitect regionserver I/O"
"""stack (JIRA)"" <jira@apache.org>","Mon, 24 Nov 2008 16:43:44 -0800 (PST)","[jira] Commented: (HBASE-1014) commit(BatchUpdate)  method should return timestamp"
"""Andrew Purtell (JIRA)"" <jira@apache.org>","Mon, 24 Nov 2008 16:43:44 -0800 (PST)","[jira] Commented: (HBASE-1024) Rearchitect regionserver I/O"
"""Andrew Purtell (JIRA)"" <jira@apache.org>","Mon, 24 Nov 2008 16:45:44 -0800 (PST)","[jira] Commented: (HBASE-900) Regionserver memory leak causing OOME during relatively modest bulk importing"
"""Slava (JIRA)"" <jira@apache.org>","Mon, 24 Nov 2008 21:49:45 -0800 (PST)","[jira] Commented: (HBASE-1014) commit(BatchUpdate)  method should return timestamp"
"""stack (JIRA)"" <jira@apache.org>","Mon, 24 Nov 2008 22:35:44 -0800 (PST)","[jira] Resolved: (HBASE-1006) Resevoir of memory not freed on OOME"
"""stack (JIRA)"" <jira@apache.org>","Mon, 24 Nov 2008 22:53:44 -0800 (PST)","[jira] Updated: (HBASE-1020) Regionserver OOME handler should dump vital stats"
"""stack (JIRA)"" <jira@apache.org>","Mon, 24 Nov 2008 22:55:44 -0800 (PST)","[jira] Updated: (HBASE-1020) Regionserver OOME handler should dump vital stats"
"""stack (JIRA)"" <jira@apache.org>","Mon, 24 Nov 2008 23:19:44 -0800 (PST)","[jira] Updated: (HBASE-880) Improve the current client API by creating new container classes"
"""Andrew Purtell (JIRA)"" <jira@apache.org>","Tue, 25 Nov 2008 02:01:44 -0800 (PST)","[jira] Updated: (HBASE-1018) Regionservers should report detailed health to master; master should flag troubled regionservers in UI"
"Apache Hudson Server <hudson@hudson.zones.apache.org>","Tue, 25 Nov 2008 14:36:44 +0000 (UTC)","Hudson build is back to normal: HBase-Patch #424"
"""Jean-Daniel Cryans (JIRA)"" <jira@apache.org>","Tue, 25 Nov 2008 07:41:44 -0800 (PST)","[jira] Resolved: (HBASE-1026) Tests in mapred are failing"
"""Jim Kellerman (JIRA)"" <jira@apache.org>","Tue, 25 Nov 2008 08:53:44 -0800 (PST)","[jira] Commented: (HBASE-880) Improve the current client API by creating new container classes"
"""Nitay Joffe (JIRA)"" <jira@apache.org>","Tue, 25 Nov 2008 11:13:44 -0800 (PST)","[jira] Updated: (HBASE-546) Use Zookeeper in HBase"
"""Andrew Purtell (JIRA)"" <jira@apache.org>","Tue, 25 Nov 2008 11:21:44 -0800 (PST)","[jira] Commented: (HBASE-1020) Regionserver OOME handler should dump vital stats"
"Andrew Purtell <apurtell@apache.org>","Tue, 25 Nov 2008 11:27:58 -0800 (PST)","Re: HBASE-902 again"
"""Andrew Purtell (JIRA)"" <jira@apache.org>","Tue, 25 Nov 2008 11:29:44 -0800 (PST)","[jira] Commented: (HBASE-902) Add force compaction and force split operations to UI and Admin"
"""Jean-Daniel Cryans (JIRA)"" <jira@apache.org>","Tue, 25 Nov 2008 11:57:44 -0800 (PST)","[jira] Commented: (HBASE-546) Use Zookeeper in HBase"
"""Andrew Purtell (JIRA)"" <jira@apache.org>","Tue, 25 Nov 2008 12:57:44 -0800 (PST)","[jira] Reopened: (HBASE-921) region close and open processed out of order; makes for disagreement between master and regionserver on region state"
"""Jim Kellerman (JIRA)"" <jira@apache.org>","Tue, 25 Nov 2008 13:19:44 -0800 (PST)","[jira] Commented: (HBASE-921) region close and open processed out of order; makes for disagreement between master and regionserver on region state"
"""stack (JIRA)"" <jira@apache.org>","Tue, 25 Nov 2008 13:27:44 -0800 (PST)","[jira] Updated: (HBASE-880) Improve the current client API by creating new container classes"
"""Andrew Purtell (JIRA)"" <jira@apache.org>","Tue, 25 Nov 2008 13:41:44 -0800 (PST)","[jira] Commented: (HBASE-921) region close and open processed out of order; makes for disagreement between master and regionserver on region state"
"""stack (JIRA)"" <jira@apache.org>","Tue, 25 Nov 2008 13:48:46 -0800 (PST)","[jira] Updated: (HBASE-880) Improve the current client API by creating new container classes"
"""stack (JIRA)"" <jira@apache.org>","Tue, 25 Nov 2008 13:50:44 -0800 (PST)","[jira] Updated: (HBASE-1020) Regionserver OOME handler should dump vital stats"
"""stack (JIRA)"" <jira@apache.org>","Tue, 25 Nov 2008 13:58:44 -0800 (PST)","[jira] Commented: (HBASE-1018) Regionservers should report detailed health to master; master should flag troubled regionservers in UI"
"""stack (JIRA)"" <jira@apache.org>","Tue, 25 Nov 2008 14:00:45 -0800 (PST)","[jira] Assigned: (HBASE-1020) Regionserver OOME handler should dump vital stats"
"""Andrew Purtell (JIRA)"" <jira@apache.org>","Tue, 25 Nov 2008 14:04:46 -0800 (PST)","[jira] Commented: (HBASE-1018) Regionservers should report detailed health to master; master should flag troubled regionservers in UI"
"""stack (JIRA)"" <jira@apache.org>","Tue, 25 Nov 2008 14:18:44 -0800 (PST)","[jira] Commented: (HBASE-1018) Regionservers should report detailed health to master; master should flag troubled regionservers in UI"
"""Andrew Purtell (JIRA)"" <jira@apache.org>","Tue, 25 Nov 2008 14:34:44 -0800 (PST)","[jira] Commented: (HBASE-1015) pure C and C++ client libraries"
"Apache Hudson Server <hudson@hudson.zones.apache.org>","Tue, 25 Nov 2008 23:01:01 +0000 (UTC)","Build failed in Hudson: HBase-Patch #425"
"""Nitay Joffe (JIRA)"" <jira@apache.org>","Tue, 25 Nov 2008 15:21:45 -0800 (PST)","[jira] Updated: (HBASE-546) Use Zookeeper in HBase"
"""Nitay Joffe (JIRA)"" <jira@apache.org>","Tue, 25 Nov 2008 15:21:45 -0800 (PST)","[jira] Updated: (HBASE-546) Use Zookeeper in HBase"
"""Andrew Purtell (JIRA)"" <jira@apache.org>","Tue, 25 Nov 2008 15:45:44 -0800 (PST)","[jira] Updated: (HBASE-1018) Regionservers should report detailed health to master; master should flag troubled regionservers in UI"
"""stack (JIRA)"" <jira@apache.org>","Tue, 25 Nov 2008 16:19:44 -0800 (PST)","[jira] Created: (HBASE-1028) If key does not exist, return null in getRow rather than an empty RowResult"
"Apache Hudson Server <hudson@hudson.zones.apache.org>","Wed, 26 Nov 2008 01:26:43 +0000 (UTC)","Build failed in Hudson: HBase-Patch #426"
"""Andrew Purtell (JIRA)"" <jira@apache.org>","Tue, 25 Nov 2008 17:42:44 -0800 (PST)","[jira] Issue Comment Edited: (HBASE-1015) pure C and C++ client libraries"
"""Andrey Gladyshev"" <agladyshev@iponweb.net>","Wed, 26 Nov 2008 12:40:16 +0300","PerformanceEvaluation much slower with 10k blocks"
"""Craig Macdonald (JIRA)"" <jira@apache.org>","Wed, 26 Nov 2008 06:20:46 -0800 (PST)","[jira] Created: (HBASE-1029) REST wiki documentation incorrect"
"""Jean-Daniel Cryans (JIRA)"" <jira@apache.org>","Wed, 26 Nov 2008 09:14:44 -0800 (PST)","[jira] Commented: (HBASE-546) Use Zookeeper in HBase"
"""stack (JIRA)"" <jira@apache.org>","Wed, 26 Nov 2008 10:02:44 -0800 (PST)","[jira] Updated: (HBASE-1029) REST wiki documentation incorrect"
"""stack (JIRA)"" <jira@apache.org>","Wed, 26 Nov 2008 15:54:44 -0800 (PST)","[jira] Created: (HBASE-1030) Bit of polish on HBASE-1018"
"""stack (JIRA)"" <jira@apache.org>","Wed, 26 Nov 2008 16:04:44 -0800 (PST)","[jira] Commented: (HBASE-1030) Bit of polish on HBASE-1018"
"""stack (JIRA)"" <jira@apache.org>","Wed, 26 Nov 2008 16:18:44 -0800 (PST)","[jira] Assigned: (HBASE-1030) Bit of polish on HBASE-1018"
"""Jean-Daniel Cryans (JIRA)"" <jira@apache.org>","Wed, 26 Nov 2008 17:00:46 -0800 (PST)","[jira] Created: (HBASE-1031) Add the Zookeeper jar"
"""Jean-Daniel Cryans (JIRA)"" <jira@apache.org>","Wed, 26 Nov 2008 17:00:46 -0800 (PST)","[jira] Updated: (HBASE-1031) Add the Zookeeper jar"
"""Jean-Daniel Cryans (JIRA)"" <jira@apache.org>","Wed, 26 Nov 2008 17:06:44 -0800 (PST)","[jira] Commented: (HBASE-546) Use Zookeeper in HBase"
"Apache Hudson Server <hudson@hudson.zones.apache.org>","Thu, 27 Nov 2008 01:10:01 +0000 (UTC)","Build failed in Hudson: HBase-Patch #427"
"""stack (JIRA)"" <jira@apache.org>","Wed, 26 Nov 2008 18:10:44 -0800 (PST)","[jira] Updated: (HBASE-616) "" We slept XXXXXX ms, ten times longer than scheduled: 3000"" happens frequently."
"""stack (JIRA)"" <jira@apache.org>","Wed, 26 Nov 2008 18:10:44 -0800 (PST)","[jira] Commented: (HBASE-616) "" We slept XXXXXX ms, ten times longer than scheduled: 3000"" happens frequently."
"""Andrew Purtell (JIRA)"" <jira@apache.org>","Thu, 27 Nov 2008 00:31:44 -0800 (PST)","[jira] Updated: (HBASE-902) Add force compaction and force split operations to UI and Admin"
"""Andrew Purtell (JIRA)"" <jira@apache.org>","Thu, 27 Nov 2008 00:31:44 -0800 (PST)","[jira] Updated: (HBASE-902) Add force compaction and force split operations to UI and Admin"
"""Andrew Purtell (JIRA)"" <jira@apache.org>","Thu, 27 Nov 2008 00:41:44 -0800 (PST)","[jira] Commented: (HBASE-1030) Bit of polish on HBASE-1018"
"""Andrew Purtell (JIRA)"" <jira@apache.org>","Thu, 27 Nov 2008 01:27:46 -0800 (PST)","[jira] Updated: (HBASE-1028) If key does not exist, return null in getRow rather than an empty RowResult"
"""Andrew Purtell (JIRA)"" <jira@apache.org>","Thu, 27 Nov 2008 01:27:46 -0800 (PST)","[jira] Updated: (HBASE-1028) If key does not exist, return null in getRow rather than an empty RowResult"
"""Nitay Joffe (JIRA)"" <jira@apache.org>","Thu, 27 Nov 2008 11:40:46 -0800 (PST)","[jira] Created: (HBASE-1032) Tests should run on non default ports"
"""Nitay Joffe (JIRA)"" <jira@apache.org>","Thu, 27 Nov 2008 11:42:44 -0800 (PST)","[jira] Updated: (HBASE-1032) Tests should run on non default ports"
"""Jim Kellerman (JIRA)"" <jira@apache.org>","Thu, 27 Nov 2008 23:06:44 -0800 (PST)","[jira] Created: (HBASE-1033) get and getRow with latest  timestamp don't find requested rows"
"""Jim Kellerman (JIRA)"" <jira@apache.org>","Thu, 27 Nov 2008 23:06:44 -0800 (PST)","[jira] Updated: (HBASE-1033) get and getRow with latest  timestamp don't find requested rows"
"""stack (JIRA)"" <jira@apache.org>","Thu, 27 Nov 2008 23:12:44 -0800 (PST)","[jira] Commented: (HBASE-902) Add force compaction and force split operations to UI and Admin"
"""Jim Kellerman (JIRA)"" <jira@apache.org>","Thu, 27 Nov 2008 23:14:44 -0800 (PST)","[jira] Commented: (HBASE-1033) get and getRow with latest  timestamp don't find requested rows"
"""stack (JIRA)"" <jira@apache.org>","Thu, 27 Nov 2008 23:16:44 -0800 (PST)","[jira] Commented: (HBASE-1030) Bit of polish on HBASE-1018"
"""stack (JIRA)"" <jira@apache.org>","Thu, 27 Nov 2008 23:18:44 -0800 (PST)","[jira] Commented: (HBASE-1028) If key does not exist, return null in getRow rather than an empty RowResult"
"""stack (JIRA)"" <jira@apache.org>","Thu, 27 Nov 2008 23:18:44 -0800 (PST)","[jira] Commented: (HBASE-1028) If key does not exist, return null in getRow rather than an empty RowResult"
"""stack (JIRA)"" <jira@apache.org>","Thu, 27 Nov 2008 23:24:46 -0800 (PST)","[jira] Commented: (HBASE-1032) Tests should run on non default ports"
"""Jim Kellerman (JIRA)"" <jira@apache.org>","Fri, 28 Nov 2008 00:06:44 -0800 (PST)","[jira] Commented: (HBASE-1028) If key does not exist, return null in getRow rather than an empty RowResult"
"""Jim Kellerman (JIRA)"" <jira@apache.org>","Fri, 28 Nov 2008 00:12:47 -0800 (PST)","[jira] Updated: (HBASE-1033) get and getRow with latest  timestamp don't find requested columns"
"""Andrew Purtell (JIRA)"" <jira@apache.org>","Fri, 28 Nov 2008 01:02:44 -0800 (PST)","[jira] Updated: (HBASE-1028) If key does not exist, return null in getRow rather than an empty RowResult"
"""Andrew Purtell (JIRA)"" <jira@apache.org>","Fri, 28 Nov 2008 02:16:44 -0800 (PST)","[jira] Updated: (HBASE-902) Add force compaction and force split operations to UI and Admin"
"""Jim Kellerman (JIRA)"" <jira@apache.org>","Fri, 28 Nov 2008 02:20:46 -0800 (PST)","[jira] Resolved: (HBASE-1033) get and getRow with latest  timestamp don't find requested columns"
"""Andrew Purtell (JIRA)"" <jira@apache.org>","Fri, 28 Nov 2008 02:35:44 -0800 (PST)","[jira] Created: (HBASE-1034) Remove useless TestToString unit test"
"""Andrew Purtell (JIRA)"" <jira@apache.org>","Fri, 28 Nov 2008 02:37:44 -0800 (PST)","[jira] Resolved: (HBASE-1034) Remove useless TestToString unit test"
"Apache Hudson Server <hudson@hudson.zones.apache.org>","Fri, 28 Nov 2008 10:52:53 +0000 (UTC)","Build failed in Hudson: HBase-Patch #428"
"""Andrew Purtell (JIRA)"" <jira@apache.org>","Fri, 28 Nov 2008 03:05:44 -0800 (PST)","[jira] Created: (HBASE-1035) Extend createTable to support initial region partitioning specification"
"Apache Hudson Server <hudson@hudson.zones.apache.org>","Fri, 28 Nov 2008 13:00:01 +0000 (UTC)","Build failed in Hudson: HBase-Patch #429"
"""Jean-Daniel Cryans (JIRA)"" <jira@apache.org>","Fri, 28 Nov 2008 06:17:44 -0800 (PST)","[jira] Created: (HBASE-1036) HBASE-1028 broke Thrift"
"""Jean-Daniel Cryans (JIRA)"" <jira@apache.org>","Fri, 28 Nov 2008 06:53:44 -0800 (PST)","[jira] Commented: (HBASE-1014) commit(BatchUpdate)  method should return timestamp"
"""sishen (JIRA)"" <jira@apache.org>","Fri, 28 Nov 2008 08:19:44 -0800 (PST)","[jira] Commented: (HBASE-1029) REST wiki documentation incorrect"
"Apache Hudson Server <hudson@hudson.zones.apache.org>","Fri, 28 Nov 2008 16:24:03 +0000 (UTC)","Build failed in Hudson: HBase-Patch #430"
"""Jean-Daniel Cryans"" <jdcryans@apache.org>","Fri, 28 Nov 2008 11:36:29 -0500","Re: Build failed in Hudson: HBase-Patch #430"
"""stack (JIRA)"" <jira@apache.org>","Fri, 28 Nov 2008 09:33:44 -0800 (PST)","[jira] Assigned: (HBASE-1029) REST wiki documentation incorrect"
"Apache Hudson Server <hudson@hudson.zones.apache.org>","Fri, 28 Nov 2008 18:14:51 +0000 (UTC)","Hudson build is back to normal: HBase-Patch #431"
"""Jonathan Gray (JIRA)"" <jira@apache.org>","Fri, 28 Nov 2008 11:54:44 -0800 (PST)","[jira] Commented: (HBASE-1014) commit(BatchUpdate)  method should return timestamp"
"""stack (JIRA)"" <jira@apache.org>","Fri, 28 Nov 2008 12:20:44 -0800 (PST)","[jira] Commented: (HBASE-1014) commit(BatchUpdate)  method should return timestamp"
"""Andrew Purtell (JIRA)"" <jira@apache.org>","Fri, 28 Nov 2008 12:52:44 -0800 (PST)","[jira] Assigned: (HBASE-1036) HBASE-1028 broke Thrift"
"""Andrew Purtell (JIRA)"" <jira@apache.org>","Fri, 28 Nov 2008 13:02:44 -0800 (PST)","[jira] Updated: (HBASE-1036) HBASE-1028 broke Thrift"
"""Andrew Purtell (JIRA)"" <jira@apache.org>","Fri, 28 Nov 2008 13:02:44 -0800 (PST)","[jira] Updated: (HBASE-1036) HBASE-1028 broke Thrift"
"""Andrew Purtell (JIRA)"" <jira@apache.org>","Fri, 28 Nov 2008 13:06:44 -0800 (PST)","[jira] Assigned: (HBASE-1036) HBASE-1028 broke Thrift"
"""Slava (JIRA)"" <jira@apache.org>","Fri, 28 Nov 2008 13:32:47 -0800 (PST)","[jira] Commented: (HBASE-1014) commit(BatchUpdate)  method should return timestamp"
"""Slava (JIRA)"" <jira@apache.org>","Fri, 28 Nov 2008 13:38:44 -0800 (PST)","[jira] Issue Comment Edited: (HBASE-1014) commit(BatchUpdate)  method should return timestamp"
"""Slava (JIRA)"" <jira@apache.org>","Fri, 28 Nov 2008 13:38:44 -0800 (PST)","[jira] Issue Comment Edited: (HBASE-1014) commit(BatchUpdate)  method should return timestamp"
"""Andrew Purtell (JIRA)"" <jira@apache.org>","Fri, 28 Nov 2008 14:08:44 -0800 (PST)","[jira] Created: (HBASE-1037) Some test cases failing on Windows/Cygwin but not UNIX/Linux"
"""Andrew Purtell (JIRA)"" <jira@apache.org>","Fri, 28 Nov 2008 14:08:44 -0800 (PST)","[jira] Updated: (HBASE-1037) Some test cases failing on Windows/Cygwin but not UNIX/Linux"
"""Andrew Purtell (JIRA)"" <jira@apache.org>","Fri, 28 Nov 2008 14:10:44 -0800 (PST)","[jira] Updated: (HBASE-1037) Some test cases failing on Windows/Cygwin but not UNIX/Linux"
"""Andrew Purtell (JIRA)"" <jira@apache.org>","Fri, 28 Nov 2008 14:10:44 -0800 (PST)","[jira] Updated: (HBASE-1037) Some test cases failing on Windows/Cygwin but not UNIX/Linux"
"""stack (JIRA)"" <jira@apache.org>","Sat, 29 Nov 2008 09:04:44 -0800 (PST)","[jira] Commented: (HBASE-921) region close and open processed out of order; makes for disagreement between master and regionserver on region state"
"""stack (JIRA)"" <jira@apache.org>","Sat, 29 Nov 2008 09:06:44 -0800 (PST)","[jira] Updated: (HBASE-1036) HBASE-1028 broke Thrift"
"""Andrew Purtell (JIRA)"" <jira@apache.org>","Sat, 29 Nov 2008 10:02:44 -0800 (PST)","[jira] Commented: (HBASE-921) region close and open processed out of order; makes for disagreement between master and regionserver on region state"
"""Andrew Purtell (JIRA)"" <jira@apache.org>","Sat, 29 Nov 2008 10:02:44 -0800 (PST)","[jira] Created: (HBASE-1038) Master should accept client feedback about inconsistencies in META"
"""Bruce Williams"" <williams.bruce@gmail.com>","Sat, 29 Nov 2008 23:43:08 -0800","Re: Bloom filters"
"""Andrew Purtell (JIRA)"" <jira@apache.org>","Sun, 30 Nov 2008 10:45:44 -0800 (PST)","[jira] Created: (HBASE-1039) Compaction fails if bloomfilters are enabled"
"""Andrew Purtell (JIRA)"" <jira@apache.org>","Sun, 30 Nov 2008 10:51:44 -0800 (PST)","[jira] Commented: (HBASE-1039) Compaction fails if bloomfilters are enabled"
"""Edward Bruce Williams (JIRA)"" <jira@apache.org>","Sun, 30 Nov 2008 13:12:44 -0800 (PST)","[jira] Commented: (HBASE-1039) Compaction fails if bloomfilters are enabled"
