"Developer","Date","Subject"
"Apache Jenkins Server <jenkins@builds.apache.org>","Fri, 1 Jun 2012 00:53:13 +0000 (UTC)","Jenkins build is back to normal : HBase-0.92 #441"
"Apache Jenkins Server <jenkins@builds.apache.org>","Fri, 1 Jun 2012 05:43:12 +0000 (UTC)","Build failed in Jenkins: HBase-0.94-security #33"
"Apache Jenkins Server <jenkins@builds.apache.org>","Fri, 1 Jun 2012 05:53:37 +0000 (UTC)","Build failed in Jenkins: HBase-TRUNK #2969"
"Apache Jenkins Server <jenkins@builds.apache.org>","Fri, 1 Jun 2012 08:08:36 +0000 (UTC)","Jenkins build is back to normal : HBase-0.92-security #109"
"Suraj Varma <svarma.ng@gmail.com>","Fri, 1 Jun 2012 05:55:45 -0700","Re: HBase ""NumOps"" metrics reseted."
"Lars George <lars.george@gmail.com>","Fri, 1 Jun 2012 16:14:08 +0200","Re: Exposing config properties via JMX?"
"Stack <stack@duboce.net>","Fri, 1 Jun 2012 09:59:46 -0700","ANN: The first hbase 0.92.2 release candidate is available for download"
"Apache Jenkins Server <jenkins@builds.apache.org>","Fri, 1 Jun 2012 21:49:06 +0000 (UTC)","Build failed in Jenkins: HBase-TRUNK #2970"
"Apache Jenkins Server <jenkins@builds.apache.org>","Fri, 1 Jun 2012 22:54:23 +0000 (UTC)","Jenkins build is back to normal : HBase-TRUNK #2971"
"Apache Jenkins Server <jenkins@builds.apache.org>","Fri, 1 Jun 2012 23:53:15 +0000 (UTC)","Build failed in Jenkins: HBase-TRUNK-on-Hadoop-2.0.0 #36"
"Apache Jenkins Server <jenkins@builds.apache.org>","Sat, 2 Jun 2012 00:20:41 +0000 (UTC)","Build failed in Jenkins: HBase-TRUNK #2972"
"Apache Jenkins Server <jenkins@builds.apache.org>","Sat, 2 Jun 2012 01:29:44 +0000 (UTC)","Build failed in Jenkins: HBase-TRUNK #2973"
"Apache Jenkins Server <jenkins@builds.apache.org>","Sat, 2 Jun 2012 05:53:47 +0000 (UTC)","Build failed in Jenkins: HBase-TRUNK #2974"
"Apache Jenkins Server <jenkins@builds.apache.org>","Sat, 2 Jun 2012 10:08:51 +0000 (UTC)","Build failed in Jenkins: HBase-TRUNK #2975"
"Apache Jenkins Server <jenkins@builds.apache.org>","Sat, 2 Jun 2012 11:48:09 +0000 (UTC)","Build failed in Jenkins: HBase-TRUNK-on-Hadoop-2.0.0 #37"
"Apache Jenkins Server <jenkins@builds.apache.org>","Sat, 2 Jun 2012 13:20:52 +0000 (UTC)","Build failed in Jenkins: HBase-TRUNK #2976"
"Apache Jenkins Server <jenkins@builds.apache.org>","Sat, 2 Jun 2012 13:56:49 +0000 (UTC)","Build failed in Jenkins: HBase-TRUNK #2977"
"Ted Yu <yuzhihong@gmail.com>","Sat, 2 Jun 2012 07:40:33 -0700","[pre,post]ScannerOpen() returning a custom RegionScanner implementation"
"lars hofhansl <lhofhansl@yahoo.com>","Sat, 2 Jun 2012 07:48:57 -0700 (PDT)","Re: [pre,post]ScannerOpen() returning a custom RegionScanner implementation"
"Apache Jenkins Server <jenkins@builds.apache.org>","Sat, 2 Jun 2012 17:25:29 +0000 (UTC)","Jenkins build is back to normal : HBase-TRUNK #2978"
"Apache Jenkins Server <jenkins@builds.apache.org>","Sat, 2 Jun 2012 22:37:04 +0000 (UTC)","Build failed in Jenkins: hbase-0.90 #500"
"amir <askovron@akamai.com>","Sun, 3 Jun 2012 07:30:16 -0700 (PDT)","Coprocessor"
"Vladimir Rodionov <vrodionov@carrieriq.com>","Sun, 3 Jun 2012 11:24:28 -0700","RE: Coprocessor"
"Stack <stack@duboce.net>","Sun, 3 Jun 2012 13:26:10 -0700","Welcome our newest committer, Jimmy Xiang"
"Li Pi <li@idle.li>","Sun, 3 Jun 2012 13:28:43 -0700","Re: Welcome our newest committer, Jimmy Xiang"
"Himanshu Vashishtha <hvashish@cs.ualberta.ca>","Sun, 3 Jun 2012 14:35:53 -0600","Re: Welcome our newest committer, Jimmy Xiang"
"Ted Yu <yuzhihong@gmail.com>","Sun, 3 Jun 2012 13:45:20 -0700","Re: Welcome our newest committer, Jimmy Xiang"
"Apache Jenkins Server <jenkins@builds.apache.org>","Sun, 3 Jun 2012 20:49:30 +0000 (UTC)","Jenkins build is back to normal : HBase-0.94 #243"
"lars hofhansl <lhofhansl@yahoo.com>","Sun, 3 Jun 2012 13:55:38 -0700 (PDT)","Re: Welcome our newest committer, Jimmy Xiang"
"Andrew Purtell <apurtell@apache.org>","Sun, 3 Jun 2012 22:59:31 +0200","Re: Welcome our newest committer, Jimmy Xiang"
"Andrew Purtell <apurtell@apache.org>","Sun, 3 Jun 2012 23:54:12 +0200","Re: REST Interface: Required ordering of JSON name/value pairs when performing Insert/Update"
"Gourav Sengupta <gourav.hadoop@gmail.com>","Sun, 3 Jun 2012 23:00:54 +0100","how do we start contributing to the project"
"Lars George <lars.george@gmail.com>","Mon, 4 Jun 2012 00:18:39 +0200","Re: Welcome our newest committer, Jimmy Xiang"
"Jimmy Xiang <jxiang@cloudera.com>","Sun, 3 Jun 2012 15:25:44 -0700","Re: Welcome our newest committer, Jimmy Xiang"
"Apache Jenkins Server <jenkins@builds.apache.org>","Sun, 3 Jun 2012 22:41:55 +0000 (UTC)","Build failed in Jenkins: HBase-TRUNK #2980"
"Jonathan Hsieh <jon@cloudera.com>","Sun, 3 Jun 2012 16:02:25 -0700","Re: Welcome our newest committer, Jimmy Xiang"
"Jonathan Hsieh <jon@cloudera.com>","Sun, 3 Jun 2012 16:06:57 -0700","Re: how do we start contributing to the project"
"Apache Jenkins Server <jenkins@builds.apache.org>","Sun, 3 Jun 2012 23:16:42 +0000 (UTC)","Build failed in Jenkins: HBase-TRUNK-on-Hadoop-2.0.0 #38"
"Apache Jenkins Server <jenkins@builds.apache.org>","Sun, 3 Jun 2012 23:45:37 +0000 (UTC)","Build failed in Jenkins: HBase-TRUNK #2981"
"Gregory Chanan <gchanan@cloudera.com>","Sun, 3 Jun 2012 17:47:34 -0700","Re: Welcome our newest committer, Jimmy Xiang"
"""Ramkrishna.S.Vasudevan"" <ramkrishna.vasudevan@huawei.com>","Mon, 04 Jun 2012 09:19:59 +0530","RE: Welcome our newest committer, Jimmy Xiang"
"Anoop Sam John <anoopsj@huawei.com>","Mon, 04 Jun 2012 03:55:10 +0000","RE: [pre,post]ScannerOpen() returning a custom RegionScanner implementation"
"Harsh J <harsh@cloudera.com>","Mon, 4 Jun 2012 09:59:46 +0530","Re: Welcome our newest committer, Jimmy Xiang"
"Jesse Yates <jesse.k.yates@gmail.com>","Sun, 3 Jun 2012 21:36:09 -0700","Re: Welcome our newest committer, Jimmy Xiang"
"Uma Maheswara Rao G <maheswara@huawei.com>","Mon, 04 Jun 2012 04:41:25 +0000","RE: Welcome our newest committer, Jimmy Xiang"
"""Ramkrishna.S.Vasudevan"" <ramkrishna.vasudevan@huawei.com>","Mon, 04 Jun 2012 10:39:46 +0530","HBASE-6046 and HBASE-6060 - Ready for review"
"yuzhihong@gmail.com","Mon, 4 Jun 2012 01:27:46 -0700","Re: HBASE-6046 and HBASE-6060 - Ready for review"
"""Ramkrishna.S.Vasudevan"" <ramkrishna.vasudevan@huawei.com>","Mon, 04 Jun 2012 14:01:33 +0530","RE: HBASE-6046 and HBASE-6060 - Ready for review"
"Apache Jenkins Server <jenkins@builds.apache.org>","Mon, 4 Jun 2012 10:34:43 +0000 (UTC)","Build failed in Jenkins: hbase-0.90 #501"
"Apache Jenkins Server <jenkins@builds.apache.org>","Mon, 4 Jun 2012 10:46:33 +0000 (UTC)","Build failed in Jenkins: HBase-TRUNK #2982"
"Jonathan Hsieh <jon@cloudera.com>","Mon, 4 Jun 2012 03:47:34 -0700","Re: ANN: The first hbase 0.92.2 release candidate is available for download"
"Apache Jenkins Server <jenkins@builds.apache.org>","Mon, 4 Jun 2012 11:16:40 +0000 (UTC)","Build failed in Jenkins: HBase-TRUNK-on-Hadoop-2.0.0 #39"
"Apache Jenkins Server <jenkins@builds.apache.org>","Mon, 4 Jun 2012 11:46:00 +0000 (UTC)","Build failed in Jenkins: HBase-TRUNK #2983"
"Apache Jenkins Server <jenkins@builds.apache.org>","Mon, 4 Jun 2012 12:14:25 +0000 (UTC)","Build failed in Jenkins: HBase-0.92 #443"
"Linqing Wang <wlqpku@gmail.com>","Mon, 4 Jun 2012 22:00:01 +0800","Which version of Hadoop can match Hbase-0.90.3"
"Stack <stack@duboce.net>","Mon, 4 Jun 2012 08:10:23 -0700","Re: Which version of Hadoop can match Hbase-0.90.3"
"Stack <stack@duboce.net>","Mon, 4 Jun 2012 08:11:21 -0700","Re: ANN: The first hbase 0.92.2 release candidate is available for download"
"Nick Dimiduk <ndimiduk@gmail.com>","Mon, 4 Jun 2012 08:20:30 -0700","Re: REST Interface: Required ordering of JSON name/value pairs when performing Insert/Update"
"Andrew Purtell <andrew.purtell@gmail.com>","Mon, 4 Jun 2012 17:28:08 +0200","Re: REST Interface: Required ordering of JSON name/value pairs when performing Insert/Update"
"Linqing Wang <wlqpku@gmail.com>","Mon, 4 Jun 2012 23:40:33 +0800","Re: Which version of Hadoop can match Hbase-0.90.3"
"Gary Helmling <ghelmling@gmail.com>","Mon, 4 Jun 2012 09:57:01 -0700","Re: Welcome our newest committer, Jimmy Xiang"
"Stack <stack@duboce.net>","Mon, 4 Jun 2012 09:59:42 -0700","I set trunk config up on jenkins back to building site and running assembly of package"
"Jesse Yates <jesse.k.yates@gmail.com>","Mon, 4 Jun 2012 10:01:16 -0700","Re: I set trunk config up on jenkins back to building site and running assembly of package"
"Apache Jenkins Server <jenkins@builds.apache.org>","Mon, 4 Jun 2012 17:09:49 +0000 (UTC)","Build failed in Jenkins: HBase-TRUNK #2984"
"Apache Jenkins Server <jenkins@builds.apache.org>","Mon, 4 Jun 2012 18:46:36 +0000 (UTC)","Build failed in Jenkins: HBase-0.92 #444"
"Apache Jenkins Server <jenkins@builds.apache.org>","Mon, 4 Jun 2012 18:48:09 +0000 (UTC)","Build failed in Jenkins: HBase-TRUNK #2985"
"Apache Jenkins Server <jenkins@builds.apache.org>","Mon, 4 Jun 2012 19:17:27 +0000 (UTC)","Build failed in Jenkins: HBase-0.94 #245"
"Doug Meil <doug.meil@explorysmedical.com>","Mon, 4 Jun 2012 19:22:12 +0000","Re: how do we start contributing to the project"
"Apache Jenkins Server <jenkins@builds.apache.org>","Mon, 4 Jun 2012 20:06:00 +0000 (UTC)","Build failed in Jenkins: HBase-0.92-security #110"
"Apache Jenkins Server <jenkins@builds.apache.org>","Mon, 4 Jun 2012 20:06:12 +0000 (UTC)","Build failed in Jenkins: HBase-TRUNK #2986"
"Apache Jenkins Server <jenkins@builds.apache.org>","Mon, 4 Jun 2012 21:09:35 +0000 (UTC)","Build failed in Jenkins: HBase-0.94 #246"
"Apache Jenkins Server <jenkins@builds.apache.org>","Mon, 4 Jun 2012 21:34:48 +0000 (UTC)","Jenkins build is back to normal : HBase-0.92 #445"
"Apache Jenkins Server <jenkins@builds.apache.org>","Mon, 4 Jun 2012 23:44:14 +0000 (UTC)","Build failed in Jenkins: HBase-0.92 #446"
"Apache Jenkins Server <jenkins@builds.apache.org>","Tue, 5 Jun 2012 00:07:39 +0000 (UTC)","Build failed in Jenkins: HBase-TRUNK-on-Hadoop-2.0.0 #40"
"Jonathan Hsieh <jon@cloudera.com>","Mon, 4 Jun 2012 17:14:03 -0700","Re: CopyTable blog post draft."
"Apache Jenkins Server <jenkins@builds.apache.org>","Tue, 5 Jun 2012 01:00:09 +0000 (UTC)","Jenkins build is back to normal : HBase-0.94-security #34"
"Apache Jenkins Server <jenkins@builds.apache.org>","Tue, 5 Jun 2012 01:07:39 +0000 (UTC)","Build failed in Jenkins: HBase-TRUNK #2987"
"Apache Jenkins Server <jenkins@builds.apache.org>","Tue, 5 Jun 2012 01:48:48 +0000 (UTC)","Build failed in Jenkins: HBase-0.92-security #111"
"Apache Jenkins Server <jenkins@builds.apache.org>","Tue, 5 Jun 2012 03:23:57 +0000 (UTC)","Build failed in Jenkins: HBase-0.92 #447"
"Anoop Sam John <anoopsj@huawei.com>","Tue, 05 Jun 2012 04:36:44 +0000","Regarding order of filters in FilterList"
"Apache Jenkins Server <jenkins@builds.apache.org>","Tue, 5 Jun 2012 05:17:20 +0000 (UTC)","Build failed in Jenkins: HBase-0.94 #247"
"Apache Jenkins Server <jenkins@builds.apache.org>","Tue, 5 Jun 2012 05:41:31 +0000 (UTC)","Jenkins build is back to normal : HBase-TRUNK #2988"
"Apache Jenkins Server <jenkins@builds.apache.org>","Tue, 5 Jun 2012 05:58:34 +0000 (UTC)","Build failed in Jenkins: HBase-0.92 #448"
"Apache Jenkins Server <jenkins@builds.apache.org>","Tue, 5 Jun 2012 06:11:52 +0000 (UTC)","Build failed in Jenkins: HBase-0.92-security #112"
"NNever <nneverwei@gmail.com>","Tue, 5 Jun 2012 14:43:39 +0800","Re: Regarding order of filters in FilterList"
"Apache Jenkins Server <jenkins@builds.apache.org>","Tue, 5 Jun 2012 11:50:45 +0000 (UTC)","Build failed in Jenkins: HBase-TRUNK-on-Hadoop-2.0.0 #41"
"Apache Jenkins Server <jenkins@builds.apache.org>","Tue, 5 Jun 2012 17:06:05 +0000 (UTC)","Build failed in Jenkins: HBase-TRUNK #2989"
"Apache Jenkins Server <jenkins@builds.apache.org>","Tue, 5 Jun 2012 17:08:27 +0000 (UTC)","Build failed in Jenkins: HBase-0.92 #449"
"Apache Jenkins Server <jenkins@builds.apache.org>","Tue, 5 Jun 2012 17:32:18 +0000 (UTC)","Build failed in Jenkins: HBase-0.92-security #113"
"Apache Jenkins Server <jenkins@builds.apache.org>","Tue, 5 Jun 2012 17:56:43 +0000 (UTC)","Build failed in Jenkins: HBase-0.94 #248"
"Apache Jenkins Server <jenkins@builds.apache.org>","Tue, 5 Jun 2012 18:13:24 +0000 (UTC)","Build failed in Jenkins: HBase-TRUNK #2990"
"Vladimir Rodionov <vrodionov@carrieriq.com>","Tue, 5 Jun 2012 11:19:45 -0700","Some suggestions for future features"
"Stack <stack@duboce.net>","Tue, 5 Jun 2012 11:43:47 -0700","Re: Some suggestions for future features"
"Vladimir Rodionov <vrodionov@carrieriq.com>","Tue, 5 Jun 2012 11:44:38 -0700","RE: Some suggestions for future features"
"Vladimir Rodionov <vrodionov@carrieriq.com>","Tue, 5 Jun 2012 12:00:34 -0700","RE: Some suggestions for future features"
"Anoop Sam John <anoopsj@huawei.com>","Tue, 05 Jun 2012 19:15:04 +0000","RE: Some suggestions for future features"
"Ian Varley <ivarley@salesforce.com>","Tue, 5 Jun 2012 12:34:15 -0700","Re: Some suggestions for future features"
"Apache Jenkins Server <jenkins@builds.apache.org>","Tue, 5 Jun 2012 19:36:01 +0000 (UTC)","Build failed in Jenkins: HBase-0.94 #249"
"Dave Wang <dsw@cloudera.com>","Tue, 5 Jun 2012 12:57:11 -0700","RC test matrix checklist"
"Apache Jenkins Server <jenkins@builds.apache.org>","Tue, 5 Jun 2012 20:28:04 +0000 (UTC)","Build failed in Jenkins: HBase-0.92 #450"
"Vladimir Rodionov <vrodionov@carrieriq.com>","Tue, 5 Jun 2012 13:32:16 -0700","RE: Some suggestions for future features"
"Apache Jenkins Server <jenkins@builds.apache.org>","Tue, 5 Jun 2012 23:08:07 +0000 (UTC)","Jenkins build is back to normal : HBase-TRUNK #2991"
"Apache Jenkins Server <jenkins@builds.apache.org>","Tue, 5 Jun 2012 23:16:53 +0000 (UTC)","Build failed in Jenkins: HBase-TRUNK #2992"
"Apache Jenkins Server <jenkins@builds.apache.org>","Tue, 5 Jun 2012 23:18:03 +0000 (UTC)","Build failed in Jenkins: HBase-TRUNK-on-Hadoop-2.0.0 #42"
"Apache Jenkins Server <jenkins@builds.apache.org>","Wed, 6 Jun 2012 01:18:30 +0000 (UTC)","Build failed in Jenkins: HBase-TRUNK #2993"
"=?UTF-8?Q?Enis_S=C3=B6ztutar?= <enis@hortonworks.com>","Tue, 5 Jun 2012 18:30:04 -0700","mvn install"
"Atif Khan <atif_ijaz_khan@hotmail.com>","Tue, 5 Jun 2012 20:29:24 -0700 (PDT)","Shared HDFS for HBase and MapReduce"
"Anoop Sam John <anoopsj@huawei.com>","Wed, 06 Jun 2012 03:42:11 +0000","RE: Some suggestions for future features"
"Stack <stack@duboce.net>","Tue, 5 Jun 2012 21:07:25 -0700","Re: Shared HDFS for HBase and MapReduce"
"Vladimir Rodionov <vrodionov@carrieriq.com>","Tue, 5 Jun 2012 21:23:11 -0700","RE: Shared HDFS for HBase and MapReduce"
"Stack <stack@duboce.net>","Tue, 5 Jun 2012 21:35:07 -0700","Re: Shared HDFS for HBase and MapReduce"
"Apache Jenkins Server <jenkins@builds.apache.org>","Wed, 6 Jun 2012 07:06:04 +0000 (UTC)","Build failed in Jenkins: HBase-TRUNK #2994"
"Mathias Herberts <mathias.herberts@gmail.com>","Wed, 6 Jun 2012 09:19:02 +0200","RE: Shared HDFS for HBase and MapReduce"
"Andrew Purtell <apurtell@apache.org>","Wed, 6 Jun 2012 09:53:44 +0200","Re: Some suggestions for future features"
"Andrew Purtell <apurtell@apache.org>","Wed, 6 Jun 2012 09:59:48 +0200","Re: Some suggestions for future features"
"Anoop Sam John <anoopsj@huawei.com>","Wed, 06 Jun 2012 08:08:57 +0000","RE: Some suggestions for future features"
"Andrew Purtell <apurtell@apache.org>","Wed, 6 Jun 2012 10:42:40 +0200","Re: Some suggestions for future features"
"lars hofhansl <lhofhansl@yahoo.com>","Wed, 6 Jun 2012 02:11:16 -0700 (PDT)","Re: Some suggestions for future features"
"Anoop Sam John <anoopsj@huawei.com>","Wed, 06 Jun 2012 10:02:22 +0000","RE: Some suggestions for future features"
"Apache Jenkins Server <jenkins@builds.apache.org>","Wed, 6 Jun 2012 11:16:04 +0000 (UTC)","Build failed in Jenkins: HBase-TRUNK-on-Hadoop-2.0.0 #43"
"Apache Jenkins Server <jenkins@builds.apache.org>","Wed, 6 Jun 2012 14:01:01 +0000 (UTC)","Jenkins build is back to normal : HBase-TRUNK #2995"
"Apache Jenkins Server <jenkins@builds.apache.org>","Wed, 6 Jun 2012 15:57:44 +0000 (UTC)","Build failed in Jenkins: HBase-TRUNK-on-Hadoop-2.0.0 #44"
"Jesse Yates <jesse.k.yates@gmail.com>","Wed, 6 Jun 2012 09:53:24 -0700","Re: mvn install"
"Stack <stack@duboce.net>","Wed, 6 Jun 2012 10:01:46 -0700","Re: Build failed in Jenkins: HBase-TRUNK-on-Hadoop-2.0.0 #44"
"Jimmy Xiang <jxiang@cloudera.com>","Wed, 6 Jun 2012 10:15:45 -0700","Re: Build failed in Jenkins: HBase-TRUNK-on-Hadoop-2.0.0 #44"
"Vladimir Rodionov <vrodionov@carrieriq.com>","Wed, 6 Jun 2012 10:49:24 -0700","RE: Shared HDFS for HBase and MapReduce"
"Stack <stack@duboce.net>","Wed, 6 Jun 2012 10:51:38 -0700","Re: Build failed in Jenkins: HBase-TRUNK-on-Hadoop-2.0.0 #44"
"Vladimir Rodionov <vrodionov@carrieriq.com>","Wed, 6 Jun 2012 10:59:53 -0700","RE: Some suggestions for future features"
"Apache Jenkins Server <jenkins@builds.apache.org>","Wed, 6 Jun 2012 18:12:27 +0000 (UTC)","Build failed in Jenkins: HBase-TRUNK-on-Hadoop-2.0.0 #45"
"Atif Khan <atif_ijaz_khan@hotmail.com>","Wed, 6 Jun 2012 11:15:41 -0700 (PDT)","Re: Shared HDFS for HBase and MapReduce"
"Stack <stack@duboce.net>","Wed, 6 Jun 2012 12:04:55 -0700","Re: Shared HDFS for HBase and MapReduce"
"Stack <stack@duboce.net>","Wed, 6 Jun 2012 12:09:30 -0700","Re: Build failed in Jenkins: HBase-TRUNK-on-Hadoop-2.0.0 #44"
"Atif Khan <atif_ijaz_khan@hotmail.com>","Wed, 6 Jun 2012 12:23:09 -0700 (PDT)","Re: Shared HDFS for HBase and MapReduce"
"Joey Echeverria <joey@cloudera.com>","Wed, 6 Jun 2012 15:50:02 -0400","Re: Shared HDFS for HBase and MapReduce"
"Amandeep Khurana <amansk@gmail.com>","Wed, 6 Jun 2012 12:54:18 -0700","Re: Shared HDFS for HBase and MapReduce"
"Atif Khan <atif_ijaz_khan@hotmail.com>","Wed, 6 Jun 2012 13:27:17 -0700 (PDT)","Re: Shared HDFS for HBase and MapReduce"
"Amandeep Khurana <amansk@gmail.com>","Wed, 6 Jun 2012 14:05:51 -0700","Re: Shared HDFS for HBase and MapReduce"
"Doug Meil <doug.meil@explorysmedical.com>","Wed, 6 Jun 2012 21:14:15 +0000","Re: Shared HDFS for HBase and MapReduce"
"Atif Khan <atif_ijaz_khan@hotmail.com>","Wed, 6 Jun 2012 14:23:10 -0700 (PDT)","Re: Shared HDFS for HBase and MapReduce"
"Apache Jenkins Server <jenkins@builds.apache.org>","Wed, 6 Jun 2012 23:47:16 +0000 (UTC)","Build failed in Jenkins: HBase-TRUNK-on-Hadoop-2.0.0 #46"
"Jimmy Xiang <jxiang@cloudera.com>","Wed, 6 Jun 2012 17:36:26 -0700","reviews is down for several days"
"Apache Jenkins Server <jenkins@builds.apache.org>","Thu, 7 Jun 2012 05:10:21 +0000 (UTC)","Build failed in Jenkins: HBase-TRUNK #2997"
"Stack <stack@duboce.net>","Wed, 6 Jun 2012 22:56:43 -0700","Re: reviews is down for several days"
"Apache Jenkins Server <jenkins@builds.apache.org>","Thu, 7 Jun 2012 06:15:08 +0000 (UTC)","Build failed in Jenkins: HBase-0.94 #250"
"Apache Jenkins Server <jenkins@builds.apache.org>","Thu, 7 Jun 2012 06:17:38 +0000 (UTC)","Build failed in Jenkins: HBase-TRUNK #2998"
"Andrew Purtell <apurtell@apache.org>","Thu, 7 Jun 2012 08:27:42 +0200","Re: reviews is down for several days"
"Stack <stack@duboce.net>","Wed, 6 Jun 2012 23:28:26 -0700","Re: reviews is down for several days"
"Jonathan Hsieh <jon@cloudera.com>","Wed, 6 Jun 2012 23:38:50 -0700","Re: reviews is down for several days"
"Apache Jenkins Server <jenkins@builds.apache.org>","Thu, 7 Jun 2012 07:11:45 +0000 (UTC)","Build failed in Jenkins: HBase-TRUNK #2999"
"Apache Jenkins Server <jenkins@builds.apache.org>","Thu, 7 Jun 2012 07:13:19 +0000 (UTC)","Build failed in Jenkins: HBase-0.92 #451"
"Apache Jenkins Server <jenkins@builds.apache.org>","Thu, 7 Jun 2012 11:46:13 +0000 (UTC)","Build failed in Jenkins: HBase-TRUNK-on-Hadoop-2.0.0 #47"
"Jonathan Hsieh <jon@cloudera.com>","Thu, 7 Jun 2012 11:11:39 -0700","Re: reviews is down for several days"
"Elliott Clark <eclark@stumbleupon.com>","Thu, 7 Jun 2012 11:20:50 -0700","Re: reviews is down for several days"
"Jimmy Xiang <jxiang@cloudera.com>","Thu, 7 Jun 2012 11:41:22 -0700","HBCK code reviews posted on cloudera.org"
"Apache Jenkins Server <jenkins@builds.apache.org>","Thu, 7 Jun 2012 18:52:29 +0000 (UTC)","Build failed in Jenkins: HBase-TRUNK #3000"
"Apache Jenkins Server <jenkins@builds.apache.org>","Thu, 7 Jun 2012 19:29:11 +0000 (UTC)","Build failed in Jenkins: HBase-0.94 #251"
"Apache Jenkins Server <jenkins@builds.apache.org>","Thu, 7 Jun 2012 23:43:03 +0000 (UTC)","Build failed in Jenkins: HBase-TRUNK-on-Hadoop-2.0.0 #48"
"Apache Jenkins Server <jenkins@builds.apache.org>","Fri, 8 Jun 2012 02:41:56 +0000 (UTC)","Build failed in Jenkins: HBase-TRUNK #3001"
"Andrew Purtell <andrew.purtell@gmail.com>","Thu, 7 Jun 2012 19:48:09 -0700","Re: reviews is down for several days"
"Apache Jenkins Server <jenkins@builds.apache.org>","Fri, 8 Jun 2012 02:51:24 +0000 (UTC)","Build failed in Jenkins: HBase-TRUNK #3002"
"Apache Jenkins Server <jenkins@builds.apache.org>","Fri, 8 Jun 2012 02:53:36 +0000 (UTC)","Build failed in Jenkins: HBase-TRUNK #3003"
"Apache Jenkins Server <jenkins@builds.apache.org>","Fri, 8 Jun 2012 03:21:06 +0000 (UTC)","Build failed in Jenkins: HBase-TRUNK #3004"
"Apache Jenkins Server <jenkins@builds.apache.org>","Fri, 8 Jun 2012 05:24:28 +0000 (UTC)","Build failed in Jenkins: HBase-TRUNK #3005"
"Apache Jenkins Server <jenkins@builds.apache.org>","Fri, 8 Jun 2012 07:42:50 +0000 (UTC)","Build failed in Jenkins: HBase-TRUNK #3006"
"Apache Jenkins Server <jenkins@builds.apache.org>","Fri, 8 Jun 2012 09:50:09 +0000 (UTC)","Jenkins build is back to normal : HBase-TRUNK #3007"
"Daniel Iancu <daniel.iancu@1and1.ro>","Fri, 8 Jun 2012 19:47:27 +0300","Re: Some suggestions for future features"
"Apache Jenkins Server <jenkins@builds.apache.org>","Fri, 8 Jun 2012 22:06:04 +0000 (UTC)","Jenkins build is back to normal : hbase-0.90 #502"
"Apache Jenkins Server <jenkins@builds.apache.org>","Fri, 8 Jun 2012 23:57:43 +0000 (UTC)","Build failed in Jenkins: HBase-TRUNK-on-Hadoop-2.0.0 #49"
"Apache Jenkins Server <jenkins@builds.apache.org>","Sat, 9 Jun 2012 04:23:09 +0000 (UTC)","Build failed in Jenkins: hbase-0.90 #503"
"Apache Jenkins Server <jenkins@builds.apache.org>","Sat, 9 Jun 2012 04:59:47 +0000 (UTC)","Jenkins build is back to normal : HBase-0.94 #252"
"Apache Jenkins Server <jenkins@builds.apache.org>","Sat, 9 Jun 2012 06:19:24 +0000 (UTC)","Build failed in Jenkins: HBase-0.92 #452"
"Apache Jenkins Server <jenkins@builds.apache.org>","Sat, 9 Jun 2012 09:30:12 +0000 (UTC)","Build failed in Jenkins: HBase-TRUNK #3010"
"Apache Jenkins Server <jenkins@builds.apache.org>","Sat, 9 Jun 2012 10:18:33 +0000 (UTC)","Jenkins build is back to normal : HBase-TRUNK #3011"
"Andrew Purtell <apurtell@apache.org>","Sat, 9 Jun 2012 10:10:18 -0700","Re: Rethinking REST (Re: HBASE-4368 and friends)"
"Apache Jenkins Server <jenkins@builds.apache.org>","Sat, 9 Jun 2012 18:55:48 +0000 (UTC)","Build failed in Jenkins: HBase-0.94 #253"
"Apache Jenkins Server <jenkins@builds.apache.org>","Sat, 9 Jun 2012 19:48:42 +0000 (UTC)","Build failed in Jenkins: HBase-TRUNK #3013"
"Apache Jenkins Server <jenkins@builds.apache.org>","Sat, 9 Jun 2012 20:02:30 +0000 (UTC)","Build failed in Jenkins: HBase-0.94 #254"
"Apache Jenkins Server <jenkins@builds.apache.org>","Sat, 9 Jun 2012 23:47:12 +0000 (UTC)","Build failed in Jenkins: HBase-TRUNK-on-Hadoop-2.0.0 #50"
"Jonathan Hsieh <jon@cloudera.com>","Sat, 9 Jun 2012 19:27:03 -0700","Re: reviews is down for several days"
"""Ramkrishna.S.Vasudevan"" <ramkrishna.vasudevan@huawei.com>","Mon, 11 Jun 2012 09:32:37 +0530","HBASE-6164 and HBASE-5997 - up for review"
"Gourav Sengupta <gourav.hadoop@gmail.com>","Tue, 12 Jun 2012 16:42:26 +0100","Re: how do we start contributing to the project"
"Apache Jenkins Server <jenkins@builds.apache.org>","Tue, 12 Jun 2012 17:31:26 +0000 (UTC)","Build failed in Jenkins: HBase-TRUNK #3014"
"Apache Jenkins Server <jenkins@builds.apache.org>","Tue, 12 Jun 2012 18:22:31 +0000 (UTC)","Jenkins build is back to normal : HBase-TRUNK #3015"
"Apache Jenkins Server <jenkins@builds.apache.org>","Tue, 12 Jun 2012 19:57:01 +0000 (UTC)","Build failed in Jenkins: HBase-TRUNK #3016"
"Apache Jenkins Server <jenkins@builds.apache.org>","Tue, 12 Jun 2012 20:58:20 +0000 (UTC)","Build failed in Jenkins: HBase-TRUNK #3017"
"Apache Jenkins Server <jenkins@builds.apache.org>","Tue, 12 Jun 2012 21:43:27 +0000 (UTC)","Jenkins build is back to normal : HBase-TRUNK #3018"
"Apache Jenkins Server <jenkins@builds.apache.org>","Wed, 13 Jun 2012 00:07:16 +0000 (UTC)","Build failed in Jenkins: HBase-TRUNK-on-Hadoop-2.0.0 #51"
"Apache Jenkins Server <jenkins@builds.apache.org>","Wed, 13 Jun 2012 02:22:38 +0000 (UTC)","Jenkins build is back to normal : HBase-0.94 #255"
"Apache Jenkins Server <jenkins@builds.apache.org>","Wed, 13 Jun 2012 12:04:08 +0000 (UTC)","Build failed in Jenkins: HBase-TRUNK-on-Hadoop-2.0.0 #52"
"Apache Jenkins Server <jenkins@builds.apache.org>","Thu, 14 Jun 2012 09:41:21 +0000 (UTC)","Build failed in Jenkins: HBase-TRUNK #3023"
"Apache Jenkins Server <jenkins@builds.apache.org>","Thu, 14 Jun 2012 11:42:53 +0000 (UTC)","Jenkins build is back to normal : HBase-TRUNK #3024"
"Apache Jenkins Server <jenkins@builds.apache.org>","Thu, 14 Jun 2012 12:00:10 +0000 (UTC)","Build failed in Jenkins: HBase-TRUNK-on-Hadoop-2.0.0 #53"
"Apache Jenkins Server <jenkins@builds.apache.org>","Thu, 14 Jun 2012 22:39:25 +0000 (UTC)","Build failed in Jenkins: HBase-TRUNK #3027"
"Apache Jenkins Server <jenkins@builds.apache.org>","Thu, 14 Jun 2012 23:24:09 +0000 (UTC)","Build failed in Jenkins: HBase-TRUNK-on-Hadoop-2.0.0 #54"
"Apache Jenkins Server <jenkins@builds.apache.org>","Fri, 15 Jun 2012 01:26:35 +0000 (UTC)","Build failed in Jenkins: HBase-TRUNK #3028"
"Apache Jenkins Server <jenkins@builds.apache.org>","Fri, 15 Jun 2012 01:43:31 +0000 (UTC)","Build failed in Jenkins: HBase-TRUNK #3029"
"Laxman <lakshman.ch@huawei.com>","Fri, 15 Jun 2012 10:09:48 +0530","[HBase Security] Meta table operations should be authorized"
"Andrew Purtell <apurtell@apache.org>","Thu, 14 Jun 2012 21:51:17 -0700","Re: [HBase Security] Meta table operations should be authorized"
"""Ramkrishna.S.Vasudevan"" <ramkrishna.vasudevan@huawei.com>","Fri, 15 Jun 2012 10:43:13 +0530","RE: [HBase Security] Meta table operations should be authorized"
"Lars George <lars.george@gmail.com>","Fri, 15 Jun 2012 10:07:41 +0200","Metrics in 0.96"
"Stack <stack@duboce.net>","Fri, 15 Jun 2012 08:07:46 -0700","Re: Metrics in 0.96"
"Andrew Purtell <andrew.purtell@gmail.com>","Fri, 15 Jun 2012 08:41:44 -0700","Re: Metrics in 0.96"
"Lars George <lars.george@gmail.com>","Fri, 15 Jun 2012 17:54:01 +0200","Re: Metrics in 0.96"
"Elliott Clark <eclark@stumbleupon.com>","Fri, 15 Jun 2012 10:04:39 -0700","Re: Metrics in 0.96"
"Apache Jenkins Server <jenkins@builds.apache.org>","Fri, 15 Jun 2012 17:11:43 +0000 (UTC)","Build failed in Jenkins: HBase-TRUNK #3030"
"Dave Wang <dsw@cloudera.com>","Fri, 15 Jun 2012 12:07:47 -0700","Stream-of-consciousness notes from HBase BoF presentations"
"Apache Jenkins Server <jenkins@builds.apache.org>","Fri, 15 Jun 2012 19:25:48 +0000 (UTC)","Build failed in Jenkins: HBase-TRUNK #3031"
"Ryan Ausanka-Crues <ryan@palominolabs.com>","Fri, 15 Jun 2012 12:44:56 -0700","Performance testing group"
"Apache Jenkins Server <jenkins@builds.apache.org>","Fri, 15 Jun 2012 21:06:03 +0000 (UTC)","Jenkins build is back to normal : HBase-TRUNK #3032"
"Dave Revell <dave@urbanairship.com>","Fri, 15 Jun 2012 14:14:05 -0700","Re: 0.94.1 soon?"
"yuzhihong@gmail.com","Fri, 15 Jun 2012 11:17:38 -1000","Re: 0.94.1 soon?"
"Andrew Purtell <apurtell@apache.org>","Fri, 15 Jun 2012 14:41:44 -0700","Re: Performance testing group"
"Stack <stack@duboce.net>","Fri, 15 Jun 2012 14:55:22 -0700","Re: Performance testing group"
"Roman Shaposhnik <rvs@apache.org>","Fri, 15 Jun 2012 14:59:11 -0700","Re: Performance testing group"
"Stack <stack@duboce.net>","Fri, 15 Jun 2012 15:01:17 -0700","Re: Metrics in 0.96"
"Amandeep Khurana <amansk@gmail.com>","Fri, 15 Jun 2012 15:03:52 -0700","Re: Performance testing group"
"Andrew Purtell <apurtell@apache.org>","Fri, 15 Jun 2012 15:05:18 -0700","Re: Performance testing group"
"Elliott Clark <eclark@stumbleupon.com>","Fri, 15 Jun 2012 15:33:47 -0700","Re: 0.94.1 soon?"
"=?UTF-8?Q?Enis_S=C3=B6ztutar?= <enis@hortonworks.com>","Fri, 15 Jun 2012 16:47:03 -0700","Re: Metrics in 0.96"
"Dave Wang <dsw@cloudera.com>","Fri, 15 Jun 2012 17:00:52 -0700","Re: Metrics in 0.96"
"yuzhihong@gmail.com","Fri, 15 Jun 2012 14:40:28 -1000","Re: Stream-of-consciousness notes from HBase BoF presentations"
"Apache Jenkins Server <jenkins@builds.apache.org>","Sat, 16 Jun 2012 00:48:59 +0000 (UTC)","Build failed in Jenkins: HBase-TRUNK-on-Hadoop-2.0.0 #55"
"Otis Gospodnetic <otis_gospodnetic@yahoo.com>","Fri, 15 Jun 2012 20:25:32 -0700 (PDT)","Re: Performance testing group"
"Apache Jenkins Server <jenkins@builds.apache.org>","Sat, 16 Jun 2012 03:59:32 +0000 (UTC)","Build failed in Jenkins: HBase-0.94 #258"
"Stack <stack@duboce.net>","Fri, 15 Jun 2012 22:10:00 -0700","Re: Stream-of-consciousness notes from HBase BoF presentations"
"Lars George <lars.george@gmail.com>","Sat, 16 Jun 2012 10:27:54 +0200","Re: Metrics in 0.96"
"Apache Jenkins Server <jenkins@builds.apache.org>","Sat, 16 Jun 2012 11:47:37 +0000 (UTC)","Build failed in Jenkins: HBase-TRUNK-on-Hadoop-2.0.0 #56"
"Lars George <lars.george@gmail.com>","Sat, 16 Jun 2012 18:19:33 +0200","Re: Performance testing group"
"Marshall Pierce <marshall@palominolabs.com>","Sat, 16 Jun 2012 09:27:20 -0700","Re: Performance testing group"
"Arun C Murthy <acm@hortonworks.com>","Sat, 16 Jun 2012 18:51:25 -0700","Re: Performance testing group"
"Andrew Purtell <andrew.purtell@gmail.com>","Sat, 16 Jun 2012 19:12:06 -0700","Re: Performance testing group"
"Apache Jenkins Server  <jenkins@builds.apache.org>","Sun, 17 Jun 2012 06:57:34 +0000 (UTC)","Build failed in Jenkins: HBase-0.94 #259"
"Jonathan Hsieh <jon@cloudera.com>","Sat, 16 Jun 2012 23:58:36 -0700","Re: reviews is down for several days"
"erwin x <erwinxdev2@gmail.com>","Sun, 17 Jun 2012 14:29:16 +0200","HBase security research"
"Joey Echeverria <joey@cloudera.com>","Sun, 17 Jun 2012 09:26:02 -0400","Re: HBase security research"
"Jonathan Hsieh <jon@cloudera.com>","Sun, 17 Jun 2012 08:40:28 -0700","Re: HBase security research"
"Andrew Purtell <andrew.purtell@gmail.com>","Sun, 17 Jun 2012 10:28:49 -0700","Re: HBase security research"
"Andrew Purtell <andrew.purtell@gmail.com>","Sun, 17 Jun 2012 10:30:43 -0700","Re: HBase security research"
"Andrew Purtell <andrew.purtell@gmail.com>","Sun, 17 Jun 2012 11:23:36 -0700","Re: reviews is down for several days"
"Apache Jenkins Server  <jenkins@builds.apache.org>","Sun, 17 Jun 2012 22:09:30 +0000 (UTC)","Build failed in Jenkins: HBase-TRUNK #3034"
"Apache Jenkins Server  <jenkins@builds.apache.org>","Sun, 17 Jun 2012 23:19:39 +0000 (UTC)","Build failed in Jenkins: HBase-TRUNK-on-Hadoop-2.0.0 #57"
"Apache Jenkins Server  <jenkins@builds.apache.org>","Sun, 17 Jun 2012 23:30:25 +0000 (UTC)","Build failed in Jenkins: HBase-TRUNK #3035"
"Apache Jenkins Server  <jenkins@builds.apache.org>","Mon, 18 Jun 2012 00:07:28 +0000 (UTC)","Build failed in Jenkins: HBase-TRUNK #3036"
"Apache Jenkins Server  <jenkins@builds.apache.org>","Mon, 18 Jun 2012 00:16:46 +0000 (UTC)","Build failed in Jenkins: hbase-0.90 #504"
"Apache Jenkins Server  <jenkins@builds.apache.org>","Mon, 18 Jun 2012 01:17:27 +0000 (UTC)","Build failed in Jenkins: HBase-0.94 #260"
"Apache Jenkins Server  <jenkins@builds.apache.org>","Mon, 18 Jun 2012 01:17:48 +0000 (UTC)","Build failed in Jenkins: HBase-0.92 #453"
"Apache Jenkins Server  <jenkins@builds.apache.org>","Mon, 18 Jun 2012 07:57:38 +0000 (UTC)","Jenkins build is back to normal : HBase-0.94 #261"
"erwin x <erwinxdev2@gmail.com>","Mon, 18 Jun 2012 10:25:14 +0200","Re: HBase security research"
"Apache Jenkins Server  <jenkins@builds.apache.org>","Mon, 18 Jun 2012 08:32:14 +0000 (UTC)","Jenkins build is back to normal : hbase-0.90 #505"
"Apache Jenkins Server  <jenkins@builds.apache.org>","Mon, 18 Jun 2012 09:16:11 +0000 (UTC)","Jenkins build is back to normal : HBase-0.92 #454"
"Apache Jenkins Server  <jenkins@builds.apache.org>","Mon, 18 Jun 2012 10:14:16 +0000 (UTC)","Build failed in Jenkins: HBase-TRUNK #3038"
"""Ramkrishna.S.Vasudevan"" <ramkrishna.vasudevan@huawei.com>","Mon, 18 Jun 2012 21:23:41 +0530","HBASE-5997 and HBASE-6164 - Available for review"
"Apache Jenkins Server  <jenkins@builds.apache.org>","Mon, 18 Jun 2012 15:56:43 +0000 (UTC)","Jenkins build is back to normal : HBase-TRUNK #3039"
"=?UTF-8?Q?Enis_S=C3=B6ztutar?= <enis@hortonworks.com>","Mon, 18 Jun 2012 11:04:08 -0700","Re: HBase security research"
"=?UTF-8?Q?Enis_S=C3=B6ztutar?= <enis@hortonworks.com>","Mon, 18 Jun 2012 11:11:15 -0700","Re: Performance testing group"
"Andrew Purtell <apurtell@apache.org>","Mon, 18 Jun 2012 11:37:21 -0700","Re: Performance testing group"
"Apache Jenkins Server  <jenkins@builds.apache.org>","Mon, 18 Jun 2012 19:04:25 +0000 (UTC)","Build failed in Jenkins: HBase-TRUNK #3040"
"Apache Jenkins Server  <jenkins@builds.apache.org>","Mon, 18 Jun 2012 21:07:13 +0000 (UTC)","Build failed in Jenkins: HBase-TRUNK #3041"
"Otis Gospodnetic <otis_gospodnetic@yahoo.com>","Mon, 18 Jun 2012 15:45:09 -0700 (PDT)","Re: Metrics in 0.96"
"Apache Jenkins Server  <jenkins@builds.apache.org>","Mon, 18 Jun 2012 23:56:39 +0000 (UTC)","Build failed in Jenkins: HBase-TRUNK-on-Hadoop-2.0.0 #58"
"Apache Jenkins Server  <jenkins@builds.apache.org>","Tue, 19 Jun 2012 03:43:37 +0000 (UTC)","Jenkins build is back to normal : HBase-TRUNK #3042"
"Apache Jenkins Server  <jenkins@builds.apache.org>","Tue, 19 Jun 2012 11:47:02 +0000 (UTC)","Build failed in Jenkins: HBase-TRUNK-on-Hadoop-2.0.0 #59"
"Elliott Clark <eclark@stumbleupon.com>","Tue, 19 Jun 2012 09:03:22 -0700","Re: Metrics in 0.96"
"tongping liu <tonyliu@cs.umass.edu>","Tue, 19 Jun 2012 15:04:31 -0400","Is the code LruHashMap (HBASE) still used?"
"Apache Jenkins Server  <jenkins@builds.apache.org>","Tue, 19 Jun 2012 19:21:19 +0000 (UTC)","Build failed in Jenkins: HBase-TRUNK #3043"
"Apache Jenkins Server  <jenkins@builds.apache.org>","Tue, 19 Jun 2012 19:27:44 +0000 (UTC)","Build failed in Jenkins: HBase-TRUNK #3044"
"Apache Jenkins Server  <jenkins@builds.apache.org>","Tue, 19 Jun 2012 19:35:33 +0000 (UTC)","Build failed in Jenkins: HBase-TRUNK #3045"
"Jean-Daniel Cryans <jdcryans@apache.org>","Tue, 19 Jun 2012 13:42:29 -0700","Re: Is the code LruHashMap (HBASE) still used?"
"Apache Jenkins Server  <jenkins@builds.apache.org>","Tue, 19 Jun 2012 22:27:44 +0000 (UTC)","Build failed in Jenkins: HBase-TRUNK #3046"
"Apache Jenkins Server  <jenkins@builds.apache.org>","Tue, 19 Jun 2012 23:48:08 +0000 (UTC)","Build failed in Jenkins: HBase-TRUNK-on-Hadoop-2.0.0 #60"
"Ted Yu <yuzhihong@gmail.com>","Tue, 19 Jun 2012 18:18:23 -0700","Re: HBASE-5997 and HBASE-6164 - Available for review"
"Apache Jenkins Server  <jenkins@builds.apache.org>","Wed, 20 Jun 2012 01:32:39 +0000 (UTC)","Build failed in Jenkins: HBase-TRUNK #3047"
"Anoop Sam John <anoopsj@huawei.com>","Wed, 20 Jun 2012 09:49:34 +0000","Can there be a doMiniBatchDelete in HRegion?"
"yuzhihong@gmail.com","Wed, 20 Jun 2012 06:01:09 -0700","Re: Can there be a doMiniBatchDelete in HRegion?"
"Stack <stack@duboce.net>","Wed, 20 Jun 2012 08:41:37 -0800","New committer! Nicolas Liochon (N or nkeywal)"
"Mathias Herberts <mathias.herberts@gmail.com>","Wed, 20 Jun 2012 18:48:35 +0200","Re: New committer! Nicolas Liochon (N or nkeywal)"
"Dave Wang <dsw@cloudera.com>","Wed, 20 Jun 2012 09:51:30 -0700","Re: New committer! Nicolas Liochon (N or nkeywal)"
"Ted Yu <yuzhihong@gmail.com>","Wed, 20 Jun 2012 09:56:28 -0700","Re: New committer! Nicolas Liochon (N or nkeywal)"
"Jean-Daniel Cryans <jdcryans@apache.org>","Wed, 20 Jun 2012 10:06:10 -0700","Re: New committer! Nicolas Liochon (N or nkeywal)"
"Apache Jenkins Server  <jenkins@builds.apache.org>","Wed, 20 Jun 2012 17:10:16 +0000 (UTC)","Jenkins build is back to normal : HBase-TRUNK #3048"
"Andrew Purtell <apurtell@apache.org>","Wed, 20 Jun 2012 10:17:56 -0700","Re: New committer! Nicolas Liochon (N or nkeywal)"
"Elliott Clark <eclark@stumbleupon.com>","Wed, 20 Jun 2012 10:47:21 -0700","Re: New committer! Nicolas Liochon (N or nkeywal)"
"Jonathan Hsieh <jon@cloudera.com>","Wed, 20 Jun 2012 11:52:23 -0600","Re: New committer! Nicolas Liochon (N or nkeywal)"
"Jesse Yates <jesse.k.yates@gmail.com>","Wed, 20 Jun 2012 10:53:14 -0700","Re: New committer! Nicolas Liochon (N or nkeywal)"
"Apache Jenkins Server  <jenkins@builds.apache.org>","Wed, 20 Jun 2012 18:10:45 +0000 (UTC)","Build failed in Jenkins: HBase-TRUNK #3049"
"Lars George <lars.george@gmail.com>","Wed, 20 Jun 2012 21:22:29 +0200","Re: New committer! Nicolas Liochon (N or nkeywal)"
"Apache Jenkins Server  <jenkins@builds.apache.org>","Wed, 20 Jun 2012 21:10:57 +0000 (UTC)","Build failed in Jenkins: HBase-TRUNK #3050"
"lars hofhansl <lhofhansl@yahoo.com>","Wed, 20 Jun 2012 14:48:25 -0700 (PDT)","Re: New committer! Nicolas Liochon (N or nkeywal)"
"Ted Yu <yuzhihong@gmail.com>","Wed, 20 Jun 2012 14:53:28 -0700","Hadoop QA not functioning due to old svn client version"
"Apache Jenkins Server  <jenkins@builds.apache.org>","Wed, 20 Jun 2012 22:23:59 +0000 (UTC)","Build failed in Jenkins: HBase-0.94 #265"
"Apache Jenkins Server  <jenkins@builds.apache.org>","Wed, 20 Jun 2012 22:48:02 +0000 (UTC)","Build failed in Jenkins: HBase-TRUNK #3051"
"Apache Jenkins Server  <jenkins@builds.apache.org>","Wed, 20 Jun 2012 23:16:27 +0000 (UTC)","Build failed in Jenkins: HBase-TRUNK #3052"
"Apache Jenkins Server  <jenkins@builds.apache.org>","Wed, 20 Jun 2012 23:24:12 +0000 (UTC)","Build failed in Jenkins: HBase-0.94 #266"
"Apache Jenkins Server  <jenkins@builds.apache.org>","Wed, 20 Jun 2012 23:55:32 +0000 (UTC)","Build failed in Jenkins: HBase-TRUNK-on-Hadoop-2.0.0 #61"
"Gary Helmling <ghelmling@gmail.com>","Wed, 20 Jun 2012 17:15:49 -0700","Re: New committer! Nicolas Liochon (N or nkeywal)"
"Apache Jenkins Server  <jenkins@builds.apache.org>","Thu, 21 Jun 2012 00:16:56 +0000 (UTC)","Build failed in Jenkins: HBase-0.94 #267"
"Mikhail Bautin <bautin.mailing.lists@gmail.com>","Wed, 20 Jun 2012 19:16:26 -0700","FindBugs-related build error"
"Ted Yu <yuzhihong@gmail.com>","Wed, 20 Jun 2012 19:32:59 -0700","Re: FindBugs-related build error"
"Ted Yu <yuzhihong@gmail.com>","Wed, 20 Jun 2012 19:47:03 -0700","Re: FindBugs-related build error"
"Apache Jenkins Server  <jenkins@builds.apache.org>","Thu, 21 Jun 2012 03:18:28 +0000 (UTC)","Jenkins build is back to normal : HBase-TRUNK #3053"
"Anoop Sam John <anoopsj@huawei.com>","Thu, 21 Jun 2012 03:30:29 +0000","RE: Can there be a doMiniBatchDelete in HRegion?"
"Apache Jenkins Server  <jenkins@builds.apache.org>","Thu, 21 Jun 2012 03:50:03 +0000 (UTC)","Build failed in Jenkins: HBase-0.94 #268"
"""Ramkrishna.S.Vasudevan"" <ramkrishna.vasudevan@huawei.com>","Thu, 21 Jun 2012 09:26:51 +0530","RE: New committer! Nicolas Liochon (N or nkeywal)"
"Matt Corgan <mcorgan@hotpads.com>","Wed, 20 Jun 2012 22:28:45 -0700","Re: FindBugs-related build error"
"Ryan Ausanka-Crues <ryan@palominolabs.com>","Wed, 20 Jun 2012 22:37:26 -0700","Performance Testing"
"N Keywal <nkeywal@gmail.com>","Thu, 21 Jun 2012 09:33:50 +0200","Re: New committer! Nicolas Liochon (N or nkeywal)"
"Apache Jenkins Server  <jenkins@builds.apache.org>","Thu, 21 Jun 2012 11:55:40 +0000 (UTC)","Build failed in Jenkins: HBase-TRUNK-on-Hadoop-2.0.0 #62"
"Andrew Purtell <apurtell@apache.org>","Thu, 21 Jun 2012 11:38:00 -0700","Re: Performance Testing"
"Elliott Clark <eclark@stumbleupon.com>","Thu, 21 Jun 2012 12:13:36 -0700","Re: Performance Testing"
"Apache Jenkins Server  <jenkins@builds.apache.org>","Thu, 21 Jun 2012 19:26:05 +0000 (UTC)","Build failed in Jenkins: HBase-TRUNK #3054"
"Matt Corgan <mcorgan@hotpads.com>","Thu, 21 Jun 2012 12:36:13 -0700","Re: Performance Testing"
"Apache Jenkins Server  <jenkins@builds.apache.org>","Thu, 21 Jun 2012 20:05:25 +0000 (UTC)","Jenkins build is back to normal : HBase-0.94 #269"
"Ryan Ausanka-Crues <ryan@palominolabs.com>","Thu, 21 Jun 2012 13:57:28 -0700","Re: Performance Testing"
"Andrew Purtell <apurtell@apache.org>","Thu, 21 Jun 2012 14:47:16 -0700","Re: Performance Testing"
"Matt Corgan <mcorgan@hotpads.com>","Thu, 21 Jun 2012 15:05:24 -0700","Re: Performance Testing"
"Apache Jenkins Server  <jenkins@builds.apache.org>","Thu, 21 Jun 2012 22:48:53 +0000 (UTC)","Build failed in Jenkins: HBase-TRUNK #3055"
"Ryan Ausanka-Crues <ryan@palominolabs.com>","Thu, 21 Jun 2012 16:29:31 -0700","Re: Performance Testing"
"Apache Jenkins Server  <jenkins@builds.apache.org>","Fri, 22 Jun 2012 14:04:27 +0000 (UTC)","Build failed in Jenkins: HBase-TRUNK-on-Hadoop-2.0.0 #64"
"Apache Jenkins Server  <jenkins@builds.apache.org>","Fri, 22 Jun 2012 15:03:06 +0000 (UTC)","Jenkins build is back to normal : HBase-TRUNK #3057"
"Apache Jenkins Server  <jenkins@builds.apache.org>","Fri, 22 Jun 2012 17:58:09 +0000 (UTC)","Build failed in Jenkins: HBase-TRUNK #3058"
"Apache Jenkins Server  <jenkins@builds.apache.org>","Fri, 22 Jun 2012 19:32:02 +0000 (UTC)","Build failed in Jenkins: HBase-0.94 #271"
"Apache Jenkins Server  <jenkins@builds.apache.org>","Fri, 22 Jun 2012 20:23:53 +0000 (UTC)","Build failed in Jenkins: HBase-TRUNK #3059"
"Apache Jenkins Server  <jenkins@builds.apache.org>","Fri, 22 Jun 2012 21:10:36 +0000 (UTC)","Build failed in Jenkins: HBase-0.94 #272"
"Apache Jenkins Server  <jenkins@builds.apache.org>","Fri, 22 Jun 2012 21:33:15 +0000 (UTC)","Build failed in Jenkins: HBase-TRUNK #3060"
"Apache Jenkins Server  <jenkins@builds.apache.org>","Fri, 22 Jun 2012 23:53:04 +0000 (UTC)","Build failed in Jenkins: HBase-TRUNK-on-Hadoop-2.0.0 #65"
"Gregory Chanan <gchanan@cloudera.com>","Fri, 22 Jun 2012 17:23:44 -0700","Re: Metrics in 0.96"
"Apache Jenkins Server  <jenkins@builds.apache.org>","Sat, 23 Jun 2012 01:07:37 +0000 (UTC)","Build failed in Jenkins: HBase-TRUNK #3061"
"Apache Jenkins Server  <jenkins@builds.apache.org>","Sat, 23 Jun 2012 01:56:43 +0000 (UTC)","Build failed in Jenkins: HBase-TRUNK #3062"
"Apache Jenkins Server  <jenkins@builds.apache.org>","Sat, 23 Jun 2012 02:10:30 +0000 (UTC)","Build failed in Jenkins: HBase-0.94 #273"
"Apache Jenkins Server  <jenkins@builds.apache.org>","Sat, 23 Jun 2012 03:12:30 +0000 (UTC)","Build failed in Jenkins: HBase-0.94 #274"
"Apache Jenkins Server  <jenkins@builds.apache.org>","Sat, 23 Jun 2012 04:09:43 +0000 (UTC)","Build failed in Jenkins: HBase-0.94 #275"
"Apache Jenkins Server  <jenkins@builds.apache.org>","Sat, 23 Jun 2012 04:56:19 +0000 (UTC)","Build failed in Jenkins: HBase-0.94 #276"
"Apache Jenkins Server  <jenkins@builds.apache.org>","Sat, 23 Jun 2012 05:47:36 +0000 (UTC)","Build failed in Jenkins: HBase-0.94 #277"
"Apache Jenkins Server  <jenkins@builds.apache.org>","Sat, 23 Jun 2012 05:48:37 +0000 (UTC)","Jenkins build is back to normal : HBase-TRUNK #3063"
"Apache Jenkins Server  <jenkins@builds.apache.org>","Sat, 23 Jun 2012 06:46:40 +0000 (UTC)","Build failed in Jenkins: HBase-0.94 #278"
"Lars George <lars.george@gmail.com>","Sat, 23 Jun 2012 09:10:00 +0200","Re: Metrics in 0.96"
"rama krishna <ram_krish_86@hotmail.com>","Sat, 23 Jun 2012 14:49:50 +0530","HBASE-5875 - Available for review."
"Apache Jenkins Server  <jenkins@builds.apache.org>","Sat, 23 Jun 2012 11:46:32 +0000 (UTC)","Build failed in Jenkins: HBase-TRUNK-on-Hadoop-2.0.0 #66"
"Ted Yu <yuzhihong@gmail.com>","Sat, 23 Jun 2012 09:01:46 -0700","Re: HBASE-5875 - Available for review."
"Apache Jenkins Server  <jenkins@builds.apache.org>","Sun, 24 Jun 2012 18:23:43 +0000 (UTC)","Build failed in Jenkins: HBase-TRUNK #3064"
"Apache Jenkins Server  <jenkins@builds.apache.org>","Sun, 24 Jun 2012 18:41:47 +0000 (UTC)","Build failed in Jenkins: HBase-TRUNK #3065"
"Apache Jenkins Server  <jenkins@builds.apache.org>","Sun, 24 Jun 2012 18:44:41 +0000 (UTC)","Build failed in Jenkins: HBase-TRUNK #3066"
"Apache Jenkins Server  <jenkins@builds.apache.org>","Sun, 24 Jun 2012 21:41:00 +0000 (UTC)","Build failed in Jenkins: HBase-TRUNK #3067"
"Apache Jenkins Server  <jenkins@builds.apache.org>","Sun, 24 Jun 2012 22:43:48 +0000 (UTC)","Jenkins build is back to normal : HBase-TRUNK #3068"
"Apache Jenkins Server  <jenkins@builds.apache.org>","Sun, 24 Jun 2012 23:54:27 +0000 (UTC)","Build failed in Jenkins: HBase-TRUNK-on-Hadoop-2.0.0 #67"
"Lars George <lars.george@gmail.com>","Mon, 25 Jun 2012 15:49:51 +0300","WARN about fs.default.name"
"Anoop Sam John <anoopsj@huawei.com>","Mon, 25 Jun 2012 13:50:34 +0000","RE: Can there be a doMiniBatchDelete in HRegion?"
"Ted Yu <yuzhihong@gmail.com>","Mon, 25 Jun 2012 06:56:46 -0700","Re: Can there be a doMiniBatchDelete in HRegion?"
"Jonathan Hsieh <jon@cloudera.com>","Mon, 25 Jun 2012 08:17:01 -0700","Cutting an HBase 0.90.7"
"Stack <stack@duboce.net>","Mon, 25 Jun 2012 15:46:56 +0000","Re: Cutting an HBase 0.90.7"
"Ted Yu <yuzhihong@gmail.com>","Mon, 25 Jun 2012 09:11:50 -0700","Re: Can there be a doMiniBatchDelete in HRegion?"
"Stack <stack@duboce.net>","Mon, 25 Jun 2012 16:22:42 +0000","Re: WARN about fs.default.name"
"Lars George <lars.george@gmail.com>","Mon, 25 Jun 2012 21:38:30 +0300","Re: WARN about fs.default.name"
"Apache Jenkins Server  <jenkins@builds.apache.org>","Mon, 25 Jun 2012 18:56:42 +0000 (UTC)","Build failed in Jenkins: HBase-0.94 #280"
"Apache Jenkins Server  <jenkins@builds.apache.org>","Mon, 25 Jun 2012 20:01:38 +0000 (UTC)","Build failed in Jenkins: HBase-TRUNK #3070"
"Apache Jenkins Server  <jenkins@builds.apache.org>","Mon, 25 Jun 2012 21:48:18 +0000 (UTC)","Build failed in Jenkins: HBase-TRUNK #3071"
"Apache Jenkins Server  <jenkins@builds.apache.org>","Mon, 25 Jun 2012 23:56:12 +0000 (UTC)","Build failed in Jenkins: HBase-TRUNK-on-Hadoop-2.0.0 #68"
"Jonathan Hsieh <jon@cloudera.com>","Mon, 25 Jun 2012 16:57:39 -0700","Re: Cutting an HBase 0.90.7"
"Apache Jenkins Server  <jenkins@builds.apache.org>","Tue, 26 Jun 2012 00:22:27 +0000 (UTC)","Build failed in Jenkins: HBase-TRUNK #3072"
"Apache Jenkins Server  <jenkins@builds.apache.org>","Tue, 26 Jun 2012 05:12:12 +0000 (UTC)","Build failed in Jenkins: HBase-TRUNK #3073"
"Apache Jenkins Server  <jenkins@builds.apache.org>","Tue, 26 Jun 2012 06:09:05 +0000 (UTC)","Build failed in Jenkins: HBase-0.94 #281"
"Apache Jenkins Server  <jenkins@builds.apache.org>","Tue, 26 Jun 2012 11:48:13 +0000 (UTC)","Build failed in Jenkins: HBase-TRUNK-on-Hadoop-2.0.0 #69"
"rama krishna <ram_krish_86@hotmail.com>","Tue, 26 Jun 2012 22:59:38 +0530","HBASE-6227 - SSH and cluster startup causes data loss"
"Apache Jenkins Server  <jenkins@builds.apache.org>","Tue, 26 Jun 2012 17:44:32 +0000 (UTC)","Jenkins build is back to normal : HBase-TRUNK #3074"
"Lars George <lars.george@gmail.com>","Tue, 26 Jun 2012 21:27:23 +0300","No autoflush from table within coprocessor?"
"Apache Jenkins Server  <jenkins@builds.apache.org>","Tue, 26 Jun 2012 19:04:51 +0000 (UTC)","Build failed in Jenkins: HBase-0.94 #282"
"Andrew Purtell <apurtell@apache.org>","Tue, 26 Jun 2012 15:58:36 -0700","HBASE-5827"
"Apache Jenkins Server  <jenkins@builds.apache.org>","Tue, 26 Jun 2012 23:00:39 +0000 (UTC)","Build failed in Jenkins: HBase-0.94 #283"
"Apache Jenkins Server  <jenkins@builds.apache.org>","Tue, 26 Jun 2012 23:03:57 +0000 (UTC)","Build failed in Jenkins: HBase-TRUNK #3075"
"Apache Jenkins Server  <jenkins@builds.apache.org>","Wed, 27 Jun 2012 00:08:34 +0000 (UTC)","Jenkins build is back to normal : HBase-TRUNK #3076"
"Apache Jenkins Server  <jenkins@builds.apache.org>","Wed, 27 Jun 2012 00:22:53 +0000 (UTC)","Build failed in Jenkins: HBase-TRUNK-on-Hadoop-2.0.0 #70"
"Apache Jenkins Server  <jenkins@builds.apache.org>","Wed, 27 Jun 2012 00:40:19 +0000 (UTC)","Build failed in Jenkins: HBase-0.92 #458"
"Apache Jenkins Server  <jenkins@builds.apache.org>","Wed, 27 Jun 2012 01:07:17 +0000 (UTC)","Jenkins build is back to normal : HBase-0.94 #284"
"Andrew Wang <andrew.wang@cloudera.com>","Tue, 26 Jun 2012 18:35:49 -0700","high-percentile latency metrics, aka HBASE-6261"
"Apache Jenkins Server  <jenkins@builds.apache.org>","Wed, 27 Jun 2012 01:46:55 +0000 (UTC)","Build failed in Jenkins: HBase-TRUNK #3077"
"Apache Jenkins Server  <jenkins@builds.apache.org>","Wed, 27 Jun 2012 02:52:23 +0000 (UTC)","Jenkins build is back to normal : HBase-TRUNK #3078"
"Apache Jenkins Server  <jenkins@builds.apache.org>","Wed, 27 Jun 2012 03:11:51 +0000 (UTC)","Build failed in Jenkins: HBase-0.92 #459"
"Apache Jenkins Server  <jenkins@builds.apache.org>","Wed, 27 Jun 2012 04:34:13 +0000 (UTC)","Build failed in Jenkins: hbase-0.90 #507"
"Anoop Sam John <anoopsj@huawei.com>","Wed, 27 Jun 2012 04:57:50 +0000","RE: No autoflush from table within coprocessor?"
"Apache Jenkins Server  <jenkins@builds.apache.org>","Wed, 27 Jun 2012 06:16:54 +0000 (UTC)","Build failed in Jenkins: HBase-0.92 #460"
"Apache Jenkins Server  <jenkins@builds.apache.org>","Wed, 27 Jun 2012 11:47:06 +0000 (UTC)","Build failed in Jenkins: HBase-TRUNK-on-Hadoop-2.0.0 #71"
"Apache Jenkins Server  <jenkins@builds.apache.org>","Wed, 27 Jun 2012 14:43:09 +0000 (UTC)","Jenkins build is back to normal : hbase-0.90 #508"
"Dishant A <hbase.project@gmail.com>","Wed, 27 Jun 2012 11:46:48 -0400","Can a server function make a rpc call to the corresponding client"
"Jean-Daniel Cryans <jdcryans@apache.org>","Wed, 27 Jun 2012 10:44:11 -0700","Re: Can a server function make a rpc call to the corresponding client"
"Apache Jenkins Server  <jenkins@builds.apache.org>","Wed, 27 Jun 2012 17:47:30 +0000 (UTC)","Build failed in Jenkins: HBase-TRUNK #3081"
"Apache Jenkins Server  <jenkins@builds.apache.org>","Wed, 27 Jun 2012 18:52:50 +0000 (UTC)","Jenkins build is back to normal : HBase-TRUNK #3082"
"Ted Yu <yuzhihong@gmail.com>","Wed, 27 Jun 2012 14:13:06 -0700","Re: Can there be a doMiniBatchDelete in HRegion?"
"Apache Jenkins Server  <jenkins@builds.apache.org>","Wed, 27 Jun 2012 23:51:08 +0000 (UTC)","Build failed in Jenkins: HBase-TRUNK-on-Hadoop-2.0.0 #72"
"Dishant A <hbase.project@gmail.com>","Wed, 27 Jun 2012 21:25:30 -0400","Re: Can a server function make a rpc call to the corresponding client"
"shixing <paradisehit@gmail.com>","Thu, 28 Jun 2012 12:22:06 +0800","Can I use non kerberos HDFS for AccessControl HBase base on kerberos?"
"shixing <paradisehit@gmail.com>","Thu, 28 Jun 2012 12:25:17 +0800","What is the real semantic of the parameter ""hbase.client.retries.number"""
"Anoop Sam John <anoopsj@huawei.com>","Thu, 28 Jun 2012 04:59:59 +0000","RE: Can a server function make a rpc call to the corresponding client"
"sameer <sameer_therattil@infosys.com>","Wed, 27 Jun 2012 22:43:46 -0700 (PDT)","Re: Stargate: ScannerModel"
"Apache Jenkins Server  <jenkins@builds.apache.org>","Thu, 28 Jun 2012 05:57:49 +0000 (UTC)","Build failed in Jenkins: HBase-0.94 #286"
"""Ramkrishna.S.Vasudevan"" <ramkrishna.vasudevan@huawei.com>","Thu, 28 Jun 2012 14:15:59 +0530","RE: Stargate: ScannerModel"
"N Keywal <nkeywal@gmail.com>","Thu, 28 Jun 2012 10:56:59 +0200","Re: Stargate: ScannerModel"
"Dishant A <hbase.project@gmail.com>","Thu, 28 Jun 2012 10:41:37 -0400","Re: Can a server function make a rpc call to the corresponding client"
"""Ramkrishna.S.Vasudevan"" <ramkrishna.vasudevan@huawei.com>","Thu, 28 Jun 2012 20:30:58 +0530","RE: Can a server function make a rpc call to the corresponding client"
"Anoop Sam John <anoopsj@huawei.com>","Thu, 28 Jun 2012 16:35:04 +0000","RE: Can a server function make a rpc call to the corresponding client"
"Apache Jenkins Server  <jenkins@builds.apache.org>","Thu, 28 Jun 2012 17:40:18 +0000 (UTC)","Build failed in Jenkins: HBase-0.94-security #38"
"Andrew Purtell <apurtell@apache.org>","Thu, 28 Jun 2012 10:48:15 -0700","Fwd: porting multi() to zookeeper 3.3"
"Ted Yu <yuzhihong@gmail.com>","Thu, 28 Jun 2012 10:50:22 -0700","Re: porting multi() to zookeeper 3.3"
"Himanshu Vashishtha <hvashish@cs.ualberta.ca>","Thu, 28 Jun 2012 11:52:35 -0600","Re: porting multi() to zookeeper 3.3"
"Andrew Purtell <apurtell@apache.org>","Thu, 28 Jun 2012 10:54:19 -0700","Re: porting multi() to zookeeper 3.3"
"Andrew Purtell <apurtell@apache.org>","Thu, 28 Jun 2012 10:55:01 -0700","Re: porting multi() to zookeeper 3.3"
"Ted Yu <yuzhihong@gmail.com>","Thu, 28 Jun 2012 11:05:06 -0700","Re: porting multi() to zookeeper 3.3"
"Apache Jenkins Server  <jenkins@builds.apache.org>","Thu, 28 Jun 2012 19:13:11 +0000 (UTC)","Build failed in Jenkins: HBase-0.94 #287"
"lars hofhansl <lhofhansl@yahoo.com>","Thu, 28 Jun 2012 13:30:40 -0700 (PDT)","Re: Fwd: porting multi() to zookeeper 3.3"
"Stack <stack@duboce.net>","Thu, 28 Jun 2012 15:31:27 -0700","Re: high-percentile latency metrics, aka HBASE-6261"
"Andrew Wang <andrew.wang@cloudera.com>","Thu, 28 Jun 2012 15:53:13 -0700","Re: high-percentile latency metrics, aka HBASE-6261"
"Apache Jenkins Server  <jenkins@builds.apache.org>","Thu, 28 Jun 2012 23:55:22 +0000 (UTC)","Build failed in Jenkins: HBase-TRUNK-on-Hadoop-2.0.0 #73"
"Apache Jenkins Server  <jenkins@builds.apache.org>","Fri, 29 Jun 2012 11:48:30 +0000 (UTC)","Build failed in Jenkins: HBase-TRUNK-on-Hadoop-2.0.0 #74"
"rockytriton <rockytriton@gmail.com>","Fri, 29 Jun 2012 08:26:53 -0700 (PDT)","HBase configuration using two hadoop servers"
"Alex Baranau <alex.baranov.v@gmail.com>","Fri, 29 Jun 2012 12:06:03 -0400","Re: Metrics in 0.96"
"Stack <stack@duboce.net>","Fri, 29 Jun 2012 19:07:29 +0200","Re: high-percentile latency metrics, aka HBASE-6261"
"Jean-Daniel Cryans <jdcryans@apache.org>","Fri, 29 Jun 2012 10:20:26 -0700","Re: HBase configuration using two hadoop servers"
"Lars George <lars.george@gmail.com>","Fri, 29 Jun 2012 20:21:30 +0300","Re: Metrics in 0.96"
"Stack <stack@duboce.net>","Fri, 29 Jun 2012 19:22:45 +0200","Re: HBase configuration using two hadoop servers"
"Alex Baranau <alex.baranov.v@gmail.com>","Fri, 29 Jun 2012 16:10:07 -0400","Re: Metrics in 0.96"
"Apache Jenkins Server  <jenkins@builds.apache.org>","Fri, 29 Jun 2012 20:12:40 +0000 (UTC)","Build failed in Jenkins: HBase-TRUNK #3087"
"Andrew Purtell <apurtell@apache.org>","Fri, 29 Jun 2012 13:15:06 -0700","Re: Metrics in 0.96"
"Elliott Clark <eclark@stumbleupon.com>","Fri, 29 Jun 2012 13:53:45 -0700","Re: Metrics in 0.96"
"Ted Yu <yuzhihong@gmail.com>","Fri, 29 Jun 2012 14:45:03 -0700","Re: Metrics in 0.96"
"Elliott Clark <eclark@stumbleupon.com>","Fri, 29 Jun 2012 16:42:46 -0700","HBASE-2182"
"Apache Jenkins Server  <jenkins@builds.apache.org>","Fri, 29 Jun 2012 23:47:18 +0000 (UTC)","Build failed in Jenkins: HBase-TRUNK-on-Hadoop-2.0.0 #75"
"Todd Lipcon <todd@cloudera.com>","Fri, 29 Jun 2012 17:04:10 -0700","Re: HBASE-2182"
"Elliott Clark <eclark@stumbleupon.com>","Fri, 29 Jun 2012 17:21:15 -0700","Re: HBASE-2182"
"Andrew Purtell <andrew.purtell@gmail.com>","Fri, 29 Jun 2012 17:31:10 -0700","Re: Metrics in 0.96"
"Apache Jenkins Server  <jenkins@builds.apache.org>","Sat, 30 Jun 2012 00:33:17 +0000 (UTC)","Build failed in Jenkins: HBase-TRUNK #3088"
"Andrew Purtell <andrew.purtell@gmail.com>","Fri, 29 Jun 2012 17:34:38 -0700","Re: HBASE-2182"
"Andrew Wang <andrew.wang@cloudera.com>","Fri, 29 Jun 2012 17:41:09 -0700","Re: Metrics in 0.96"
"Elliott Clark <eclark@stumbleupon.com>","Fri, 29 Jun 2012 17:59:56 -0700","Re: HBASE-2182"
"Andrew Purtell <andrew.purtell@gmail.com>","Fri, 29 Jun 2012 18:10:50 -0700","Re: HBASE-2182"
"Ryan Rawson <ryanobjc@gmail.com>","Sat, 30 Jun 2012 01:27:03 -0700","Re: HBASE-2182"
"Lars George <lars.george@gmail.com>","Sat, 30 Jun 2012 13:36:44 +0300","Personal Info in POM"
"N Keywal <nkeywal@gmail.com>","Sat, 30 Jun 2012 13:50:57 +0200","Re: HBASE-2182"
"Stack <stack@duboce.net>","Sat, 30 Jun 2012 16:55:01 +0200","Re: Personal Info in POM"
"lars hofhansl <lhofhansl@yahoo.com>","Sat, 30 Jun 2012 09:22:39 -0700 (PDT)","HBASE-5955"
"Stack <stack@duboce.net>","Sat, 30 Jun 2012 18:39:43 +0200","Re: HBASE-5955"
"lars hofhansl <lhofhansl@yahoo.com>","Sat, 30 Jun 2012 09:45:24 -0700 (PDT)","Re: HBASE-5955"
"Andrew Purtell <andrew.purtell@gmail.com>","Sat, 30 Jun 2012 10:11:37 -0700","Re: HBASE-5955"
"Jonathan Hsieh <jon@cloudera.com>","Sat, 30 Jun 2012 13:47:57 -0700","Re: HBASE-5955"
"Elliott Clark <eclark@stumbleupon.com>","Sat, 30 Jun 2012 14:43:33 -0700","Re: HBASE-2182"
"Apache Jenkins Server  <jenkins@builds.apache.org>","Sat, 30 Jun 2012 22:45:18 +0000 (UTC)","Jenkins build is back to normal : HBase-TRUNK #3089"
"Apache Jenkins Server  <jenkins@builds.apache.org>","Sat, 30 Jun 2012 22:54:46 +0000 (UTC)","Build failed in Jenkins: HBase-0.94 #288"
