"Developer","Date","Subject"
"=?UTF-8?B?56Wd5rW36YCa?= <zhuhaitong@gmail.com>","Mon, 3 Jan 2011 17:56:25 +0800","Hbase auto table operation using script"
"Ted Yu <yuzhihong@gmail.com>","Mon, 3 Jan 2011 14:16:18 -0800","utilizing MiniHBaseCluster"
"Stack <stack@duboce.net>","Mon, 3 Jan 2011 14:19:23 -0800","Re: utilizing MiniHBaseCluster"
"Jean-Daniel Cryans <jdcryans@apache.org>","Mon, 3 Jan 2011 22:25:18 +0000","Re: enhancing createTable in hbase shell"
"Jean-Daniel Cryans <jdcryans@apache.org>","Mon, 3 Jan 2011 22:34:31 +0000","Re: How about to give more flexibility to RowKey (customized comparator and serializer)"
"Ted Yu <yuzhihong@gmail.com>","Mon, 3 Jan 2011 15:03:51 -0800","Re: utilizing MiniHBaseCluster"
"Stack <stack@duboce.net>","Mon, 3 Jan 2011 15:06:05 -0800","Re: utilizing MiniHBaseCluster"
"Jean-Daniel Cryans <jdcryans@apache.org>","Mon, 3 Jan 2011 23:40:56 +0000","Re: reassignment of .META. region"
"Todd Lipcon <todd@cloudera.com>","Mon, 3 Jan 2011 16:30:32 -0800","Re: ANN: The third hbase 0.90.0 release candidate is available for download"
"Stack <stack@duboce.net>","Mon, 3 Jan 2011 16:45:05 -0800","Re: ANN: The third hbase 0.90.0 release candidate is available for download"
"Apache Hudson Server <hudson@hudson.apache.org>","Tue, 4 Jan 2011 06:08:24 +0000 (UTC)","Build failed in Hudson: hbase-0.90 #48"
"Ted Yu <yuzhihong@gmail.com>","Tue, 4 Jan 2011 11:09:36 -0800","consistent KeeperException$ConnectionLossException"
"Jean-Daniel Cryans <jdcryans@apache.org>","Tue, 4 Jan 2011 11:12:07 -0800","Re: consistent KeeperException$ConnectionLossException"
"Jean-Daniel Cryans <jdcryans@apache.org>","Tue, 4 Jan 2011 11:27:00 -0800","Re: Build failed in Hudson: hbase-0.90 #48"
"Stack <stack@duboce.net>","Tue, 4 Jan 2011 11:29:36 -0800","Re: consistent KeeperException$ConnectionLossException"
"Ted Yu <yuzhihong@gmail.com>","Tue, 4 Jan 2011 11:47:42 -0800","Re: consistent KeeperException$ConnectionLossException"
"Jean-Daniel Cryans <jdcryans@apache.org>","Tue, 4 Jan 2011 12:04:12 -0800","Re: Build failed in Hudson: hbase-0.90 #48"
"Ted Yu <yuzhihong@gmail.com>","Tue, 4 Jan 2011 18:47:21 -0800","Re: consistent KeeperException$ConnectionLossException"
"Stack <stack@duboce.net>","Tue, 4 Jan 2011 19:23:25 -0800","Re: consistent KeeperException$ConnectionLossException"
"Ted Yu <yuzhihong@gmail.com>","Tue, 4 Jan 2011 19:34:57 -0800","Re: consistent KeeperException$ConnectionLossException"
"Apache Hudson Server <hudson@hudson.apache.org>","Wed, 5 Jan 2011 03:49:21 +0000 (UTC)","Build failed in Hudson: HBase-TRUNK #1702"
"Apache Hudson Server <hudson@hudson.apache.org>","Wed, 5 Jan 2011 08:09:34 +0000 (UTC)","Hudson build is back to normal : hbase-0.90 #49"
"ventlam <ventlcc@gmail.com>","Wed, 5 Jan 2011 11:55:55 +0000 (UTC)","how to get  cell value from the  hbase table via the key word?"
"Lars George <lars.george@gmail.com>","Wed, 5 Jan 2011 17:28:36 +0100","Re: how to get cell value from the hbase table via the key word?"
"Andrew Purtell <apurtell@apache.org>","Wed, 5 Jan 2011 12:51:52 -0800 (PST)","Trend Micro HBase summit Jan 11 - 14"
"Stack <stack@duboce.net>","Wed, 5 Jan 2011 12:59:32 -0800","Re: Trend Micro HBase summit Jan 11 - 14"
"Apache Hudson Server <hudson@hudson.apache.org>","Wed, 5 Jan 2011 21:41:11 +0000 (UTC)","Hudson build is back to normal : HBase-TRUNK #1703"
"Jonathan Gray <jgray@fb.com>","Wed, 5 Jan 2011 22:11:25 +0000","RE: Trend Micro HBase summit Jan 11 - 14"
"Jean-Daniel Cryans <jdcryans@apache.org>","Wed, 5 Jan 2011 14:12:43 -0800","Re: Trend Micro HBase summit Jan 11 - 14"
"Apache Hudson Server <hudson@hudson.apache.org>","Thu, 6 Jan 2011 00:35:30 +0000 (UTC)","Build failed in Hudson: hbase-0.90 #50"
"Apache Hudson Server <hudson@hudson.apache.org>","Thu, 6 Jan 2011 03:38:42 +0000 (UTC)","Build failed in Hudson: HBase-TRUNK #1704"
"Apache Hudson Server <hudson@hudson.apache.org>","Thu, 6 Jan 2011 06:07:30 +0000 (UTC)","Hudson build is back to normal : HBase-TRUNK #1705"
"Chet Murthy <chet@watson.ibm.com>","Wed, 5 Jan 2011 22:37:38 -0800","perplexing HBase bug: looking for where to learn how to debug"
"Apache Hudson Server <hudson@hudson.apache.org>","Thu, 6 Jan 2011 07:55:40 +0000 (UTC)","Hudson build is back to normal : hbase-0.90 #51"
"""Gary Helmling"" <ghelmling@gmail.com>","Thu, 06 Jan 2011 08:53:11 -0000","Review Request: HBASE-3405: Allow HBaseRpcMetrics to register custom interface methods"
"Gary Helmling <ghelmling@gmail.com>","Thu, 6 Jan 2011 01:01:29 -0800","Re: Allowing HRegionServer extensions to register interfaces for HBaseRPCMetrics"
"Jonathan Gray <jgray@fb.com>","Thu, 6 Jan 2011 17:37:30 +0000","RE: perplexing HBase bug: looking for where to learn how to debug"
"Apache Hudson Server <hudson@hudson.apache.org>","Fri, 7 Jan 2011 00:25:08 +0000 (UTC)","Build failed in Hudson: HBase-TRUNK #1706"
"Gary Helmling <ghelmling@gmail.com>","Thu, 6 Jan 2011 18:11:42 -0800","Re: Build failed in Hudson: HBase-TRUNK #1706"
"mac fang <mac.hadoop@gmail.com>","Fri, 7 Jan 2011 11:12:40 +0800","One issue in HMaster Bootstrap when run HBase 0.20.6 on Hadoop 0.21"
"Apache Hudson Server <hudson@hudson.apache.org>","Fri, 7 Jan 2011 03:13:47 +0000 (UTC)","Build failed in Hudson: hbase-0.90 #52"
"Stack <stack@duboce.net>","Thu, 6 Jan 2011 22:01:26 -0800","Re: One issue in HMaster Bootstrap when run HBase 0.20.6 on Hadoop 0.21"
"Apache Hudson Server <hudson@hudson.apache.org>","Fri, 7 Jan 2011 08:58:36 +0000 (UTC)","Build failed in Hudson: HBase-TRUNK #1707"
"""Abinash Karana \(Bizosys\)"" <abinash@bizosys.com>","Fri, 7 Jan 2011 16:02:44 +0530","java.lang.NoSuchMethodException: hbase-0.90"
"""Abinash Karana \(Bizosys\)"" <abinash@bizosys.com>","Fri, 7 Jan 2011 16:05:47 +0530","server.NIOServerCnxn: EndOfStreamException: hbase-0.90"
"Apache Hudson Server <hudson@hudson.apache.org>","Fri, 7 Jan 2011 13:55:49 +0000 (UTC)","Hudson build is back to normal : hbase-0.90 #53"
"Ted Dunning <tdunning@maprtech.com>","Fri, 7 Jan 2011 07:53:01 -0800","Re: java.lang.NoSuchMethodException: hbase-0.90"
"""Abinash Karana \(Bizosys\)"" <abinash@bizosys.com>","Fri, 7 Jan 2011 21:54:07 +0530","RE: java.lang.NoSuchMethodException: hbase-0.90"
"Jean-Daniel Cryans <jdcryans@apache.org>","Fri, 7 Jan 2011 09:30:44 -0800","Re: server.NIOServerCnxn: EndOfStreamException: hbase-0.90"
"Stack <stack@duboce.net>","Fri, 7 Jan 2011 10:30:59 -0800","Re: java.lang.NoSuchMethodException: hbase-0.90"
"Stack <stack@duboce.net>","Fri, 7 Jan 2011 10:31:45 -0800","Re: java.lang.NoSuchMethodException: hbase-0.90"
"Stack <stack@duboce.net>","Fri, 7 Jan 2011 10:36:49 -0800","Re: java.lang.NoSuchMethodException: hbase-0.90"
"""M. C. Srivas"" <mcsrivas@gmail.com>","Fri, 7 Jan 2011 11:32:37 -0800","Re: java.lang.NoSuchMethodException: hbase-0.90"
"Ted Dunning <tdunning@maprtech.com>","Fri, 7 Jan 2011 11:34:31 -0800","Re: java.lang.NoSuchMethodException: hbase-0.90"
"Stack <stack@duboce.net>","Fri, 7 Jan 2011 12:38:02 -0800","Re: java.lang.NoSuchMethodException: hbase-0.90"
"Ted Dunning <tdunning@maprtech.com>","Fri, 7 Jan 2011 12:56:38 -0800","Re: java.lang.NoSuchMethodException: hbase-0.90"
"Ted Dunning <tdunning@maprtech.com>","Fri, 7 Jan 2011 12:58:08 -0800","Re: java.lang.NoSuchMethodException: hbase-0.90"
"Stack <stack@duboce.net>","Fri, 7 Jan 2011 13:53:19 -0800","hadoop 0.22.0; want we wrestle into the release"
"Todd Lipcon <todd@cloudera.com>","Fri, 7 Jan 2011 14:13:26 -0800","Re: hadoop 0.22.0; want we wrestle into the release"
"Apache Hudson Server <hudson@hudson.apache.org>","Fri, 7 Jan 2011 22:55:35 +0000 (UTC)","Hudson build is back to normal : HBase-TRUNK #1708"
"Apache Hudson Server <hudson@hudson.apache.org>","Sat, 8 Jan 2011 00:41:28 +0000 (UTC)","Build failed in Hudson: HBase-TRUNK #1709"
"Stack <stack@duboce.net>","Fri, 7 Jan 2011 17:03:15 -0800","ANN: The fourth hbase 0.90.0 release candidate is available for download X"
"Apache Hudson Server <hudson@hudson.apache.org>","Sat, 8 Jan 2011 02:55:45 +0000 (UTC)","Build failed in Hudson: HBase-TRUNK #1710"
"Ted Yu <yuzhihong@gmail.com>","Sat, 8 Jan 2011 21:02:54 -0800","Re: ANN: The fourth hbase 0.90.0 release candidate is available for download X"
"Stack <stack@duboce.net>","Sat, 8 Jan 2011 21:31:34 -0800","Re: ANN: The fourth hbase 0.90.0 release candidate is available for download X"
"Ted Yu <yuzhihong@gmail.com>","Sat, 8 Jan 2011 22:03:57 -0800","Re: ANN: The fourth hbase 0.90.0 release candidate is available for download X"
"Apache Hudson Server <hudson@hudson.apache.org>","Sun, 9 Jan 2011 08:03:45 +0000 (UTC)","Hudson build is back to normal : HBase-TRUNK #1711"
"Ted Yu <yuzhihong@gmail.com>","Sun, 9 Jan 2011 08:59:53 -0800","resuming tests from specific test"
"Ted Yu <yuzhihong@gmail.com>","Sun, 9 Jan 2011 17:02:08 -0800","InputSampler question"
"Dhruba Borthakur <dhruba@gmail.com>","Sun, 9 Jan 2011 23:41:59 -0800","question about Hregion.incrementColumnValue"
"Ryan Rawson <ryanobjc@gmail.com>","Mon, 10 Jan 2011 00:29:22 -0800","Re: question about Hregion.incrementColumnValue"
"Jean-Daniel Cryans <jdcryans@apache.org>","Mon, 10 Jan 2011 10:53:39 -0800","Re: resuming tests from specific test"
"Stack <stack@duboce.net>","Mon, 10 Jan 2011 10:57:05 -0800","Re: ANN: The fourth hbase 0.90.0 release candidate is available for download X"
"Ted Yu <yuzhihong@gmail.com>","Mon, 10 Jan 2011 11:14:23 -0800","Re: ANN: The fourth hbase 0.90.0 release candidate is available for download X"
"Stack <stack@duboce.net>","Mon, 10 Jan 2011 11:17:29 -0800","Re: InputSampler question"
"Stack <stack@duboce.net>","Mon, 10 Jan 2011 11:23:05 -0800","Re: question about Hregion.incrementColumnValue"
"Ryan Rawson <ryanobjc@gmail.com>","Mon, 10 Jan 2011 14:26:58 -0800","Re: question about Hregion.incrementColumnValue"
"Vidhyashankar Venkataraman <vidhyash@yahoo-inc.com>","Mon, 10 Jan 2011 16:33:15 -0800","No minor compactions on a table built only on bulk loads"
"Jonathan Gray <jgray@fb.com>","Tue, 11 Jan 2011 00:34:57 +0000","RE: question about Hregion.incrementColumnValue"
"Jonathan Gray <jgray@fb.com>","Tue, 11 Jan 2011 00:38:38 +0000","RE: No minor compactions on a table built only on bulk loads"
"Ryan Rawson <ryanobjc@gmail.com>","Mon, 10 Jan 2011 17:18:22 -0800","Re: question about Hregion.incrementColumnValue"
"Apache Hudson Server <hudson@hudson.apache.org>","Tue, 11 Jan 2011 20:59:11 +0000 (UTC)","Build failed in Hudson: HBase-TRUNK #1712"
"Stack <stack@duboce.net>","Wed, 12 Jan 2011 11:53:49 -0800","incrementColumnValue, WAL and timestamp"
"Jonathan Gray <jgray@fb.com>","Wed, 12 Jan 2011 20:02:37 +0000","RE: incrementColumnValue, WAL and timestamp"
"Stack <stack@duboce.net>","Wed, 12 Jan 2011 12:14:50 -0800","Re: incrementColumnValue, WAL and timestamp"
"Ryan Rawson <ryanobjc@gmail.com>","Wed, 12 Jan 2011 12:32:44 -0800","Re: incrementColumnValue, WAL and timestamp"
"Apache Hudson Server <hudson@hudson.apache.org>","Wed, 12 Jan 2011 22:29:49 +0000 (UTC)","Build failed in Hudson: HBase-TRUNK #1713"
"Ted Yu <yuzhihong@gmail.com>","Wed, 12 Jan 2011 21:03:40 -0800","determining creation time of table"
"Stack <stack@duboce.net>","Wed, 12 Jan 2011 22:37:12 -0800","Re: determining creation time of table"
"James Kennedy <james.kennedy@troove.net>","Thu, 13 Jan 2011 11:37:58 -0800","How to handle data migration?"
"Stack <saint.ack@gmail.com>","Fri, 14 Jan 2011 09:54:20 -0800","Re: How to handle data migration?"
"James Kennedy <james.kennedy@troove.net>","Fri, 14 Jan 2011 10:52:26 -0800","Re: How to handle data migration?"
"Jonathan Gray <jgray@fb.com>","Fri, 14 Jan 2011 22:10:42 +0000","RE: The fourth hbase 0.90.0 release candidate is available for download X"
"James Kennedy <james.kennedy@troove.net>","Fri, 14 Jan 2011 14:14:43 -0800","Re: ANN: The fourth hbase 0.90.0 release candidate is available for download X"
"Ryan Rawson <ryanobjc@gmail.com>","Fri, 14 Jan 2011 14:18:14 -0800","Re: ANN: The fourth hbase 0.90.0 release candidate is available for download X"
"Ted Yu <yuzhihong@gmail.com>","Fri, 14 Jan 2011 15:04:03 -0800","YouAreDeadException"
"Ryan Rawson <ryanobjc@gmail.com>","Fri, 14 Jan 2011 15:10:31 -0800","Re: YouAreDeadException"
"Ted Yu <yuzhihong@gmail.com>","Fri, 14 Jan 2011 15:57:23 -0800","Re: YouAreDeadException"
"Ryan Rawson <ryanobjc@gmail.com>","Fri, 14 Jan 2011 18:20:54 -0800","Re: YouAreDeadException"
"Stack <saint.ack@gmail.com>","Fri, 14 Jan 2011 19:19:52 -0800","Re: ANN: The fourth hbase 0.90.0 release candidate is available for download X"
"Stack <saint.ack@gmail.com>","Fri, 14 Jan 2011 19:25:27 -0800","Re: How to handle data migration?"
"Ted Yu <yuzhihong@gmail.com>","Fri, 14 Jan 2011 19:49:31 -0800","Re: YouAreDeadException"
"stack <saint.ack@gmail.com>","Sat, 15 Jan 2011 12:49:32 -0800","Re: ANN: The fourth hbase 0.90.0 release candidate is available for download X"
"Stack <stack@duboce.net>","Sat, 15 Jan 2011 16:49:50 -0800","Re: YouAreDeadException"
"Ted Yu <yuzhihong@gmail.com>","Sat, 15 Jan 2011 17:02:33 -0800","Re: YouAreDeadException"
"Ted Yu <yuzhihong@gmail.com>","Sat, 15 Jan 2011 17:03:31 -0800","Re: YouAreDeadException"
"Stack <stack@duboce.net>","Sat, 15 Jan 2011 17:14:55 -0800","Re: YouAreDeadException"
"Ted Yu <yuzhihong@gmail.com>","Sat, 15 Jan 2011 18:37:58 -0800","Zookeeper tuning, was: YouAreDeadException"
"Ryan Rawson <ryanobjc@gmail.com>","Sat, 15 Jan 2011 18:48:46 -0800","Re: Zookeeper tuning, was: YouAreDeadException"
"mac fang <mac.hadoop@gmail.com>","Sun, 16 Jan 2011 22:36:50 +0800","One question about HBase Client"
"James Kennedy <james.kennedy@troove.net>","Sun, 16 Jan 2011 09:05:44 -0800","Re: ANN: The fourth hbase 0.90.0 release candidate is available for download X"
"Stack <stack@duboce.net>","Sun, 16 Jan 2011 13:37:00 -0800","Re: One question about HBase Client"
"""Abinash Karana \(Bizosys\)"" <abinash@bizosys.com>","Mon, 17 Jan 2011 08:28:55 +0530","RE: java.lang.NoSuchMethodException: hbase-0.90"
"js_84@email.de","Mon, 17 Jan 2011 11:14:26 +0100 (CET)","Merging old and new values"
"eric_bdr@yahoo.com","Mon, 17 Jan 2011 04:22:05 -0800 (PST)","evaluating HBase"
"""Abinash Karana \(Bizosys\)"" <abinash@bizosys.com>","Mon, 17 Jan 2011 18:12:06 +0530","RE: evaluating HBase"
"Thomas Koch <thomas@koch.ro>","Mon, 17 Jan 2011 14:53:12 +0100","Re: evaluating HBase"
"mac fang <mac.hadoop@gmail.com>","Mon, 17 Jan 2011 22:21:18 +0800","Re: One question about HBase Client"
"Stack <stack@duboce.net>","Mon, 17 Jan 2011 11:13:25 -0800","Re: One question about HBase Client"
"Dhruba Borthakur <dhruba@gmail.com>","Mon, 17 Jan 2011 12:47:53 -0800","Re: Merging old and new values"
"Stack <stack@duboce.net>","Mon, 17 Jan 2011 22:10:32 -0800","Re: java.lang.NoSuchMethodException: hbase-0.90"
"""Abinash Karana \(Bizosys\)"" <abinash@bizosys.com>","Tue, 18 Jan 2011 11:44:10 +0530","RE: java.lang.NoSuchMethodException: hbase-0.90"
"Steven Noels <stevenn@outerthought.org>","Tue, 18 Jan 2011 07:47:44 +0100","Re: evaluating HBase"
"Eric Burin DES Roziers <eric_bdr@yahoo.com>","Mon, 17 Jan 2011 23:19:26 -0800 (PST)","Re: evaluating HBase"
"Lars George <lars.george@gmail.com>","Tue, 18 Jan 2011 08:36:41 +0000","VERSIONS in Shell"
"Ryan Rawson <ryanobjc@gmail.com>","Tue, 18 Jan 2011 01:30:00 -0800","Re: VERSIONS in Shell"
"Jean-Daniel Cryans <jdcryans@apache.org>","Tue, 18 Jan 2011 11:24:34 -0800","Re: ANN: The fourth hbase 0.90.0 release candidate is available for download X"
"Ted Yu <yuzhihong@gmail.com>","Tue, 18 Jan 2011 15:29:27 -0800","zookeeper.session.timeout"
"Ryan Rawson <ryanobjc@gmail.com>","Tue, 18 Jan 2011 15:31:09 -0800","Re: zookeeper.session.timeout"
"Gary Helmling <ghelmling@gmail.com>","Tue, 18 Jan 2011 17:20:15 -0800","Re: ANN: The fourth hbase 0.90.0 release candidate is available for download X"
"Todd Lipcon <todd@cloudera.com>","Tue, 18 Jan 2011 17:24:05 -0800","Re: ANN: The fourth hbase 0.90.0 release candidate is available for download X"
"Andrew Purtell <apurtell@apache.org>","Wed, 19 Jan 2011 02:19:42 -0800 (PST)","Re: ANN: The fourth hbase 0.90.0 release candidate is available for download X"
"Stack <stack@duboce.net>","Wed, 19 Jan 2011 11:03:55 -0800","RESULT: RC3 vote passes (WAS -> Re: ANN: The fourth hbase 0.90.0 release candidate is available for download)"
"Tatsuya Kawano <tatsuya6502@gmail.com>","Thu, 20 Jan 2011 07:32:26 +0900","HBase roadmaps"
"Stack <stack@duboce.net>","Wed, 19 Jan 2011 16:04:27 -0800","Re: HBase roadmaps"
"Apache Hudson Server <hudson@hudson.apache.org>","Thu, 20 Jan 2011 03:03:15 +0000 (UTC)","Hudson build is back to normal : HBase-TRUNK #1714"
"Tatsuya Kawano <tatsuya6502@gmail.com>","Thu, 20 Jan 2011 12:41:38 +0900","Re: HBase roadmaps"
"Apache Hudson Server <hudson@hudson.apache.org>","Thu, 20 Jan 2011 04:21:39 +0000 (UTC)","Build failed in Hudson: hbase-0.90 #57"
"Stack <stack@duboce.net>","Wed, 19 Jan 2011 22:10:55 -0800","Re: HBase roadmaps"
"=?gb2312?B?utjQocfF?= <xq.he2009@gmail.com>","Thu, 20 Jan 2011 17:38:30 +0800","Question about compatibility between Hbase and Hadoop-0.19.0"
"Tatsuya Kawano <tatsuya6502@gmail.com>","Thu, 20 Jan 2011 19:58:09 +0900","Re: HBase roadmaps"
"mac fang <mac.hadoop@gmail.com>","Fri, 21 Jan 2011 00:01:08 +0800","Question about HBase Delete"
"Ted Yu <yuzhihong@gmail.com>","Thu, 20 Jan 2011 08:25:19 -0800","Re: Question about HBase Delete"
"Jonathan Gray <jgray@fb.com>","Thu, 20 Jan 2011 16:36:01 +0000","RE: Question about HBase Delete"
"Schubert Zhang <zsongbo@gmail.com>","Fri, 21 Jan 2011 00:56:26 +0800","Online modify table schema (e.g. AddColumnFamily, DeleteColumnFamily, etc) and other features"
"Todd Lipcon <todd@cloudera.com>","Thu, 20 Jan 2011 09:33:49 -0800","Heap fragmentation"
"Ted Dunning <tdunning@maprtech.com>","Thu, 20 Jan 2011 09:48:17 -0800","Re: Heap fragmentation"
"Ted Dunning <tdunning@maprtech.com>","Thu, 20 Jan 2011 09:48:57 -0800","Re: Heap fragmentation"
"Jonathan Gray <jgray@fb.com>","Thu, 20 Jan 2011 18:10:11 +0000","RE: Online modify table schema (e.g. AddColumnFamily, DeleteColumnFamily, etc) and other features"
"Todd Lipcon <todd@cloudera.com>","Thu, 20 Jan 2011 10:10:14 -0800","Re: Heap fragmentation"
"Todd Lipcon <todd@cloudera.com>","Thu, 20 Jan 2011 10:15:28 -0800","Re: Question about compatibility between Hbase and Hadoop-0.19.0"
"Ted Dunning <tdunning@maprtech.com>","Thu, 20 Jan 2011 10:21:21 -0800","Re: Heap fragmentation"
"Vladimir Rodionov <vrodionov@carrieriq.com>","Thu, 20 Jan 2011 10:34:39 -0800","RE: Heap fragmentation"
"Todd Lipcon <todd@cloudera.com>","Thu, 20 Jan 2011 10:39:39 -0800","Re: Heap fragmentation"
"Jean-Daniel Cryans <jdcryans@apache.org>","Thu, 20 Jan 2011 10:48:58 -0800","Re: Online modify table schema (e.g. AddColumnFamily, DeleteColumnFamily, etc) and other features"
"Ryan Rawson <ryanobjc@gmail.com>","Thu, 20 Jan 2011 12:14:20 -0800","Re: Heap fragmentation"
"Jay Booth <jaybooth@gmail.com>","Thu, 20 Jan 2011 15:18:26 -0500","Re: Heap fragmentation"
"Todd Lipcon <todd@cloudera.com>","Thu, 20 Jan 2011 12:20:08 -0800","Re: Heap fragmentation"
"tsuna <tsunanet@gmail.com>","Thu, 20 Jan 2011 14:52:15 -0800","Re: Heap fragmentation"
"Todd Lipcon <todd@cloudera.com>","Thu, 20 Jan 2011 14:58:42 -0800","Re: Heap fragmentation"
"Apache Hudson Server <hudson@hudson.apache.org>","Fri, 21 Jan 2011 00:11:40 +0000 (UTC)","Build failed in Hudson: hbase-0.90 #58"
"Schubert Zhang <zsongbo@gmail.com>","Fri, 21 Jan 2011 09:46:50 +0800","Re: Online modify table schema (e.g. AddColumnFamily, DeleteColumnFamily, etc) and other features"
"mac fang <mac.hadoop@gmail.com>","Fri, 21 Jan 2011 09:55:38 +0800","Re: Question about HBase Delete"
"Apache Hudson Server <hudson@hudson.apache.org>","Fri, 21 Jan 2011 03:40:33 +0000 (UTC)","Build failed in Hudson: HBase-TRUNK #1715"
"Tatsuya Kawano <tatsuya6502@gmail.com>","Fri, 21 Jan 2011 13:11:01 +0900","Re: Heap fragmentation"
"tsuna <tsunanet@gmail.com>","Thu, 20 Jan 2011 20:19:12 -0800","Re: Heap fragmentation"
"Stack <stack@duboce.net>","Thu, 20 Jan 2011 21:55:22 -0800","Re: HBase roadmaps"
"Andrew Purtell <apurtell@apache.org>","Thu, 20 Jan 2011 22:13:57 -0800 (PST)","Re: HBase roadmaps"
"Jonathan Gray <jgray@fb.com>","Fri, 21 Jan 2011 06:42:09 +0000","RE: HBase roadmaps"
"Apache Hudson Server <hudson@hudson.apache.org>","Fri, 21 Jan 2011 06:58:10 +0000 (UTC)","Build failed in Hudson: hbase-0.90 #59"
"James Kennedy <james.kennedy@troove.net>","Thu, 20 Jan 2011 23:28:27 -0800","HMaster won't die waiting for RegionServer that is already dead"
"Tatsuya Kawano <tatsuya6502@gmail.com>","Fri, 21 Jan 2011 16:46:46 +0900","Re: HBase roadmaps"
"Tost <ncanis@gmail.com>","Fri, 21 Jan 2011 17:08:30 +0900","Re: HBase roadmaps"
"Tost <ncanis@gmail.com>","Fri, 21 Jan 2011 17:09:29 +0900","Simple Hbase jdo module for newbie"
"Apache Hudson Server <hudson@hudson.apache.org>","Fri, 21 Jan 2011 09:26:44 +0000 (UTC)","Build failed in Hudson: HBase-TRUNK #1716"
"Lars George <lars.george@gmail.com>","Fri, 21 Jan 2011 09:34:49 +0000","Re: HBase roadmaps"
"Apache Hudson Server <hudson@hudson.apache.org>","Fri, 21 Jan 2011 12:21:53 +0000 (UTC)","Build failed in Hudson: hbase-0.90 #60"
"Ophir Cohen <ophchu@gmail.com>","Fri, 21 Jan 2011 17:01:28 +0200","HBase newbie dev"
"Ted Dunning <tdunning@maprtech.com>","Fri, 21 Jan 2011 07:30:40 -0800","Re: HBase roadmaps"
"Stack <stack@duboce.net>","Fri, 21 Jan 2011 07:43:14 -0800","Re: HBase roadmaps"
"Lars George <lars.george@gmail.com>","Fri, 21 Jan 2011 16:28:28 +0000","Re: HBase newbie dev"
"Lars George <lars.george@gmail.com>","Fri, 21 Jan 2011 16:34:33 +0000","Re: HBase roadmaps"
"Ophir Cohen <ophirc@liveperson.com>","Fri, 21 Jan 2011 18:53:01 +0200","Re: HBase newbie dev"
"Stack <stack@duboce.net>","Fri, 21 Jan 2011 10:07:51 -0800","Re: HBase roadmaps"
"Apache Hudson Server <hudson@hudson.apache.org>","Fri, 21 Jan 2011 18:23:09 +0000 (UTC)","Build failed in Hudson: hbase-0.90 #61"
"Mingjie Lai <mingjie_lai@trendmicro.com>","Fri, 21 Jan 2011 12:40:09 -0800","YCSB tests for HBase on Whirr (was: Report to Apache board: first cut)"
"Jean-Daniel Cryans <jdcryans@apache.org>","Fri, 21 Jan 2011 13:34:48 -0800","Re: HMaster won't die waiting for RegionServer that is already dead"
"Himanshu Vashishtha <hvashish@cs.ualberta.ca>","Fri, 21 Jan 2011 15:43:17 -0700","Re: YCSB tests for HBase on Whirr (was: Report to Apache board: first cut)"
"Ted Dunning <tdunning@maprtech.com>","Fri, 21 Jan 2011 14:43:42 -0800","Re: YCSB tests for HBase on Whirr (was: Report to Apache board: first cut)"
"Apache Hudson Server <hudson@hudson.apache.org>","Fri, 21 Jan 2011 23:13:58 +0000 (UTC)","Build failed in Hudson: HBase-TRUNK #1717"
"Lars George <lars.george@gmail.com>","Sat, 22 Jan 2011 00:00:15 +0000","Re: YCSB tests for HBase on Whirr (was: Report to Apache board: first cut)"
"Stack <stack@duboce.net>","Fri, 21 Jan 2011 16:41:28 -0800","Re: Simple Hbase jdo module for newbie"
"James Kennedy <james.kennedy@troove.net>","Fri, 21 Jan 2011 16:44:55 -0800","Re: HMaster won't die waiting for RegionServer that is already dead"
"Stack <stack@duboce.net>","Fri, 21 Jan 2011 16:52:11 -0800","Re: HMaster won't die waiting for RegionServer that is already dead"
"Ted Yu <yuzhihong@gmail.com>","Fri, 21 Jan 2011 20:09:38 -0800","hbase config for 0.90"
"Stack <stack@duboce.net>","Fri, 21 Jan 2011 21:56:11 -0800","Re: hbase config for 0.90"
"Stack <stack@duboce.net>","Fri, 21 Jan 2011 21:57:16 -0800","Re: hbase config for 0.90"
"Tatsuya Kawano <tatsuya6502@gmail.com>","Sat, 22 Jan 2011 15:11:01 +0900","Re: hbase config for 0.90"
"Ted Yu <yuzhihong@gmail.com>","Sat, 22 Jan 2011 07:44:46 -0800","Re: hbase config for 0.90"
"Ted Yu <yuzhihong@gmail.com>","Sat, 22 Jan 2011 08:00:55 -0800","parallelizing HBaseAdmin.flush()"
"Ted Yu <yuzhihong@gmail.com>","Sat, 22 Jan 2011 08:15:47 -0800","cluster setup WAS: hbase config for 0.90"
"Lars George <lars.george@gmail.com>","Sat, 22 Jan 2011 18:19:53 +0100","Re: HBase roadmaps"
"Stack <stack@duboce.net>","Sat, 22 Jan 2011 10:15:07 -0800","Re: HBase roadmaps"
"Tatsuya Kawano <tatsuya6502@gmail.com>","Sun, 23 Jan 2011 10:18:52 +0900","Items to contribute (plan)"
"Ted Yu <yuzhihong@gmail.com>","Sat, 22 Jan 2011 17:45:22 -0800","Re: Items to contribute (plan)"
"Ryan Rawson <ryanobjc@gmail.com>","Sat, 22 Jan 2011 17:48:33 -0800","Re: Items to contribute (plan)"
"Ted Yu <yuzhihong@gmail.com>","Sat, 22 Jan 2011 18:24:25 -0800","many 'Got brand-new compressor' messages in region server log"
"Matt Corgan <mcorgan@hotpads.com>","Sat, 22 Jan 2011 21:59:34 -0500","Re: many 'Got brand-new compressor' messages in region server log"
"mac fang <mac.hadoop@gmail.com>","Sun, 23 Jan 2011 22:23:22 +0800","Looks like duplicate in MemoryStoreFlusher flushSomeRegions()"
"Stack <stack@duboce.net>","Sun, 23 Jan 2011 10:52:29 -0800","Re: Looks like duplicate in MemoryStoreFlusher flushSomeRegions()"
"Apache Hudson Server <hudson@hudson.apache.org>","Sun, 23 Jan 2011 21:57:06 +0000 (UTC)","Build failed in Hudson: HBase-TRUNK #1718"
"Ted Yu <yuzhihong@gmail.com>","Sun, 23 Jan 2011 14:40:34 -0800","Re: Looks like duplicate in MemoryStoreFlusher flushSomeRegions()"
"Apache Hudson Server <hudson@hudson.apache.org>","Sun, 23 Jan 2011 23:44:56 +0000 (UTC)","Hudson build is back to normal : HBase-TRUNK #1719"
"Apache Hudson Server <hudson@hudson.apache.org>","Mon, 24 Jan 2011 00:07:10 +0000 (UTC)","Build failed in Hudson: hbase-0.90 #62"
"Andrew Purtell <apurtell@apache.org>","Sun, 23 Jan 2011 16:48:13 -0800 (PST)","Re: YCSB tests for HBase on Whirr (was: Report to Apache board: first cut)"
"mac fang <mac.hadoop@gmail.com>","Mon, 24 Jan 2011 13:48:33 +0800","Re: Looks like duplicate in MemoryStoreFlusher flushSomeRegions()"
"Lars George <lars.george@gmail.com>","Mon, 24 Jan 2011 14:55:21 +0000","Re: YCSB tests for HBase on Whirr (was: Report to Apache board: first cut)"
"=?ISO-8859-1?Q?C=E9sar_Couto?= <cesarfmc@gmail.com>","Mon, 24 Jan 2011 14:23:45 -0200","Do Lucene developers use FindBugs?"
"Stack <stack@duboce.net>","Mon, 24 Jan 2011 09:21:07 -0800","Re: Do Lucene developers use FindBugs?"
"Stack <stack@duboce.net>","Mon, 24 Jan 2011 09:54:31 -0800","Re: Items to contribute (plan)"
"=?ISO-8859-1?Q?C=E9sar_Couto?= <cesarfmc@gmail.com>","Mon, 24 Jan 2011 16:17:40 -0200","Do HBase developers use FindBugs?"
"Ted Dunning <tdunning@maprtech.com>","Mon, 24 Jan 2011 10:46:41 -0800","modified ycsb"
"Jean-Daniel Cryans <jdcryans@apache.org>","Mon, 24 Jan 2011 10:56:28 -0800","Re: parallelizing HBaseAdmin.flush()"
"Stack <stack@duboce.net>","Mon, 24 Jan 2011 11:02:11 -0800","Re: modified ycsb"
"Ted Yu <yuzhihong@gmail.com>","Mon, 24 Jan 2011 11:18:38 -0800","Re: parallelizing HBaseAdmin.flush()"
"Ryan Rawson <ryanobjc@gmail.com>","Mon, 24 Jan 2011 11:22:22 -0800","Re: parallelizing HBaseAdmin.flush()"
"Apache Hudson Server <hudson@hudson.apache.org>","Mon, 24 Jan 2011 21:12:00 +0000 (UTC)","Build failed in Hudson: HBase-TRUNK #1720"
"Ted Yu <yuzhihong@gmail.com>","Mon, 24 Jan 2011 16:58:50 -0800","HBASE-3234 and bad datanode error"
"Andrew Purtell <apurtell@apache.org>","Mon, 24 Jan 2011 16:59:49 -0800 (PST)","Re: modified ycsb"
"Andrew Purtell <apurtell@apache.org>","Mon, 24 Jan 2011 17:11:08 -0800 (PST)","Re: Do HBase developers use FindBugs?"
"Yifeng Jiang <yifeng.jiang@mail.rakuten.co.jp>","Tue, 25 Jan 2011 11:03:53 +0900","Re: Items to contribute (plan)"
"Apache Hudson Server <hudson@hudson.apache.org>","Tue, 25 Jan 2011 02:43:22 +0000 (UTC)","Build failed in Hudson: hbase-0.90 #63"
"Tatsuya Kawano <tatsuya6502@gmail.com>","Tue, 25 Jan 2011 13:06:48 +0900","Re: Items to contribute (plan)"
"Andrew Purtell <apurtell@apache.org>","Mon, 24 Jan 2011 20:45:11 -0800 (PST)","Re: Items to contribute (plan)"
"Amandeep Khurana <amansk@gmail.com>","Mon, 24 Jan 2011 21:27:41 -0800","Re: Items to contribute (plan)"
"Lars George <lars.george@gmail.com>","Tue, 25 Jan 2011 14:22:17 +0000","Overhead of Bloomfilters"
"Nicolas Spiegelberg <nspiegelberg@fb.com>","Tue, 25 Jan 2011 16:11:44 +0000","Re: Overhead of Bloomfilters"
"Ted Dunning <tdunning@maprtech.com>","Tue, 25 Jan 2011 09:31:00 -0800","Re: Overhead of Bloomfilters"
"Lars George <lars.george@gmail.com>","Tue, 25 Jan 2011 18:27:34 +0000","Missing filter documentation for Stargate"
"Lars George <lars.george@gmail.com>","Tue, 25 Jan 2011 18:31:12 +0000","Re: Overhead of Bloomfilters"
"Andrew Purtell <apurtell@apache.org>","Tue, 25 Jan 2011 14:36:52 -0800 (PST)","Re: Missing filter documentation for Stargate"
"Ted Yu <yuzhihong@gmail.com>","Tue, 25 Jan 2011 16:37:06 -0800","quick method for removing all rows in a table"
"Jean-Daniel Cryans <jdcryans@apache.org>","Tue, 25 Jan 2011 17:22:34 -0800","Re: quick method for removing all rows in a table"
"mac fang <mac.hadoop@gmail.com>","Wed, 26 Jan 2011 10:05:52 +0800","Re: Looks like duplicate in MemoryStoreFlusher flushSomeRegions()"
"Ryan Rawson <ryanobjc@gmail.com>","Tue, 25 Jan 2011 18:23:28 -0800","Re: Looks like duplicate in MemoryStoreFlusher flushSomeRegions()"
"Ryan Rawson <ryanobjc@gmail.com>","Tue, 25 Jan 2011 18:30:36 -0800","Re: Looks like duplicate in MemoryStoreFlusher flushSomeRegions()"
"Tatsuya Kawano <tatsuya6502@gmail.com>","Wed, 26 Jan 2011 12:34:33 +0900","Re: Items to contribute (plan)"
"mac fang <mac.hadoop@gmail.com>","Wed, 26 Jan 2011 12:34:28 +0800","Re: Looks like duplicate in MemoryStoreFlusher flushSomeRegions()"
"Yifeng Jiang <yifeng.jiang@mail.rakuten.co.jp>","Wed, 26 Jan 2011 14:14:42 +0900","Re: Items to contribute (plan)"
"Ted Yu <yuzhihong@gmail.com>","Tue, 25 Jan 2011 21:50:23 -0800","zk_dump and Connection reset"
"Tatsuya Kawano <tatsuya6502@gmail.com>","Wed, 26 Jan 2011 17:11:12 +0900","Re: Items to contribute (plan)"
"Tatsuya Kawano <tatsuya6502@gmail.com>","Wed, 26 Jan 2011 17:14:55 +0900","Re: Items to contribute (plan)"
"Tatsuya Kawano <tatsuya6502@gmail.com>","Wed, 26 Jan 2011 20:32:10 +0900","Re: Items to contribute (plan)"
"Tatsuya Kawano <tatsuya6502@gmail.com>","Wed, 26 Jan 2011 20:42:47 +0900","Re: Items to contribute (plan)"
"Ted Yu <yuzhihong@gmail.com>","Wed, 26 Jan 2011 10:19:40 -0800","releasing connections to zookeeper"
"Ted Dunning <tdunning@maprtech.com>","Wed, 26 Jan 2011 10:44:42 -0800","Re: releasing connections to zookeeper"
"Stack <stack@duboce.net>","Wed, 26 Jan 2011 14:31:13 -0800","Re: releasing connections to zookeeper"
"Ted Yu <yuzhihong@gmail.com>","Wed, 26 Jan 2011 15:50:47 -0800","Re: releasing connections to zookeeper"
"Apache Hudson Server <hudson@hudson.apache.org>","Thu, 27 Jan 2011 03:37:41 +0000 (UTC)","Build failed in Hudson: hbase-0.90 #64"
"Lars George <lars.george@gmail.com>","Thu, 27 Jan 2011 08:10:56 +0100","Update LZO wiki page"
"Apache Hudson Server <hudson@hudson.apache.org>","Thu, 27 Jan 2011 10:06:21 +0000 (UTC)","Build failed in Hudson: hbase-0.90 #65"
"Ted Yu <yuzhihong@gmail.com>","Thu, 27 Jan 2011 03:41:41 -0800","Re: HBASE-3234 and bad datanode error"
"Apache Hudson Server <hudson@hudson.apache.org>","Thu, 27 Jan 2011 11:45:32 +0000 (UTC)","Hudson build is back to normal : HBase-TRUNK #1721"
"Jean-Daniel Cryans <jdcryans@apache.org>","Thu, 27 Jan 2011 10:02:19 -0800","Re: HBASE-3234 and bad datanode error"
"Vladimir Rodionov <vrodionov@carrieriq.com>","Thu, 27 Jan 2011 15:08:56 -0800","Scan operator ignores setMaxVersions (0.20.6)"
"Ryan Rawson <ryanobjc@gmail.com>","Thu, 27 Jan 2011 15:13:49 -0800","Re: Scan operator ignores setMaxVersions (0.20.6)"
"Vladimir Rodionov <vrodionov@carrieriq.com>","Thu, 27 Jan 2011 16:05:30 -0800","RE: Scan operator ignores setMaxVersions (0.20.6)"
"Vladimir Rodionov <vrodionov@carrieriq.com>","Thu, 27 Jan 2011 16:13:17 -0800","RE: Scan operator ignores setMaxVersions (0.20.6)"
"Apache Hudson Server <hudson@hudson.apache.org>","Fri, 28 Jan 2011 06:47:37 +0000 (UTC)","Build failed in Hudson: HBase-TRUNK #1723"
"Lars George <lars.george@gmail.com>","Fri, 28 Jan 2011 10:28:50 +0100","Stargate scanner issue"
"Ted Yu <yuzhihong@gmail.com>","Fri, 28 Jan 2011 10:01:55 -0800","Re: HBASE-3234 and bad datanode error"
"Jean-Daniel Cryans <jdcryans@apache.org>","Fri, 28 Jan 2011 10:42:42 -0800","Re: HBASE-3234 and bad datanode error"
"Ted Yu <yuzhihong@gmail.com>","Fri, 28 Jan 2011 10:47:53 -0800","Re: HBASE-3234 and bad datanode error"
"Ted Yu <tyu@carrieriq.com>","Fri, 28 Jan 2011 11:20:11 -0800","load balancing in HBase-3373"
"Apache Hudson Server <hudson@hudson.apache.org>","Fri, 28 Jan 2011 21:39:11 +0000 (UTC)","Build failed in Hudson: hbase-0.90 #66"
"Ted Yu <yuzhihong@gmail.com>","Fri, 28 Jan 2011 16:17:35 -0800","RowCounter and versions"
"Jean-Daniel Cryans <jdcryans@apache.org>","Fri, 28 Jan 2011 16:22:22 -0800","Re: RowCounter and versions"
"Ted Yu <yuzhihong@gmail.com>","Fri, 28 Jan 2011 16:40:26 -0800","Re: RowCounter and versions"
"Apache Hudson Server <hudson@hudson.apache.org>","Sat, 29 Jan 2011 01:21:21 +0000 (UTC)","Build failed in Hudson: HBase-TRUNK #1724"
"""France Abonnements via Coximail"" <FranceAbonnements@bp06.net> ","Sat, 29 Jan 2011 02:32:02 +0100","=?iso-8859-1?B?RGVybmllciBhcHBlbCBsYW5j6SDgICBJU0FCRUxMRQ==?="
"Ted Yu <yuzhihong@gmail.com>","Sun, 30 Jan 2011 07:40:20 -0800","Re: HBASE-3234 and bad datanode error"
"Ted Yu <yuzhihong@gmail.com>","Sun, 30 Jan 2011 12:41:35 -0800","write performance degradation"
"Stack <stack@duboce.net>","Sun, 30 Jan 2011 17:34:14 -0500","Re: write performance degradation"
"Ted Yu <yuzhihong@gmail.com>","Sun, 30 Jan 2011 14:49:32 -0800","Re: write performance degradation"
"Stack <stack@duboce.net>","Sun, 30 Jan 2011 17:59:19 -0500","Re: write performance degradation"
"Ted Yu <yuzhihong@gmail.com>","Sun, 30 Jan 2011 15:28:00 -0800","Re: write performance degradation"
"tsuna <tsunanet@gmail.com>","Sun, 30 Jan 2011 22:24:06 -0800","Re: write performance degradation"
"Ted Yu <yuzhihong@gmail.com>","Mon, 31 Jan 2011 01:05:55 -0800","Re: write performance degradation"
"Zhou Shuaifeng <zhoushuaifeng@huawei.com>","Mon, 31 Jan 2011 17:43:38 +0800","IPC Server Responder   out put error causing RegionServer down"
"Lars George <lars.george@gmail.com>","Mon, 31 Jan 2011 11:19:05 +0100","Running hbck locally"
"Zhou Shuaifeng <zhoushuaifeng@huawei.com>","Mon, 31 Jan 2011 18:49:45 +0800","Re: IPC Server Responder   out put error causing RegionServer down"
"eric_bdr@yahoo.com","Mon, 31 Jan 2011 07:09:43 -0800 (PST)","submitting jobs from a webapp"
"Jean-Daniel Cryans <jdcryans@apache.org>","Mon, 31 Jan 2011 09:49:07 -0800","Re: submitting jobs from a webapp"
"Stack <stack@duboce.net>","Mon, 31 Jan 2011 10:11:20 -0800","Re: submitting jobs from a webapp"
"Jean-Daniel Cryans <jdcryans@apache.org>","Mon, 31 Jan 2011 10:22:54 -0800","Re: IPC Server Responder out put error causing RegionServer down"
"Ted Yu <yuzhihong@gmail.com>","Mon, 31 Jan 2011 10:25:09 -0800","Re: write performance degradation"
"Jean-Daniel Cryans <jdcryans@apache.org>","Mon, 31 Jan 2011 10:40:22 -0800","Re: Running hbck locally"
"Jean-Daniel Cryans <jdcryans@apache.org>","Mon, 31 Jan 2011 11:23:48 -0800","Re: HBASE-3234 and bad datanode error"
"Apache Hudson Server <hudson@hudson.apache.org>","Mon, 31 Jan 2011 21:46:13 +0000 (UTC)","Build failed in Hudson: HBase-TRUNK #1725"
"Apache Hudson Server <hudson@hudson.apache.org>","Mon, 31 Jan 2011 22:07:32 +0000 (UTC)","Build failed in Hudson: hbase-0.90 #67"
