"Developer","Date","Subject"
"Lars Francke <lars.francke@gmail.com>","Sat, 1 Aug 2015 02:05:01 +0200","Re: Support for upgrades from 0.94"
"""Heng Chen (JIRA)"" <jira@apache.org>","Sun, 2 Aug 2015 07:52:05 +0000 (UTC)","[jira] [Created] (HBASE-14178) regionserver blocks because of waiting for offsetLock"
"""songwanging (JIRA)"" <jira@apache.org>","Sun, 2 Aug 2015 16:47:04 +0000 (UTC)","[jira] [Created] (HBASE-14179) catch the same Exception twice"
"Stack <stack@duboce.net>","Sun, 2 Aug 2015 19:52:34 +0200","Re: [DISCUSSION] Switching from RTC to CTR"
"Andrew Purtell <andrew.purtell@gmail.com>","Sun, 2 Aug 2015 11:59:50 -0700","Re: [DISCUSSION] Switching from RTC to CTR"
"""Lars Hofhansl (JIRA)"" <jira@apache.org>","Sun, 2 Aug 2015 21:13:05 +0000 (UTC)","[jira] [Resolved] (HBASE-12853) distributed write pattern to replace ad hoc 'salting'"
"Andrew Purtell <andrew.purtell@gmail.com>","Sun, 2 Aug 2015 15:28:40 -0700","Re: [DISCUSSION] Switching from RTC to CTR"
"""Ted Yu (JIRA)"" <jira@apache.org>","Mon, 3 Aug 2015 16:20:05 +0000 (UTC)","[jira] [Resolved] (HBASE-13864) HColumnDescriptor should parse the output from master and from describe for TTL"
"""Vladimir Rodionov (JIRA)"" <jira@apache.org>","Mon, 3 Aug 2015 16:51:04 +0000 (UTC)","[jira] [Resolved] (HBASE-14125) HBase Backup/Restore Phase 2: Cancel backup"
"""Vladimir Rodionov (JIRA)"" <jira@apache.org>","Mon, 3 Aug 2015 16:51:05 +0000 (UTC)","[jira] [Resolved] (HBASE-14130) HBase Backup/Restore Phase 2: Delete backup image"
"""Vladimir Rodionov (JIRA)"" <jira@apache.org>","Mon, 3 Aug 2015 16:52:05 +0000 (UTC)","[jira] [Resolved] (HBASE-14132) HBase Backup/Restore Phase 2: History of backups"
"""Vladimir Rodionov (JIRA)"" <jira@apache.org>","Mon, 3 Aug 2015 16:52:05 +0000 (UTC)","[jira] [Resolved] (HBASE-14131) HBase Backup/Restore Phase 2: Describe backup image"
"""Vladimir Rodionov (JIRA)"" <jira@apache.org>","Mon, 3 Aug 2015 16:53:05 +0000 (UTC)","[jira] [Resolved] (HBASE-14133) HBase Backup/Restore Phase 2: Status (and progress) of backup request"
"=?utf-8?Q?Adri=C3=A0_V=2E_=28JIRA=29?= <jira@apache.org>","Mon, 3 Aug 2015 17:00:06 +0000 (UTC)","[jira] [Created] (HBASE-14180) Change timeout - SocketTimeoutException because of callTimeout"
"""Andrew Purtell (JIRA)"" <jira@apache.org>","Mon, 3 Aug 2015 22:04:05 +0000 (UTC)","[jira] [Resolved] (HBASE-14180) Change timeout - SocketTimeoutException because of callTimeout"
"""Ted Malaska (JIRA)"" <jira@apache.org>","Mon, 3 Aug 2015 22:30:05 +0000 (UTC)","[jira] [Created] (HBASE-14181) Add Spark DataFrame DataSource to HBase-Spark Module"
"""Ted Yu (JIRA)"" <jira@apache.org>","Mon, 3 Aug 2015 22:32:04 +0000 (UTC)","[jira] [Reopened] (HBASE-13965) Stochastic Load Balancer JMX Metrics"
"Nick Dimiduk <ndimiduk@apache.org>","Mon, 3 Aug 2015 16:04:33 -0700","Re: [jira] [Created] (HDFS-8722) Optimize datanode writes for small writes and flushes"
"""Anoop Sam John (JIRA)"" <jira@apache.org>","Tue, 4 Aug 2015 04:47:05 +0000 (UTC)","[jira] [Resolved] (HBASE-14179) catch the same Exception twice"
"""Heng Chen (JIRA)"" <jira@apache.org>","Tue, 4 Aug 2015 11:03:04 +0000 (UTC)","[jira] [Created] (HBASE-14182) My regionserver change ip. But hmaster still connect to old ip after the rs restart"
"""Ashish Singhi (JIRA)"" <jira@apache.org>","Tue, 4 Aug 2015 13:19:04 +0000 (UTC)","[jira] [Created] (HBASE-14183) Scanning hbase meta table is failing in master branch"
"""Ted Malaska (JIRA)"" <jira@apache.org>","Tue, 4 Aug 2015 13:41:05 +0000 (UTC)","[jira] [Created] (HBASE-14184) Fix indention and type-o in JavaHBaseContext"
"""Biju Nair (JIRA)"" <jira@apache.org>","Tue, 4 Aug 2015 17:36:05 +0000 (UTC)","[jira] [Created] (HBASE-14185) Incorrect region names logged by MemStoreFlusher.java"
"""Anoop Sam John (JIRA)"" <jira@apache.org>","Tue, 4 Aug 2015 17:40:06 +0000 (UTC)","[jira] [Created] (HBASE-14186) Read mvcc vlong optimization"
"Priyanka B <priyanka.bhalerao@gmail.com>","Tue, 4 Aug 2015 11:51:54 -0700 (MST)","Re: HTrace"
"Nick Dimiduk <ndimiduk@apache.org>","Tue, 4 Aug 2015 12:27:32 -0700","Re: [DISCUSS] non-public comments on jira"
"Andrew Purtell <apurtell@apache.org>","Tue, 4 Aug 2015 12:55:57 -0700","Please help with HBASE-14085"
"Sean Busbey <busbey@cloudera.com>","Tue, 4 Aug 2015 15:16:33 -0500","Re: Please help with HBASE-14085"
"Andrew Purtell <andrew.purtell@gmail.com>","Tue, 4 Aug 2015 13:29:15 -0700","Re: Please help with HBASE-14085"
"Sean Busbey <busbey@cloudera.com>","Tue, 4 Aug 2015 15:38:47 -0500","Re: Please help with HBASE-14085"
"Andrew Purtell <apurtell@apache.org>","Tue, 4 Aug 2015 14:00:50 -0700","Re: Please help with HBASE-14085"
"Sean Busbey <busbey@cloudera.com>","Tue, 4 Aug 2015 16:05:12 -0500","Re: Please help with HBASE-14085"
"Andrew Purtell <apurtell@apache.org>","Tue, 4 Aug 2015 14:20:28 -0700","Re: Please help with HBASE-14085"
"Andrew Purtell <apurtell@apache.org>","Tue, 4 Aug 2015 14:55:12 -0700","Re: Please help with HBASE-14085"
"""Andrew Purtell (JIRA)"" <jira@apache.org>","Tue, 4 Aug 2015 22:23:05 +0000 (UTC)","[jira] [Resolved] (HBASE-14182) My regionserver change ip. But hmaster still connect to old ip after the rs restart"
"Nick Dimiduk <ndimiduk@gmail.com>","Tue, 4 Aug 2015 16:51:12 -0700","Re: HTrace"
"Zephyr Guo <gzh1992n@gmail.com>","Wed, 5 Aug 2015 15:44:51 +0800","How to redeploy coprocessor?"
"Jean-Marc Spaggiari <jean-marc@spaggiari.org>","Wed, 5 Aug 2015 10:17:30 -0400","Re: [jira] [Created] (HDFS-8722) Optimize datanode writes for small writes and flushes"
"""Andrew Purtell (JIRA)"" <jira@apache.org>","Wed, 5 Aug 2015 16:52:05 +0000 (UTC)","[jira] [Resolved] (HBASE-11334) Migrate to SLF4J as logging interface"
"Colin McCabe <cmccabe@alumni.cmu.edu>","Wed, 5 Aug 2015 09:52:17 -0700","Re: [jira] [Created] (HDFS-8722) Optimize datanode writes for small writes and flushes"
"Priyanka Bhalerao-Deshpande <priyanka.bhalerao@gmail.com>","Wed, 5 Aug 2015 09:56:35 -0700","Re: HTrace"
"""Sean Busbey (JIRA)"" <jira@apache.org>","Wed, 5 Aug 2015 17:00:07 +0000 (UTC)","[jira] [Created] (HBASE-14187) Add Thrift 1 RPC to batch gets in a single call"
"Jean-Marc Spaggiari <jean-marc@spaggiari.org>","Wed, 5 Aug 2015 13:02:12 -0400","Re: [jira] [Created] (HDFS-8722) Optimize datanode writes for small writes and flushes"
"James Taylor <jamestaylor@apache.org>","Wed, 5 Aug 2015 12:17:11 -0700","[ANNOUNCE] Apache Phoenix 4.5 released"
"Masatake Iwasaki <iwasakims@oss.nttdata.co.jp>","Thu, 06 Aug 2015 10:43:23 +0900","Re: HTrace"
"""ramkrishna.s.vasudevan (JIRA)"" <jira@apache.org>","Thu, 6 Aug 2015 05:27:04 +0000 (UTC)","[jira] [Created] (HBASE-14188) Read path optimizations after HBASE-11425 profiling"
"""Simon Law (JIRA)"" <jira@apache.org>","Thu, 6 Aug 2015 07:18:05 +0000 (UTC)","[jira] [Reopened] (HBASE-14092) Add -noLock and -noBalanceSwitch options to hbck"
"""Heng Chen (JIRA)"" <jira@apache.org>","Thu, 6 Aug 2015 09:05:04 +0000 (UTC)","[jira] [Created] (HBASE-14189) BlockCache options should consider CF Level BlockCacheEnabled setting"
"ashish singhi <ashish.singhi@huawei.com>","Thu, 6 Aug 2015 12:49:01 +0000","[Replication] ScopeWALEntryFilter Vs TableCfWALEntryFilter "
"Ted Yu <yuzhihong@gmail.com>","Thu, 6 Aug 2015 07:24:35 -0700","Re: [Replication] ScopeWALEntryFilter Vs TableCfWALEntryFilter"
"Sean Busbey <busbey@cloudera.com>","Thu, 6 Aug 2015 10:11:25 -0500","finding review stats"
"Priyanka Bhalerao-Deshpande <priyanka.bhalerao@gmail.com>","Thu, 6 Aug 2015 09:13:30 -0700","Re: HTrace"
"""Ted Yu (JIRA)"" <jira@apache.org>","Thu, 6 Aug 2015 16:33:05 +0000 (UTC)","[jira] [Created] (HBASE-14190) Assign hbase:namespace table ahead of user region assignment"
"""Tom James (JIRA)"" <jira@apache.org>","Thu, 6 Aug 2015 16:42:05 +0000 (UTC)","[jira] [Created] (HBASE-14191) HBase grant at specific column family level does not work for Groups"
"Ashish Singhi <ashish.singhi.apache@gmail.com>","Thu, 6 Aug 2015 22:41:28 +0530","Re: [Replication] ScopeWALEntryFilter Vs TableCfWALEntryFilter"
"ramkrishna vasudevan <ramkrishna.s.vasudevan@gmail.com>","Fri, 7 Aug 2015 00:00:07 +0530","Re: [Replication] ScopeWALEntryFilter Vs TableCfWALEntryFilter"
"""Rick Kellogg (JIRA)"" <jira@apache.org>","Thu, 6 Aug 2015 19:02:04 +0000 (UTC)","[jira] [Created] (HBASE-14192) HBASE REST Cluster Constructor with String List"
"Ashish Singhi <ashish.singhi.apache@gmail.com>","Fri, 7 Aug 2015 01:28:52 +0530","Re: [Replication] ScopeWALEntryFilter Vs TableCfWALEntryFilter"
"""Anoop Sam John (JIRA)"" <jira@apache.org>","Fri, 7 Aug 2015 16:02:45 +0000 (UTC)","[jira] [Resolved] (HBASE-14191) HBase grant at specific column family level does not work for Groups"
"""Lars Francke (JIRA)"" <jira@apache.org>","Fri, 7 Aug 2015 16:33:45 +0000 (UTC)","[jira] [Created] (HBASE-14193) Remove support for direct upgrade from pre-0.96 versions"
"Lars Francke <lars.francke@gmail.com>","Fri, 7 Aug 2015 18:39:12 +0200","Re: Support for upgrades from 0.94"
"""Sean Busbey (JIRA)"" <jira@apache.org>","Fri, 7 Aug 2015 16:58:46 +0000 (UTC)","[jira] [Reopened] (HBASE-14087) ensure correct ASF policy compliant headers on source/docs"
"""Lars Francke (JIRA)"" <jira@apache.org>","Fri, 7 Aug 2015 17:25:45 +0000 (UTC)","[jira] [Created] (HBASE-14194) Undeprecate methods in ThriftServerRunner.HBaseHandler"
"""Vladimir Rodionov (JIRA)"" <jira@apache.org>","Fri, 7 Aug 2015 18:12:46 +0000 (UTC)","[jira] [Created] (HBASE-14195) Closed connections are not removed from ConnectionCache (Thrift, REST)"
"""Andrew Purtell (JIRA)"" <jira@apache.org>","Fri, 7 Aug 2015 18:15:46 +0000 (UTC)","[jira] [Resolved] (HBASE-14105) Add shell tests for Snapshot"
"""Vladimir Rodionov (JIRA)"" <jira@apache.org>","Fri, 7 Aug 2015 18:29:46 +0000 (UTC)","[jira] [Created] (HBASE-14196) Do not use local thread cache of table instances in Thrift/Thrift2 server"
"""Ted Yu (JIRA)"" <jira@apache.org>","Fri, 7 Aug 2015 18:34:46 +0000 (UTC)","[jira] [Created] (HBASE-14197) TestRegionServerHostname#testInvalidRegionServerHostnameAbortsServer fails in Jenkins"
"""Vladimir Rodionov (JIRA)"" <jira@apache.org>","Fri, 7 Aug 2015 21:06:45 +0000 (UTC)","[jira] [Created] (HBASE-14198) Eclipse project generation is broken in master"
"""Vladimir Rodionov (JIRA)"" <jira@apache.org>","Fri, 7 Aug 2015 21:43:45 +0000 (UTC)","[jira] [Resolved] (HBASE-14195) Closed connections are not removed from ConnectionCache (Thrift, REST)"
"""Vladimir Rodionov (JIRA)"" <jira@apache.org>","Fri, 7 Aug 2015 22:03:46 +0000 (UTC)","[jira] [Resolved] (HBASE-14196) Do not use local thread cache of table instances in Thrift/Thrift2 server"
"Andrew Purtell <apurtell@apache.org>","Fri, 7 Aug 2015 15:37:44 -0700","Resuming releases"
"Ted Malaska <ted.malaska@cloudera.com>","Fri, 7 Aug 2015 18:39:47 -0400","Re: Resuming releases"
"""Andrew Purtell (JIRA)"" <jira@apache.org>","Fri, 7 Aug 2015 23:31:46 +0000 (UTC)","[jira] [Created] (HBASE-14199) maven-remote-resources-plugin failure processing NOTICE.vm in hbase-assembly"
"Sean Busbey <busbey@cloudera.com>","Fri, 7 Aug 2015 20:41:16 -0500","Re: [jira] [Created] (HBASE-14199) maven-remote-resources-plugin failure processing NOTICE.vm in hbase-assembly"
"""Ted Yu (JIRA)"" <jira@apache.org>","Sat, 8 Aug 2015 17:36:45 +0000 (UTC)","[jira] [Created] (HBASE-14200) Separate some subtests of TestStochasticLoadBalancer into TestStochasticLoadBalancer2"
"""Misty Stanley-Jones (JIRA)"" <jira@apache.org>","Sun, 9 Aug 2015 22:22:45 +0000 (UTC)","[jira] [Resolved] (HBASE-13928) Correct doc bug introduced in HBASE-11735"
"""Misty Stanley-Jones (JIRA)"" <jira@apache.org>","Mon, 10 Aug 2015 02:30:46 +0000 (UTC)","[jira] [Resolved] (HBASE-11299) Stop making javadoc for generated classes"
"Jonathan Hsieh <jon@cloudera.com>","Mon, 10 Aug 2015 09:53:37 -0700","Re: [DISCUSSION] Switching from RTC to CTR"
"Elliott Clark <eclark@apache.org>","Mon, 10 Aug 2015 10:10:43 -0700","Re: Resuming releases"
"Nick Dimiduk <ndimiduk@apache.org>","Mon, 10 Aug 2015 10:46:15 -0700","Request for help: shaded client jars (HBASE-13889)"
"""Simon Law (JIRA)"" <jira@apache.org>","Mon, 10 Aug 2015 18:16:45 +0000 (UTC)","[jira] [Created] (HBASE-14201) hbck should not take a lock unless fixing errors"
"""Simon Law (JIRA)"" <jira@apache.org>","Mon, 10 Aug 2015 18:18:47 +0000 (UTC)","[jira] [Resolved] (HBASE-14092) hbck should run without locks by default and only disable the balancer when necessary"
"Elliott Clark <eclark@apache.org>","Mon, 10 Aug 2015 13:22:09 -0700","Re: Request for help: shaded client jars (HBASE-13889)"
"Andrew Purtell <apurtell@apache.org>","Mon, 10 Aug 2015 15:49:39 -0700","Re: [DISCUSSION] Switching from RTC to CTR"
"""Andrew Purtell (JIRA)"" <jira@apache.org>","Tue, 11 Aug 2015 02:03:46 +0000 (UTC)","[jira] [Resolved] (HBASE-14199) maven-remote-resources-plugin failure processing NOTICE.vm in hbase-assembly"
"""Anoop Sam John (JIRA)"" <jira@apache.org>","Tue, 11 Aug 2015 03:42:45 +0000 (UTC)","[jira] [Created] (HBASE-14202) Reduce garbage we create"
"""Heng Chen (JIRA)"" <jira@apache.org>","Tue, 11 Aug 2015 03:52:46 +0000 (UTC)","[jira] [Created] (HBASE-14203) remove duplicate code getTableDescriptor in HTable"
"""Hao Ji (JIRA)"" <jira@apache.org>","Tue, 11 Aug 2015 06:14:45 +0000 (UTC)","[jira] [Created] (HBASE-14204) HBase Client API not working with pig 0.14 and 0.15"
"""Jan Van Besien (JIRA)"" <jira@apache.org>","Tue, 11 Aug 2015 08:45:45 +0000 (UTC)","[jira] [Created] (HBASE-14205) RegionCoprocessorHost System.nanoTime() performance bottleneck"
"""Anton Nazaruk (JIRA)"" <jira@apache.org>","Tue, 11 Aug 2015 09:28:45 +0000 (UTC)","[jira] [Created] (HBASE-14206) MultiRowRangeFilter returns records whose rowKeys are out of allowed ranges"
"""Enis Soztutar (JIRA)"" <jira@apache.org>","Tue, 11 Aug 2015 10:37:46 +0000 (UTC)","[jira] [Resolved] (HBASE-14204) HBase Client API not working with pig 0.14 and 0.15"
"=?UTF-8?Q?Enis_S=C3=B6ztutar?= <enis@apache.org>","Tue, 11 Aug 2015 15:11:21 +0300","Re: [DISCUSSION] Switching from RTC to CTR"
"""Pankaj Kumar (JIRA)"" <jira@apache.org>","Tue, 11 Aug 2015 13:02:46 +0000 (UTC)","[jira] [Created] (HBASE-14207) Region was hijacked and remained in transition when RS failed to open a region and later regionplan changed to new RS on retry"
"""Elliott Clark (JIRA)"" <jira@apache.org>","Tue, 11 Aug 2015 14:52:49 +0000 (UTC)","[jira] [Resolved] (HBASE-12325) Add Utility to remove snapshot from a directory"
"""Elliott Clark (JIRA)"" <jira@apache.org>","Tue, 11 Aug 2015 14:59:46 +0000 (UTC)","[jira] [Created] (HBASE-14208) Remove yarn dependencies on -common and -client"
"""Andrew Purtell (JIRA)"" <jira@apache.org>","Tue, 11 Aug 2015 16:54:46 +0000 (UTC)","[jira] [Created] (HBASE-14209) [0.98] TestShell visibility tests failing"
"""Vladimir Rodionov (JIRA)"" <jira@apache.org>","Tue, 11 Aug 2015 17:59:45 +0000 (UTC)","[jira] [Reopened] (HBASE-14196) Do not use local thread cache of table instances in Thrift/Thrift2 server"
"""Ted Yu (JIRA)"" <jira@apache.org>","Tue, 11 Aug 2015 18:08:46 +0000 (UTC)","[jira] [Created] (HBASE-14210) Create test for cell level ACLs involving user group"
"Stack <stack@duboce.net>","Tue, 11 Aug 2015 11:23:13 -0700","Re: DISCUSSION: lets do a developer workshop on near-term work"
"""Elliott Clark (JIRA)"" <jira@apache.org>","Tue, 11 Aug 2015 20:37:46 +0000 (UTC)","[jira] [Created] (HBASE-14211) Add more rigorous integration tests of splits"
"""Stephen Yuan Jiang (JIRA)"" <jira@apache.org>","Tue, 11 Aug 2015 21:38:45 +0000 (UTC)","[jira] [Created] (HBASE-14212) Add IT test for procedure-v2-based namespace DDL"
"""Nick Dimiduk (JIRA)"" <jira@apache.org>","Tue, 11 Aug 2015 21:40:46 +0000 (UTC)","[jira] [Created] (HBASE-14213) Backport HBASE-14085 ""Correct LICENSE and NOTICE files in artifacts"" to 0.94"
"""Nick Dimiduk (JIRA)"" <jira@apache.org>","Tue, 11 Aug 2015 21:44:47 +0000 (UTC)","[jira] [Resolved] (HBASE-14087) ensure correct ASF policy compliant headers on source/docs"
"""Andrew Purtell (JIRA)"" <jira@apache.org>","Tue, 11 Aug 2015 23:18:47 +0000 (UTC)","[jira] [Created] (HBASE-14214) list_labels shouldn't raise ArgumentError if no labels are defined"
"Nick Dimiduk <ndimiduk@apache.org>","Tue, 11 Aug 2015 16:34:15 -0700","Re: Thinking about 1.1.2"
"""Biju Nair (JIRA)"" <jira@apache.org>","Wed, 12 Aug 2015 00:02:45 +0000 (UTC)","[jira] [Created] (HBASE-14215) Default cost used for PrimaryRegionCountSkewCostFunction is not sufficient"
"""Ted Malaska (JIRA)"" <jira@apache.org>","Wed, 12 Aug 2015 02:32:45 +0000 (UTC)","[jira] [Created] (HBASE-14216) Consolidate MR and Spark BulkLoad shared functions and string consts"
"""Ted Malaska (JIRA)"" <jira@apache.org>","Wed, 12 Aug 2015 02:35:45 +0000 (UTC)","[jira] [Created] (HBASE-14217) Add Java access to Spark bulk load functionality"
"=?UTF-8?Q?Enis_S=C3=B6ztutar?= <enis@apache.org>","Wed, 12 Aug 2015 11:34:28 +0300","Re: DISCUSSION: lets do a developer workshop on near-term work"
"Stack <stack@duboce.net>","Wed, 12 Aug 2015 12:29:11 -0700","Re: DISCUSSION: lets do a developer workshop on near-term work"
"""Jean-Marc Spaggiari (JIRA)"" <jira@apache.org>","Wed, 12 Aug 2015 19:47:45 +0000 (UTC)","[jira] [Created] (HBASE-14218) CompareFilter based on part of the key"
"""Jean-Marc Spaggiari (JIRA)"" <jira@apache.org>","Wed, 12 Aug 2015 21:23:46 +0000 (UTC)","[jira] [Resolved] (HBASE-14218) CompareFilter based on part of the key"
"""Andrew Purtell (JIRA)"" <jira@apache.org>","Wed, 12 Aug 2015 23:04:46 +0000 (UTC)","[jira] [Resolved] (HBASE-13391) TestRegionObserverInterface frequently failing on branch-1"
"""Andrew Purtell (JIRA)"" <jira@apache.org>","Thu, 13 Aug 2015 02:04:46 +0000 (UTC)","[jira] [Resolved] (HBASE-13985) Add configuration to skip validating HFile format when bulk loading"
"<dinuswt22@gmail.com>","Thu, 13 Aug 2015 11:39:02 +0000","ead></head><body><pre style=""word-wrap: break-word; white-space: pre-wrap;"">From dev-return-53503-apmail-hbase-dev-archive=hbase.apache.org@hbase.apache.org  Thu Aug 13 14:33:57 2015"
"""Nick Dimiduk (JIRA)"" <jira@apache.org>","Thu, 13 Aug 2015 17:59:46 +0000 (UTC)","[jira] [Created] (HBASE-14219) src tgz no longer builds after HBASE-14085"
"""Andrew Purtell (JIRA)"" <jira@apache.org>","Thu, 13 Aug 2015 18:27:47 +0000 (UTC)","[jira] [Resolved] (HBASE-12952) Seek with prefixtree may hang"
"""Nick Dimiduk (JIRA)"" <jira@apache.org>","Thu, 13 Aug 2015 19:50:46 +0000 (UTC)","[jira] [Created] (HBASE-14220) test-patch.sh should verify src tgz generates and builds correctly"
"Nick Dimiduk <ndimiduk@apache.org>","Thu, 13 Aug 2015 14:21:37 -0700","[VOTE] First release candidate for HBase 1.1.2 (RC0) is available"
"""Ted Yu (JIRA)"" <jira@apache.org>","Thu, 13 Aug 2015 21:37:47 +0000 (UTC)","[jira] [Resolved] (HBASE-13376) Improvements to Stochastic load balancer"
"Nick Dimiduk <ndimiduk@gmail.com>","Thu, 13 Aug 2015 15:23:31 -0700","Re: In Windows, cannot capture HBase prompt('hbase(main):001:0>') from neither standard output nor standard error using process API"
"Ted Yu <yuzhihong@gmail.com>","Thu, 13 Aug 2015 16:07:47 -0700","Re: [VOTE] First release candidate for HBase 1.1.2 (RC0) is available"
"Andrew Purtell <apurtell@apache.org>","Thu, 13 Aug 2015 16:27:39 -0700","Re: [VOTE] First release candidate for HBase 1.1.2 (RC0) is available"
"Jean-Marc Spaggiari <jean-marc@spaggiari.org>","Thu, 13 Aug 2015 19:35:43 -0400","Re: [VOTE] First release candidate for HBase 1.1.2 (RC0) is available"
"Ted Yu <yuzhihong@gmail.com>","Thu, 13 Aug 2015 16:36:49 -0700","Re: [VOTE] First release candidate for HBase 1.1.2 (RC0) is available"
"Nick Dimiduk <ndimiduk@apache.org>","Thu, 13 Aug 2015 16:41:57 -0700","Re: [VOTE] First release candidate for HBase 1.1.2 (RC0) is available"
"Ted Yu <yuzhihong@gmail.com>","Thu, 13 Aug 2015 16:54:19 -0700","Re: [VOTE] First release candidate for HBase 1.1.2 (RC0) is available"
"Andrew Purtell <apurtell@apache.org>","Thu, 13 Aug 2015 16:55:10 -0700","Re: [VOTE] First release candidate for HBase 1.1.2 (RC0) is available"
"Jean-Marc Spaggiari <jean-marc@spaggiari.org>","Thu, 13 Aug 2015 19:56:03 -0400","Re: [VOTE] First release candidate for HBase 1.1.2 (RC0) is available"
"Ted Yu <yuzhihong@gmail.com>","Thu, 13 Aug 2015 18:02:23 -0700","Re: [VOTE] First release candidate for HBase 1.1.2 (RC0) is available"
"Nick Dimiduk <ndimiduk@apache.org>","Thu, 13 Aug 2015 18:08:57 -0700","Re: [VOTE] First release candidate for HBase 1.1.2 (RC0) is available"
"Jean-Marc Spaggiari <jean-marc@spaggiari.org>","Thu, 13 Aug 2015 21:33:40 -0400","Re: [VOTE] First release candidate for HBase 1.1.2 (RC0) is available"
"Jean-Marc Spaggiari <jean-marc@spaggiari.org>","Thu, 13 Aug 2015 21:55:18 -0400","Re: [VOTE] First release candidate for HBase 1.1.2 (RC0) is available"
"""ramkrishna.s.vasudevan (JIRA)"" <jira@apache.org>","Fri, 14 Aug 2015 05:29:46 +0000 (UTC)","[jira] [Created] (HBASE-14221) Reduce the number of time row comparison is done in a Scan"
"""Hiroshi Ikeda (JIRA)"" <jira@apache.org>","Fri, 14 Aug 2015 06:19:46 +0000 (UTC)","[jira] [Created] (HBASE-14222) Improve DrainBarrier"
"<dinuswt22@gmail.com>","Fri, 14 Aug 2015 09:32:46 +0000","ead></head><body><pre style=""word-wrap: break-word; white-space: pre-wrap;"">From dev-return-53524-apmail-hbase-dev-archive=hbase.apache.org@hbase.apache.org  Fri Aug 14 09:35:57 2015"
"""Enis Soztutar (JIRA)"" <jira@apache.org>","Fri, 14 Aug 2015 11:36:46 +0000 (UTC)","[jira] [Created] (HBASE-14223) Meta WALs are not cleared if meta region was closed and RS aborts"
"""Lars George (JIRA)"" <jira@apache.org>","Fri, 14 Aug 2015 15:03:46 +0000 (UTC)","[jira] [Created] (HBASE-14224) Fix coprocessor handling of duplicate classes"
"""stack (JIRA)"" <jira@apache.org>","Fri, 14 Aug 2015 21:46:46 +0000 (UTC)","[jira] [Resolved] (HBASE-11902) RegionServer was blocked while aborting"
"""Andrew Purtell (JIRA)"" <jira@apache.org>","Fri, 14 Aug 2015 23:32:47 +0000 (UTC)","[jira] [Created] (HBASE-14225) Exclude **/target/** from RAT checks"
"""stack (JIRA)"" <jira@apache.org>","Sat, 15 Aug 2015 00:17:46 +0000 (UTC)","[jira] [Resolved] (HBASE-13657) Improve test run time by moving setup from @Before to @BeforeClass so one-time only"
"Sean Busbey <busbey@cloudera.com>","Fri, 14 Aug 2015 23:00:45 -0500","Re: [DISCUSSION] Switching from RTC to CTR"
"""Andrew Purtell (JIRA)"" <jira@apache.org>","Sat, 15 Aug 2015 17:16:45 +0000 (UTC)","[jira] [Created] (HBASE-14226) Merge group admin APIs into Admin"
"""Andrew Purtell (JIRA)"" <jira@apache.org>","Sat, 15 Aug 2015 17:24:45 +0000 (UTC)","[jira] [Created] (HBASE-14227) Fold special cased MOB APIs into existing APIs"
"""Jerry He (JIRA)"" <jira@apache.org>","Sat, 15 Aug 2015 18:29:45 +0000 (UTC)","[jira] [Created] (HBASE-14228) Close BufferedMutator and connection in MultiTableOutputFormat"
"Andrew Purtell <apurtell@apache.org>","Sun, 16 Aug 2015 11:40:33 -0700","Re: [DISCUSSION] Switching from RTC to CTR"
"Nick Dimiduk <ndimiduk@apache.org>","Sun, 16 Aug 2015 20:49:28 -0700","Re: [VOTE] First release candidate for HBase 1.1.2 (RC0) is available"
"""sunyerui (JIRA)"" <jira@apache.org>","Mon, 17 Aug 2015 04:23:46 +0000 (UTC)","[jira] [Created] (HBASE-14229) Flushing canceled by coprocessor still leads to memstoreSize set down"
"""Heng Chen (JIRA)"" <jira@apache.org>","Mon, 17 Aug 2015 07:12:45 +0000 (UTC)","[jira] [Created] (HBASE-14230) replace reflection in FSHlog with HdfsDataOutputStream#getCurrentBlockReplication()"
"""ramkrishna.s.vasudevan (JIRA)"" <jira@apache.org>","Mon, 17 Aug 2015 10:18:46 +0000 (UTC)","[jira] [Created] (HBASE-14231) Javadoc warning in ProtobufUtil"
"Nick Dimiduk <ndimiduk@apache.org>","Mon, 17 Aug 2015 10:45:30 -0700","Direct links to jvm-specific builds in HBase-1.2 jenkins"
"Nick Dimiduk <ndimiduk@apache.org>","Mon, 17 Aug 2015 10:56:44 -0700","Re: Direct links to jvm-specific builds in HBase-1.2 jenkins"
"Andrew Purtell <apurtell@apache.org>","Mon, 17 Aug 2015 11:13:31 -0700","Re: [VOTE] First release candidate for HBase 1.1.2 (RC0) is available"
"""Andrew Purtell (JIRA)"" <jira@apache.org>","Mon, 17 Aug 2015 19:01:46 +0000 (UTC)","[jira] [Created] (HBASE-14232) Backwards compatiblity support for new MasterObserver APIs"
"Sean Busbey <busbey@cloudera.com>","Mon, 17 Aug 2015 14:08:08 -0500","Re: [VOTE] First release candidate for HBase 1.1.2 (RC0) is available"
"Andrew Purtell <apurtell@apache.org>","Mon, 17 Aug 2015 12:58:01 -0700","[VOTE] The 1st HBase 0.98.14 release candidate (RC0) is available"
"Stack <stack@duboce.net>","Mon, 17 Aug 2015 14:21:50 -0700","Re: [DISCUSSION] Switching from RTC to CTR"
"""Elliott Clark (JIRA)"" <jira@apache.org>","Mon, 17 Aug 2015 21:33:45 +0000 (UTC)","[jira] [Created] (HBASE-14233) Branch-1.2 Merging regions can result in messed up tables"
"Nick Dimiduk <ndimiduk@apache.org>","Mon, 17 Aug 2015 14:38:03 -0700","Re: [VOTE] First release candidate for HBase 1.1.2 (RC0) is available"
"Sean Busbey <busbey@cloudera.com>","Mon, 17 Aug 2015 16:44:16 -0500","Re: [DISCUSSION] Switching from RTC to CTR"
"Nick Dimiduk <ndimiduk@gmail.com>","Mon, 17 Aug 2015 15:27:57 -0700","Re: In Windows, cannot capture HBase prompt('hbase(main):001:0>') from neither standard output nor standard error using process API"
"Andrew Purtell <apurtell@apache.org>","Mon, 17 Aug 2015 16:01:14 -0700","[VOTE] The 2nd HBase 1.0.2 release candidate (RC1) is available"
"Sean Busbey <busbey@cloudera.com>","Mon, 17 Aug 2015 18:06:09 -0500","Re: Direct links to jvm-specific builds in HBase-1.2 jenkins"
"=?UTF-8?Q?Enis_S=C3=B6ztutar?= <enis@apache.org>","Mon, 17 Aug 2015 16:20:27 -0700","Re: [VOTE] The 2nd HBase 1.0.2 release candidate (RC1) is available"
"""Ted Yu (JIRA)"" <jira@apache.org>","Tue, 18 Aug 2015 01:29:45 +0000 (UTC)","[jira] [Created] (HBASE-14234) Exception encountered in WALProcedureStore#rollWriter() should be properly handled"
"Andrew Purtell <apurtell@apache.org>","Mon, 17 Aug 2015 19:07:52 -0700","Re: [VOTE] First release candidate for HBase 1.1.2 (RC0) is available"
"""Vladimir Rodionov (JIRA)"" <jira@apache.org>","Tue, 18 Aug 2015 03:21:57 +0000 (UTC)","[jira] [Created] (HBASE-14235) HBase Backup/Restore Phase 2: Async backup procedure"
"""kramerli (JIRA)"" <jira@apache.org>","Tue, 18 Aug 2015 05:53:46 +0000 (UTC)","[jira] [Created] (HBASE-14236) A bug in Reference Guide, Quick Start section"
"<dinuswt22@gmail.com>","Tue, 18 Aug 2015 06:12:32 +0000","=?utf-8?Q?Comments_in_HBase_shell?="
"ashish singhi <ashish.singhi@huawei.com>","Tue, 18 Aug 2015 06:27:07 +0000","RE: Comments in HBase shell"
"<dinuswt22@gmail.com>","Tue, 18 Aug 2015 07:27:07 +0000","=?utf-8?Q?Re:_Comments_in_HBase_shell?="
"ashish singhi <ashish.singhi@huawei.com>","Tue, 18 Aug 2015 07:56:09 +0000","RE: Comments in HBase shell"
"<dinuswt22@gmail.com>","Tue, 18 Aug 2015 08:41:55 +0000","=?utf-8?Q?Re:_Comments_in_HBase_shell?="
"ashish singhi <ashish.singhi@huawei.com>","Tue, 18 Aug 2015 08:47:31 +0000","RE: Comments in HBase shell"
"""Liu Shaohui (JIRA)"" <jira@apache.org>","Tue, 18 Aug 2015 10:16:45 +0000 (UTC)","[jira] [Created] (HBASE-14237) Meta region may be onlined on multi regonservers for bugs of assigning meta"
"""Andrew Purtell (JIRA)"" <jira@apache.org>","Tue, 18 Aug 2015 16:30:46 +0000 (UTC)","[jira] [Resolved] (HBASE-11116) Allow ReplicationSink to write to tables when READONLY is set"
"""Elliott Clark (JIRA)"" <jira@apache.org>","Tue, 18 Aug 2015 16:54:46 +0000 (UTC)","[jira] [Created] (HBASE-14238) Branch-1.2 AM issues"
"""Elliott Clark (JIRA)"" <jira@apache.org>","Tue, 18 Aug 2015 16:56:45 +0000 (UTC)","[jira] [Created] (HBASE-14239) Branch-1.2 AM can get stuck when meta moves"
"""Nick Dimiduk (JIRA)"" <jira@apache.org>","Tue, 18 Aug 2015 17:16:46 +0000 (UTC)","[jira] [Created] (HBASE-14240) Unactionable WARN messages in wal.ProcedureWALFormatReader"
"Nick Dimiduk <ndimiduk@apache.org>","Tue, 18 Aug 2015 10:27:03 -0700","Re: [VOTE] First release candidate for HBase 1.1.2 (RC0) is available"
"""Ted Yu (JIRA)"" <jira@apache.org>","Tue, 18 Aug 2015 17:34:47 +0000 (UTC)","[jira] [Reopened] (HBASE-13376) Improvements to Stochastic load balancer"
"""Andrew Purtell (JIRA)"" <jira@apache.org>","Tue, 18 Aug 2015 19:21:46 +0000 (UTC)","[jira] [Created] (HBASE-14241) Deadlock during HBaseTestingUtility#shutdownMiniHBaseCluster"
"Andrew Purtell <apurtell@apache.org>","Tue, 18 Aug 2015 14:26:09 -0700","Re: [VOTE] The 2nd HBase 1.0.2 release candidate (RC1) is available"
"""Andrew Purtell (JIRA)"" <jira@apache.org>","Wed, 19 Aug 2015 00:41:45 +0000 (UTC)","[jira] [Created] (HBASE-14242) TestAccessController#testMergeRegions is flaky in branch-1.0"
"""Sean Busbey (JIRA)"" <jira@apache.org>","Wed, 19 Aug 2015 01:14:45 +0000 (UTC)","[jira] [Created] (HBASE-14243) Incorrect NOTICE file in hbase-it test-jar"
"""Andrew Purtell (JIRA)"" <jira@apache.org>","Wed, 19 Aug 2015 01:28:45 +0000 (UTC)","[jira] [Resolved] (HBASE-14210) Create test for cell level ACLs involving user group"
"""Sean Busbey (JIRA)"" <jira@apache.org>","Wed, 19 Aug 2015 02:21:45 +0000 (UTC)","[jira] [Created] (HBASE-14244) hbase resource bundle NOTICE file missing end year."
"""Sean Busbey (JIRA)"" <jira@apache.org>","Wed, 19 Aug 2015 02:24:45 +0000 (UTC)","[jira] [Created] (HBASE-14245) branch-1 missing bundled work notices for inclusion of Netty 3"
"Sean Busbey <busbey@cloudera.com>","Tue, 18 Aug 2015 21:29:23 -0500","Re: [VOTE] First release candidate for HBase 1.1.2 (RC0) is available"
"""Sean Busbey (JIRA)"" <jira@apache.org>","Wed, 19 Aug 2015 02:32:45 +0000 (UTC)","[jira] [Created] (HBASE-14246) branch 0.98 and earlier has incorrect LICENSE/NOTICE for several dependencies"
"hongbin ma <mahongbin@apache.org>","Wed, 19 Aug 2015 11:00:51 +0800","Hbase customize filter versioning"
"""Liu Shaohui (JIRA)"" <jira@apache.org>","Wed, 19 Aug 2015 03:30:45 +0000 (UTC)","[jira] [Created] (HBASE-14247) Separate the old WALs into different regionserver directories"
"Sean Busbey <busbey@cloudera.com>","Tue, 18 Aug 2015 23:30:25 -0500","Re: Hbase customize filter versioning"
"Andrew Purtell <andrew.purtell@gmail.com>","Tue, 18 Aug 2015 21:32:33 -0700","[CANCELED] [VOTE] The 1st HBase 0.98.14 release candidate (RC0) is available"
"Andrew Purtell <andrew.purtell@gmail.com>","Tue, 18 Aug 2015 21:42:47 -0700","Re: [VOTE] First release candidate for HBase 1.1.2 (RC0) is available"
"Andrew Purtell <andrew.purtell@gmail.com>","Tue, 18 Aug 2015 21:45:38 -0700","[CANCELED] [VOTE] The 2nd HBase 1.0.2 release candidate (RC1) is available"
"Sean Busbey <busbey@cloudera.com>","Tue, 18 Aug 2015 23:50:43 -0500","Re: [VOTE] First release candidate for HBase 1.1.2 (RC0) is available"
"""Sean Busbey (JIRA)"" <jira@apache.org>","Wed, 19 Aug 2015 05:04:45 +0000 (UTC)","[jira] [Created] (HBASE-14248) Extraneous LICENSE files in shaded jars"
"""Sean Busbey (JIRA)"" <jira@apache.org>","Wed, 19 Aug 2015 05:41:46 +0000 (UTC)","[jira] [Created] (HBASE-14249) shaded jar modules create spurious source and test jars with incorrect LICENSE/NOTICE info"
"""Sean Busbey (JIRA)"" <jira@apache.org>","Wed, 19 Aug 2015 05:44:46 +0000 (UTC)","[jira] [Created] (HBASE-14250) branch-1.1 hbase-server test-jar has incorrect LICENSE"
"Sean Busbey <busbey@cloudera.com>","Wed, 19 Aug 2015 00:45:03 -0500","Re: [VOTE] First release candidate for HBase 1.1.2 (RC0) is available"
"""Sean Busbey (JIRA)"" <jira@apache.org>","Wed, 19 Aug 2015 05:53:46 +0000 (UTC)","[jira] [Created] (HBASE-14251) javadoc jars use LICENSE/NOTICE from primary artifact"
"""Toshihiro Suzuki (JIRA)"" <jira@apache.org>","Wed, 19 Aug 2015 06:19:45 +0000 (UTC)","[jira] [Created] (HBASE-14252) RegionServers fail to start when setting hbase.ipc.server.callqueue.scan.ratio=0."
"""Sean Busbey (JIRA)"" <jira@apache.org>","Wed, 19 Aug 2015 06:43:45 +0000 (UTC)","[jira] [Created] (HBASE-14253) update docs + build for maven 3.0.4+"
"""Liu Shaohui (JIRA)"" <jira@apache.org>","Wed, 19 Aug 2015 10:46:46 +0000 (UTC)","[jira] [Created] (HBASE-14254) Wrong error message when throwing NamespaceNotFoundException in shell"
"""Lars George (JIRA)"" <jira@apache.org>","Wed, 19 Aug 2015 14:31:46 +0000 (UTC)","[jira] [Created] (HBASE-14255) Simplify Cell creation post 1.0"
"""Lars George (JIRA)"" <jira@apache.org>","Wed, 19 Aug 2015 15:44:45 +0000 (UTC)","[jira] [Created] (HBASE-14256) Flush task message may be confusing when region is recovered"
"""Lars George (JIRA)"" <jira@apache.org>","Wed, 19 Aug 2015 16:46:47 +0000 (UTC)","[jira] [Created] (HBASE-14257) Periodic flusher only handles hbase:meta, not other system tables"
"Jerry He <jerryjch@gmail.com>","Wed, 19 Aug 2015 09:48:44 -0700","HBase and Accumulo"
"Ted Malaska <ted.malaska@cloudera.com>","Wed, 19 Aug 2015 13:02:31 -0400","Re: HBase and Accumulo"
"""Vladimir Rodionov (JIRA)"" <jira@apache.org>","Wed, 19 Aug 2015 17:09:46 +0000 (UTC)","[jira] [Created] (HBASE-14258) Make region_mover.rb script case insensitive in regard to hostname"
"Vladimir Rodionov <vladrodionov@gmail.com>","Wed, 19 Aug 2015 10:16:25 -0700","Re: HBase and Accumulo"
"Josh Elser <josh.elser@gmail.com>","Wed, 19 Aug 2015 13:53:19 -0400","Re: HBase and Accumulo"
"Andrew Purtell <apurtell@apache.org>","Wed, 19 Aug 2015 11:07:00 -0700","Re: HBase and Accumulo"
"Sean Busbey <busbey@cloudera.com>","Wed, 19 Aug 2015 13:11:06 -0500","Re: HBase and Accumulo"
"Josh Elser <josh.elser@gmail.com>","Wed, 19 Aug 2015 14:15:27 -0400","Re: HBase and Accumulo"
"Josh Elser <josh.elser@gmail.com>","Wed, 19 Aug 2015 14:24:13 -0400","Re: HBase and Accumulo"
"Ted Malaska <ted.malaska@cloudera.com>","Wed, 19 Aug 2015 14:28:10 -0400","Re: HBase and Accumulo"
"Josh Elser <josh.elser@gmail.com>","Wed, 19 Aug 2015 14:28:28 -0400","Re: [VOTE] First release candidate for HBase 1.1.2 (RC0) is available"
"Ted Malaska <ted.malaska@cloudera.com>","Wed, 19 Aug 2015 14:29:18 -0400","Re: HBase and Accumulo"
"Josh Elser <josh.elser@gmail.com>","Wed, 19 Aug 2015 14:30:58 -0400","Re: HBase and Accumulo"
"Ted Malaska <ted.malaska@cloudera.com>","Wed, 19 Aug 2015 14:32:57 -0400","Re: HBase and Accumulo"
"Ted Malaska <ted.malaska@cloudera.com>","Wed, 19 Aug 2015 14:37:35 -0400","Re: HBase and Accumulo"
"Sean Busbey <busbey@cloudera.com>","Wed, 19 Aug 2015 13:40:45 -0500","Re: HBase and Accumulo"
"William Slacum <wslacum@gmail.com>","Wed, 19 Aug 2015 13:41:05 -0500","Re: HBase and Accumulo"
"Josh Elser <josh.elser@gmail.com>","Wed, 19 Aug 2015 14:46:38 -0400","Re: HBase and Accumulo"
"Christopher <ctubbsii@apache.org>","Wed, 19 Aug 2015 15:05:55 -0400","Re: HBase and Accumulo"
"Josh Elser <josh.elser@gmail.com>","Wed, 19 Aug 2015 15:27:07 -0400","Re: HBase and Accumulo"
"Andrew Purtell <apurtell@apache.org>","Wed, 19 Aug 2015 12:34:44 -0700","Re: HBase and Accumulo"
"Ted Malaska <ted.malaska@cloudera.com>","Wed, 19 Aug 2015 15:40:25 -0400","Re: HBase and Accumulo"
"Sean Busbey <busbey@cloudera.com>","Wed, 19 Aug 2015 14:43:45 -0500","building javadoc jars on master"
"""Vandana Ayyalasomayajula (JIRA)"" <jira@apache.org>","Wed, 19 Aug 2015 19:43:46 +0000 (UTC)","[jira] [Created] (HBASE-14259) Backport Namespace quota support to 98 branch"
"Sean Busbey <busbey@cloudera.com>","Wed, 19 Aug 2015 14:58:05 -0500","Re: building javadoc jars on master"
"""Sean Busbey (JIRA)"" <jira@apache.org>","Wed, 19 Aug 2015 20:54:46 +0000 (UTC)","[jira] [Created] (HBASE-14260) building javadocs takes a long time"
"Jeremy Kepner <kepner@ll.mit.edu>","Wed, 19 Aug 2015 17:32:12 -0400","Re: HBase and Accumulo"
"Jeremy Kepner <kepner@ll.mit.edu>","Wed, 19 Aug 2015 17:34:06 -0400","Re: HBase and Accumulo"
"Andrew Purtell <apurtell@apache.org>","Wed, 19 Aug 2015 14:42:32 -0700","Re: HBase and Accumulo"
"Andrew Purtell <apurtell@apache.org>","Wed, 19 Aug 2015 15:45:16 -0700","Re: building javadoc jars on master"
"Josh Elser <josh.elser@gmail.com>","Wed, 19 Aug 2015 18:47:21 -0400","Re: HBase and Accumulo"
"Andrew Purtell <apurtell@apache.org>","Wed, 19 Aug 2015 15:53:50 -0700","Re: building javadoc jars on master"
"Ted Malaska <ted.malaska@cloudera.com>","Wed, 19 Aug 2015 18:54:47 -0400","Re: HBase and Accumulo"
"Ted Malaska <ted.malaska@cloudera.com>","Wed, 19 Aug 2015 19:01:20 -0400","Re: HBase and Accumulo"
"Jerry He <jerryjch@gmail.com>","Wed, 19 Aug 2015 16:15:39 -0700","Re: HBase and Accumulo"
"""Srikanth Srungarapu (JIRA)"" <jira@apache.org>","Wed, 19 Aug 2015 23:30:46 +0000 (UTC)","[jira] [Created] (HBASE-14261) Enhance Chaos Monkey framework by adding zookeeper and datanode fault injections."
"Ted Malaska <ted.malaska@cloudera.com>","Wed, 19 Aug 2015 19:42:24 -0400","Re: HBase and Accumulo"
"""stack (JIRA)"" <jira@apache.org>","Wed, 19 Aug 2015 23:44:45 +0000 (UTC)","[jira] [Created] (HBASE-14262) Big Trunk unit tests failing with ""OutOfMemoryError: unable to create new native thread"""
"""Vladimir Rodionov (JIRA)"" <jira@apache.org>","Thu, 20 Aug 2015 00:01:38 +0000 (UTC)","[jira] [Created] (HBASE-14263) ExploringCompactionPolicy logic around file selection is broken"
"Stack <stack@duboce.net>","Wed, 19 Aug 2015 17:05:55 -0700","Re: Testing and CI -- Apache Jenkins Builds"
"Sean Busbey <busbey@cloudera.com>","Wed, 19 Aug 2015 19:08:54 -0500","Re: Testing and CI -- Apache Jenkins Builds"
"Stack <stack@duboce.net>","Wed, 19 Aug 2015 17:24:58 -0700","Re: Testing and CI -- Apache Jenkins Builds"
"Stack <stack@duboce.net>","Wed, 19 Aug 2015 17:38:23 -0700","Re: Testing and CI -- Apache Jenkins Builds"
"""Andrew Purtell (JIRA)"" <jira@apache.org>","Thu, 20 Aug 2015 00:58:46 +0000 (UTC)","[jira] [Resolved] (HBASE-14225) Exclude **/target/** from RAT checks"
"""Andrew Purtell (JIRA)"" <jira@apache.org>","Thu, 20 Aug 2015 01:01:46 +0000 (UTC)","[jira] [Created] (HBASE-14264) Update RAT plugin version in 0.98 branch"
"Jerry He <jerryjch@gmail.com>","Wed, 19 Aug 2015 18:05:04 -0700","Re: HBase and Accumulo"
"Stack <stack@duboce.net>","Wed, 19 Aug 2015 18:18:55 -0700","Re: Testing and CI -- Apache Jenkins Builds"
"""Andrew Purtell (JIRA)"" <jira@apache.org>","Thu, 20 Aug 2015 01:25:46 +0000 (UTC)","[jira] [Reopened] (HBASE-14225) Exclude **/target/** from RAT checks"
"""Heng Chen (JIRA)"" <jira@apache.org>","Thu, 20 Aug 2015 04:33:45 +0000 (UTC)","[jira] [Created] (HBASE-14265) we should forbidden create table using 'hbase' namespace"
"""Toshihiro Suzuki (JIRA)"" <jira@apache.org>","Thu, 20 Aug 2015 07:24:45 +0000 (UTC)","[jira] [Created] (HBASE-14266) RegionServers have a lock contention of Configuration.getProps"
"""Qianxi Zhang (JIRA)"" <jira@apache.org>","Thu, 20 Aug 2015 08:14:45 +0000 (UTC)","[jira] [Created] (HBASE-14267) In Mapreduce on HBase scenario, restart in TableInputFormat will result in getting wrong data."
"""Hiroshi Ikeda (JIRA)"" <jira@apache.org>","Thu, 20 Aug 2015 10:12:45 +0000 (UTC)","[jira] [Created] (HBASE-14268) Improve KeyLocker"
"""hongbin ma (JIRA)"" <jira@apache.org>","Thu, 20 Aug 2015 12:43:46 +0000 (UTC)","[jira] [Created] (HBASE-14269) FuzzyRowFilter omits certain rows when multiple fuzzy key exist"
"""Sean Busbey (JIRA)"" <jira@apache.org>","Thu, 20 Aug 2015 14:16:46 +0000 (UTC)","[jira] [Created] (HBASE-14270) add help to the start of our project KEYS file"
"""Andrew Purtell (JIRA)"" <jira@apache.org>","Thu, 20 Aug 2015 15:03:46 +0000 (UTC)","[jira] [Resolved] (HBASE-14270) add help to the start of our project KEYS file"
"Stack <stack@duboce.net>","Thu, 20 Aug 2015 09:44:51 -0700","Re: Testing and CI -- Apache Jenkins Builds"
"Anoop John <anoop.hbase@gmail.com>","Thu, 20 Aug 2015 22:54:38 +0530","Re: HBase and Accumulo"
"""Andrew Purtell (JIRA)"" <jira@apache.org>","Thu, 20 Aug 2015 17:29:46 +0000 (UTC)","[jira] [Created] (HBASE-14271) Improve Nexus staging instructions"
"""Vladimir Rodionov (JIRA)"" <jira@apache.org>","Thu, 20 Aug 2015 17:30:46 +0000 (UTC)","[jira] [Created] (HBASE-14272) Enforce major compaction on stores with KEEP_DELETED_CELLS=true"
"Andrew Purtell <apurtell@apache.org>","Thu, 20 Aug 2015 11:03:17 -0700","Re: [DISCUSS] correcting abusive behavior on mailing lists was (Re: [DISCUSS] Multi-Cluster HBase Client)"
"Biju N <bijuatapache@gmail.com>","Thu, 20 Aug 2015 14:13:41 -0400","Re: DISCUSSION: lets do a developer workshop on near-term work"
"""stack (JIRA)"" <jira@apache.org>","Thu, 20 Aug 2015 18:17:46 +0000 (UTC)","[jira] [Created] (HBASE-14273) Rename MVCC to MVCC: From MultiVersionConsistencyControl to MultiVersionConcurrencyControl"
"Stack <stack@duboce.net>","Thu, 20 Aug 2015 11:37:21 -0700","Re: DISCUSSION: lets do a developer workshop on near-term work"
"Biju N <bijuatapache@gmail.com>","Thu, 20 Aug 2015 15:00:42 -0400","Re: DISCUSSION: lets do a developer workshop on near-term work"
"""stack (JIRA)"" <jira@apache.org>","Thu, 20 Aug 2015 19:18:45 +0000 (UTC)","[jira] [Created] (HBASE-14274) Deadlock in region metrics on shutdown: MetricsRegionSourceImpl vs MetricsRegionAggregateSourceImpl"
"""Jerry He (JIRA)"" <jira@apache.org>","Thu, 20 Aug 2015 20:36:46 +0000 (UTC)","[jira] [Created] (HBASE-14275) Backport to 0.98 HBASE-10785 Metas own location should be cached"
"""Andrew Purtell (JIRA)"" <jira@apache.org>","Thu, 20 Aug 2015 21:11:45 +0000 (UTC)","[jira] [Created] (HBASE-14276) NPE when setting up stub for connection to master if secure connect is refused"
"Andrew Purtell <apurtell@apache.org>","Thu, 20 Aug 2015 19:09:55 -0700","Please welcome new HBase committer Stephen Yuan Jiang"
"Ted Yu <yuzhihong@gmail.com>","Thu, 20 Aug 2015 19:12:20 -0700","Re: Please welcome new HBase committer Stephen Yuan Jiang"
"=?UTF-8?B?5byg6ZOO?= <palomino219@gmail.com>","Fri, 21 Aug 2015 10:56:00 +0800","Re: Please welcome new HBase committer Stephen Yuan Jiang"
"""Liu Shaohui (JIRA)"" <jira@apache.org>","Fri, 21 Aug 2015 03:00:47 +0000 (UTC)","[jira] [Created] (HBASE-14277) TestRegionServerHostname.testRegionServerHostname may fail at host with a case sensitive name"
"hongbin ma <mahongbin@apache.org>","Fri, 21 Aug 2015 11:03:55 +0800","eclipse formatter messing up apache license header"
"liushaohui <liushaohui@xiaomi.com>","Fri, 21 Aug 2015 11:06:15 +0800","Re: Please welcome new HBase committer Stephen Yuan Jiang"
"Ted Yu <yuzhihong@gmail.com>","Thu, 20 Aug 2015 20:16:27 -0700","Re: eclipse formatter messing up apache license header"
"""stack (JIRA)"" <jira@apache.org>","Fri, 21 Aug 2015 03:49:45 +0000 (UTC)","[jira] [Resolved] (HBASE-14274) Deadlock in region metrics on shutdown: MetricsRegionSourceImpl vs MetricsRegionAggregateSourceImpl"
"""stack (JIRA)"" <jira@apache.org>","Fri, 21 Aug 2015 03:50:45 +0000 (UTC)","[jira] [Created] (HBASE-14278) Fix NPE that is showing up since HBASE-14274 went in"
"ramkrishna vasudevan <ramkrishna.s.vasudevan@gmail.com>","Fri, 21 Aug 2015 09:23:02 +0530","Re: HBase and Accumulo"
"ramkrishna vasudevan <ramkrishna.s.vasudevan@gmail.com>","Fri, 21 Aug 2015 09:26:26 +0530","Re: Please welcome new HBase committer Stephen Yuan Jiang"
"Jesse Yates <jesse.k.yates@gmail.com>","Fri, 21 Aug 2015 04:18:56 +0000","Re: Please welcome new HBase committer Stephen Yuan Jiang"
"""C. Albert Thompson"" <casey.thompson001@gmail.com>","Thu, 20 Aug 2015 21:40:52 -0700","Issue links clarification"
"Srikanth Srungarapu <srikanth235@gmail.com>","Fri, 21 Aug 2015 04:58:26 +0000","Re: Please welcome new HBase committer Stephen Yuan Jiang"
"Stephen Jiang <syuanjiangdev@gmail.com>","Thu, 20 Aug 2015 22:39:10 -0700","Re: Please welcome new HBase committer Stephen Yuan Jiang"
"Pankaj kr <pankaj.kr@huawei.com>","Fri, 21 Aug 2015 07:14:54 +0000","FW: Please welcome new HBase committer Stephen Yuan Jiang"
"Anoop John <anoop.hbase@gmail.com>","Fri, 21 Aug 2015 12:55:54 +0530","Re: FW: Please welcome new HBase committer Stephen Yuan Jiang"
"Ashish Singhi <ashish.singhi.apache@gmail.com>","Fri, 21 Aug 2015 13:32:10 +0530","Re: Please welcome new HBase committer Stephen Yuan Jiang"
"""Hiroshi Ikeda (JIRA)"" <jira@apache.org>","Fri, 21 Aug 2015 08:09:46 +0000 (UTC)","[jira] [Created] (HBASE-14279) Race condition in ConcurrentIndex"
"""Ankit Singhal (JIRA)"" <jira@apache.org>","Fri, 21 Aug 2015 12:06:45 +0000 (UTC)","[jira] [Created] (HBASE-14280) Bulk Upload from HA cluster to remote HA hbase cluster fails"
"<dinuswt22@gmail.com>","Fri, 21 Aug 2015 12:10:30 +0000","=?utf-8?Q?Execute_script_file_from_with_in_HBase_shell?="
"Ted Yu <yuzhihong@gmail.com>","Fri, 21 Aug 2015 05:31:39 -0700","Re: Execute script file from with in HBase shell"
"Ted Malaska <ted.malaska@cloudera.com>","Fri, 21 Aug 2015 09:00:23 -0400","Re: Please welcome new HBase committer Stephen Yuan Jiang"
"""Michael Rose (JIRA)"" <jira@apache.org>","Fri, 21 Aug 2015 15:17:12 +0000 (UTC)","[jira] [Created] (HBASE-14281) ArrayIndexOutOfBoundsException in CellComparator#getMinimumMidpointArray, part 2"
"<dinuswt22@gmail.com>","Fri, 21 Aug 2015 15:41:39 +0000","=?utf-8?Q?Re:_Execute_script_file_from_with_in_HBase_shell?="
"Sean Busbey <busbey@cloudera.com>","Fri, 21 Aug 2015 10:45:26 -0500","[DISCUSS] retiring current DLR code"
"Andrew Purtell <apurtell@apache.org>","Fri, 21 Aug 2015 08:54:22 -0700","Re: [DISCUSS] retiring current DLR code"
"Ted Yu <yuzhihong@gmail.com>","Fri, 21 Aug 2015 09:02:15 -0700","Re: [DISCUSS] retiring current DLR code"
"Sean Busbey <busbey@cloudera.com>","Fri, 21 Aug 2015 11:05:13 -0500","Re: Execute script file from with in HBase shell"
"Elliott Clark <eclark@apache.org>","Fri, 21 Aug 2015 09:06:53 -0700","Re: [DISCUSS] retiring current DLR code"
"Elliott Clark <eclark@apache.org>","Fri, 21 Aug 2015 09:07:56 -0700","Re: Execute script file from with in HBase shell"
"<dinuswt22@gmail.com>","Fri, 21 Aug 2015 16:14:32 +0000","=?utf-8?Q?HBase_rpc_ports_run_with_IpV4_address_always?="
"Jerry He <jerryjch@gmail.com>","Fri, 21 Aug 2015 09:29:13 -0700","Re: Please welcome new HBase committer Stephen Yuan Jiang"
"Vladimir Rodionov <vladrodionov@gmail.com>","Fri, 21 Aug 2015 09:30:21 -0700","Re: Please welcome new HBase committer Stephen Yuan Jiang"
"""Elliott Clark (JIRA)"" <jira@apache.org>","Fri, 21 Aug 2015 16:30:46 +0000 (UTC)","[jira] [Created] (HBASE-14282) Remove metrics2"
"Elliott Clark <eclark@apache.org>","Fri, 21 Aug 2015 09:42:26 -0700","Re: Please welcome new HBase committer Stephen Yuan Jiang"
"Ted Yu <yuzhihong@gmail.com>","Fri, 21 Aug 2015 09:42:29 -0700","Re: HBase rpc ports run with IpV4 address always"
"""Ben Lau (JIRA)"" <jira@apache.org>","Fri, 21 Aug 2015 17:31:45 +0000 (UTC)","=?utf-8?Q?[jira]_[Created]_(HBASE-14283)_Reverse_scan_do?= =?utf-8?Q?esn=E2=80=99t_work_with_HFile_inline_index/bloom_blocks?="
"""stack (JIRA)"" <jira@apache.org>","Fri, 21 Aug 2015 17:47:46 +0000 (UTC)","[jira] [Created] (HBASE-14284) In TRUNK, AsyncRpcClient does not timeout; hangs TestDistributedLogReplay, etc."
"Devaraj Das <ddas@hortonworks.com>","Fri, 21 Aug 2015 18:12:38 +0000","Re: Please welcome new HBase committer Stephen Yuan Jiang"
"""Lars George (JIRA)"" <jira@apache.org>","Fri, 21 Aug 2015 18:12:45 +0000 (UTC)","[jira] [Created] (HBASE-14285) Improve local log servlet to show last n-KB etc."
"""Lars George (JIRA)"" <jira@apache.org>","Fri, 21 Aug 2015 18:17:46 +0000 (UTC)","[jira] [Created] (HBASE-14286) Fix spelling error in ""safetyBumper"" parameter in WALSplitter"
"Stack <stack@duboce.net>","Fri, 21 Aug 2015 11:45:23 -0700","Re: [DISCUSS] retiring current DLR code"
"=?UTF-8?Q?Enis_S=C3=B6ztutar?= <enis@apache.org>","Fri, 21 Aug 2015 12:05:54 -0700","Re: Please welcome new HBase committer Stephen Yuan Jiang"
"Vladimir Rodionov <vladrodionov@gmail.com>","Fri, 21 Aug 2015 12:13:18 -0700","Re: [DISCUSS] retiring current DLR code"
"=?UTF-8?Q?Enis_S=C3=B6ztutar?= <enis@apache.org>","Fri, 21 Aug 2015 12:13:26 -0700","Re: Issue links clarification"
"Stack <stack@duboce.net>","Fri, 21 Aug 2015 12:17:10 -0700","Re: Testing and CI -- Apache Jenkins Builds"
"=?UTF-8?Q?Enis_S=C3=B6ztutar?= <enis@apache.org>","Fri, 21 Aug 2015 12:21:08 -0700","Re: [DISCUSS] retiring current DLR code"
"""Lars George (JIRA)"" <jira@apache.org>","Fri, 21 Aug 2015 19:29:46 +0000 (UTC)","[jira] [Created] (HBASE-14287) Bootstrapping a cluster leaves temporary WAL directory laying around"
"""Nick Dimiduk (JIRA)"" <jira@apache.org>","Fri, 21 Aug 2015 19:30:46 +0000 (UTC)","[jira] [Created] (HBASE-14288) Upgrade asciidoctor plugin to v1.5.2.1"
"Esteban Gutierrez <esteban@cloudera.com>","Fri, 21 Aug 2015 13:16:18 -0700","Re: Please welcome new HBase committer Stephen Yuan Jiang"
"""Ted Yu (JIRA)"" <jira@apache.org>","Fri, 21 Aug 2015 22:12:45 +0000 (UTC)","[jira] [Created] (HBASE-14289) Backport HBASE-13965 'Stochastic Load Balancer JMX Metrics' to 0.98"
"Nick Dimiduk <ndimiduk@apache.org>","Fri, 21 Aug 2015 17:12:25 -0700","Re: Please welcome new HBase committer Stephen Yuan Jiang"
"""rajeshbabu@apache.org"" <chrajeshbabu32@gmail.com>","Sat, 22 Aug 2015 06:09:34 +0530","Re: Please welcome new HBase committer Stephen Yuan Jiang"
"Nick Dimiduk <ndimiduk@apache.org>","Fri, 21 Aug 2015 17:51:54 -0700","[VOTE] Second release candidate for HBase 1.1.2 (RC1) is available"
"""stack (JIRA)"" <jira@apache.org>","Sat, 22 Aug 2015 00:56:47 +0000 (UTC)","[jira] [Resolved] (HBASE-14284) In TRUNK, AsyncRpcClient does not timeout; hangs TestDistributedLogReplay, etc."
"Jerry He <jerryjch@gmail.com>","Fri, 21 Aug 2015 20:03:46 -0700","Re: HBase and Accumulo"
"""stack (JIRA)"" <jira@apache.org>","Sat, 22 Aug 2015 03:06:46 +0000 (UTC)","[jira] [Resolved] (HBASE-4441) Revisit QOS"
"""stack (JIRA)"" <jira@apache.org>","Sat, 22 Aug 2015 03:41:46 +0000 (UTC)","[jira] [Created] (HBASE-14290) Spin up less threads in tests"
"""Matt Warhaftig (JIRA)"" <jira@apache.org>","Sat, 22 Aug 2015 04:29:45 +0000 (UTC)","[jira] [Created] (HBASE-14291) NPE On StochasticLoadBalancer Balance Involving RS With No Regions"
"""Robert Yokota (JIRA)"" <jira@apache.org>","Sat, 22 Aug 2015 19:28:45 +0000 (UTC)","[jira] [Created] (HBASE-14292) Call Me Maybe HBase links haved moved"
"""Ted Yu (JIRA)"" <jira@apache.org>","Sat, 22 Aug 2015 21:22:46 +0000 (UTC)","[jira] [Created] (HBASE-14293) TestStochasticBalancerJmxMetrics intermittently fails due to port conflict"
"""congcong.han (JIRA)"" <jira@apache.org>","Sun, 23 Aug 2015 05:53:45 +0000 (UTC)","[jira] [Created] (HBASE-14294) Add new attribute to Scan to limit the return size of records"
"""jvava (JIRA)"" <jira@apache.org>","Sun, 23 Aug 2015 06:10:45 +0000 (UTC)","[jira] [Created] (HBASE-14295) client stalling when first splitting"
"Jonathan Hsieh <jon@cloudera.com>","Sun, 23 Aug 2015 17:25:03 -0700","Re: Please welcome new HBase committer Stephen Yuan Jiang"
"""Pankaj Kumar (JIRA)"" <jira@apache.org>","Mon, 24 Aug 2015 03:04:46 +0000 (UTC)","[jira] [Created] (HBASE-14296) ConnectionManager should validate the table existence before returning the table instance"
"""Andrew Purtell (JIRA)"" <jira@apache.org>","Mon, 24 Aug 2015 04:57:45 +0000 (UTC)","[jira] [Created] (HBASE-14297) Fix a long standing nit with 0.98 source assemblies"
"""Andrew Purtell (JIRA)"" <jira@apache.org>","Mon, 24 Aug 2015 04:59:45 +0000 (UTC)","[jira] [Resolved] (HBASE-14297) Fix a long standing nit with 0.98 source assemblies"
"""Andrew Purtell (JIRA)"" <jira@apache.org>","Mon, 24 Aug 2015 05:10:45 +0000 (UTC)","[jira] [Created] (HBASE-14298) Source assemblies incorrect after recent POM changes (0.98)"
"Andrew Purtell <apurtell@apache.org>","Sun, 23 Aug 2015 22:12:36 -0700","Ignore the 0.98.14RC1 tag"
"<dinuswt22@gmail.com>","Mon, 24 Aug 2015 05:56:47 +0000","=?utf-8?Q?Re:_HBase_rpc_ports_run_with_IpV4_address_always?="
"Mikhail Antonov <olorinbant@gmail.com>","Sun, 23 Aug 2015 23:18:22 -0700","Re: Please welcome new HBase committer Stephen Yuan Jiang"
"""hongbin ma (JIRA)"" <jira@apache.org>","Mon, 24 Aug 2015 07:30:46 +0000 (UTC)","[jira] [Created] (HBASE-14299) Split storage module to core-storage and storage-hbase"
"""hongbin ma (JIRA)"" <jira@apache.org>","Mon, 24 Aug 2015 07:31:45 +0000 (UTC)","[jira] [Resolved] (HBASE-14299) Split storage module to core-storage and storage-hbase"
"""ramkrishna.s.vasudevan (JIRA)"" <jira@apache.org>","Mon, 24 Aug 2015 10:33:45 +0000 (UTC)","[jira] [Created] (HBASE-14300) NPE while issuing balancer command in trunk"
"<dinuswt22@gmail.com>","Mon, 24 Aug 2015 11:19:48 +0000","=?utf-8?Q?Fw:_HBase_rpc_ports_run_with_IpV4_address_always?="
"""Elliott Clark (JIRA)"" <jira@apache.org>","Mon, 24 Aug 2015 16:27:45 +0000 (UTC)","[jira] [Created] (HBASE-14301) Create an assembly without hadoop"
"""ramkrishna.s.vasudevan (JIRA)"" <jira@apache.org>","Mon, 24 Aug 2015 17:20:45 +0000 (UTC)","[jira] [Resolved] (HBASE-14300) NPE while issuing balancer command in trunk"
"""Andrew Purtell (JIRA)"" <jira@apache.org>","Mon, 24 Aug 2015 20:36:45 +0000 (UTC)","[jira] [Resolved] (HBASE-14292) Call Me Maybe HBase links haved moved"
"""Enis Soztutar (JIRA)"" <jira@apache.org>","Mon, 24 Aug 2015 22:27:45 +0000 (UTC)","[jira] [Created] (HBASE-14302) TableSnapshotInputFormat should not create back references when restoring snapshot"
"Eric Owhadi <eric.owhadi@esgyn.com>","Mon, 24 Aug 2015 18:48:46 -0500","Question on hbase.client.scanner.timeout.period"
"""Andrew Purtell (JIRA)"" <jira@apache.org>","Tue, 25 Aug 2015 02:05:46 +0000 (UTC)","[jira] [Created] (HBASE-14303) LICENSE and NOTICE files missing in root dir of Hadoop 1 binary convenience artifact (0.98)"
"""Michael Rose (JIRA)"" <jira@apache.org>","Tue, 25 Aug 2015 03:03:46 +0000 (UTC)","[jira] [Resolved] (HBASE-14281) ArrayIndexOutOfBoundsException in CellComparator#getMinimumMidpointArray, part 2"
"Stack <stack@duboce.net>","Mon, 24 Aug 2015 21:06:43 -0700","Re: Question on hbase.client.scanner.timeout.period"
"""ramkrishna.s.vasudevan (JIRA)"" <jira@apache.org>","Tue, 25 Aug 2015 05:32:46 +0000 (UTC)","[jira] [Resolved] (HBASE-11895) Change Writer/Readers factory to create CellComparators rather than KVComparator"
"Eric Owhadi <eric.owhadi@esgyn.com>","Tue, 25 Aug 2015 10:03:00 -0500","RE: Question on hbase.client.scanner.timeout.period"
"""stack (JIRA)"" <jira@apache.org>","Tue, 25 Aug 2015 15:17:45 +0000 (UTC)","[jira] [Created] (HBASE-14304) TestAssignmentManagerOnCluster fails because of BindException: Address already in use"
"""Yu Li (JIRA)"" <jira@apache.org>","Tue, 25 Aug 2015 15:31:46 +0000 (UTC)","[jira] [Created] (HBASE-14305) Deadlock observed in MVCC during Unit Testing"
"""Yu Li (JIRA)"" <jira@apache.org>","Tue, 25 Aug 2015 15:48:46 +0000 (UTC)","[jira] [Created] (HBASE-14306) Refine RegionGroupingProvider: fix issues and make it more scalable"
"""Shradha Revankar (JIRA)"" <jira@apache.org>","Tue, 25 Aug 2015 17:22:45 +0000 (UTC)","[jira] [Created] (HBASE-14307) Incorrect use of positional read api in HFileBlock"
"""Nick Dimiduk (JIRA)"" <jira@apache.org>","Tue, 25 Aug 2015 21:40:45 +0000 (UTC)","[jira] [Created] (HBASE-14308) HTableDescriptor WARN is not actionable"
"""Ted Yu (JIRA)"" <jira@apache.org>","Tue, 25 Aug 2015 22:12:46 +0000 (UTC)","[jira] [Created] (HBASE-14309) Allow load balancer to operate when there is region in transition by adding force flag"
"""Ted Yu (JIRA)"" <jira@apache.org>","Tue, 25 Aug 2015 23:08:45 +0000 (UTC)","[jira] [Created] (HBASE-14310) test-patch.sh should handle spurious non-zero exit code from maven"
"""Elliott Clark (JIRA)"" <jira@apache.org>","Tue, 25 Aug 2015 23:29:45 +0000 (UTC)","[jira] [Created] (HBASE-14311) Branch-1.2 AM can get stuck when meta moves to a server opening lots of regions"
"""Francis Liu (JIRA)"" <jira@apache.org>","Wed, 26 Aug 2015 00:15:46 +0000 (UTC)","[jira] [Created] (HBASE-14312) Forward port some fixes from hbase-6721-0.98 to hbase-6721"
"""Elliott Clark (JIRA)"" <jira@apache.org>","Wed, 26 Aug 2015 01:12:46 +0000 (UTC)","[jira] [Created] (HBASE-14313) After a thrift-two proxy sees ConnectionClosingException on a connection it never recovers"
"=?UTF-8?Q?Enis_S=C3=B6ztutar?= <enis.soz@gmail.com>","Tue, 25 Aug 2015 19:43:45 -0700","Re: [VOTE] Second release candidate for HBase 1.1.2 (RC1) is available"
"""Ted Yu (JIRA)"" <jira@apache.org>","Wed, 26 Aug 2015 02:50:45 +0000 (UTC)","[jira] [Created] (HBASE-14314) Metrics for block cache should take region replicas into account"
"""Andrew Purtell (JIRA)"" <jira@apache.org>","Wed, 26 Aug 2015 04:55:47 +0000 (UTC)","[jira] [Reopened] (HBASE-13376) Improvements to Stochastic load balancer"
"Andrew Purtell <apurtell@apache.org>","Tue, 25 Aug 2015 23:15:14 -0700","[VOTE] The 2nd HBase 0.98.14 release candidate (RC1) is available"
"=?UTF-8?Q?Enis_S=C3=B6ztutar?= <enis@apache.org>","Tue, 25 Aug 2015 23:18:09 -0700","[VOTE] Third release candidate for HBase 1.0.2 (RC2) is available. Please vote by Aug 30 2015"
"""Lars Hofhansl (JIRA)"" <jira@apache.org>","Wed, 26 Aug 2015 06:51:45 +0000 (UTC)","[jira] [Created] (HBASE-14315) Save one call to KeyValueHeap.peek per row"
"""debarshi basak (JIRA)"" <jira@apache.org>","Wed, 26 Aug 2015 08:38:45 +0000 (UTC)","[jira] [Created] (HBASE-14316) On truncate table command, the hbase doesn't maintain the pre-defined splits"
"""Jean-Marc Spaggiari (JIRA)"" <jira@apache.org>","Wed, 26 Aug 2015 13:24:46 +0000 (UTC)","[jira] [Resolved] (HBASE-14316) On truncate table command, the hbase doesn't maintain the pre-defined splits"
"Andrew Purtell <apurtell@apache.org>","Wed, 26 Aug 2015 10:02:43 -0700","Re: [VOTE] Second release candidate for HBase 1.1.2 (RC1) is available"
"Nick Dimiduk <ndimiduk@apache.org>","Wed, 26 Aug 2015 11:14:16 -0700","Re: [VOTE] Second release candidate for HBase 1.1.2 (RC1) is available"
"=?UTF-8?Q?Enis_S=C3=B6ztutar?= <enis@apache.org>","Wed, 26 Aug 2015 11:30:32 -0700","Re: [VOTE] Second release candidate for HBase 1.1.2 (RC1) is available"
"""stack (JIRA)"" <jira@apache.org>","Wed, 26 Aug 2015 18:46:46 +0000 (UTC)","[jira] [Created] (HBASE-14317) Stuck FSHLog: bad disk (HDFS-8960) and can't roll WAL"
"=?UTF-8?Q?Enis_S=C3=B6ztutar?= <enis@apache.org>","Wed, 26 Aug 2015 11:51:53 -0700","Re: [VOTE] The 2nd HBase 0.98.14 release candidate (RC1) is available"
"""Nick Dimiduk (JIRA)"" <jira@apache.org>","Wed, 26 Aug 2015 18:54:46 +0000 (UTC)","[jira] [Created] (HBASE-14318) make_rc.sh should purge/re-resolve dependencies from local repository"
"=?UTF-8?Q?Enis_S=C3=B6ztutar?= <enis@apache.org>","Wed, 26 Aug 2015 14:31:24 -0700","Re: [VOTE] The 2nd HBase 0.98.14 release candidate (RC1) is available"
"Andrew Purtell <apurtell@apache.org>","Wed, 26 Aug 2015 15:24:33 -0700","Re: [VOTE] The 2nd HBase 0.98.14 release candidate (RC1) is available"
"=?UTF-8?Q?Enis_S=C3=B6ztutar?= <enis@apache.org>","Wed, 26 Aug 2015 15:35:54 -0700","Re: [VOTE] The 2nd HBase 0.98.14 release candidate (RC1) is available"
"""Dima Spivak (JIRA)"" <jira@apache.org>","Wed, 26 Aug 2015 22:45:45 +0000 (UTC)","[jira] [Created] (HBASE-14319) TestAtomicOperation.testMultiRowMutationMultiThreads is flaky"
"""Dima Spivak (JIRA)"" <jira@apache.org>","Wed, 26 Aug 2015 22:48:46 +0000 (UTC)","[jira] [Created] (HBASE-14320) b.a.o Jenkins is obscuring test results on HBase-1.2 and HBase-1.3"
"""Andrew Purtell (JIRA)"" <jira@apache.org>","Thu, 27 Aug 2015 01:17:47 +0000 (UTC)","[jira] [Resolved] (HBASE-14118) minicluster maven plugin"
"""Nick Dimiduk (JIRA)"" <jira@apache.org>","Thu, 27 Aug 2015 01:37:46 +0000 (UTC)","[jira] [Created] (HBASE-14321) branch-1.1 src artifact includes shaded target dirs"
"""Nick Dimiduk (JIRA)"" <jira@apache.org>","Thu, 27 Aug 2015 03:41:49 +0000 (UTC)","[jira] [Resolved] (HBASE-14321) branch-1.1 src artifact includes shaded target dirs"
"Nick Dimiduk <ndimiduk@apache.org>","Wed, 26 Aug 2015 21:16:52 -0700","[VOTE] Third release candidate for HBase 1.1.2 (RC2) is available"
"""Elliott Clark (JIRA)"" <jira@apache.org>","Thu, 27 Aug 2015 06:43:46 +0000 (UTC)","[jira] [Created] (HBASE-14322) Master still not using more than it's priority threads"
"""binlijin (JIRA)"" <jira@apache.org>","Thu, 27 Aug 2015 07:40:45 +0000 (UTC)","[jira] [Created] (HBASE-14323) Encoding rpc payload instead of compression"
"""Rafi Shachar (JIRA)"" <jira@apache.org>","Thu, 27 Aug 2015 09:38:45 +0000 (UTC)","[jira] [Created] (HBASE-14324) MetricSampleQuantiles maintains quantiles summary in a wrong way"
"""Samir Ahmic (JIRA)"" <jira@apache.org>","Thu, 27 Aug 2015 12:36:45 +0000 (UTC)","[jira] [Created] (HBASE-14325) Add snapshotinfo command to hbase script"
"Stack <stack@duboce.net>","Thu, 27 Aug 2015 10:19:51 -0700","Notes from last nights HBase Dev Workshop"
"Stack <stack@duboce.net>","Thu, 27 Aug 2015 10:22:57 -0700","Proposal: Matteo for 2.0.0 RM"
"Elliott Clark <eclark@apache.org>","Thu, 27 Aug 2015 10:50:44 -0700","Re: Proposal: Matteo for 2.0.0 RM"
"=?UTF-8?Q?Enis_S=C3=B6ztutar?= <enis@apache.org>","Thu, 27 Aug 2015 10:59:03 -0700","Re: Proposal: Matteo for 2.0.0 RM"
"Mikhail Antonov <olorinbant@gmail.com>","Thu, 27 Aug 2015 11:03:34 -0700","Re: Proposal: Matteo for 2.0.0 RM"
"Ted Yu <yuzhihong@gmail.com>","Thu, 27 Aug 2015 11:15:17 -0700","Re: Proposal: Matteo for 2.0.0 RM"
"Nick Dimiduk <ndimiduk@apache.org>","Thu, 27 Aug 2015 11:15:38 -0700","Re: Proposal: Matteo for 2.0.0 RM"
"Andrew Purtell <apurtell@apache.org>","Thu, 27 Aug 2015 11:28:27 -0700","Re: Proposal: Matteo for 2.0.0 RM"
"Esteban Gutierrez <esteban@cloudera.com>","Thu, 27 Aug 2015 11:31:00 -0700","Re: Proposal: Matteo for 2.0.0 RM"
"Srikanth Srungarapu <srikanth235@gmail.com>","Thu, 27 Aug 2015 18:31:12 +0000","Re: Proposal: Matteo for 2.0.0 RM"
"Jerry He <jerryjch@gmail.com>","Thu, 27 Aug 2015 13:11:00 -0700","Re: Proposal: Matteo for 2.0.0 RM"
"Stack <stack@duboce.net>","Thu, 27 Aug 2015 13:22:54 -0700","Re: Question on hbase.client.scanner.timeout.period"
"Eric Owhadi <eric.owhadi@esgyn.com>","Thu, 27 Aug 2015 15:39:23 -0500","RE: Question on hbase.client.scanner.timeout.period"
"""Vladimir Rodionov (JIRA)"" <jira@apache.org>","Thu, 27 Aug 2015 20:48:46 +0000 (UTC)","[jira] [Resolved] (HBASE-14263) ExploringCompactionPolicy logic around file selection is broken"
"""Vladimir Rodionov (JIRA)"" <jira@apache.org>","Thu, 27 Aug 2015 20:50:46 +0000 (UTC)","[jira] [Created] (HBASE-14326) HBase book: fix definition of max min size to compact"
"Stack <stack@duboce.net>","Thu, 27 Aug 2015 13:55:04 -0700","Re: Question on hbase.client.scanner.timeout.period"
"""Dima Spivak (JIRA)"" <jira@apache.org>","Thu, 27 Aug 2015 21:20:46 +0000 (UTC)","[jira] [Created] (HBASE-14327) TestIOFencing#testFencingAroundCompactionAfterWALSync is flaky"
"""Jean-Marc Spaggiari (JIRA)"" <jira@apache.org>","Thu, 27 Aug 2015 21:30:46 +0000 (UTC)","[jira] [Created] (HBASE-14328) WebUI error 500 table doesn't exist"
"Ted Yu <yuzhihong@gmail.com>","Thu, 27 Aug 2015 15:00:47 -0700","Re: [VOTE] Third release candidate for HBase 1.1.2 (RC2) is available"
"Stack <stack@duboce.net>","Thu, 27 Aug 2015 15:15:38 -0700","Re: Notes from last nights HBase Dev Workshop"
"""Elliott Clark (JIRA)"" <jira@apache.org>","Thu, 27 Aug 2015 22:17:47 +0000 (UTC)","[jira] [Resolved] (HBASE-13339) Update default Hadoop version to latest for master"
" <larsh@apache.org>","Thu, 27 Aug 2015 22:59:43 +0000 (UTC)","Re: Proposal: Matteo for 2.0.0 RM"
" <larsh@apache.org>","Thu, 27 Aug 2015 23:03:21 +0000 (UTC)","Re: [VOTE] The 2nd HBase 0.98.14 release candidate (RC1) is available"
"""Elliott Clark (JIRA)"" <jira@apache.org>","Thu, 27 Aug 2015 23:27:46 +0000 (UTC)","[jira] [Created] (HBASE-14329) Report region in transition only ever operates on one region"
"Himanshu Verma <himanshuvermadce@gmail.com>","Fri, 28 Aug 2015 05:26:09 +0530","Optimizing LoadIncrementalHFiles.java"
"Ted Yu <yuzhihong@gmail.com>","Thu, 27 Aug 2015 17:08:50 -0700","Re: Optimizing LoadIncrementalHFiles.java"
"=?utf-8?Q?=E8=8C=82=E5=86=9B=E7=8E=8B_=28JIRA=29?= <jira@apache.org>","Fri, 28 Aug 2015 00:40:45 +0000 (UTC)","[jira] [Created] (HBASE-14330) Regular Expressions cause  ipc.CallTimeoutException"
"Ted Yu <yuzhihong@gmail.com>","Thu, 27 Aug 2015 17:51:50 -0700","Re: [VOTE] The 2nd HBase 0.98.14 release candidate (RC1) is available"
"=?UTF-8?Q?Enis_S=C3=B6ztutar?= <enis@apache.org>","Thu, 27 Aug 2015 18:14:04 -0700","Re: [VOTE] Third release candidate for HBase 1.1.2 (RC2) is available"
"=?UTF-8?Q?Enis_S=C3=B6ztutar?= <enis@apache.org>","Thu, 27 Aug 2015 18:15:30 -0700","Re: [VOTE] Third release candidate for HBase 1.0.2 (RC2) is available. Please vote by Aug 30 2015"
"Ted Yu <yuzhihong@gmail.com>","Thu, 27 Aug 2015 18:58:47 -0700","Re: Optimizing LoadIncrementalHFiles.java"
"""Hiroshi Ikeda (JIRA)"" <jira@apache.org>","Fri, 28 Aug 2015 08:04:45 +0000 (UTC)","[jira] [Created] (HBASE-14331) a single callQueue related improvements"
"""Nick.han (JIRA)"" <jira@apache.org>","Fri, 28 Aug 2015 13:23:46 +0000 (UTC)","[jira] [Created] (HBASE-14332) give the table state when we encountered exception while disable/enable table"
"Nicolas Liochon <nkeywal@gmail.com>","Fri, 28 Aug 2015 15:49:53 +0200","Re: Proposal: Matteo for 2.0.0 RM"
"Jonathan Hsieh <jon@cloudera.com>","Fri, 28 Aug 2015 07:36:19 -0700","Re: Proposal: Matteo for 2.0.0 RM"
"Eric Owhadi <eric.owhadi@esgyn.com>","Fri, 28 Aug 2015 13:31:32 -0500","RE: Question on hbase.client.scanner.timeout.period"
"""Nick Dimiduk (JIRA)"" <jira@apache.org>","Fri, 28 Aug 2015 21:25:46 +0000 (UTC)","[jira] [Created] (HBASE-14333) responseTooLarge/Slow logs are not actionable when the rpc method is ExecService"
"""Elliott Clark (JIRA)"" <jira@apache.org>","Fri, 28 Aug 2015 21:38:45 +0000 (UTC)","[jira] [Created] (HBASE-14334) Move Memcached block cache in to it's own optional module."
"""Lars Hofhansl (JIRA)"" <jira@apache.org>","Fri, 28 Aug 2015 22:27:45 +0000 (UTC)","[jira] [Resolved] (HBASE-14315) Save one call to KeyValueHeap.peek per row"
"""Vladimir Rodionov (JIRA)"" <jira@apache.org>","Fri, 28 Aug 2015 22:45:45 +0000 (UTC)","[jira] [Reopened] (HBASE-14258) Make region_mover.rb script case insensitive with regard to hostname"
"""Ted Yu (JIRA)"" <jira@apache.org>","Fri, 28 Aug 2015 22:55:48 +0000 (UTC)","[jira] [Reopened] (HBASE-14289) Backport HBASE-13965 'Stochastic Load Balancer JMX Metrics' to 0.98"
"Stack <stack@duboce.net>","Fri, 28 Aug 2015 16:35:13 -0700","Re: Question on hbase.client.scanner.timeout.period"
"Eric Owhadi <eric.owhadi@esgyn.com>","Fri, 28 Aug 2015 18:44:21 -0500","RE: Question on hbase.client.scanner.timeout.period"
"""Andrew Purtell (JIRA)"" <jira@apache.org>","Sat, 29 Aug 2015 00:02:46 +0000 (UTC)","[jira] [Created] (HBASE-14335) TestAssignmentManagerOnCluster#testSSHWhenDisablingTableRegionsInOpeningOrPendingOpenState occasionally timing out during cleanup"
"Andrew Purtell <apurtell@apache.org>","Fri, 28 Aug 2015 17:37:07 -0700","Re: [VOTE] The 2nd HBase 0.98.14 release candidate (RC1) is available"
"Andrew Purtell <apurtell@apache.org>","Fri, 28 Aug 2015 19:35:06 -0700","Re: [VOTE] Third release candidate for HBase 1.1.2 (RC2) is available"
"Stephen Jiang <syuanjiangdev@gmail.com>","Fri, 28 Aug 2015 21:01:20 -0700","Re: Proposal: Matteo for 2.0.0 RM"
"""Stephen Yuan Jiang (JIRA)"" <jira@apache.org>","Sat, 29 Aug 2015 04:10:45 +0000 (UTC)","[jira] [Created] (HBASE-14336) Procedure V2 Phase 1 - Procedure Framework and Making DDL Operations fault tolerant"
"""Ted Yu (JIRA)"" <jira@apache.org>","Sat, 29 Aug 2015 04:32:45 +0000 (UTC)","[jira] [Resolved] (HBASE-11198) test-patch.sh should handle the case where trunk patch is attached along with patch for 0.98"
"""Ted Yu (JIRA)"" <jira@apache.org>","Sat, 29 Aug 2015 04:33:46 +0000 (UTC)","[jira] [Resolved] (HBASE-11159) Some medium tests should be classified as large tests"
"""Ted Yu (JIRA)"" <jira@apache.org>","Sat, 29 Aug 2015 04:35:46 +0000 (UTC)","[jira] [Resolved] (HBASE-11080) TestZKSecretWatcher#testKeyUpdate occasionally fails"
"""Ted Yu (JIRA)"" <jira@apache.org>","Sat, 29 Aug 2015 09:14:46 +0000 (UTC)","[jira] [Resolved] (HBASE-14258) Make region_mover.rb script case insensitive with regard to hostname"
"""Gabor Liptak (JIRA)"" <jira@apache.org>","Sat, 29 Aug 2015 19:17:45 +0000 (UTC)","[jira] [Created] (HBASE-14337) build error on master"
"Andrew Purtell <apurtell@apache.org>","Sun, 30 Aug 2015 11:31:49 -0700","Re: [VOTE] Third release candidate for HBase 1.0.2 (RC2) is available. Please vote by Aug 30 2015"
"Sean Busbey <busbey@cloudera.com>","Sun, 30 Aug 2015 16:34:14 -0500","Re: [VOTE] Third release candidate for HBase 1.0.2 (RC2) is available. Please vote by Aug 30 2015"
"""Sean Busbey (JIRA)"" <jira@apache.org>","Sun, 30 Aug 2015 21:47:45 +0000 (UTC)","[jira] [Created] (HBASE-14338) License notification misspells 'Asciidoctor'"
"""Ted Malaska (JIRA)"" <jira@apache.org>","Sun, 30 Aug 2015 21:51:45 +0000 (UTC)","[jira] [Created] (HBASE-14339) HBase Bulk Load and super wide rows"
"""Ted Malaska (JIRA)"" <jira@apache.org>","Sun, 30 Aug 2015 21:59:45 +0000 (UTC)","[jira] [Created] (HBASE-14340) Add second bulk load option to Spark Bulk Load to send puts as the value"
"""Sean Busbey (JIRA)"" <jira@apache.org>","Sun, 30 Aug 2015 22:37:45 +0000 (UTC)","[jira] [Created] (HBASE-14341) branch-1.1 source assembly contains spurious hbase-shaded-client and hbase-shaded-server modules"
"Sean Busbey <busbey@cloudera.com>","Sun, 30 Aug 2015 18:15:37 -0500","Re: [VOTE] Third release candidate for HBase 1.1.2 (RC2) is available"
"""stack (JIRA)"" <jira@apache.org>","Mon, 31 Aug 2015 04:02:46 +0000 (UTC)","[jira] [Resolved] (HBASE-13161) ITBLL needs love; verify spins w/o end at 10B rows"
"""Lars George (JIRA)"" <jira@apache.org>","Mon, 31 Aug 2015 07:32:46 +0000 (UTC)","[jira] [Created] (HBASE-14342) Recursive call in RegionMergeTransactionImpl.getJournal()"
"""Lars George (JIRA)"" <jira@apache.org>","Mon, 31 Aug 2015 11:58:46 +0000 (UTC)","[jira] [Created] (HBASE-14343) Fix debug message in SimpleRegionNormalizer for small regions"
"Sean Busbey <busbey@cloudera.com>","Mon, 31 Aug 2015 10:01:44 -0500","Re: Testing and CI -- Apache Jenkins Builds"
"""stack (JIRA)"" <jira@apache.org>","Mon, 31 Aug 2015 15:02:46 +0000 (UTC)","[jira] [Resolved] (HBASE-6613) Automatically merge empty regions"
"Sean Busbey <busbey@cloudera.com>","Mon, 31 Aug 2015 10:54:30 -0500","Re: Testing and CI -- Apache Jenkins Builds"
"Stack <stack@duboce.net>","Mon, 31 Aug 2015 09:17:04 -0700","Re: Testing and CI -- Apache Jenkins Builds"
"""Matteo Bertozzi (JIRA)"" <jira@apache.org>","Mon, 31 Aug 2015 17:07:45 +0000 (UTC)","[jira] [Created] (HBASE-14344) Add timeouts to TestHttpServerLifecycle"
"Elliott Clark <eclark@apache.org>","Mon, 31 Aug 2015 10:33:52 -0700","Re: [VOTE] Third release candidate for HBase 1.0.2 (RC2) is available. Please vote by Aug 30 2015"
"""Nick Dimiduk (JIRA)"" <jira@apache.org>","Mon, 31 Aug 2015 18:22:05 +0000 (UTC)","[jira] [Created] (HBASE-14345) Consolidate printUsage in IntegrationTestLoadAndVerify"
"""Joshua Batson (JIRA)"" <jira@apache.org>","Mon, 31 Aug 2015 18:54:46 +0000 (UTC)","[jira] [Created] (HBASE-14346) Typo in FamilyFilter"
"Andrew Purtell <apurtell@apache.org>","Mon, 31 Aug 2015 12:08:43 -0700","Re: [VOTE] The 2nd HBase 0.98.14 release candidate (RC1) is available"
"""Esteban Gutierrez (JIRA)"" <jira@apache.org>","Mon, 31 Aug 2015 19:39:46 +0000 (UTC)","[jira] [Created] (HBASE-14347) Add a switch to DynamicClassLoader to be disabled and make that the default"
"=?UTF-8?Q?Enis_S=C3=B6ztutar?= <enis.soz@gmail.com>","Mon, 31 Aug 2015 14:20:51 -0700","[RESULT] [VOTE] Third release candidate for HBase 1.0.2 (RC2) is available. Please vote by Aug 30 2015"
"""Andrew Purtell (JIRA)"" <jira@apache.org>","Mon, 31 Aug 2015 21:37:45 +0000 (UTC)","[jira] [Created] (HBASE-14348) Update download mirror link"
"Nick Dimiduk <ndimiduk@apache.org>","Mon, 31 Aug 2015 15:00:20 -0700","Re: [VOTE] Third release candidate for HBase 1.1.2 (RC2) is available"
"""Elliott Clark (JIRA)"" <jira@apache.org>","Mon, 31 Aug 2015 22:53:46 +0000 (UTC)","[jira] [Reopened] (HBASE-11236) Last flushed sequence id is ignored by ServerManager"
"""Vladimir Rodionov (JIRA)"" <jira@apache.org>","Mon, 31 Aug 2015 23:07:45 +0000 (UTC)","[jira] [Resolved] (HBASE-14124) Failed backup is not handled properly in incremental mode"
