"Developer","Date","Subject"
"""Jean-Daniel Cryans"" <jdcryans@apache.org>","Wed, 30 Jun 2010 22:36:59 -0000","Re: Review Request: HBASE-2223"
"Apache Hudson Server <hudson@hudson.zones.apache.org>","Thu, 1 Jul 2010 01:45:56 +0000 (UTC)","Build failed in Hudson: HBase-TRUNK #1371"
"""Benoit Sigoure"" <tsunanet@gmail.com>","Fri, 02 Jul 2010 00:53:04 -0000","Review Request: HBASE-2806 Log a proper error message and don't NPE with broken DNS."
"Gary Helmling <ghelmling@gmail.com>","Fri, 2 Jul 2010 16:15:29 -0700","Proposed feature branch for HBase security"
"Stack <saint.ack@gmail.com>","Fri, 2 Jul 2010 21:44:23 -0400","Re: Proposed feature branch for HBase security"
"""Andrew Purtell"" <apurtell@apache.org>","Sat, 3 Jul 2010 12:22:15 +0000","yahoo-hadoop-0.20.104-append"
"Ted Yu <yuzhihong@gmail.com>","Sat, 3 Jul 2010 07:23:20 -0700","compiling HBaseFsck.java for 0.20.5"
"Ted Yu <yuzhihong@gmail.com>","Sat, 3 Jul 2010 09:51:39 -0700","Re: compiling HBaseFsck.java for 0.20.5"
"Andrew Purtell <apurtell@apache.org>","Sun, 4 Jul 2010 03:49:54 -0700 (PDT)","Re: Any successful story of an HBasecell for 'analytics job' plus  'realtime serving'?"
"Dhruba Borthakur <dhruba@gmail.com>","Sun, 4 Jul 2010 23:02:54 -0700","Re: compiling HBaseFsck.java for 0.20.5"
"Stack <stack@duboce.net>","Mon, 5 Jul 2010 10:24:36 -0700","Re: compiling HBaseFsck.java for 0.20.5"
"stack@duboce.net","Mon, 05 Jul 2010 17:42:20 -0000","Re: Review Request: HBASE-2806 Log a proper error message and don't NPE with broken DNS."
"Todd Lipcon <todd@cloudera.com>","Mon, 5 Jul 2010 12:07:02 -0700","Re: Proposed feature branch for HBase security"
"Apache Hudson Server <hudson@hudson.zones.apache.org>","Mon, 5 Jul 2010 19:07:56 +0000 (UTC)","Build failed in Hudson: HBase-TRUNK #1372"
"yuzhihong@gmail.com","Mon, 5 Jul 2010 23:27:23 +0000","Re: compiling HBaseFsck.java for 0.20.5"
"Ted Yu <yuzhihong@gmail.com>","Mon, 5 Jul 2010 18:25:01 -0700","Re: compiling HBaseFsck.java for 0.20.5"
"Apache Hudson Server <hudson@hudson.zones.apache.org>","Tue, 6 Jul 2010 13:50:38 +0000 (UTC)","Build failed in Hudson: HBase-TRUNK #1373"
"Stack <stack@duboce.net>","Tue, 6 Jul 2010 09:08:37 -0700","Re: compiling HBaseFsck.java for 0.20.5"
"Ted Yu <yuzhihong@gmail.com>","Tue, 6 Jul 2010 09:44:01 -0700","Re: compiling HBaseFsck.java for 0.20.5"
"Jean-Daniel Cryans <jdcryans@apache.org>","Tue, 6 Jul 2010 09:54:52 -0700","Re: compiling HBaseFsck.java for 0.20.5"
"Ted Yu <yuzhihong@gmail.com>","Tue, 6 Jul 2010 10:05:07 -0700","Re: compiling HBaseFsck.java for 0.20.5"
"Sebastian Bauer <admin@ugame.net.pl>","Tue, 06 Jul 2010 19:14:40 +0200","Multi atomicIncreaments"
"Jean-Daniel Cryans <jdcryans@apache.org>","Tue, 6 Jul 2010 10:17:57 -0700","Re: Multi atomicIncreaments"
"Jean-Daniel Cryans <jdcryans@apache.org>","Tue, 6 Jul 2010 10:23:36 -0700","Re: Build failed in Hudson: HBase-TRUNK #1373"
"Sebastian Bauer <admin@ugame.net.pl>","Tue, 06 Jul 2010 19:27:25 +0200","Re: Multi atomicIncreaments"
"Gary Helmling <ghelmling@gmail.com>","Tue, 6 Jul 2010 13:05:19 -0700","Re: Proposed feature branch for HBase security"
"Ted Yu <yuzhihong@gmail.com>","Tue, 6 Jul 2010 16:22:10 -0700","inconsistent listing of HBase tables"
"Ted Yu <yuzhihong@gmail.com>","Wed, 7 Jul 2010 09:30:28 -0700","Re: Multi atomicIncreaments"
"Sebastian Bauer <admin@ugame.net.pl>","Wed, 07 Jul 2010 21:47:58 +0200","Re: Multi atomicIncreaments"
"""Ryan Rawson"" <ryanobjc@gmail.com>","Wed, 07 Jul 2010 20:58:43 -0000","Re: Review Request: Timestamp based optimization for selecting the StoreFiles to be used in a Scan"
"""Ryan Rawson"" <ryanobjc@gmail.com>","Wed, 07 Jul 2010 21:30:53 -0000","Re: Review Request: Timestamp based optimization for selecting the StoreFiles to be used in a Scan"
"Arun Ramakrishnan <aramakrishnan@languageweaver.com>","Wed, 7 Jul 2010 16:57:40 -0500","subscribe request"
"""Ryan Rawson"" <ryanobjc@gmail.com>","Wed, 07 Jul 2010 21:58:38 -0000","Review Request: HBASE-2803 remove remaining get code from Store.java etc"
"Arun Ramakrishnan <aramakrishnan@languageweaver.com>","Wed, 7 Jul 2010 16:59:08 -0500","add me"
"""Ryan Rawson"" <ryanobjc@gmail.com>","Wed, 07 Jul 2010 22:03:56 -0000","Re: Review Request: HBASE-2793: Add ability to extract a specified list of versions of a column in a single roundtrip"
"""Jean-Daniel Cryans"" <jdcryans@apache.org>","Wed, 07 Jul 2010 22:23:16 -0000","Re: Review Request: HBASE-2803 remove remaining get code from Store.java etc"
"""Ryan Rawson"" <ryanobjc@gmail.com>","Wed, 07 Jul 2010 22:25:16 -0000","Re: Review Request: HBASE-2803 remove remaining get code from Store.java etc"
"""Ryan Rawson"" <ryanobjc@gmail.com>","Wed, 07 Jul 2010 22:25:32 -0000","Re: Review Request: HBASE-2803 remove remaining get code from Store.java etc"
"""Ryan Rawson"" <ryanobjc@gmail.com>","Wed, 07 Jul 2010 22:49:40 -0000","Re: Review Request: HBASE-2797 another NPE in ReadWriteConsistencyControl"
"""Jonathan Gray"" <jgray@apache.org>","Wed, 07 Jul 2010 23:48:39 -0000","Review Request: First cut at a working load balancer"
"Apache Hudson Server <hudson@hudson.zones.apache.org>","Thu, 8 Jul 2010 04:43:37 +0000 (UTC)","Build failed in Hudson: HBase-TRUNK #1374"
"Ryan Rawson <ryanobjc@gmail.com>","Wed, 7 Jul 2010 21:55:27 -0700","Re: Build failed in Hudson: HBase-TRUNK #1374"
"Jean-Daniel Cryans <jdcryans@apache.org>","Wed, 7 Jul 2010 21:58:42 -0700","Re: Build failed in Hudson: HBase-TRUNK #1374"
"Apache Hudson Server <hudson@hudson.zones.apache.org>","Sat, 10 Jul 2010 21:23:02 +0000 (UTC)","Build failed in Hudson: HBase-TRUNK #1375"
"ilay raja <ilay.msp@gmail.com>","Sun, 11 Jul 2010 10:02:04 +0530","Hbase search"
"""Kris Jirapinyo"" <kjirapinyo@attensity.com>","Mon, 12 Jul 2010 05:54:42 -0000","Review Request: HBASE-2794 Multi Column Bloom Filter Check"
"Jonathan Gray <jgray@facebook.com>","Mon, 12 Jul 2010 17:47:48 +0000","HBase Hackathon IV Wrap-up"
"""Kris Jirapinyo"" <kjirapinyo@attensity.com>","Mon, 12 Jul 2010 17:50:08 -0000","Re: Review Request: HBASE-2794 Multi Column Bloom Filter Check"
"Steven Noels <stevenn@outerthought.org>","Mon, 12 Jul 2010 21:26:30 +0200","Re: HBase Hackathon IV Wrap-up"
"""Ryan Rawson"" <ryanobjc@gmail.com>","Mon, 12 Jul 2010 20:09:10 -0000","Re: Review Request: Timestamp based optimization for selecting the StoreFiles to be used in a Scan"
"""Kris Jirapinyo"" <kjirapinyo@attensity.com>","Mon, 12 Jul 2010 20:21:50 -0000","Re: Review Request: HBASE-2794 Multi Column Bloom Filter Check"
"""Ryan Rawson"" <ryanobjc@gmail.com>","Mon, 12 Jul 2010 21:12:56 -0000","Re: Review Request: Timestamp based optimization for selecting the StoreFiles to be used in a Scan"
"Todd Lipcon <todd@cloudera.com>","Mon, 12 Jul 2010 16:30:04 -0700","On vacation next two weeks"
"""Kris Jirapinyo"" <kjirapinyo@attensity.com>","Tue, 13 Jul 2010 02:48:43 -0000","Re: Review Request: HBASE-2794 Multi Column Bloom Filter Check"
"""Jonathan Gray"" <jgray@apache.org>","Tue, 13 Jul 2010 03:39:44 -0000","Re: Review Request: HBASE-2832: Priorities and multi-threading for MemStore flushing"
"""Jonathan Gray"" <jgray@apache.org>","Tue, 13 Jul 2010 04:41:44 -0000","Re: Review Request: HBASE-2832: Priorities and multi-threading for MemStore flushing"
"stack@duboce.net","Tue, 13 Jul 2010 04:55:02 -0000","Re: Review Request: HBASE-2832: Priorities and multi-threading for MemStore flushing"
"Stack <stack@duboce.net>","Mon, 12 Jul 2010 22:03:44 -0700","Re: HBase Hackathon IV Wrap-up"
"Steven Noels <stevenn@outerthought.org>","Tue, 13 Jul 2010 07:25:13 +0200","Re: HBase Hackathon IV Wrap-up"
"""Jonathan Gray"" <jgray@apache.org>","Tue, 13 Jul 2010 05:40:44 -0000","Re: Review Request: HBASE-2832: Priorities and multi-threading for MemStore flushing"
"""Jonathan Gray"" <jgray@apache.org>","Tue, 13 Jul 2010 05:43:42 -0000","Re: Review Request: HBASE-2832: Priorities and multi-threading for MemStore flushing"
"""Jonathan Gray"" <jgray@apache.org>","Tue, 13 Jul 2010 05:44:39 -0000","Re: Review Request: HBASE-2832: Priorities and multi-threading for MemStore flushing"
"stack@duboce.net","Tue, 13 Jul 2010 15:09:43 -0000","Re: Review Request: HBASE-2832: Priorities and multi-threading for MemStore flushing"
"stack@duboce.net","Tue, 13 Jul 2010 18:01:49 -0000","Re: Review Request: HBASE-2803 remove remaining get code from Store.java etc"
"stack@duboce.net","Tue, 13 Jul 2010 18:11:17 -0000","Re: Review Request: HBASE-2740  NPE in ReadWriteConsistencyControl"
"Apache Hudson Server <hudson@hudson.zones.apache.org>","Tue, 13 Jul 2010 19:41:24 +0000 (UTC)","Build failed in Hudson: HBase-TRUNK #1376"
"""Ryan Rawson"" <ryanobjc@gmail.com>","Tue, 13 Jul 2010 20:28:04 -0000","Re: Review Request: Timestamp based optimization for selecting the StoreFiles to be used in a Scan"
"Apache Hudson Server <hudson@hudson.zones.apache.org>","Tue, 13 Jul 2010 22:09:06 +0000 (UTC)","Build failed in Hudson: HBase-TRUNK #1377"
"Stack <stack@duboce.net>","Tue, 13 Jul 2010 16:20:42 -0700","Re: HBase Hackathon IV Wrap-up"
"""Kris Jirapinyo"" <kjirapinyo@attensity.com>","Tue, 13 Jul 2010 23:32:18 -0000","Re: Review Request: HBASE-2794 Multi Column Bloom Filter Check"
"Apache Hudson Server <hudson@hudson.zones.apache.org>","Tue, 13 Jul 2010 23:39:27 +0000 (UTC)","Build failed in Hudson: HBase-TRUNK #1378"
"""Jonathan Gray"" <jgray@apache.org>","Wed, 14 Jul 2010 02:58:24 -0000","Re: Review Request: HBASE-2794 Multi Column Bloom Filter Check"
"Apache Hudson Server <hudson@hudson.zones.apache.org>","Wed, 14 Jul 2010 03:47:09 +0000 (UTC)","Build failed in Hudson: HBase-TRUNK #1379"
"Stack <stack@duboce.net>","Tue, 13 Jul 2010 20:57:16 -0700","OK if we roll a 0.20.6 candidate and next iteration on 0.89.x by 	friday?"
"Jean-Daniel Cryans <jdcryans@apache.org>","Tue, 13 Jul 2010 21:14:46 -0700","Re: OK if we roll a 0.20.6 candidate and next iteration on 0.89.x by 	friday?"
"Steven Noels <stevenn@outerthought.org>","Wed, 14 Jul 2010 07:39:52 +0200","Re: HBase Hackathon IV Wrap-up"
"Thomas Koch <thomas@koch.ro>","Wed, 14 Jul 2010 09:40:31 +0200","Tool for HBase book was: HBase Hackathon IV Wrap-up"
"Apache Hudson Server <hudson@hudson.zones.apache.org>","Wed, 14 Jul 2010 07:47:16 +0000 (UTC)","Build failed in Hudson: HBase-TRUNK #1380"
"Stack <stack@duboce.net>","Wed, 14 Jul 2010 09:57:56 -0700","What for a Documentation Tool (WAS -> Re: HBase Hackathon IV Wrap-up)"
"Jonathan Gray <jgray@facebook.com>","Wed, 14 Jul 2010 17:28:08 +0000","RE: What for a Documentation Tool (WAS -> Re: HBase Hackathon IV Wrap-up)"
"Apache Hudson Server <hudson@hudson.zones.apache.org>","Wed, 14 Jul 2010 19:56:07 +0000 (UTC)","Build failed in Hudson: HBase-TRUNK #1381"
"Apache Hudson Server <hudson@hudson.zones.apache.org>","Wed, 14 Jul 2010 23:34:54 +0000 (UTC)","Build failed in Hudson: HBase-TRUNK #1382"
"psmith@aconex.com","Thu, 15 Jul 2010 12:56:58 +1000","Re: What for a Documentation Tool (WAS -> Re: HBase Hackathon IV Wrap-up)"
"Otis Gospodnetic <otis_gospodnetic@yahoo.com>","Wed, 14 Jul 2010 20:15:54 -0700 (PDT)","Q: search-hadoop.com to replace Google-powered search?"
"Stack <stack@duboce.net>","Wed, 14 Jul 2010 21:41:26 -0700","Re: Q: search-hadoop.com to replace Google-powered search?"
"=?UTF-8?B?THVrw6HFoSBWbMSNZWs=?= <lukas.vlcek@gmail.com>","Thu, 15 Jul 2010 09:13:56 +0200","Re: Q: search-hadoop.com to replace Google-powered search?"
"=?UTF-8?B?THVrw6HFoSBWbMSNZWs=?= <lukas.vlcek@gmail.com>","Thu, 15 Jul 2010 09:27:33 +0200","Re: Q: search-hadoop.com to replace Google-powered search?"
"Steven Noels <stevenn@outerthought.org>","Thu, 15 Jul 2010 13:02:21 +0200","Re: What for a Documentation Tool (WAS -> Re: HBase Hackathon IV 	Wrap-up)"
"Otis Gospodnetic <otis_gospodnetic@yahoo.com>","Thu, 15 Jul 2010 06:43:51 -0700 (PDT)","Re: Q: search-hadoop.com to replace Google-powered search?"
"Sanjay Sharma <sanjay.sharma@impetus.co.in>","Thu, 15 Jul 2010 20:51:09 +0530","Next HUG meetup:  Noida/NCR-  India "
"""Jonathan Gray"" <jgray@apache.org>","Thu, 15 Jul 2010 15:52:42 -0000","Review Request: HBASE-2696: ZK cleanup.  Finish RS and fix client, move to ZKWatcher"
"stack@duboce.net","Thu, 15 Jul 2010 16:16:22 -0000","Re: Review Request: ScanQueryMatcher provides more specific return codes for early exit."
"""Jonathan Gray"" <jgray@apache.org>","Thu, 15 Jul 2010 17:05:04 -0000","Re: Review Request: ScanQueryMatcher provides more specific return codes for early exit."
"stack@duboce.net","Thu, 15 Jul 2010 17:12:33 -0000","Re: Review Request: HBASE-2696: ZK cleanup.  Finish RS and fix client, move to ZKWatcher"
"Apache Hudson Server <hudson@hudson.zones.apache.org>","Thu, 15 Jul 2010 18:47:11 +0000 (UTC)","Build failed in Hudson: HBase-TRUNK #1383"
"""Jonathan Gray"" <jgray@apache.org>","Thu, 15 Jul 2010 20:21:38 -0000","Re: Review Request: HBASE-2696: ZK cleanup.  Finish RS and fix client, move to ZKWatcher"
"""Ryan Rawson"" <ryanobjc@gmail.com>","Fri, 16 Jul 2010 00:09:30 -0000","Review Request: HBASE-2553 rework IncrementColumnValue"
"Apache Hudson Server <hudson@hudson.zones.apache.org>","Fri, 16 Jul 2010 02:05:52 +0000 (UTC)","Build failed in Hudson: HBase-TRUNK #1385"
"Ryan Rawson <ryanobjc@gmail.com>","Thu, 15 Jul 2010 19:08:12 -0700","Re: Build failed in Hudson: HBase-TRUNK #1385"
"Lars Francke <lars.francke@gmail.com>","Fri, 16 Jul 2010 13:04:10 +0200","What are your (remaining) problems with Maven?"
"Stack <stack@duboce.net>","Fri, 16 Jul 2010 09:55:08 -0700","Re: What are your (remaining) problems with Maven?"
"stack@duboce.net","Fri, 16 Jul 2010 20:03:14 -0000","Review Request: hbase-2727, ""Splits writing one file only is untenable; need dir of recovered edits ordered by sequenceid"""
"stack@duboce.net","Fri, 16 Jul 2010 20:23:13 -0000","Re: Review Request: HBASE-2553 rework IncrementColumnValue"
"stack@duboce.net","Fri, 16 Jul 2010 20:39:10 -0000","Re: Review Request: HBASE-1511: Pseudo distributed mode for HBase"
"""Jonathan Gray"" <jgray@apache.org>","Fri, 16 Jul 2010 20:58:26 -0000","Re: Review Request: HBASE-1511: Pseudo distributed mode for HBase"
"""Ryan Rawson"" <ryanobjc@gmail.com>","Fri, 16 Jul 2010 22:09:13 -0000","Re: Review Request: hbase-2727, ""Splits writing one file only is untenable; need dir of recovered edits ordered by sequenceid"""
"""Ryan Rawson"" <ryanobjc@gmail.com>","Fri, 16 Jul 2010 23:08:04 -0000","Re: Review Request: HBASE-2553 rework IncrementColumnValue"
"""Ryan Rawson"" <ryanobjc@gmail.com>","Fri, 16 Jul 2010 23:15:46 -0000","Review Request: Remove the final remnants of the old Get code - the query matchers and other helper classes"
"stack@duboce.net","Fri, 16 Jul 2010 23:21:08 -0000","Re: Review Request: Remove the final remnants of the old Get code - the query matchers and other helper classes"
"Apache Hudson Server <hudson@hudson.zones.apache.org>","Sat, 17 Jul 2010 00:47:50 +0000 (UTC)","Build failed in Hudson: HBase-TRUNK #1386"
"Apache Hudson Server <hudson@hudson.zones.apache.org>","Sat, 17 Jul 2010 03:12:13 +0000 (UTC)","Build failed in Hudson: HBase-TRUNK #1387"
"Apache Hudson Server <hudson@hudson.zones.apache.org>","Sun, 18 Jul 2010 07:46:09 +0000 (UTC)","Build failed in Hudson: HBase-TRUNK #1388"
"Apache Hudson Server <hudson@hudson.zones.apache.org>","Sun, 18 Jul 2010 23:44:56 +0000 (UTC)","Build failed in Hudson: HBase-TRUNK #1389"
"Apache Hudson Server <hudson@hudson.zones.apache.org>","Tue, 20 Jul 2010 00:36:06 +0000 (UTC)","Build failed in Hudson: HBase-TRUNK #1390"
"""Ryan Rawson"" <ryanobjc@gmail.com>","Tue, 20 Jul 2010 01:43:44 -0000","Re: Review Request: Bloom filter NPE"
"Apache Hudson Server <hudson@hudson.zones.apache.org>","Tue, 20 Jul 2010 02:12:46 +0000 (UTC)","Build failed in Hudson: HBase-TRUNK #1391"
"Stack <stack@duboce.net>","Mon, 19 Jul 2010 21:15:29 -0700","Re: [VOTE] Shall we release hbase-0.20.6 Release Candidate 1 as 	hbase-0.20.6?"
"Stack <stack@duboce.net>","Mon, 19 Jul 2010 21:32:03 -0700","Re: Build failed in Hudson: HBase-TRUNK #1390"
"Apache Hudson Server <hudson@hudson.zones.apache.org>","Tue, 20 Jul 2010 07:43:57 +0000 (UTC)","Build failed in Hudson: HBase-TRUNK #1392"
"Apache Hudson Server <hudson@hudson.zones.apache.org>","Tue, 20 Jul 2010 09:11:59 +0000 (UTC)","Hudson build is back to normal : HBase-TRUNK #1393"
"""Alex Newman"" <newalex@cloudera.com>","Tue, 20 Jul 2010 15:50:31 -0000","Re: Review Request: Cleaned up TestHLog a bit"
"""Alex Newman"" <newalex@cloudera.com>","Tue, 20 Jul 2010 15:50:35 -0000","Re: Review Request: Cleaned up TestHLog a bit"
"""Alex Newman"" <newalex@cloudera.com>","Tue, 20 Jul 2010 16:01:50 -0000","Review Request: Cleaned up TestHLog a bit"
"stack@duboce.net","Tue, 20 Jul 2010 16:36:51 -0000","Re: Review Request: Cleaned up TestHLog a bit"
"""Alex Newman"" <newalex@cloudera.com>","Tue, 20 Jul 2010 17:06:59 -0000","Re: Review Request: Cleaned up TestHLog a bit"
"stack@duboce.net","Tue, 20 Jul 2010 17:30:36 -0000","Re: Review Request: Cleaned up TestHLog a bit"
"""Alex Newman"" <newalex@cloudera.com>","Tue, 20 Jul 2010 17:49:11 -0000","Re: Review Request: Cleaned up TestHLog a bit"
"""Alex Newman"" <newalex@cloudera.com>","Tue, 20 Jul 2010 17:49:57 -0000","Re: Review Request: Cleaned up TestHLog a bit"
"stack@duboce.net","Wed, 21 Jul 2010 03:35:37 -0000","Re: Review Request: Cleaned up TestHLog a bit"
"stack@duboce.net","Wed, 21 Jul 2010 03:43:05 -0000","Re: Review Request: Cleaned up TestHLog a bit"
"""Alex Newman"" <newalex@cloudera.com>","Wed, 21 Jul 2010 03:47:23 -0000","Re: Review Request: Cleaned up TestHLog a bit"
"Dave Latham <latham@davelink.net>","Wed, 21 Jul 2010 09:09:20 -0700","Re: [VOTE] Shall we release hbase-0.20.6 Release Candidate 1 as 	hbase-0.20.6?"
"Stack <stack@duboce.net>","Wed, 21 Jul 2010 10:37:43 -0700","Re: [VOTE] Shall we release hbase-0.20.6 Release Candidate 1 as 	hbase-0.20.6?"
"Apache Hudson Server <hudson@hudson.zones.apache.org>","Thu, 22 Jul 2010 02:44:34 +0000 (UTC)","Build failed in Hudson: HBase-TRUNK #1395"
"Jean-Daniel Cryans <jdcryans@apache.org>","Wed, 21 Jul 2010 21:08:28 -0700","Re: Build failed in Hudson: HBase-TRUNK #1395"
"Ryan Rawson <ryanobjc@gmail.com>","Wed, 21 Jul 2010 21:50:53 -0700","Re: Build failed in Hudson: HBase-TRUNK #1395"
"""Ryan Rawson"" <ryanobjc@gmail.com>","Thu, 22 Jul 2010 05:28:44 -0000","Re: Review Request: Bloom filter NPE"
"""Ryan Rawson"" <ryanobjc@gmail.com>","Thu, 22 Jul 2010 08:07:55 -0000","Review Request: HBASE-2863 -- HBASE-2553 removed an important edge case"
"stack@duboce.net","Thu, 22 Jul 2010 13:57:10 -0000","Re: Review Request: HBASE-2863 -- HBASE-2553 removed an important edge case"
"""Ryan Rawson"" <ryanobjc@gmail.com>","Thu, 22 Jul 2010 18:58:00 -0000","Re: Review Request: HBASE-2863 -- HBASE-2553 removed an important edge case"
"stack@duboce.net","Thu, 22 Jul 2010 21:09:34 -0000","Re: Review Request: HBASE-2863 -- HBASE-2553 removed an important edge case"
"Apache Hudson Server <hudson@hudson.zones.apache.org>","Thu, 22 Jul 2010 22:47:07 +0000 (UTC)","Build failed in Hudson: HBase-TRUNK #1397"
"""Alex Newman"" <newalex@cloudera.com>","Thu, 22 Jul 2010 23:34:49 -0000","Review Request: More log cleanup"
"Vladimir Rodionov <vrodionov@carrieriq.com>","Thu, 22 Jul 2010 16:34:55 -0700","Data disappears and re-appears again after HBase cluster restart"
"Jean-Daniel Cryans <jdcryans@apache.org>","Thu, 22 Jul 2010 16:38:18 -0700","Re: Data disappears and re-appears again after HBase cluster restart"
"""Alex Newman"" <newalex@cloudera.com>","Thu, 22 Jul 2010 23:43:24 -0000","Re: Review Request: More log cleanup"
"""Alex Newman"" <newalex@cloudera.com>","Fri, 23 Jul 2010 00:25:12 -0000","Review Request: distributed log splitting now with better testing and configurable splitting"
"Vladimir Rodionov <vrodionov@carrieriq.com>","Thu, 22 Jul 2010 17:29:35 -0700","RE: Data disappears and re-appears again after HBase cluster restart"
"Apache Hudson Server <hudson@hudson.zones.apache.org>","Fri, 23 Jul 2010 00:40:38 +0000 (UTC)","Hudson build is back to normal : HBase-TRUNK #1398"
"Jean-Daniel Cryans <jdcryans@apache.org>","Thu, 22 Jul 2010 17:43:49 -0700","Re: Data disappears and re-appears again after HBase cluster restart"
"""Chongxin Li"" <lichongxin@zju.edu.cn>","Fri, 23 Jul 2010 04:23:52 -0000","Review Request: HBASE-2792: Create a better way to chain log cleaners"
"""Andrew Purtell"" <apurtell@apache.org>","Fri, 23 Jul 2010 05:28:14 -0000","Review Request: Query matcher will be confused if intra-row scanning"
"""Chongxin Li"" <lichongxin@zju.edu.cn>","Fri, 23 Jul 2010 06:00:05 -0000","Re: Review Request: HBASE-2792: Create a better way to chain log cleaners"
"stack@duboce.net","Fri, 23 Jul 2010 06:11:32 -0000","Re: Review Request: Query matcher will be confused if intra-row scanning"
"Otis Gospodnetic <otis_gospodnetic@yahoo.com>","Fri, 23 Jul 2010 11:07:14 -0700 (PDT)","Re: Q: search-hadoop.com to replace Google-powered search?"
"Gagandeep Singh <gagandeep.singh@paxcel.net>","Fri, 23 Jul 2010 23:41:41 +0530","Running HBase Junit Testcases on local machine"
"""Jean-Daniel Cryans"" <jdcryans@apache.org>","Fri, 23 Jul 2010 19:01:53 -0000","Re: Review Request: distributed log splitting now with better testing and configurable splitting"
"""Jonathan Gray"" <jgray@apache.org>","Fri, 23 Jul 2010 20:41:09 -0000","Re: Review Request: distributed log splitting now with better testing and configurable splitting"
"""Alex Newman"" <newalex@cloudera.com>","Fri, 23 Jul 2010 21:03:07 -0000","Re: Review Request: distributed log splitting now with better testing and configurable splitting"
"""Alex Newman"" <newalex@cloudera.com>","Fri, 23 Jul 2010 21:05:37 -0000","Re: Review Request: distributed log splitting now with better testing and configurable splitting"
"Stack <stack@duboce.net>","Fri, 23 Jul 2010 14:23:03 -0700","Re: Running HBase Junit Testcases on local machine"
"""Karthik Ranganathan"" <karthik.ranga@gmail.com>","Fri, 23 Jul 2010 21:26:01 -0000","Re: Review Request: HBASE-2866 Region permanently offlined"
"""Karthik Ranganathan"" <karthik.ranga@gmail.com>","Fri, 23 Jul 2010 21:53:37 -0000","Re: Review Request: HBASE-2866 Region permanently offlined"
"""Jean-Daniel Cryans"" <jdcryans@apache.org>","Fri, 23 Jul 2010 21:58:17 -0000","Re: Review Request: HBASE-2866 Region permanently offlined"
"""Karthik Ranganathan"" <karthik.ranga@gmail.com>","Fri, 23 Jul 2010 22:08:16 -0000","Re: Review Request: HBASE-2866 Region permanently offlined"
"""Jean-Daniel Cryans"" <jdcryans@apache.org>","Fri, 23 Jul 2010 22:28:54 -0000","Re: Review Request: HBASE-2866 Region permanently offlined"
"stack@duboce.net","Fri, 23 Jul 2010 22:29:40 -0000","Re: Review Request: HBASE-2866 Region permanently offlined"
"""Jonathan Gray"" <jgray@apache.org>","Fri, 23 Jul 2010 23:25:29 -0000","Review Request: ZKAssign.  New zookeeper assignment methods."
"""Jonathan Gray"" <jgray@apache.org>","Fri, 23 Jul 2010 23:26:26 -0000","Re: Review Request: ZKAssign.  New zookeeper assignment methods."
"""Jonathan Gray"" <jgray@apache.org>","Fri, 23 Jul 2010 23:28:15 -0000","Re: Review Request: ZKAssign.  New zookeeper assignment methods."
"""Jonathan Gray"" <jgray@apache.org>","Fri, 23 Jul 2010 23:29:43 -0000","Re: Review Request: ZKAssign.  New zookeeper assignment methods."
"""Jonathan Gray"" <jgray@apache.org>","Fri, 23 Jul 2010 23:35:42 -0000","Re: Review Request: ZKAssign.  New zookeeper assignment methods."
"""Jonathan Gray"" <jgray@apache.org>","Fri, 23 Jul 2010 23:38:55 -0000","Re: Review Request: ZKAssign.  New zookeeper assignment methods."
"Ryan Rawson <ryanobjc@gmail.com>","Fri, 23 Jul 2010 18:09:17 -0700","Re: Running HBase Junit Testcases on local machine"
"stack@duboce.net","Sat, 24 Jul 2010 05:30:19 -0000","Review Request: HBASE-2876 HBase hbck: false positive error reported for parent regions that are in offline state in meta after a split"
"Gagandeep Singh <gagandeep.singh@paxcel.net>","Sat, 24 Jul 2010 11:09:53 +0530","Re: Running HBase Junit Testcases on local machine"
"Stack <stack@duboce.net>","Fri, 23 Jul 2010 22:47:51 -0700","Re: Running HBase Junit Testcases on local machine"
"Stack <stack@duboce.net>","Fri, 23 Jul 2010 23:11:44 -0700","Branching next 0.89 release tomorrow unless objection"
"stack@duboce.net","Sat, 24 Jul 2010 06:26:50 -0000","Re: Review Request: HBASE-2792: Create a better way to chain log cleaners"
"Ryan Rawson <ryanobjc@gmail.com>","Fri, 23 Jul 2010 23:37:14 -0700","Re: Branching next 0.89 release tomorrow unless objection"
"""Chongxin Li"" <lichongxin@zju.edu.cn>","Sat, 24 Jul 2010 12:10:08 -0000","Re: Review Request: HBASE-2792: Create a better way to chain log cleaners"
"Jean-Daniel Cryans <jdcryans@apache.org>","Sat, 24 Jul 2010 14:14:19 -0700","Re: Branching next 0.89 release tomorrow unless objection"
"Ted Yu <yuzhihong@gmail.com>","Sat, 24 Jul 2010 22:08:54 -0700","Re: [VOTE] Shall we release hbase-0.20.6 Release Candidate 1 as 	hbase-0.20.6?"
"Ted Yu <yuzhihong@gmail.com>","Sun, 25 Jul 2010 07:30:04 -0700","Re: [VOTE] Shall we release hbase-0.20.6 Release Candidate 1 as 	hbase-0.20.6?"
"Jonathan Gray <jgray@facebook.com>","Sun, 25 Jul 2010 15:01:05 +0000","RE: [VOTE] Shall we release hbase-0.20.6 Release Candidate 1 as 	hbase-0.20.6?"
"""Andrew Purtell"" <apurtell@apache.org>","Sun, 25 Jul 2010 17:45:02 -0000","Re: Review Request: Query matcher will be confused if intra-row scanning"
"Ted Yu <yuzhihong@gmail.com>","Sun, 25 Jul 2010 11:56:06 -0700","Re: [VOTE] Shall we release hbase-0.20.6 Release Candidate 1 as 	hbase-0.20.6?"
"Ted Yu <yuzhihong@gmail.com>","Sun, 25 Jul 2010 13:31:55 -0700","Re: Review Request: First cut at a working load balancer"
"Ted Yu <yuzhihong@gmail.com>","Sun, 25 Jul 2010 15:50:23 -0700","Re: Review Request: First cut at a working load balancer"
"Jonathan Gray <jgray@facebook.com>","Mon, 26 Jul 2010 15:30:50 +0000","RE: Review Request: First cut at a working load balancer"
"Jonathan Gray <jgray@facebook.com>","Mon, 26 Jul 2010 15:31:36 +0000","RE: [VOTE] Shall we release hbase-0.20.6 Release Candidate 1 as 	hbase-0.20.6?"
"Gagandeep Singh <gagandeep.singh@paxcel.net>","Tue, 27 Jul 2010 01:22:16 +0530","Re: Running HBase Junit Testcases on local machine"
"""Cheng,Fuesane"" <FCHENG@travelers.com>","Mon, 26 Jul 2010 16:31:30 -0400","RE: [VOTE] Shall we release hbase-0.20.6 Release Candidate 1 as hbase-0.20.6?"
"Stack <stack@duboce.net>","Mon, 26 Jul 2010 15:44:05 -0700","Re: Running HBase Junit Testcases on local machine"
"Vladimir Rodionov <vrodionov@carrieriq.com>","Mon, 26 Jul 2010 18:14:08 -0700","RE: Data disappears and re-appears again after HBase cluster restart"
"""Jonathan Gray"" <jgray@apache.org>","Tue, 27 Jul 2010 01:25:37 -0000","Re: Review Request: Bloom filter NPE"
"""Jonathan Gray"" <jgray@apache.org>","Tue, 27 Jul 2010 01:34:33 -0000","Re: Review Request: Bloom filter NPE"
"""Jonathan Gray"" <jgray@apache.org>","Tue, 27 Jul 2010 01:57:08 -0000","Review Request: HBASE-2695/HBASE-2696 The rest of it. Master fully on new ZK stuff."
"Gagandeep Singh <gagandeep.singh@paxcel.net>","Tue, 27 Jul 2010 10:24:53 +0530","Re: Running HBase Junit Testcases on local machine"
"Stack <stack@duboce.net>","Mon, 26 Jul 2010 22:32:44 -0700","Re: Running HBase Junit Testcases on local machine"
"Stack <stack@duboce.net>","Mon, 26 Jul 2010 23:05:58 -0700","Re: Data disappears and re-appears again after HBase cluster restart"
"Stack <stack@duboce.net>","Tue, 27 Jul 2010 08:40:04 -0700","Re: [VOTE] Shall we release hbase-0.20.6 Release Candidate 1 as 	hbase-0.20.6?"
"stack@duboce.net","Tue, 27 Jul 2010 16:20:13 -0000","Re: Review Request: HBASE-2792: Create a better way to chain log cleaners"
"""Jonathan Gray"" <jgray@apache.org>","Tue, 27 Jul 2010 16:31:00 -0000","Re: Review Request: HBASE-2695/HBASE-2696 The rest of it. Master fully on new ZK stuff."
"stack@duboce.net","Tue, 27 Jul 2010 16:38:09 -0000","Re: Review Request: ZKAssign.  New zookeeper assignment methods."
"Vladimir Rodionov <vrodionov@carrieriq.com>","Tue, 27 Jul 2010 10:26:25 -0700","RE: Data disappears and re-appears again after HBase cluster restart"
"Stack <stack@duboce.net>","Tue, 27 Jul 2010 10:41:24 -0700","Re: Data disappears and re-appears again after HBase cluster restart"
"Ted Yu <yuzhihong@gmail.com>","Tue, 27 Jul 2010 11:17:20 -0700","Re: Data disappears and re-appears again after HBase cluster restart"
"Jean-Daniel Cryans <jdcryans@apache.org>","Tue, 27 Jul 2010 16:25:06 -0700","Re: [VOTE] Shall we release hbase-0.20.6 Release Candidate 1 as 	hbase-0.20.6?"
"Vladimir Rodionov <vrodionov@carrieriq.com>","Tue, 27 Jul 2010 18:38:09 -0700","RE: Data disappears and re-appears again after HBase cluster restart"
"Ted Yu <yuzhihong@gmail.com>","Tue, 27 Jul 2010 19:13:06 -0700","Re: [VOTE] Shall we release hbase-0.20.6 Release Candidate 1 as 	hbase-0.20.6?"
"Stack <stack@duboce.net>","Tue, 27 Jul 2010 20:38:46 -0700","Re: [VOTE] Shall we release hbase-0.20.6 Release Candidate 1 as 	hbase-0.20.6?"
"Stack <stack@duboce.net>","Tue, 27 Jul 2010 20:41:14 -0700","Re: Data disappears and re-appears again after HBase cluster restart"
"Stack <stack@duboce.net>","Tue, 27 Jul 2010 22:27:17 -0700","[VOTE] Release 'development release' HBase 0.89.2010726 rc1?"
"""Todd Lipcon"" <todd@cloudera.com>","Wed, 28 Jul 2010 17:17:13 -0000","Re: Review Request: HBASE-2312: Rename HLog Dir when Splitting"
"""Todd Lipcon"" <todd@cloudera.com>","Wed, 28 Jul 2010 19:52:13 -0000","Re: Review Request: HBASE-2695/HBASE-2696 The rest of it. Master fully on new ZK stuff."
"""Todd Lipcon"" <todd@cloudera.com>","Wed, 28 Jul 2010 21:16:16 -0000","Re: Review Request: HBASE-2312: Rename HLog Dir when Splitting"
"stack@duboce.net","Wed, 28 Jul 2010 21:32:15 -0000","Re: Review Request: HBASE-2312: Rename HLog Dir when Splitting"
"stack@duboce.net","Wed, 28 Jul 2010 22:16:28 -0000","Re: Review Request: More log cleanup"
"""Todd Lipcon"" <todd@cloudera.com>","Wed, 28 Jul 2010 23:22:47 -0000","Review Request: Improvements to HBaseFsck tool"
"Apache Hudson Server <hudson@hudson.zones.apache.org>","Thu, 29 Jul 2010 00:42:08 +0000 (UTC)","Build failed in Hudson: HBase-TRUNK #1411"
"Kannan Muthukkaruppan <Kannan@facebook.com>","Thu, 29 Jul 2010 02:29:31 +0000","RPC statistics from region servers..."
"Ted Yu <yuzhihong@gmail.com>","Wed, 28 Jul 2010 19:31:58 -0700","Re: RPC statistics from region servers..."
"Kannan Muthukkaruppan <Kannan@facebook.com>","Thu, 29 Jul 2010 02:36:45 +0000","RE: RPC statistics from region servers..."
"Ryan Rawson <ryanobjc@gmail.com>","Wed, 28 Jul 2010 20:21:07 -0700","Re: RPC statistics from region servers..."
"Kannan Muthukkaruppan <Kannan@facebook.com>","Thu, 29 Jul 2010 03:32:36 +0000","RE: RPC statistics from region servers..."
"stack@duboce.net","Thu, 29 Jul 2010 05:26:41 -0000","Re: Review Request: Improvements to HBaseFsck tool"
"Gary Helmling <ghelmling@gmail.com>","Thu, 29 Jul 2010 01:07:56 -0700","Re: RPC statistics from region servers..."
"""Chongxin Li"" <lichongxin@zju.edu.cn>","Thu, 29 Jul 2010 13:51:56 -0000","Re: Review Request: HBASE-2792: Create a better way to chain log cleaners"
"Jean-Daniel Cryans <jdcryans@apache.org>","Thu, 29 Jul 2010 09:59:15 -0700","Re: [VOTE] Release 'development release' HBase 0.89.2010726 rc1?"
"Kannan Muthukkaruppan <Kannan@facebook.com>","Thu, 29 Jul 2010 17:38:38 +0000","RE: RPC statistics from region servers..."
"Sanjay Sharma <sanjay.sharma@impetus.co.in>","Thu, 29 Jul 2010 23:22:11 +0530","[ANNOUNCE]  Next HUG meetup:  Noida/NCR-  India - 31st July 2010 : Reminder"
"""Gary Helmling"" <ghelmling@gmail.com>","Thu, 29 Jul 2010 19:40:06 -0000","Review Request: HBASE-2742, HBASE-2016: Port of secure Hadoop RPC changes and integration with HBase RPC protocols"
"""Andrew Purtell"" <apurtell@apache.org>","Thu, 29 Jul 2010 20:30:49 -0000","Re: Review Request: HBASE-2742, HBASE-2016: Port of secure Hadoop RPC changes and integration with HBase RPC protocols"
"Ted Yu <yuzhihong@gmail.com>","Thu, 29 Jul 2010 14:22:48 -0700","count of rows in table"
"Jean-Daniel Cryans <jdcryans@apache.org>","Thu, 29 Jul 2010 14:26:37 -0700","Re: count of rows in table"
"Kannan Muthukkaruppan <Kannan@facebook.com>","Thu, 29 Jul 2010 21:40:55 +0000","RE: RPC statistics from region servers..."
"Kannan Muthukkaruppan <Kannan@facebook.com>","Thu, 29 Jul 2010 21:52:01 +0000","RE: RPC statistics from region servers..."
"Vladimir Rodionov <vrodionov@carrieriq.com>","Thu, 29 Jul 2010 15:00:30 -0700","RE: count of rows in table"
"Jean-Daniel Cryans <jdcryans@apache.org>","Thu, 29 Jul 2010 15:04:46 -0700","Re: count of rows in table"
"Kannan Muthukkaruppan <Kannan@facebook.com>","Thu, 29 Jul 2010 22:16:12 +0000","RE: RPC statistics from region servers..."
"Ted Yu <yuzhihong@gmail.com>","Thu, 29 Jul 2010 15:48:35 -0700","Re: count of rows in table"
"Gary Helmling <ghelmling@gmail.com>","Thu, 29 Jul 2010 15:50:09 -0700","Re: RPC statistics from region servers..."
"Ryan Rawson <ryanobjc@gmail.com>","Thu, 29 Jul 2010 15:54:08 -0700","Re: RPC statistics from region servers..."
"Kannan Muthukkaruppan <Kannan@facebook.com>","Thu, 29 Jul 2010 23:17:44 +0000","RE: RPC statistics from region servers..."
"Gary Helmling <ghelmling@gmail.com>","Thu, 29 Jul 2010 16:39:17 -0700","Re: RPC statistics from region servers..."
"""Todd Lipcon"" <todd@cloudera.com>","Thu, 29 Jul 2010 23:49:36 -0000","Re: Review Request: HBASE-2742, HBASE-2016: Port of secure Hadoop RPC changes and integration with HBase RPC protocols"
"Ryan Rawson <ryanobjc@gmail.com>","Thu, 29 Jul 2010 16:55:23 -0700","Re: count of rows in table"
"""Gary Helmling"" <ghelmling@gmail.com>","Fri, 30 Jul 2010 00:36:48 -0000","Review Request: HBASE-2890: init per-method RPC metrics on startup"
"Jean-Daniel Cryans <jdcryans@apache.org>","Thu, 29 Jul 2010 17:47:40 -0700","Re: [VOTE] Release 'development release' HBase 0.89.2010726 rc1?"
"Ted Yu <yuzhihong@gmail.com>","Thu, 29 Jul 2010 18:28:38 -0700","Re: count of rows in table"
"Angus He <angushe@gmail.com>","Fri, 30 Jul 2010 10:57:45 +0800","Re: count of rows in table"
"Apache Hudson Server <hudson@hudson.zones.apache.org>","Fri, 30 Jul 2010 03:07:18 +0000 (UTC)","Build failed in Hudson: HBase-TRUNK #1412"
"Ted Yu <yuzhihong@gmail.com>","Thu, 29 Jul 2010 20:11:00 -0700","Re: count of rows in table"
"Ryan Rawson <ryanobjc@gmail.com>","Thu, 29 Jul 2010 20:13:28 -0700","Re: count of rows in table"
"stack@duboce.net","Fri, 30 Jul 2010 03:21:07 -0000","Re: Review Request: HBASE-2890: init per-method RPC metrics on startup"
"Angus He <angushe@gmail.com>","Fri, 30 Jul 2010 11:41:02 +0800","Re: count of rows in table"
"Angus He <angushe@gmail.com>","Fri, 30 Jul 2010 11:54:35 +0800","Re: count of rows in table"
"Ted Yu <yuzhihong@gmail.com>","Thu, 29 Jul 2010 21:07:30 -0700","Re: count of rows in table"
"Apache Hudson Server <hudson@hudson.zones.apache.org>","Fri, 30 Jul 2010 05:46:05 +0000 (UTC)","Build failed in Hudson: HBase-TRUNK #1413"
"Ryan Rawson <ryanobjc@gmail.com>","Thu, 29 Jul 2010 23:13:34 -0700","Re: [VOTE] Shall we release hbase-0.20.6 Release Candidate 1 as 	hbase-0.20.6?"
"Apache Hudson Server <hudson@hudson.zones.apache.org>","Fri, 30 Jul 2010 07:18:43 +0000 (UTC)","Build failed in Hudson: HBase-TRUNK #1414"
"Stack <stack@duboce.net>","Fri, 30 Jul 2010 10:29:05 -0700","[VOTE PASSES] -> WAS -> Re: [VOTE] Shall we release hbase-0.20.6 	Release Candidate 1 as hbase-0.20.6?"
"Apache Hudson Server <hudson@hudson.zones.apache.org>","Fri, 30 Jul 2010 20:08:14 +0000 (UTC)","Hudson build is back to normal : HBase-TRUNK #1415"
"Rob Marano <robmarano@gmail.com>","Fri, 30 Jul 2010 16:49:44 -0400","Help on running HBase on Windows 7 Ultimate x64"
"Stack <stack@duboce.net>","Fri, 30 Jul 2010 15:14:24 -0700","Re: Help on running HBase on Windows 7 Ultimate x64"
"""KannanM@gmail.com (Kannan Muthukkaruppan)"" <kannanm@gmail.com>","Sat, 31 Jul 2010 04:38:57 -0700","Re: RPC statistics from region servers..."
"Gary Helmling <ghelmling@gmail.com>","Sat, 31 Jul 2010 09:01:28 -0700","Re: RPC statistics from region servers..."
"Stack <stack@duboce.net>","Sat, 31 Jul 2010 14:21:57 -0700","[VOTE] Release 'development release' HBase 0.89.2010726 rc2?"
"Ted Yu <yuzhihong@gmail.com>","Sat, 31 Jul 2010 15:13:11 -0700","minor bug in ServerManager.ServerMonitor.chore()"
"Ted Yu <yuzhihong@gmail.com>","Sat, 31 Jul 2010 15:18:23 -0700","load balancing considerations"
"Ryan Rawson <ryanobjc@gmail.com>","Sat, 31 Jul 2010 15:31:45 -0700","Re: load balancing considerations"
"Ryan Rawson <ryanobjc@gmail.com>","Sat, 31 Jul 2010 15:34:13 -0700","Re: minor bug in ServerManager.ServerMonitor.chore()"
