"Developer","Date","Subject"
"Apache Jenkins Server <jenkins@builds.apache.org>","Fri, 1 Jul 2011 05:19:27 +0000 (UTC)","Build failed in Jenkins: HBase-TRUNK #1999"
"Stack <stack@duboce.net>","Thu, 30 Jun 2011 22:58:00 -0700","Re: TableInputFormat improvement to handle lots of small regions"
"Ted Yu <yuzhihong@gmail.com>","Fri, 1 Jul 2011 09:39:09 -0700","patches ready for review"
"Andrew Purtell <apurtell@apache.org>","Fri, 1 Jul 2011 10:35:01 -0700 (PDT)","Field separator for table coprocessor specifications changed with HBASE-4048"
"Ted Yu <yuzhihong@gmail.com>","Fri, 1 Jul 2011 10:55:43 -0700","Re: patches ready for review"
"Apache Jenkins Server <jenkins@builds.apache.org>","Fri, 1 Jul 2011 19:43:40 +0000 (UTC)","Build failed in Jenkins: HBase-TRUNK #2000"
"Ted Yu <yuzhihong@gmail.com>","Fri, 1 Jul 2011 13:06:53 -0700","logging more information in unit tests about region server carrying .META."
"Apache Jenkins Server <jenkins@builds.apache.org>","Fri, 1 Jul 2011 23:42:52 +0000 (UTC)","Build failed in Jenkins: hbase-0.90 #218"
"Apache Jenkins Server <jenkins@builds.apache.org>","Sat, 2 Jul 2011 01:03:15 +0000 (UTC)","Build failed in Jenkins: HBase-TRUNK #2001"
"Mikhail Bautin <mbautin@fb.com>","Sat, 2 Jul 2011 01:36:13 +0000","zero timestamp and deletes"
"Apache Jenkins Server <jenkins@builds.apache.org>","Sat, 2 Jul 2011 01:52:25 +0000 (UTC)","Build failed in Jenkins: HBase-TRUNK #2002"
"Stack <stack@duboce.net>","Sat, 2 Jul 2011 06:01:36 -0700","Re: zero timestamp and deletes"
"Lars George <lars.george@gmail.com>","Sat, 2 Jul 2011 07:06:04 -0700","Table Name toString is wrong"
"Ted Yu <yuzhihong@gmail.com>","Sat, 2 Jul 2011 08:34:55 -0700","Re: Table Name toString is wrong"
"Lars George <lars.george@gmail.com>","Sat, 2 Jul 2011 19:36:10 +0200","Merge and HMerge"
"Apache Jenkins Server <jenkins@builds.apache.org>","Sat, 2 Jul 2011 17:36:48 +0000 (UTC)","Build failed in Jenkins: HBase-TRUNK #2003"
"Ted Yu <yuzhihong@gmail.com>","Sat, 2 Jul 2011 12:06:04 -0700","Re: Merge and HMerge"
"Ted Yu <yuzhihong@gmail.com>","Sat, 2 Jul 2011 13:55:09 -0700","Re: Merge and HMerge"
"Apache Jenkins Server <jenkins@builds.apache.org>","Sat, 2 Jul 2011 23:56:52 +0000 (UTC)","Build failed in Jenkins: HBase-TRUNK #2004"
"Apache Jenkins Server <jenkins@builds.apache.org>","Sun, 3 Jul 2011 02:45:11 +0000 (UTC)","Build failed in Jenkins: HBase-TRUNK #2005"
"Lars George <lars.george@gmail.com>","Sun, 3 Jul 2011 09:38:43 +0200","Re: Merge and HMerge"
"Lars George <lars.george@gmail.com>","Sun, 3 Jul 2011 11:06:41 +0200","Re: Field separator for table coprocessor specifications changed with HBASE-4048"
"Lars George <lars.george@gmail.com>","Sun, 3 Jul 2011 09:53:40 -0700","zoo.cfg vs hbase-site.xml"
"Ted Yu <yuzhihong@gmail.com>","Sun, 3 Jul 2011 10:22:17 -0700","Re: zoo.cfg vs hbase-site.xml"
"Ted Yu <yuzhihong@gmail.com>","Sun, 3 Jul 2011 15:14:39 -0700","HBase 0.90.4"
"Ted Yu <yuzhihong@gmail.com>","Sun, 3 Jul 2011 16:34:50 -0700","Re: HBase 0.90.4"
"Weihua JIANG <weihua.jiang@gmail.com>","Mon, 4 Jul 2011 16:57:39 +0800","Region not online after split by a closing RS"
"Ryan Rawson <ryanobjc@gmail.com>","Mon, 4 Jul 2011 02:25:05 -0700","Re: zoo.cfg vs hbase-site.xml"
"Weihua JIANG <weihua.jiang@gmail.com>","Mon, 4 Jul 2011 20:30:20 +0800","Re: Region not online after split by a closing RS"
"Ted Yu <yuzhihong@gmail.com>","Mon, 4 Jul 2011 07:19:08 -0700","Re: Region not online after split by a closing RS"
"Jesse Yates <jesse.k.yates@gmail.com>","Mon, 4 Jul 2011 11:59:49 -0400","Re: zoo.cfg vs hbase-site.xml"
"karthik tunga <karthik.tunga@gmail.com>","Mon, 4 Jul 2011 23:12:15 +0530","LSM-Trees"
"Weihua JIANG <weihua.jiang@gmail.com>","Tue, 5 Jul 2011 08:03:19 +0800","Re: Region not online after split by a closing RS"
"Weihua JIANG <weihua.jiang@gmail.com>","Tue, 5 Jul 2011 08:13:43 +0800","Re: Region not online after split by a closing RS"
"Weihua JIANG <weihua.jiang@gmail.com>","Tue, 5 Jul 2011 10:10:57 +0800","Re: Region not online after split by a closing RS"
"Ted Yu <yuzhihong@gmail.com>","Mon, 4 Jul 2011 19:55:41 -0700","Re: Region not online after split by a closing RS"
"Weihua JIANG <weihua.jiang@gmail.com>","Tue, 5 Jul 2011 11:25:25 +0800","Re: Region not online after split by a closing RS"
"Ted Yu <yuzhihong@gmail.com>","Mon, 4 Jul 2011 20:26:47 -0700","Re: Region not online after split by a closing RS"
"Ted Yu <yuzhihong@gmail.com>","Mon, 4 Jul 2011 20:29:05 -0700","Re: HBASE-4060"
"Ted Yu <yuzhihong@gmail.com>","Mon, 4 Jul 2011 20:39:16 -0700","Re: patches ready for review"
"Lars George <lars.george@gmail.com>","Mon, 4 Jul 2011 23:39:06 -0700",".oldlogs in region dir"
"Lars George <lars.george@gmail.com>","Mon, 4 Jul 2011 23:43:31 -0700","Re: LSM-Trees"
"Ramkrishna S Vasudevan <ramakrishnas@huawei.com>","Tue, 05 Jul 2011 12:39:34 +0530","RE: FW: Reg: The HLog that is created in region creation"
"Lars George <lars.george@gmail.com>","Tue, 5 Jul 2011 09:27:45 +0200","Re: .oldlogs in region dir"
"Ramkrishna S Vasudevan <ramakrishnas@huawei.com>","Tue, 05 Jul 2011 14:26:33 +0530","Reg : HBASE-4052"
"Lars George <lars.george@gmail.com>","Tue, 5 Jul 2011 02:31:11 -0700","Exception in TableInfo check"
"Lars George <lars.george@gmail.com>","Tue, 5 Jul 2011 11:38:48 +0200","Re: Exception in TableInfo check"
"Lars George <lars.george@gmail.com>","Tue, 5 Jul 2011 02:59:12 -0700","Re: Exception in TableInfo check"
"Dhruba Borthakur <dhruba@gmail.com>","Tue, 5 Jul 2011 13:25:21 +0000","Re: .oldlogs in region dir"
"Ted Yu <yuzhihong@gmail.com>","Tue, 5 Jul 2011 06:36:09 -0700","Re: FW: Reg: The HLog that is created in region creation"
"Ted Yu <yuzhihong@gmail.com>","Tue, 5 Jul 2011 07:10:30 -0700","Re: patches ready for review"
"Lars George <lars.george@gmail.com>","Tue, 5 Jul 2011 07:41:31 -0700","Re: .oldlogs in region dir"
"Dhruba Borthakur <dhruba@gmail.com>","Tue, 5 Jul 2011 18:38:01 +0000","Re: .oldlogs in region dir"
"karthik tunga <karthik.tunga@gmail.com>","Wed, 6 Jul 2011 00:41:13 +0530","Re: LSM-Trees"
"Apache Jenkins Server <jenkins@builds.apache.org>","Wed, 6 Jul 2011 00:45:16 +0000 (UTC)","Build failed in Jenkins: HBase-TRUNK #2006"
"""Ma, Ming"" <mingma@ebay.com>","Tue, 5 Jul 2011 19:28:54 -0600","RE: TableInputFormat improvement to handle lots of small regions"
"Apache Jenkins Server <jenkins@builds.apache.org>","Wed, 6 Jul 2011 20:26:55 +0000 (UTC)","Build failed in Jenkins: HBase-TRUNK #2007"
"Stack <stack@duboce.net>","Wed, 6 Jul 2011 13:46:10 -0700","Re: .oldlogs in region dir"
"Stack <stack@duboce.net>","Wed, 6 Jul 2011 14:06:09 -0700","Re: Reg : HBASE-4052"
"Stack <stack@duboce.net>","Wed, 6 Jul 2011 14:14:09 -0700","Re: zoo.cfg vs hbase-site.xml"
"Stack <stack@duboce.net>","Wed, 6 Jul 2011 14:28:07 -0700","Re: Merge and HMerge"
"Stack <stack@duboce.net>","Wed, 6 Jul 2011 14:31:34 -0700","Re: Table Name toString is wrong"
"Ryan Rawson <ryanobjc@gmail.com>","Wed, 6 Jul 2011 15:31:03 -0700","Re: zoo.cfg vs hbase-site.xml"
"Ted Yu <yuzhihong@gmail.com>","Wed, 6 Jul 2011 17:03:02 -0700","Re: Merge and HMerge"
"Apache Jenkins Server <jenkins@builds.apache.org>","Thu, 7 Jul 2011 02:16:14 +0000 (UTC)","Build failed in Jenkins: HBase-TRUNK #2008"
"Jesse Yates <jesse.k.yates@gmail.com>","Wed, 6 Jul 2011 23:04:40 -0400","Re: zoo.cfg vs hbase-site.xml"
"Stack <stack@duboce.net>","Wed, 6 Jul 2011 21:04:45 -0700","Re: zoo.cfg vs hbase-site.xml"
"Apache Jenkins Server <jenkins@builds.apache.org>","Thu, 7 Jul 2011 05:07:36 +0000 (UTC)","Build failed in Jenkins: hbase-0.90 #220"
"Apache Jenkins Server <jenkins@builds.apache.org>","Thu, 7 Jul 2011 08:53:59 +0000 (UTC)","Jenkins build is back to normal : hbase-0.90 #221"
"Apache Jenkins Server <jenkins@builds.apache.org>","Thu, 7 Jul 2011 11:40:55 +0000 (UTC)","Build failed in Jenkins: HBase-TRUNK #2009"
"Ted Yu <yuzhihong@gmail.com>","Thu, 7 Jul 2011 10:32:20 -0700","Re: HBase 0.90.4"
"Andrew Purtell <apurtell@apache.org>","Thu, 7 Jul 2011 11:08:37 -0700 (PDT)","Re: HBase 0.90.4"
"Stack <stack@duboce.net>","Thu, 7 Jul 2011 11:13:59 -0700","Re: HBase 0.90.4"
"Ted Yu <yuzhihong@gmail.com>","Thu, 7 Jul 2011 11:14:04 -0700","Re: HBase 0.90.4"
"Apache Jenkins Server <jenkins@builds.apache.org>","Thu, 7 Jul 2011 18:36:30 +0000 (UTC)","Build failed in Jenkins: hbase-0.90 #222"
"Lars George <lars.george@gmail.com>","Thu, 7 Jul 2011 11:52:24 -0700","Re: Table Name toString is wrong"
"Apache Jenkins Server <jenkins@builds.apache.org>","Thu, 7 Jul 2011 19:58:55 +0000 (UTC)","Build failed in Jenkins: HBase-TRUNK #2010"
"Apache Jenkins Server <jenkins@builds.apache.org>","Thu, 7 Jul 2011 22:10:18 +0000 (UTC)","Jenkins build is back to normal : hbase-0.90 #223"
"Apache Jenkins Server <jenkins@builds.apache.org>","Thu, 7 Jul 2011 23:27:59 +0000 (UTC)","Build failed in Jenkins: HBase-TRUNK #2011"
"Stack <saint.ack@gmail.com>","Thu, 7 Jul 2011 17:41:02 -0700","Re: svn commit: r1144102 - /hbase/trunk/src/main/java/org/apache/hadoop/hbase/regionserver/HRegion.java"
"Ted Yu <yuzhihong@gmail.com>","Thu, 7 Jul 2011 17:44:07 -0700","Re: svn commit: r1144102 - /hbase/trunk/src/main/java/org/apache/hadoop/hbase/regionserver/HRegion.java"
"Apache Jenkins Server <jenkins@builds.apache.org>","Fri, 8 Jul 2011 02:52:37 +0000 (UTC)","Build failed in Jenkins: hbase-0.90 #225"
"Apache Jenkins Server <jenkins@builds.apache.org>","Fri, 8 Jul 2011 04:18:33 +0000 (UTC)","Jenkins build is back to normal : hbase-0.90 #226"
"Apache Jenkins Server <jenkins@builds.apache.org>","Fri, 8 Jul 2011 04:40:07 +0000 (UTC)","Build failed in Jenkins: HBase-TRUNK #2013"
"Apache Jenkins Server <jenkins@builds.apache.org>","Fri, 8 Jul 2011 06:44:36 +0000 (UTC)","Build failed in Jenkins: HBase-TRUNK #2014"
"Ted Yu <yuzhihong@gmail.com>","Fri, 8 Jul 2011 13:22:45 -0700","HBASE-3904"
"Jason Rutherglen <jason.rutherglen@gmail.com>","Fri, 8 Jul 2011 16:51:10 -0700","Converting byte[] to ByteBuffer"
"Alejandro Abdelnur <tucu@cloudera.com>","Fri, 8 Jul 2011 17:16:22 -0700","Hadoop-Snappy in synch with Hadoop trunk"
"Ryan Rawson <ryanobjc@gmail.com>","Fri, 8 Jul 2011 17:34:34 -0700","Re: Converting byte[] to ByteBuffer"
"Jason Rutherglen <jason.rutherglen@gmail.com>","Fri, 8 Jul 2011 18:19:16 -0700","Re: Converting byte[] to ByteBuffer"
"Jason Rutherglen <jason.rutherglen@gmail.com>","Fri, 8 Jul 2011 18:20:14 -0700","Re: Converting byte[] to ByteBuffer"
"Ryan Rawson <ryanobjc@gmail.com>","Fri, 8 Jul 2011 18:26:27 -0700","Re: Converting byte[] to ByteBuffer"
"Li Pi <li@cloudera.com>","Fri, 8 Jul 2011 18:30:37 -0700","Re: Converting byte[] to ByteBuffer"
"Jason Rutherglen <jason.rutherglen@gmail.com>","Fri, 8 Jul 2011 18:47:26 -0700","Re: Converting byte[] to ByteBuffer"
"Jason Rutherglen <jason.rutherglen@gmail.com>","Fri, 8 Jul 2011 18:47:59 -0700","Re: Converting byte[] to ByteBuffer"
"Ryan Rawson <ryanobjc@gmail.com>","Fri, 8 Jul 2011 19:05:39 -0700","Re: Converting byte[] to ByteBuffer"
"Jason Rutherglen <jason.rutherglen@gmail.com>","Fri, 8 Jul 2011 19:18:52 -0700","Re: Converting byte[] to ByteBuffer"
"Ryan Rawson <ryanobjc@gmail.com>","Fri, 8 Jul 2011 19:31:45 -0700","Re: Converting byte[] to ByteBuffer"
"Jason Rutherglen <jason.rutherglen@gmail.com>","Fri, 8 Jul 2011 19:52:22 -0700","Re: Converting byte[] to ByteBuffer"
"Li Pi <li@cloudera.com>","Fri, 8 Jul 2011 19:54:02 -0700","Re: Converting byte[] to ByteBuffer"
"Apache Jenkins Server <jenkins@builds.apache.org>","Sat, 9 Jul 2011 04:23:48 +0000 (UTC)","Build failed in Jenkins: HBase-TRUNK #2015"
"Apache Jenkins Server <jenkins@builds.apache.org>","Sat, 9 Jul 2011 04:46:14 +0000 (UTC)","Build failed in Jenkins: HBase-TRUNK #2016"
"Stack <stack@duboce.net>","Fri, 8 Jul 2011 21:47:18 -0700","Re: Hadoop-Snappy in synch with Hadoop trunk"
"Apache Jenkins Server <jenkins@builds.apache.org>","Sat, 9 Jul 2011 07:01:34 +0000 (UTC)","Build failed in Jenkins: HBase-TRUNK #2017"
"Apache Jenkins Server <jenkins@builds.apache.org>","Sat, 9 Jul 2011 17:31:02 +0000 (UTC)","Build failed in Jenkins: HBase-TRUNK #2018"
"Ted Dunning <tdunning@maprtech.com>","Sat, 9 Jul 2011 11:18:27 -0700","Re: Converting byte[] to ByteBuffer"
"""M. C. Srivas"" <mcsrivas@gmail.com>","Sat, 9 Jul 2011 12:25:07 -0700","Re: Converting byte[] to ByteBuffer"
"""M. C. Srivas"" <mcsrivas@gmail.com>","Sat, 9 Jul 2011 12:48:00 -0700","Re: HBASE-3904"
"Ted Yu <yuzhihong@gmail.com>","Sat, 9 Jul 2011 13:45:14 -0700","Re: HBASE-3904"
"Ryan Rawson <ryanobjc@gmail.com>","Sat, 9 Jul 2011 15:13:11 -0700","Re: Converting byte[] to ByteBuffer"
"Jason Rutherglen <jason.rutherglen@gmail.com>","Sat, 9 Jul 2011 15:48:42 -0700","Re: Converting byte[] to ByteBuffer"
"Doug Meil <doug.meil@explorysmedical.com>","Sat, 9 Jul 2011 21:04:32 -0400","Re: Converting byte[] to ByteBuffer"
"Ryan Rawson <ryanobjc@gmail.com>","Sat, 9 Jul 2011 19:11:32 -0700","Re: Converting byte[] to ByteBuffer"
"Ted Dunning <tdunning@maprtech.com>","Sat, 9 Jul 2011 23:14:10 -0700","Re: Converting byte[] to ByteBuffer"
"Jonathan Gray <jgray@fb.com>","Sun, 10 Jul 2011 07:59:53 +0000","RE: Converting byte[] to ByteBuffer"
"Andrew Purtell <apurtell@apache.org>","Sun, 10 Jul 2011 09:25:44 -0700 (PDT)","Re: Converting byte[] to ByteBuffer"
"Jason Rutherglen <jason.rutherglen@gmail.com>","Sun, 10 Jul 2011 14:53:03 -0700","Re: Converting byte[] to ByteBuffer"
"Jason Rutherglen <jason.rutherglen@gmail.com>","Sun, 10 Jul 2011 15:05:12 -0700","Re: Converting byte[] to ByteBuffer"
"Michael Morello <michael.morello@gmail.com>","Mon, 11 Jul 2011 14:27:37 +0200","Region ""auto-split"""
"Zhoushuaifeng <zhoushuaifeng@huawei.com>","Mon, 11 Jul 2011 12:46:54 +0000","RE: Region ""auto-split"""
"Michael Morello <michael.morello@gmail.com>","Mon, 11 Jul 2011 14:54:48 +0200","Re: Region ""auto-split"""
"Stack <stack@duboce.net>","Mon, 11 Jul 2011 09:17:52 -0700","Re: Region ""auto-split"""
"John Heitmann <jheitmann@gmail.com>","Mon, 11 Jul 2011 11:07:12 -0700","Re: Region ""auto-split"""
"Ted Yu <yuzhihong@gmail.com>","Mon, 11 Jul 2011 11:24:52 -0700","Re: Region ""auto-split"""
"John Heitmann <jheitmann@gmail.com>","Mon, 11 Jul 2011 12:05:07 -0700","Re: Region ""auto-split"""
"Jonathan Gray <jgray@fb.com>","Mon, 11 Jul 2011 19:18:27 +0000","RE: Converting byte[] to ByteBuffer"
"Andrew Purtell <apurtell@apache.org>","Mon, 11 Jul 2011 13:30:33 -0700 (PDT)","Re: Converting byte[] to ByteBuffer"
"Stack <stack@duboce.net>","Mon, 11 Jul 2011 14:12:59 -0700","Re: Region ""auto-split"""
"Jason Rutherglen <jason.rutherglen@gmail.com>","Mon, 11 Jul 2011 23:10:09 -0700","Re: Converting byte[] to ByteBuffer"
"Apache Jenkins Server <jenkins@builds.apache.org>","Tue, 12 Jul 2011 06:43:03 +0000 (UTC)","Build failed in Jenkins: HBase-TRUNK #2019"
"Ramkrishna S Vasudevan <ramakrishnas@huawei.com>","Tue, 12 Jul 2011 12:50:37 +0530","Master switch is not allowing the RS to checkin in TRUNK- working fine in 0.90"
"Ramkrishna S Vasudevan <ramakrishnas@huawei.com>","Tue, 12 Jul 2011 17:36:22 +0530","Problem in Caching the connection object in HBaseAdmin.getConnection()"
"Stack <stack@duboce.net>","Tue, 12 Jul 2011 07:48:49 -0700","Re: Problem in Caching the connection object in HBaseAdmin.getConnection()"
"Ted Yu <yuzhihong@gmail.com>","Tue, 12 Jul 2011 08:16:24 -0700","Re: Problem in Caching the connection object in HBaseAdmin.getConnection()"
"Ted Yu <yuzhihong@gmail.com>","Tue, 12 Jul 2011 09:11:16 -0700","Re: Problem in Caching the connection object in HBaseAdmin.getConnection()"
"Apache Jenkins Server <jenkins@builds.apache.org>","Tue, 12 Jul 2011 18:23:15 +0000 (UTC)","Build failed in Jenkins: HBase-TRUNK #2020"
"Apache Jenkins Server <jenkins@builds.apache.org>","Tue, 12 Jul 2011 22:52:47 +0000 (UTC)","Build failed in Jenkins: HBase-TRUNK #2021"
"Ted Yu <yuzhihong@gmail.com>","Tue, 12 Jul 2011 16:09:55 -0700","Fwd: Build failed in Jenkins: HBase-TRUNK #2021"
"Ted Yu <yuzhihong@gmail.com>","Tue, 12 Jul 2011 20:42:11 -0700","HBASE-4087"
"Ted Yu <yuzhihong@gmail.com>","Tue, 12 Jul 2011 20:48:16 -0700","Re: HBASE-4087"
"Gaojinchao <gaojinchao@huawei.com>","Wed, 13 Jul 2011 03:50:37 +0000","A question about zookeeper.session.timeout"
"Stack <stack@duboce.net>","Tue, 12 Jul 2011 20:55:44 -0700","Edit for your book Lars. WAS --> Re: A question about zookeeper.session.timeout"
"Apache Jenkins Server <jenkins@builds.apache.org>","Wed, 13 Jul 2011 04:31:08 +0000 (UTC)","Build failed in Jenkins: HBase-TRUNK #2022"
"Jonathan Gray <jgray@fb.com>","Wed, 13 Jul 2011 05:22:29 +0000","RE: Edit for your book Lars. WAS --> Re: A question about zookeeper.session.timeout"
"Apache Jenkins Server <jenkins@builds.apache.org>","Wed, 13 Jul 2011 06:58:21 +0000 (UTC)","Build failed in Jenkins: HBase-TRUNK #2023"
"Apache Jenkins Server <jenkins@builds.apache.org>","Wed, 13 Jul 2011 10:53:12 +0000 (UTC)","Build failed in Jenkins: HBase-TRUNK #2024"
"Apache Jenkins Server <jenkins@builds.apache.org>","Wed, 13 Jul 2011 12:26:16 +0000 (UTC)","Build failed in Jenkins: HBase-TRUNK #2025"
"Stack <stack@duboce.net>","Wed, 13 Jul 2011 10:54:57 -0700","We should push out a 0.90.4?"
"Ted Yu <yuzhihong@gmail.com>","Wed, 13 Jul 2011 11:01:59 -0700","Re: We should push out a 0.90.4?"
"Apache Jenkins Server <jenkins@builds.apache.org>","Wed, 13 Jul 2011 21:13:01 +0000 (UTC)","Build failed in Jenkins: HBase-TRUNK #2026"
"Joey Echeverria <joey@cloudera.com>","Wed, 13 Jul 2011 17:49:33 -0400","Re: We should push out a 0.90.4?"
"Apache Jenkins Server <jenkins@builds.apache.org>","Thu, 14 Jul 2011 00:41:06 +0000 (UTC)","Build failed in Jenkins: HBase-TRUNK #2027"
"Gaojinchao <gaojinchao@huawei.com>","Thu, 14 Jul 2011 02:50:51 +0000","Re: We should push out a 0.90.4?"
"Apache Jenkins Server <jenkins@builds.apache.org>","Thu, 14 Jul 2011 02:53:41 +0000 (UTC)","Build failed in Jenkins: HBase-TRUNK #2028"
"Stack <stack@duboce.net>","Wed, 13 Jul 2011 22:20:15 -0700","Re: We should push out a 0.90.4?"
"Apache Jenkins Server <jenkins@builds.apache.org>","Thu, 14 Jul 2011 06:59:05 +0000 (UTC)","Build failed in Jenkins: HBase-TRUNK #2029"
"Andrew Purtell <apurtell@apache.org>","Thu, 14 Jul 2011 11:16:30 -0700 (PDT)","Avro connector"
"Doug Meil <doug.meil@explorysmedical.com>","Thu, 14 Jul 2011 14:49:23 -0400","Re: Avro connector"
"Ryan Rawson <ryanobjc@gmail.com>","Thu, 14 Jul 2011 12:10:14 -0700","Re: Avro connector"
"Stack <stack@duboce.net>","Thu, 14 Jul 2011 13:34:28 -0700","Re: Avro connector"
"Apache Jenkins Server <jenkins@builds.apache.org>","Thu, 14 Jul 2011 22:19:03 +0000 (UTC)","Jenkins build is back to normal : HBase-TRUNK #2030"
"Apache Jenkins Server <jenkins@builds.apache.org>","Fri, 15 Jul 2011 00:51:52 +0000 (UTC)","Build failed in Jenkins: HBase-TRUNK #2031"
"Gaojinchao <gaojinchao@huawei.com>","Fri, 15 Jul 2011 02:43:50 +0000","Create table threw NullPointerException"
"Apache Jenkins Server <jenkins@builds.apache.org>","Fri, 15 Jul 2011 04:53:57 +0000 (UTC)","Build failed in Jenkins: HBase-TRUNK #2032"
"Apache Jenkins Server <jenkins@builds.apache.org>","Fri, 15 Jul 2011 06:50:11 +0000 (UTC)","Build failed in Jenkins: HBase-TRUNK #2033"
"Apache Jenkins Server <jenkins@builds.apache.org>","Fri, 15 Jul 2011 11:28:10 +0000 (UTC)","Build failed in Jenkins: HBase-TRUNK #2034"
"Akash Ashok <thehellmaker@gmail.com>","Fri, 15 Jul 2011 22:50:31 +0530","JVMClusterUtil.startup method refactor"
"Stack <stack@duboce.net>","Fri, 15 Jul 2011 10:22:56 -0700","Re: JVMClusterUtil.startup method refactor"
"Stack <stack@duboce.net>","Fri, 15 Jul 2011 10:28:24 -0700","Re: Create table threw NullPointerException"
"Lars George <lars.george@gmail.com>","Fri, 15 Jul 2011 20:31:44 +0200","Scanning .META. with start/stop row"
"Lars George <lars.george@gmail.com>","Fri, 15 Jul 2011 20:35:39 +0200","Re: Edit for your book Lars. WAS --> Re: A question about zookeeper.session.timeout"
"Stack <stack@duboce.net>","Fri, 15 Jul 2011 11:36:30 -0700","Re: Scanning .META. with start/stop row"
"Lars George <lars.george@gmail.com>","Fri, 15 Jul 2011 20:40:24 +0200","Re: Scanning .META. with start/stop row"
"Stack <stack@duboce.net>","Fri, 15 Jul 2011 14:01:10 -0700","Re: Scanning .META. with start/stop row"
"Apache Jenkins Server <jenkins@builds.apache.org>","Sat, 16 Jul 2011 03:07:13 +0000 (UTC)","Jenkins build is back to normal : HBase-TRUNK #2035"
"Akash Ashok <thehellmaker@gmail.com>","Sat, 16 Jul 2011 14:10:49 +0530","Re: JVMClusterUtil.startup method refactor"
"Akash Ashok <thehellmaker@gmail.com>","Sat, 16 Jul 2011 22:34:51 +0530","Re: JVMClusterUtil.startup method refactor"
"Jason Rutherglen <jason.rutherglen@gmail.com>","Sat, 16 Jul 2011 18:28:51 -0700","Starting the Hadoop DataNode inside the HBase process?"
"Ted Dunning <tdunning@maprtech.com>","Sat, 16 Jul 2011 19:34:58 -0700","Re: Starting the Hadoop DataNode inside the HBase process?"
"Stack <stack@duboce.net>","Sat, 16 Jul 2011 21:54:56 -0700","Re: JVMClusterUtil.startup method refactor"
"Akash <thehellmaker@gmail.com>","Sun, 17 Jul 2011 10:43:13 +0530","Re: JVMClusterUtil.startup method refactor"
"Todd Lipcon <todd@cloudera.com>","Sun, 17 Jul 2011 19:36:30 -0700","Re: Scanning .META. with start/stop row"
"Lars George <lars.george@gmail.com>","Mon, 18 Jul 2011 08:22:24 +0200","Re: Scanning .META. with start/stop row"
"Apache Jenkins Server <jenkins@builds.apache.org>","Mon, 18 Jul 2011 14:31:00 +0000 (UTC)","Build failed in Jenkins: HBase-TRUNK #2037"
"Jason Rutherglen <jason.rutherglen@gmail.com>","Mon, 18 Jul 2011 09:32:15 -0700","Re: Starting the Hadoop DataNode inside the HBase process?"
"Stack <stack@duboce.net>","Mon, 18 Jul 2011 09:34:10 -0700","Re: Scanning .META. with start/stop row"
"Todd Lipcon <todd@cloudera.com>","Mon, 18 Jul 2011 09:42:32 -0700","Re: Scanning .META. with start/stop row"
"Apache Jenkins Server <jenkins@builds.apache.org>","Mon, 18 Jul 2011 17:25:24 +0000 (UTC)","Jenkins build is back to normal : HBase-TRUNK #2038"
"Shrijeet Paliwal <shrijeet@rocketfuel.com>","Mon, 18 Jul 2011 11:25:32 -0700","HBASE-4109"
"Ted Yu <yuzhihong@gmail.com>","Mon, 18 Jul 2011 11:31:51 -0700","Re: HBASE-4109"
"Shrijeet Paliwal <shrijeet@rocketfuel.com>","Mon, 18 Jul 2011 11:42:37 -0700","Re: HBASE-4109"
"Stack <saint.ack@gmail.com>","Mon, 18 Jul 2011 13:15:26 -0700","Re: Scanning .META. with start/stop row"
"allan yan <hailunyan@gmail.com>","Mon, 18 Jul 2011 14:49:59 -0700","HBase rest RowSpec bug on startRow and endRow"
"Andrew Purtell <apurtell@apache.org>","Mon, 18 Jul 2011 16:31:53 -0700 (PDT)","Re: HBase rest RowSpec bug on startRow and endRow"
"Ted Dunning <tdunning@maprtech.com>","Mon, 18 Jul 2011 17:13:49 -0700","Re: Starting the Hadoop DataNode inside the HBase process?"
"Apache Jenkins Server <jenkins@builds.apache.org>","Tue, 19 Jul 2011 10:11:47 +0000 (UTC)","Build failed in Jenkins: HBase-TRUNK #2040"
"Apache Jenkins Server <jenkins@builds.apache.org>","Tue, 19 Jul 2011 17:00:06 +0000 (UTC)","Build failed in Jenkins: hbase-0.90 #233"
"Apache Jenkins Server <jenkins@builds.apache.org>","Tue, 19 Jul 2011 19:24:34 +0000 (UTC)","Jenkins build is back to normal : HBase-TRUNK #2041"
"Apache Jenkins Server <jenkins@builds.apache.org>","Tue, 19 Jul 2011 22:43:37 +0000 (UTC)","Build failed in Jenkins: hbase-0.90 #234"
"Apache Jenkins Server <jenkins@builds.apache.org>","Wed, 20 Jul 2011 00:32:18 +0000 (UTC)","Build failed in Jenkins: hbase-0.90 #235"
"Apache Jenkins Server <jenkins@builds.apache.org>","Wed, 20 Jul 2011 02:36:40 +0000 (UTC)","Build failed in Jenkins: HBase-TRUNK #2042"
"Apache Jenkins Server <jenkins@builds.apache.org>","Wed, 20 Jul 2011 05:39:34 +0000 (UTC)","Build failed in Jenkins: hbase-0.90 #236"
"Apache Jenkins Server <jenkins@builds.apache.org>","Wed, 20 Jul 2011 11:23:55 +0000 (UTC)","Build failed in Jenkins: HBase-TRUNK #2043"
"Apache Jenkins Server <jenkins@builds.apache.org>","Wed, 20 Jul 2011 12:18:20 +0000 (UTC)","Build failed in Jenkins: HBase-TRUNK #2044"
"Apache Jenkins Server <jenkins@builds.apache.org>","Wed, 20 Jul 2011 14:30:37 +0000 (UTC)","Jenkins build is back to normal : hbase-0.90 #237"
"N Keywal <nkeywal@gmail.com>","Wed, 20 Jul 2011 16:49:13 +0200","performance improvment on regionserver.MemStore/updateColumnValue"
"Joey Echeverria <joey@cloudera.com>","Wed, 20 Jul 2011 11:02:17 -0400","Re: performance improvment on regionserver.MemStore/updateColumnValue"
"Ted Yu <yuzhihong@gmail.com>","Wed, 20 Jul 2011 08:08:00 -0700","Re: performance improvment on regionserver.MemStore/updateColumnValue"
"Stack <stack@duboce.net>","Wed, 20 Jul 2011 08:15:33 -0700","Re: performance improvment on regionserver.MemStore/updateColumnValue"
"N Keywal <nkeywal@gmail.com>","Wed, 20 Jul 2011 17:20:14 +0200","Re: performance improvment on regionserver.MemStore/updateColumnValue"
"N Keywal <nkeywal@gmail.com>","Wed, 20 Jul 2011 17:28:35 +0200","Re: performance improvment on regionserver.MemStore/updateColumnValue"
"Joey Echeverria <joey@cloudera.com>","Wed, 20 Jul 2011 11:32:20 -0400","Re: performance improvment on regionserver.MemStore/updateColumnValue"
"Hailun Yan <hailunyan@gmail.com>","Wed, 20 Jul 2011 10:05:23 -0700","Re: HBase rest RowSpec bug on startRow and endRow"
"karthik tunga <karthik.tunga@gmail.com>","Wed, 20 Jul 2011 23:34:18 +0530","HConnectionManager doubt"
"Jean-Daniel Cryans <jdcryans@apache.org>","Wed, 20 Jul 2011 15:50:32 -0700","Re: Starting the Hadoop DataNode inside the HBase process?"
"Ted Yu <yuzhihong@gmail.com>","Wed, 20 Jul 2011 16:14:11 -0700","0.92 release"
"Apache Jenkins Server <jenkins@builds.apache.org>","Thu, 21 Jul 2011 03:13:07 +0000 (UTC)","Jenkins build is back to normal : HBase-TRUNK #2045"
"Stack <stack@duboce.net>","Wed, 20 Jul 2011 22:43:52 -0700","Re: 0.92 release"
"Apache Jenkins Server <jenkins@builds.apache.org>","Thu, 21 Jul 2011 07:08:02 +0000 (UTC)","Build failed in Jenkins: hbase-0.90 #239"
"Stack <stack@duboce.net>","Fri, 22 Jul 2011 15:34:02 -0700","ANN: The first 0.90.4 release candidate, 0.90.4RC0, is available for download"
"Ted Yu <yuzhihong@gmail.com>","Fri, 22 Jul 2011 15:40:30 -0700","Re: ANN: The first 0.90.4 release candidate, 0.90.4RC0, is available for download"
"Stack <stack@duboce.net>","Fri, 22 Jul 2011 16:04:56 -0700","Re: ANN: The first 0.90.4 release candidate, 0.90.4RC0, is available for download"
"Ted Yu <yuzhihong@gmail.com>","Fri, 22 Jul 2011 16:11:11 -0700","Re: ANN: The first 0.90.4 release candidate, 0.90.4RC0, is available for download"
"Apache Jenkins Server <jenkins@builds.apache.org>","Fri, 22 Jul 2011 23:12:40 +0000 (UTC)","Build failed in Jenkins: hbase-0.90 #240"
"Stack <stack@duboce.net>","Fri, 22 Jul 2011 16:18:05 -0700","Re: ANN: The first 0.90.4 release candidate, 0.90.4RC0, is available for download"
"Ted Yu <yuzhihong@gmail.com>","Fri, 22 Jul 2011 16:39:39 -0700","Re: ANN: The first 0.90.4 release candidate, 0.90.4RC0, is available for download"
"Apache Jenkins Server <jenkins@builds.apache.org>","Sat, 23 Jul 2011 03:24:04 +0000 (UTC)","Jenkins build is back to normal : hbase-0.90 #241"
"Stack <stack@duboce.net>","Fri, 22 Jul 2011 21:13:56 -0700","Re: ANN: The first 0.90.4 release candidate, 0.90.4RC0, is available for download"
"Ted Yu <yuzhihong@gmail.com>","Fri, 22 Jul 2011 21:24:40 -0700","Re: [jira] [Commented] (HBASE-4127) HBaseAdmin : Don't modify table's name away"
"Stack <stack@duboce.net>","Fri, 22 Jul 2011 21:31:16 -0700","Re: [jira] [Commented] (HBASE-4127) HBaseAdmin : Don't modify table's name away"
"Ted Yu <yuzhihong@gmail.com>","Fri, 22 Jul 2011 21:50:11 -0700","Re: hiding default ctor of HTD"
"Stack <stack@duboce.net>","Fri, 22 Jul 2011 22:03:58 -0700","Re: hiding default ctor of HTD"
"Ted Yu <yuzhihong@gmail.com>","Fri, 22 Jul 2011 22:48:32 -0700","Re: hiding default ctor of HTD"
"Ted Yu <yuzhihong@gmail.com>","Fri, 22 Jul 2011 23:01:38 -0700","Re: hiding default ctor of HTD"
"Apache Jenkins Server <jenkins@builds.apache.org>","Sat, 23 Jul 2011 06:02:41 +0000 (UTC)","Build failed in Jenkins: hbase-0.90 #242"
"Li Pi <li@cloudera.com>","Sat, 23 Jul 2011 03:43:45 -0700","introducing the hbase blamer"
"Apache Jenkins Server <jenkins@builds.apache.org>","Sat, 23 Jul 2011 10:55:23 +0000 (UTC)","Jenkins build is back to normal : hbase-0.90 #243"
"Eric Charles <eric.charles@u-mangate.com>","Sat, 23 Jul 2011 17:01:10 +0200","Re: ANN: The first 0.90.4 release candidate, 0.90.4RC0, is available for download"
"Stack <stack@duboce.net>","Sat, 23 Jul 2011 08:59:06 -0700","Re: ANN: The first 0.90.4 release candidate, 0.90.4RC0, is available for download"
"Stack <stack@duboce.net>","Sat, 23 Jul 2011 15:25:58 -0700","Re: introducing the hbase blamer"
"Apache Jenkins Server <jenkins@builds.apache.org>","Sun, 24 Jul 2011 01:04:41 +0000 (UTC)","Build failed in Jenkins: HBase-TRUNK #2048"
"Apache Jenkins Server <jenkins@builds.apache.org>","Sun, 24 Jul 2011 05:00:57 +0000 (UTC)","Build failed in Jenkins: HBase-TRUNK #2049"
"Apache Jenkins Server <jenkins@builds.apache.org>","Sun, 24 Jul 2011 06:28:17 +0000 (UTC)","Build failed in Jenkins: hbase-0.90 #247"
"Apache Jenkins Server <jenkins@builds.apache.org>","Sun, 24 Jul 2011 15:56:24 +0000 (UTC)","Jenkins build is back to normal : hbase-0.90 #248"
"Stack <stack@duboce.net>","Sun, 24 Jul 2011 16:27:48 -0700","ANN: The second 0.90.4 release candidate, 0.90.4RC1, is available for download"
"Ramkrishna S Vasudevan <ramakrishnas@huawei.com>","Mon, 25 Jul 2011 19:56:14 +0530","HBASE-4138"
"Ted Yu <yuzhihong@gmail.com>","Mon, 25 Jul 2011 14:30:45 -0700","0.92 release"
"Shrijeet Paliwal <shrijeet@rocketfuel.com>","Mon, 25 Jul 2011 15:59:13 -0700","Possible typo in hbase book's Rolling Restart section"
"Jeff Whiting <jeffw@qualtrics.com>","Mon, 25 Jul 2011 17:17:14 -0600","Re: Possible typo in hbase book's Rolling Restart section"
"Doug Meil <doug.meil@explorysmedical.com>","Mon, 25 Jul 2011 20:40:17 -0400","Re: Possible typo in hbase book's Rolling Restart section"
"Ted Yu <yuzhihong@gmail.com>","Mon, 25 Jul 2011 19:35:50 -0700","HBASE-1762"
"Apache Jenkins Server <jenkins@builds.apache.org>","Tue, 26 Jul 2011 18:16:45 +0000 (UTC)","Build failed in Jenkins: HBase-TRUNK #2051"
"Stack <stack@duboce.net>","Tue, 26 Jul 2011 11:22:57 -0700","Re: Build failed in Jenkins: HBase-TRUNK #2051"
"Apache Jenkins Server <jenkins@builds.apache.org>","Tue, 26 Jul 2011 20:49:21 +0000 (UTC)","Build failed in Jenkins: HBase-TRUNK #2052"
"Apache Jenkins Server <jenkins@builds.apache.org>","Tue, 26 Jul 2011 21:58:27 +0000 (UTC)","Build failed in Jenkins: HBase-TRUNK #2053"
"Apache Jenkins Server <jenkins@builds.apache.org>","Tue, 26 Jul 2011 22:51:19 +0000 (UTC)","Build failed in Jenkins: HBase-TRUNK #2054"
"Doug Meil <doug.meil@explorysmedical.com>","Tue, 26 Jul 2011 22:14:31 -0400","HBASE-4142?"
"Stack <stack@duboce.net>","Tue, 26 Jul 2011 19:17:34 -0700","[DISCUSSION] Move hfile to v2 for 0.92 rather than 0.94?"
"Ted Yu <yuzhihong@gmail.com>","Tue, 26 Jul 2011 19:26:12 -0700","Re: [DISCUSSION] Move hfile to v2 for 0.92 rather than 0.94?"
"Andrew Purtell <apurtell@apache.org>","Tue, 26 Jul 2011 19:28:23 -0700 (PDT)","Re: HBASE-4142?"
"Andrew Purtell <apurtell@apache.org>","Tue, 26 Jul 2011 19:29:26 -0700 (PDT)","Re: [DISCUSSION] Move hfile to v2 for 0.92 rather than 0.94?"
"Gaojinchao <gaojinchao@huawei.com>","Wed, 27 Jul 2011 02:30:12 +0000","Re: HBASE-4142?"
"Doug Meil <doug.meil@explorysmedical.com>","Tue, 26 Jul 2011 22:43:47 -0400","Re: HBASE-4142?"
"Ted Yu <yuzhihong@gmail.com>","Tue, 26 Jul 2011 19:52:22 -0700","Re: HBASE-4142?"
"Dhruba Borthakur <dhruba@gmail.com>","Tue, 26 Jul 2011 21:59:28 -0700","Re: [DISCUSSION] Move hfile to v2 for 0.92 rather than 0.94?"
"Li Pi <li@cloudera.com>","Tue, 26 Jul 2011 22:59:30 -0700","Re: [DISCUSSION] Move hfile to v2 for 0.92 rather than 0.94?"
"Nicolas Spiegelberg <nspiegelberg@fb.com>","Wed, 27 Jul 2011 06:25:08 +0000","Re: [DISCUSSION] Move hfile to v2 for 0.92 rather than 0.94?"
"Todd Lipcon <todd@cloudera.com>","Tue, 26 Jul 2011 23:26:41 -0700","Re: [DISCUSSION] Move hfile to v2 for 0.92 rather than 0.94?"
"Apache Jenkins Server <jenkins@builds.apache.org>","Wed, 27 Jul 2011 07:54:59 +0000 (UTC)","Build failed in Jenkins: HBase-TRUNK #2055"
"Ted Yu <yuzhihong@gmail.com>","Wed, 27 Jul 2011 01:36:14 -0700","trunk build 2055"
"Ramkrishna S Vasudevan <ramakrishnas@huawei.com>","Wed, 27 Jul 2011 15:12:25 +0530","RE: trunk build 2055"
"Ramkrishna S Vasudevan <ramakrishnas@huawei.com>","Wed, 27 Jul 2011 16:37:39 +0530","RS doesnot abort if the initialization of RS fails"
"Doug Meil <doug.meil@explorysmedical.com>","Wed, 27 Jul 2011 07:54:57 -0400","Re: HBASE-4142?"
"Doug Meil <doug.meil@explorysmedical.com>","Wed, 27 Jul 2011 08:08:48 -0400","Re: HBASE-4142?"
"Ted Yu <yuzhihong@gmail.com>","Wed, 27 Jul 2011 07:31:48 -0700","Re: RS doesnot abort if the initialization of RS fails"
"Jonathan Gray <jgray@fb.com>","Wed, 27 Jul 2011 17:50:56 +0000","RE: [DISCUSSION] Move hfile to v2 for 0.92 rather than 0.94?"
"Jean-Daniel Cryans <jdcryans@apache.org>","Wed, 27 Jul 2011 11:36:07 -0700","Re: [DISCUSSION] Move hfile to v2 for 0.92 rather than 0.94?"
"Apache Jenkins Server <jenkins@builds.apache.org>","Wed, 27 Jul 2011 20:18:59 +0000 (UTC)","Build failed in Jenkins: HBase-TRUNK #2056"
"Andrew Purtell <apurtell@apache.org>","Wed, 27 Jul 2011 13:19:53 -0700 (PDT)","Re: [DISCUSSION] Move hfile to v2 for 0.92 rather than 0.94?"
"Stack <stack@duboce.net>","Wed, 27 Jul 2011 13:24:13 -0700","Re: [DISCUSSION] Move hfile to v2 for 0.92 rather than 0.94?"
"Todd Lipcon <todd@cloudera.com>","Wed, 27 Jul 2011 14:05:24 -0700","Re: [DISCUSSION] Move hfile to v2 for 0.92 rather than 0.94?"
"Stack <stack@duboce.net>","Wed, 27 Jul 2011 16:28:11 -0700","Re: ANN: The second 0.90.4 release candidate, 0.90.4RC1, is available for download"
"Apache Jenkins Server <jenkins@builds.apache.org>","Thu, 28 Jul 2011 00:38:23 +0000 (UTC)","Build failed in Jenkins: HBase-TRUNK #2057"
"Andrew Purtell <apurtell@apache.org>","Wed, 27 Jul 2011 18:00:13 -0700 (PDT)","Fw: Solr Performance Tuning: -XX:+AggressiveOpts"
"Doug Meil <doug.meil@explorysmedical.com>","Wed, 27 Jul 2011 21:03:05 -0400","Re: Solr Performance Tuning: -XX:+AggressiveOpts"
"Apache Jenkins Server <jenkins@builds.apache.org>","Thu, 28 Jul 2011 02:01:10 +0000 (UTC)","Build failed in Jenkins: HBase-TRUNK #2058"
"Ted Yu <yuzhihong@gmail.com>","Wed, 27 Jul 2011 19:07:27 -0700","Re: ANN: The second 0.90.4 release candidate, 0.90.4RC1, is available for download"
"Ted Yu <yuzhihong@gmail.com>","Wed, 27 Jul 2011 19:59:19 -0700","accessing table regions through unit test"
"Apache Jenkins Server <jenkins@builds.apache.org>","Thu, 28 Jul 2011 04:04:27 +0000 (UTC)","Build failed in Jenkins: hbase-0.90 #251"
"Ted Yu <yuzhihong@gmail.com>","Wed, 27 Jul 2011 21:11:55 -0700","Re: Build failed in Jenkins: hbase-0.90 #251"
"Li Pi <li@cloudera.com>","Wed, 27 Jul 2011 21:13:18 -0700","Re: Build failed in Jenkins: hbase-0.90 #251"
"Apache Jenkins Server <jenkins@builds.apache.org>","Thu, 28 Jul 2011 07:34:28 +0000 (UTC)","Build failed in Jenkins: HBase-TRUNK #2059"
"Stack <stack@duboce.net>","Thu, 28 Jul 2011 08:49:35 -0700","Re: Build failed in Jenkins: HBase-TRUNK #2059"
"Ted Yu <yuzhihong@gmail.com>","Thu, 28 Jul 2011 09:47:39 -0700","HBase 0.92 branch"
"Stack <stack@duboce.net>","Thu, 28 Jul 2011 10:04:09 -0700","Re: HBase 0.92 branch"
"Ted Yu <yuzhihong@gmail.com>","Thu, 28 Jul 2011 10:16:01 -0700","Re: HBase 0.92 branch"
"Andrew Purtell <apurtell@apache.org>","Thu, 28 Jul 2011 11:10:11 -0700 (PDT)","Re: HBase 0.92 branch"
"Doug Meil <doug.meil@explorysmedical.com>","Thu, 28 Jul 2011 17:05:30 -0400","ressearch for HBASE-4089"
"Stack <stack@duboce.net>","Thu, 28 Jul 2011 14:28:57 -0700","Re: ressearch for HBASE-4089"
"Doug Meil <doug.meil@explorysmedical.com>","Thu, 28 Jul 2011 18:04:21 -0400","Re: ressearch for HBASE-4089"
"Apache Jenkins Server <jenkins@builds.apache.org>","Thu, 28 Jul 2011 22:58:24 +0000 (UTC)","Build failed in Jenkins: HBase-TRUNK #2060"
"Ted Yu <yuzhihong@gmail.com>","Thu, 28 Jul 2011 17:13:28 -0700","Re: HBase 0.92 branch"
"Andrew Purtell <apurtell@apache.org>","Thu, 28 Jul 2011 17:18:14 -0700 (PDT)","Re: HBase 0.92 branch"
"Apache Jenkins Server <jenkins@builds.apache.org>","Fri, 29 Jul 2011 03:42:55 +0000 (UTC)","Build failed in Jenkins: hbase-0.90 #252"
"Apache Jenkins Server <jenkins@builds.apache.org>","Fri, 29 Jul 2011 08:47:13 +0000 (UTC)","Build failed in Jenkins: HBase-TRUNK #2062"
"Doug Meil <doug.meil@explorysmedical.com>","Fri, 29 Jul 2011 07:15:00 -0400","HBASE-4089 & HBASE-4147 - on the topic of ops output"
"Apache Jenkins Server <jenkins@builds.apache.org>","Fri, 29 Jul 2011 11:47:12 +0000 (UTC)","Jenkins build is back to normal : hbase-0.90 #253"
"Apache Jenkins Server <jenkins@builds.apache.org>","Fri, 29 Jul 2011 16:05:11 +0000 (UTC)","Build failed in Jenkins: HBase-TRUNK #2063"
"Ted Yu <yuzhihong@gmail.com>","Fri, 29 Jul 2011 09:31:30 -0700","Re: Build failed in Jenkins: HBase-TRUNK #2062"
"Stack <stack@duboce.net>","Fri, 29 Jul 2011 09:36:54 -0700","Re: HBase 0.92 branch"
"Stack <stack@duboce.net>","Fri, 29 Jul 2011 09:40:18 -0700","Re: HBase 0.92 branch"
"Stack <stack@duboce.net>","Fri, 29 Jul 2011 09:42:59 -0700","Re: HBase 0.92 branch"
"Stack <stack@duboce.net>","Fri, 29 Jul 2011 09:50:05 -0700","Re: HBASE-4089 & HBASE-4147 - on the topic of ops output"
"Todd Lipcon <todd@cloudera.com>","Fri, 29 Jul 2011 09:58:16 -0700","Re: HBASE-4089 & HBASE-4147 - on the topic of ops output"
"Andrew Purtell <apurtell@apache.org>","Fri, 29 Jul 2011 10:15:00 -0700 (PDT)","Re: HBASE-4089 & HBASE-4147 - on the topic of ops output"
"Ted Yu <yuzhihong@gmail.com>","Fri, 29 Jul 2011 10:21:14 -0700","Re: Build failed in Jenkins: HBase-TRUNK #2063"
"Todd Lipcon <todd@cloudera.com>","Fri, 29 Jul 2011 10:32:18 -0700","Re: HBASE-4089 & HBASE-4147 - on the topic of ops output"
"lohit <lohit.vijayarenu@gmail.com>","Fri, 29 Jul 2011 10:49:13 -0700","Re: ANN: The second 0.90.4 release candidate, 0.90.4RC1, is available for download"
"Doug Meil <doug.meil@explorysmedical.com>","Fri, 29 Jul 2011 14:39:58 -0400","Re: HBASE-4089 & HBASE-4147 - on the topic of ops output"
"Andrew Purtell <apurtell@apache.org>","Fri, 29 Jul 2011 13:34:05 -0700 (PDT)","Re: HBASE-4089 & HBASE-4147 - on the topic of ops output"
"Stack <stack@duboce.net>","Fri, 29 Jul 2011 13:41:42 -0700","Re: HBASE-4089 & HBASE-4147 - on the topic of ops output"
"Doug Meil <doug.meil@explorysmedical.com>","Fri, 29 Jul 2011 17:07:27 -0400","Re: HBASE-4089 & HBASE-4147 - on the topic of ops output"
"Todd Lipcon <todd@cloudera.com>","Fri, 29 Jul 2011 14:34:16 -0700","Re: HBASE-4089 & HBASE-4147 - on the topic of ops output"
"Doug Meil <doug.meil@explorysmedical.com>","Fri, 29 Jul 2011 18:12:08 -0400","Re: HBASE-4089 & HBASE-4147 - on the topic of ops output"
"Otis Gospodnetic <otis_gospodnetic@yahoo.com>","Fri, 29 Jul 2011 16:49:35 -0700 (PDT)","Re: HBASE-4089 & HBASE-4147 - on the topic of ops output"
"Ted Yu <yuzhihong@gmail.com>","Sun, 31 Jul 2011 14:49:36 -0700","TestRegionRebalancing hangs in TRUNK"
"Fuad Efendi <fuad@efendi.ca>","Sun, 31 Jul 2011 18:10:15 -0400","Re: HBASE-4089 & HBASE-4147 - on the topic of ops output"
"Ryan Rawson <ryanobjc@gmail.com>","Sun, 31 Jul 2011 15:21:41 -0700","Re: HBASE-4089 & HBASE-4147 - on the topic of ops output"
"Fuad Efendi <fuad@efendi.ca>","Sun, 31 Jul 2011 18:38:36 -0400","Re: HBASE-4089 & HBASE-4147 - on the topic of ops output"
"Doug Meil <doug.meil@explorysmedical.com>","Sun, 31 Jul 2011 19:17:17 -0400","Re: HBASE-4089 & HBASE-4147 - on the topic of ops output"
