"Developer","Date","Subject"
"""stack (JIRA)"" <jira@apache.org>","Sun, 1 Nov 2009 20:59:59 +0000 (UTC)","[jira] Updated: (HBASE-1829) Make use of start/stop row in TableInputFormat"
"""stack (JIRA)"" <jira@apache.org>","Sun, 1 Nov 2009 21:05:59 +0000 (UTC)","[jira] Commented: (HBASE-1948) updates to existing tables do not get reflected after a complete HBase + Hadoop + Zookeeper restart"
"""stack (JIRA)"" <jira@apache.org>","Sun, 1 Nov 2009 21:12:00 +0000 (UTC)","[jira] Updated: (HBASE-1730) Near-instantaneous online schema and table state updates"
"""Jean-Daniel Cryans (JIRA)"" <jira@apache.org>","Sun, 1 Nov 2009 21:25:59 +0000 (UTC)","[jira] Commented: (HBASE-1730) Near-instantaneous online schema and table state updates"
"""stack (JIRA)"" <jira@apache.org>","Sun, 1 Nov 2009 23:30:59 +0000 (UTC)","[jira] Created: (HBASE-1950) Migration from 0.20 to 0.21"
"""Age Mooij (JIRA)"" <jira@apache.org>","Mon, 2 Nov 2009 15:10:59 +0000 (UTC)","[jira] Created: (HBASE-1951) Stack overflow when calling HTable.checkAndPut() when deleting a lot of values"
"""Age Mooij (JIRA)"" <jira@apache.org>","Mon, 2 Nov 2009 15:38:59 +0000 (UTC)","[jira] Updated: (HBASE-1951) Stack overflow when calling HTable.checkAndPut() when deleting a lot of values"
"""stack (JIRA)"" <jira@apache.org>","Mon, 2 Nov 2009 17:28:59 +0000 (UTC)","[jira] Updated: (HBASE-1951) Stack overflow when calling HTable.checkAndPut() when deleting a lot of values"
"""Gautam Sampathkumar (JIRA)"" <jira@apache.org>","Mon, 2 Nov 2009 18:30:59 +0000 (UTC)","[jira] Updated: (HBASE-1948) updates to existing tables do not get reflected after a complete HBase + Hadoop + Zookeeper restart"
"""Gautam Sampathkumar (JIRA)"" <jira@apache.org>","Mon, 2 Nov 2009 18:32:59 +0000 (UTC)","[jira] Updated: (HBASE-1948) updates to existing tables do not get reflected after a complete HBase + Hadoop + Zookeeper restart"
"""stack (JIRA)"" <jira@apache.org>","Mon, 2 Nov 2009 19:48:59 +0000 (UTC)","[jira] Commented: (HBASE-1948) updates to existing tables do not get reflected after a complete HBase + Hadoop + Zookeeper restart"
"""Jean-Daniel Cryans (JIRA)"" <jira@apache.org>","Mon, 2 Nov 2009 21:08:59 +0000 (UTC)","[jira] Resolved: (HBASE-1939) HLog group commit"
"""stack (JIRA)"" <jira@apache.org>","Mon, 2 Nov 2009 21:32:59 +0000 (UTC)","[jira] Updated: (HBASE-1952) use hadoop murmurhash in place of our own"
"""stack (JIRA)"" <jira@apache.org>","Mon, 2 Nov 2009 21:32:59 +0000 (UTC)","[jira] Created: (HBASE-1952) use hadoop murmurhash in place of our own"
"""Gary Helmling (JIRA)"" <jira@apache.org>","Mon, 2 Nov 2009 22:04:59 +0000 (UTC)","[jira] Updated: (HBASE-1949) KeyValue expiration by Time-to-Live during major compaction is broken"
"""Gautam Sampathkumar (JIRA)"" <jira@apache.org>","Mon, 2 Nov 2009 22:18:59 +0000 (UTC)","[jira] Updated: (HBASE-1948) updates to existing tables do not get reflected after a complete HBase + Hadoop + Zookeeper restart"
"""stack (JIRA)"" <jira@apache.org>","Mon, 2 Nov 2009 22:46:59 +0000 (UTC)","[jira] Commented: (HBASE-1944) Add a ""deferred log flush"" attribute to HTD"
"""Jean-Daniel Cryans (JIRA)"" <jira@apache.org>","Mon, 2 Nov 2009 22:58:59 +0000 (UTC)","[jira] Commented: (HBASE-1928) ROOT and META tables stay in transition state (making the system not usable) if the designated regionServer dies before the assignment is complete"
"""Jean-Daniel Cryans (JIRA)"" <jira@apache.org>","Mon, 2 Nov 2009 23:22:59 +0000 (UTC)","[jira] Commented: (HBASE-1947) If HBase starts/stops often in less than 24 hours, you end up with lots of store files"
"""Jean-Daniel Cryans (JIRA)"" <jira@apache.org>","Mon, 2 Nov 2009 23:32:59 +0000 (UTC)","[jira] Resolved: (HBASE-1947) If HBase starts/stops often in less than 24 hours, you end up with lots of store files"
"""Jean-Daniel Cryans (JIRA)"" <jira@apache.org>","Tue, 3 Nov 2009 01:51:59 +0000 (UTC)","[jira] Resolved: (HBASE-1944) Add a ""deferred log flush"" attribute to HTD"
"""Lars Francke (JIRA)"" <jira@apache.org>","Tue, 3 Nov 2009 03:03:59 +0000 (UTC)","[jira] Created: (HBASE-1953) Overhaul of overview.html (html fixes, typos, consistency) - no content changes"
"""Lars Francke (JIRA)"" <jira@apache.org>","Tue, 3 Nov 2009 03:07:59 +0000 (UTC)","[jira] Updated: (HBASE-1953) Overhaul of overview.html (html fixes, typos, consistency) - no content changes"
"""Gautam Sampathkumar (JIRA)"" <jira@apache.org>","Tue, 3 Nov 2009 03:17:59 +0000 (UTC)","[jira] Updated: (HBASE-1948) updates to existing tables do not get reflected after a complete HBase + Hadoop + Zookeeper restart"
"""Lars George (JIRA)"" <jira@apache.org>","Tue, 3 Nov 2009 12:56:59 +0000 (UTC)","[jira] Updated: (HBASE-1829) Make use of start/stop row in TableInputFormat"
"""stack (JIRA)"" <jira@apache.org>","Tue, 3 Nov 2009 18:17:32 +0000 (UTC)","[jira] Commented: (HBASE-1948) updates to existing tables do not get reflected after a complete HBase + Hadoop + Zookeeper restart"
"""Clint Morgan (JIRA)"" <jira@apache.org>","Tue, 3 Nov 2009 19:17:32 +0000 (UTC)","[jira] Created: (HBASE-1954) Transactional scans do not see newest put."
"""Clint Morgan (JIRA)"" <jira@apache.org>","Tue, 3 Nov 2009 19:19:32 +0000 (UTC)","[jira] Updated: (HBASE-1954) Transactional scans do not see newest put."
"""stack (JIRA)"" <jira@apache.org>","Tue, 3 Nov 2009 19:19:32 +0000 (UTC)","[jira] Resolved: (HBASE-1953) Overhaul of overview.html (html fixes, typos, consistency) - no content changes"
"""stack (JIRA)"" <jira@apache.org>","Tue, 3 Nov 2009 19:42:32 +0000 (UTC)","[jira] Resolved: (HBASE-1954) Transactional scans do not see newest put."
"""Jean-Daniel Cryans (JIRA)"" <jira@apache.org>","Tue, 3 Nov 2009 20:02:32 +0000 (UTC)","[jira] Commented: (HBASE-1920) Client with cached region location pointing at dead server does not recover"
"""Ryan Smith (JIRA)"" <jira@apache.org>","Tue, 3 Nov 2009 20:37:32 +0000 (UTC)","[jira] Created: (HBASE-1955) When starting Hbase cluster,"
"Apache Hudson Server <hudson@hudson.zones.apache.org>","Tue, 3 Nov 2009 20:53:56 +0000 (UTC)","Build failed in Hudson: HBase-Patch #976"
"""Jean-Daniel Cryans (JIRA)"" <jira@apache.org>","Tue, 3 Nov 2009 20:55:32 +0000 (UTC)","[jira] Commented: (HBASE-1920) Client with cached region location pointing at dead server does not recover"
"""stack (JIRA)"" <jira@apache.org>","Tue, 3 Nov 2009 21:13:32 +0000 (UTC)","[jira] Commented: (HBASE-1920) Client with cached region location pointing at dead server does not recover"
"""Jean-Daniel Cryans (JIRA)"" <jira@apache.org>","Tue, 3 Nov 2009 22:12:32 +0000 (UTC)","[jira] Updated: (HBASE-1919) code: HRS.delete seems to ignore exceptions it shouldnt"
"""stack (JIRA)"" <jira@apache.org>","Tue, 3 Nov 2009 22:24:33 +0000 (UTC)","[jira] Commented: (HBASE-1919) code: HRS.delete seems to ignore exceptions it shouldnt"
"""Jean-Daniel Cryans (JIRA)"" <jira@apache.org>","Tue, 3 Nov 2009 23:26:33 +0000 (UTC)","[jira] Updated: (HBASE-1951) Stack overflow when calling HTable.checkAndPut() when deleting a lot of values"
"""Jean-Daniel Cryans (JIRA)"" <jira@apache.org>","Tue, 3 Nov 2009 23:38:32 +0000 (UTC)","[jira] Updated: (HBASE-1660) need a rolling restart script"
"""Jean-Daniel Cryans (JIRA)"" <jira@apache.org>","Tue, 3 Nov 2009 23:38:32 +0000 (UTC)","[jira] Commented: (HBASE-1919) code: HRS.delete seems to ignore exceptions it shouldnt"
"""Jonathan Gray (JIRA)"" <jira@apache.org>","Tue, 3 Nov 2009 23:44:33 +0000 (UTC)","[jira] Commented: (HBASE-1920) Client with cached region location pointing at dead server does not recover"
"""Jean-Daniel Cryans (JIRA)"" <jira@apache.org>","Tue, 3 Nov 2009 23:50:32 +0000 (UTC)","[jira] Resolved: (HBASE-1919) code: HRS.delete seems to ignore exceptions it shouldnt"
"""Gautam Sampathkumar (JIRA)"" <jira@apache.org>","Tue, 3 Nov 2009 23:56:32 +0000 (UTC)","[jira] Updated: (HBASE-1948) updates to existing tables do not get reflected after a complete HBase + Hadoop + Zookeeper restart"
"""Jean-Daniel Cryans (JIRA)"" <jira@apache.org>","Wed, 4 Nov 2009 00:14:32 +0000 (UTC)","[jira] Updated: (HBASE-1951) Stack overflow when calling HTable.checkAndPut() when deleting a lot of values"
"Apache Hudson Server <hudson@hudson.zones.apache.org>","Wed, 4 Nov 2009 00:47:31 +0000 (UTC)","Build failed in Hudson: HBase-Patch #977"
"""stack (JIRA)"" <jira@apache.org>","Wed, 4 Nov 2009 01:21:32 +0000 (UTC)","[jira] Commented: (HBASE-1951) Stack overflow when calling HTable.checkAndPut() when deleting a lot of values"
"""Jean-Daniel Cryans (JIRA)"" <jira@apache.org>","Wed, 4 Nov 2009 01:31:32 +0000 (UTC)","[jira] Resolved: (HBASE-1951) Stack overflow when calling HTable.checkAndPut() when deleting a lot of values"
"Apache Hudson Server <hudson@hudson.zones.apache.org>","Wed, 4 Nov 2009 02:55:28 +0000 (UTC)","Hudson build is back to normal: HBase-Patch #978"
"""Jean-Daniel Cryans (JIRA)"" <jira@apache.org>","Wed, 4 Nov 2009 03:14:32 +0000 (UTC)","[jira] Updated: (HBASE-1781) Weird behavior of WildcardColumnTracker.checkColumn(), looks like recursive loop"
"""stack (JIRA)"" <jira@apache.org>","Wed, 4 Nov 2009 04:12:32 +0000 (UTC)","[jira] Commented: (HBASE-1781) Weird behavior of WildcardColumnTracker.checkColumn(), looks like recursive loop"
"""Lars Francke (JIRA)"" <jira@apache.org>","Wed, 4 Nov 2009 04:12:32 +0000 (UTC)","[jira] Updated: (HBASE-1953) Overhaul of overview.html (html fixes, typos, consistency) - no content changes"
"""Jean-Daniel Cryans (JIRA)"" <jira@apache.org>","Wed, 4 Nov 2009 05:09:32 +0000 (UTC)","[jira] Commented: (HBASE-1781) Weird behavior of WildcardColumnTracker.checkColumn(), looks like recursive loop"
"""Jean-Daniel Cryans (JIRA)"" <jira@apache.org>","Wed, 4 Nov 2009 05:25:32 +0000 (UTC)","[jira] Resolved: (HBASE-1781) Weird behavior of WildcardColumnTracker.checkColumn(), looks like recursive loop"
"Apache Hudson Server <hudson@hudson.zones.apache.org>","Wed, 4 Nov 2009 05:48:48 +0000 (UTC)","Build failed in Hudson: HBase-Patch #979"
"""Jean-Daniel Cryans (JIRA)"" <jira@apache.org>","Wed, 4 Nov 2009 06:42:32 +0000 (UTC)","[jira] Commented: (HBASE-1954) Transactional scans do not see newest put."
"""Lars George (JIRA)"" <jira@apache.org>","Wed, 4 Nov 2009 14:45:32 +0000 (UTC)","[jira] Commented: (HBASE-1781) Weird behavior of WildcardColumnTracker.checkColumn(), looks like recursive loop"
"""Age Mooij (JIRA)"" <jira@apache.org>","Wed, 4 Nov 2009 15:13:32 +0000 (UTC)","[jira] Commented: (HBASE-1951) Stack overflow when calling HTable.checkAndPut() when deleting a lot of values"
"""Gary Helmling (JIRA)"" <jira@apache.org>","Wed, 4 Nov 2009 15:13:32 +0000 (UTC)","[jira] Updated: (HBASE-1949) KeyValue expiration by Time-to-Live during major compaction is broken"
"""Gary Helmling (JIRA)"" <jira@apache.org>","Wed, 4 Nov 2009 15:13:32 +0000 (UTC)","[jira] Updated: (HBASE-1949) KeyValue expiration by Time-to-Live during major compaction is broken"
"""Gary Helmling (JIRA)"" <jira@apache.org>","Wed, 4 Nov 2009 15:17:37 +0000 (UTC)","[jira] Updated: (HBASE-1949) KeyValue expiration by Time-to-Live during major compaction is broken"
"""Gary Helmling (JIRA)"" <jira@apache.org>","Wed, 4 Nov 2009 15:17:37 +0000 (UTC)","[jira] Updated: (HBASE-1949) KeyValue expiration by Time-to-Live during major compaction is broken"
"""Clint Morgan (JIRA)"" <jira@apache.org>","Wed, 4 Nov 2009 17:07:32 +0000 (UTC)","[jira] Commented: (HBASE-1954) Transactional scans do not see newest put."
"""Andrew Purtell (JIRA)"" <jira@apache.org>","Thu, 5 Nov 2009 09:16:32 +0000 (UTC)","[jira] Created: (HBASE-1956) Export HDFS read and write latency as a metric"
"""Gary Helmling (JIRA)"" <jira@apache.org>","Thu, 5 Nov 2009 17:03:32 +0000 (UTC)","[jira] Updated: (HBASE-1949) KeyValue expiration by Time-to-Live during major compaction is broken"
"""Gary Helmling (JIRA)"" <jira@apache.org>","Thu, 5 Nov 2009 17:03:34 +0000 (UTC)","[jira] Updated: (HBASE-1949) KeyValue expiration by Time-to-Live during major compaction is broken"
"""Eli Collins (JIRA)"" <jira@apache.org>","Thu, 5 Nov 2009 18:07:32 +0000 (UTC)","[jira] Commented: (HBASE-1956) Export HDFS read and write latency as a metric"
"stack <stack@duboce.net>","Thu, 5 Nov 2009 10:21:16 -0800","Good modeling resource: ""No Relation: The Mixed Blessings of 	Non-Relational Databases"" by Ian Thomas Varley"
"""Gary Helmling (JIRA)"" <jira@apache.org>","Thu, 5 Nov 2009 18:28:32 +0000 (UTC)","[jira] Updated: (HBASE-1949) KeyValue expiration by Time-to-Live during major compaction is broken"
"""Jean-Daniel Cryans (JIRA)"" <jira@apache.org>","Thu, 5 Nov 2009 18:54:32 +0000 (UTC)","[jira] Commented: (HBASE-1956) Export HDFS read and write latency as a metric"
"Andrew <skigh3@gmail.com>","Thu, 5 Nov 2009 10:57:20 -0800","Re: Good modeling resource: ""No Relation: The Mixed Blessings of 	Non-Relational Databases"" by Ian Thomas Varley"
"""Jonathan Gray (JIRA)"" <jira@apache.org>","Thu, 5 Nov 2009 19:08:32 +0000 (UTC)","[jira] Commented: (HBASE-1949) KeyValue expiration by Time-to-Live during major compaction is broken"
"""Jonathan Gray (JIRA)"" <jira@apache.org>","Thu, 5 Nov 2009 19:08:32 +0000 (UTC)","[jira] Assigned: (HBASE-1949) KeyValue expiration by Time-to-Live during major compaction is broken"
"""Jean-Daniel Cryans (JIRA)"" <jira@apache.org>","Thu, 5 Nov 2009 19:16:32 +0000 (UTC)","[jira] Commented: (HBASE-1327) NPE in HRegionServer$ToDoEntry.access$100"
"""Jonathan Gray (JIRA)"" <jira@apache.org>","Thu, 5 Nov 2009 19:18:33 +0000 (UTC)","[jira] Resolved: (HBASE-1814) jgray, stack and ryan should not be allowed to ride in the same car at once ever again"
"stack <stack@duboce.net>","Thu, 5 Nov 2009 11:29:51 -0800","Re: Good modeling resource: ""No Relation: The Mixed Blessings of 	Non-Relational Databases"" by Ian Thomas Varley"
"""stack (JIRA)"" <jira@apache.org>","Thu, 5 Nov 2009 19:32:32 +0000 (UTC)","[jira] Commented: (HBASE-1814) jgray, stack and ryan should not be allowed to ride in the same car at once ever again"
"""stack (JIRA)"" <jira@apache.org>","Thu, 5 Nov 2009 19:32:32 +0000 (UTC)","[jira] Commented: (HBASE-1814) jgray, stack and ryan should not be allowed to ride in the same car at once ever again"
"""Jean-Daniel Cryans (JIRA)"" <jira@apache.org>","Thu, 5 Nov 2009 19:40:32 +0000 (UTC)","[jira] Resolved: (HBASE-1327) NPE in HRegionServer$ToDoEntry.access$100"
"""Eli Collins (JIRA)"" <jira@apache.org>","Thu, 5 Nov 2009 20:18:32 +0000 (UTC)","[jira] Commented: (HBASE-1956) Export HDFS read and write latency as a metric"
"""stack (JIRA)"" <jira@apache.org>","Thu, 5 Nov 2009 20:36:32 +0000 (UTC)","[jira] Commented: (HBASE-1956) Export HDFS read and write latency as a metric"
"""stack (JIRA)"" <jira@apache.org>","Thu, 5 Nov 2009 21:53:32 +0000 (UTC)","[jira] Updated: (HBASE-1949) KeyValue expiration by Time-to-Live during major compaction is broken"
"""stack (JIRA)"" <jira@apache.org>","Thu, 5 Nov 2009 22:11:32 +0000 (UTC)","[jira] Updated: (HBASE-1935) Scan in parallel"
"""Jean-Daniel Cryans (JIRA)"" <jira@apache.org>","Thu, 5 Nov 2009 22:13:32 +0000 (UTC)","[jira] Resolved: (HBASE-423) Test cases need a mechanism to tell HConnectionManager to shutdown"
"Apache Hudson Server <hudson@hudson.zones.apache.org>","Thu, 5 Nov 2009 22:48:05 +0000 (UTC)","Build failed in Hudson: HBase-Patch #980"
"""Andrew Purtell (JIRA)"" <jira@apache.org>","Fri, 6 Nov 2009 02:11:32 +0000 (UTC)","[jira] Commented: (HBASE-1956) Export HDFS read and write latency as a metric"
"""Roman Kalyakin (JIRA)"" <jira@apache.org>","Fri, 6 Nov 2009 08:40:32 +0000 (UTC)","[jira] Created: (HBASE-1957) Get-s can't set a Filter"
"""Roman Kalyakin (JIRA)"" <jira@apache.org>","Fri, 6 Nov 2009 08:44:32 +0000 (UTC)","[jira] Updated: (HBASE-1957) Get-s can't set a Filter"
"""Roman Kalyakin (JIRA)"" <jira@apache.org>","Fri, 6 Nov 2009 08:46:33 +0000 (UTC)","[jira] Updated: (HBASE-1957) Get-s can't set a Filter"
"""stack (JIRA)"" <jira@apache.org>","Fri, 6 Nov 2009 19:12:32 +0000 (UTC)","[jira] Resolved: (HBASE-1957) Get-s can't set a Filter"
"""Yannis Pavlidis (JIRA)"" <jira@apache.org>","Fri, 6 Nov 2009 20:00:32 +0000 (UTC)","[jira] Updated: (HBASE-1928) ROOT and META tables stay in transition state (making the system not usable) if the designated regionServer dies before the assignment is complete"
"Apache Hudson Server <hudson@hudson.zones.apache.org>","Fri, 6 Nov 2009 21:02:09 +0000 (UTC)","Hudson build is back to normal: HBase-Patch #981"
"""Jean-Daniel Cryans (JIRA)"" <jira@apache.org>","Fri, 6 Nov 2009 21:21:32 +0000 (UTC)","[jira] Commented: (HBASE-1613) NPE in BoundedRangeFileInputStream.read"
"""stack (JIRA)"" <jira@apache.org>","Fri, 6 Nov 2009 21:29:32 +0000 (UTC)","[jira] Commented: (HBASE-1938) Make in-memory table scanning faster"
"""Lars George (JIRA)"" <jira@apache.org>","Fri, 6 Nov 2009 21:31:32 +0000 (UTC)","[jira] Updated: (HBASE-1829) Make use of start/stop row in TableInputFormat"
"""Lars George (JIRA)"" <jira@apache.org>","Fri, 6 Nov 2009 21:33:32 +0000 (UTC)","[jira] Updated: (HBASE-1829) Make use of start/stop row in TableInputFormat"
"""Jean-Daniel Cryans (JIRA)"" <jira@apache.org>","Fri, 6 Nov 2009 21:41:32 +0000 (UTC)","[jira] Resolved: (HBASE-1613) NPE in BoundedRangeFileInputStream.read"
"""stack (JIRA)"" <jira@apache.org>","Fri, 6 Nov 2009 22:00:32 +0000 (UTC)","[jira] Commented: (HBASE-1920) Client with cached region location pointing at dead server does not recover"
"""stack (JIRA)"" <jira@apache.org>","Fri, 6 Nov 2009 22:12:32 +0000 (UTC)","[jira] Updated: (HBASE-1920) Client with cached region location pointing at dead server does not recover"
"""stack (JIRA)"" <jira@apache.org>","Fri, 6 Nov 2009 22:20:32 +0000 (UTC)","[jira] Updated: (HBASE-1956) Export HDFS read and write latency as a metric"
"stack <stack@duboce.net>","Fri, 6 Nov 2009 14:26:07 -0800","An hbase 0.20.2 release?"
"""stack (JIRA)"" <jira@apache.org>","Fri, 6 Nov 2009 22:38:32 +0000 (UTC)","[jira] Created: (HBASE-1958) Remove ""# TODO: PUT BACK !!! ""${HADOOP_HOME}""/bin/hadoop dfsadmin -safemode wait"""
"Jean-Daniel Cryans <jdcryans@apache.org>","Fri, 6 Nov 2009 14:40:32 -0800","Re: An hbase 0.20.2 release?"
"""stack (JIRA)"" <jira@apache.org>","Fri, 6 Nov 2009 22:40:32 +0000 (UTC)","[jira] Updated: (HBASE-1956) Export HDFS read and write latency as a metric"
"""stack (JIRA)"" <jira@apache.org>","Fri, 6 Nov 2009 22:44:32 +0000 (UTC)","[jira] Updated: (HBASE-1928) ROOT and META tables stay in transition state (making the system not usable) if the designated regionServer dies before the assignment is complete"
"""stack (JIRA)"" <jira@apache.org>","Fri, 6 Nov 2009 22:50:32 +0000 (UTC)","[jira] Commented: (HBASE-1953) Overhaul of overview.html (html fixes, typos, consistency) - no content changes"
"stack <stack@duboce.net>","Fri, 6 Nov 2009 14:54:57 -0800","Re: An hbase 0.20.2 release?"
"""Dave Latham (JIRA)"" <jira@apache.org>","Fri, 6 Nov 2009 23:32:32 +0000 (UTC)","[jira] Created: (HBASE-1959) Compress tables during 0.19 to 0.20 migration"
"""Dave Latham (JIRA)"" <jira@apache.org>","Fri, 6 Nov 2009 23:32:32 +0000 (UTC)","[jira] Updated: (HBASE-1959) Compress tables during 0.19 to 0.20 migration"
"""stack (JIRA)"" <jira@apache.org>","Sat, 7 Nov 2009 00:17:32 +0000 (UTC)","[jira] Commented: (HBASE-1959) Compress tables during 0.19 to 0.20 migration"
"""stack (JIRA)"" <jira@apache.org>","Sat, 7 Nov 2009 00:19:32 +0000 (UTC)","[jira] Resolved: (HBASE-1959) Compress tables during 0.19 to 0.20 migration"
"""stack (JIRA)"" <jira@apache.org>","Sat, 7 Nov 2009 00:21:32 +0000 (UTC)","[jira] Assigned: (HBASE-1959) Compress tables during 0.19 to 0.20 migration"
"""Eli Collins (JIRA)"" <jira@apache.org>","Sat, 7 Nov 2009 02:33:41 +0000 (UTC)","[jira] Commented: (HBASE-1956) Export HDFS read and write latency as a metric"
"""Andrew Purtell (JIRA)"" <jira@apache.org>","Sat, 7 Nov 2009 03:25:41 +0000 (UTC)","[jira] Commented: (HBASE-1956) Export HDFS read and write latency as a metric"
"""Andrew Purtell (JIRA)"" <jira@apache.org>","Sat, 7 Nov 2009 03:55:41 +0000 (UTC)","[jira] Commented: (HBASE-1295) Multi data center replication"
"""Andrew Purtell (JIRA)"" <jira@apache.org>","Sat, 7 Nov 2009 03:57:41 +0000 (UTC)","[jira] Resolved: (HBASE-1786) Log replicator thread and HLog support"
"""Andrew Purtell (JIRA)"" <jira@apache.org>","Sat, 7 Nov 2009 04:05:41 +0000 (UTC)","[jira] Updated: (HBASE-1733) Pluggable replication framework"
"""Andrew Purtell (JIRA)"" <jira@apache.org>","Sat, 7 Nov 2009 04:05:41 +0000 (UTC)","[jira] Updated: (HBASE-1733) Pluggable replication framework"
"""Andrew Purtell (JIRA)"" <jira@apache.org>","Sat, 7 Nov 2009 16:55:32 +0000 (UTC)","[jira] Created: (HBASE-1960) Master should wait for DFS to come up when creating hbase.version"
"""Andrew Purtell (JIRA)"" <jira@apache.org>","Sat, 7 Nov 2009 17:19:32 +0000 (UTC)","[jira] Updated: (HBASE-1960) Master should wait for DFS to come up when creating hbase.version"
"""Andrew Purtell (JIRA)"" <jira@apache.org>","Sat, 7 Nov 2009 18:15:33 +0000 (UTC)","[jira] Created: (HBASE-1961) HBase EC2 scripts"
"""Andrew Purtell (JIRA)"" <jira@apache.org>","Sat, 7 Nov 2009 18:17:32 +0000 (UTC)","[jira] Updated: (HBASE-1961) HBase EC2 scripts"
"""Andrew Purtell (JIRA)"" <jira@apache.org>","Sat, 7 Nov 2009 18:25:32 +0000 (UTC)","[jira] Updated: (HBASE-1961) HBase EC2 scripts"
"""Andrew Purtell (JIRA)"" <jira@apache.org>","Sat, 7 Nov 2009 18:29:32 +0000 (UTC)","[jira] Commented: (HBASE-1961) HBase EC2 scripts"
"""Andrew Purtell (JIRA)"" <jira@apache.org>","Sat, 7 Nov 2009 18:35:32 +0000 (UTC)","[jira] Updated: (HBASE-1961) HBase EC2 scripts"
"""stack (JIRA)"" <jira@apache.org>","Sat, 7 Nov 2009 23:44:32 +0000 (UTC)","[jira] Updated: (HBASE-1928) ROOT and META tables stay in transition state (making the system not usable) if the designated regionServer dies before the assignment is complete"
"Apache Hudson Server <hudson@hudson.zones.apache.org>","Sun, 8 Nov 2009 00:48:01 +0000 (UTC)","Build failed in Hudson: HBase-Patch #983"
"""stack (JIRA)"" <jira@apache.org>","Sun, 8 Nov 2009 01:08:32 +0000 (UTC)","[jira] Commented: (HBASE-1829) Make use of start/stop row in TableInputFormat"
"""stack (JIRA)"" <jira@apache.org>","Sun, 8 Nov 2009 01:30:32 +0000 (UTC)","[jira] Commented: (HBASE-1961) HBase EC2 scripts"
"""Andrew Purtell (JIRA)"" <jira@apache.org>","Sun, 8 Nov 2009 03:00:32 +0000 (UTC)","[jira] Commented: (HBASE-1961) HBase EC2 scripts"
"""Andrew Purtell (JIRA)"" <jira@apache.org>","Sun, 8 Nov 2009 03:02:32 +0000 (UTC)","[jira] Commented: (HBASE-1961) HBase EC2 scripts"
"""stack (JIRA)"" <jira@apache.org>","Sun, 8 Nov 2009 04:36:33 +0000 (UTC)","[jira] Commented: (HBASE-1961) HBase EC2 scripts"
"""Andrew Purtell (JIRA)"" <jira@apache.org>","Sun, 8 Nov 2009 09:28:32 +0000 (UTC)","[jira] Commented: (HBASE-1961) HBase EC2 scripts"
"""Lars George (JIRA)"" <jira@apache.org>","Sun, 8 Nov 2009 11:32:32 +0000 (UTC)","[jira] Updated: (HBASE-1829) Make use of start/stop row in TableInputFormat"
"""stack (JIRA)"" <jira@apache.org>","Mon, 9 Nov 2009 00:29:32 +0000 (UTC)","[jira] Created: (HBASE-1962) Bulk loading script makes regions incorrectly (loadtable.rb)"
"""stack (JIRA)"" <jira@apache.org>","Mon, 9 Nov 2009 00:31:32 +0000 (UTC)","[jira] Updated: (HBASE-1962) Bulk loading script makes regions incorrectly (loadtable.rb)"
"""stack (JIRA)"" <jira@apache.org>","Mon, 9 Nov 2009 00:39:32 +0000 (UTC)","[jira] Commented: (HBASE-1829) Make use of start/stop row in TableInputFormat"
"Apache Hudson Server <hudson@hudson.zones.apache.org>","Mon, 9 Nov 2009 01:51:08 +0000 (UTC)","Hudson build is back to normal: HBase-Patch #984"
"""Murali Krishna P (JIRA)"" <jira@apache.org>","Mon, 9 Nov 2009 08:22:32 +0000 (UTC)","[jira] Updated: (HBASE-1962) Bulk loading script makes regions incorrectly (loadtable.rb)"
"""Murali Krishna P (JIRA)"" <jira@apache.org>","Mon, 9 Nov 2009 08:26:32 +0000 (UTC)","[jira] Updated: (HBASE-1962) Bulk loading script makes regions incorrectly (loadtable.rb)"
"""Kevin Peterson (JIRA)"" <jira@apache.org>","Mon, 9 Nov 2009 10:12:34 +0000 (UTC)","[jira] Created: (HBASE-1963) Output to multiple tables from Hadoop MR without use of HTable"
"""Kevin Peterson (JIRA)"" <jira@apache.org>","Mon, 9 Nov 2009 10:20:32 +0000 (UTC)","[jira] Updated: (HBASE-1963) Output to multiple tables from Hadoop MR without use of HTable"
"""Kevin Peterson (JIRA)"" <jira@apache.org>","Mon, 9 Nov 2009 10:20:32 +0000 (UTC)","[jira] Updated: (HBASE-1963) Output to multiple tables from Hadoop MR without use of HTable"
"""Lars George (JIRA)"" <jira@apache.org>","Mon, 9 Nov 2009 13:48:32 +0000 (UTC)","[jira] Commented: (HBASE-1829) Make use of start/stop row in TableInputFormat"
"""Andrew Purtell (JIRA)"" <jira@apache.org>","Mon, 9 Nov 2009 14:42:35 +0000 (UTC)","[jira] Commented: (HBASE-1845) Discussion issue for multi calls, MultiDelete, MultiGet and MultiPut"
"""Andrew Purtell (JIRA)"" <jira@apache.org>","Mon, 9 Nov 2009 15:14:32 +0000 (UTC)","[jira] Commented: (HBASE-1963) Output to multiple tables from Hadoop MR without use of HTable"
"""stack (JIRA)"" <jira@apache.org>","Mon, 9 Nov 2009 15:41:33 +0000 (UTC)","[jira] Updated: (HBASE-1962) Bulk loading script makes regions incorrectly (loadtable.rb)"
"""stack (JIRA)"" <jira@apache.org>","Mon, 9 Nov 2009 15:47:32 +0000 (UTC)","[jira] Updated: (HBASE-1867) Tool to regenerate an hbase table from the data files"
"""stack (JIRA)"" <jira@apache.org>","Mon, 9 Nov 2009 15:57:33 +0000 (UTC)","[jira] Updated: (HBASE-1962) Bulk loading script makes regions incorrectly (loadtable.rb)"
"""Erik Holstad (JIRA)"" <jira@apache.org>","Mon, 9 Nov 2009 16:47:35 +0000 (UTC)","[jira] Commented: (HBASE-1845) Discussion issue for multi calls, MultiDelete, MultiGet and MultiPut"
"Apache Hudson Server <hudson@hudson.zones.apache.org>","Mon, 9 Nov 2009 17:41:46 +0000 (UTC)","Build failed in Hudson: HBase-Patch #985"
"""elsif  (JIRA)"" <jira@apache.org>","Mon, 9 Nov 2009 19:17:32 +0000 (UTC)","[jira] Created: (HBASE-1964) Add internal status monitoring to RegionServer"
"""stack (JIRA)"" <jira@apache.org>","Mon, 9 Nov 2009 19:37:32 +0000 (UTC)","[jira] Updated: (HBASE-1829) Make use of start/stop row in TableInputFormat"
"""stack (JIRA)"" <jira@apache.org>","Mon, 9 Nov 2009 19:37:32 +0000 (UTC)","[jira] Commented: (HBASE-1829) Make use of start/stop row in TableInputFormat"
"""stack (JIRA)"" <jira@apache.org>","Mon, 9 Nov 2009 23:26:32 +0000 (UTC)","[jira] Created: (HBASE-1965) On restart of branch, master complains about not being able to set safe mode"
"""stack (JIRA)"" <jira@apache.org>","Mon, 9 Nov 2009 23:28:32 +0000 (UTC)","[jira] Commented: (HBASE-1965) On restart of branch, master complains about not being able to set safe mode"
"""Kevin Peterson (JIRA)"" <jira@apache.org>","Tue, 10 Nov 2009 00:27:32 +0000 (UTC)","[jira] Updated: (HBASE-1963) Output to multiple tables from Hadoop MR without use of HTable"
"""Jean-Daniel Cryans (JIRA)"" <jira@apache.org>","Tue, 10 Nov 2009 01:29:32 +0000 (UTC)","[jira] Created: (HBASE-1966) Apply the fix from site/ to remove the forrest dependency on java5"
"""Jean-Daniel Cryans (JIRA)"" <jira@apache.org>","Tue, 10 Nov 2009 01:31:32 +0000 (UTC)","[jira] Created: (HBASE-1967) [Transtional] client.TestTransactions.testPutPutScan fails sometimes"
"""Jean-Daniel Cryans (JIRA)"" <jira@apache.org>","Tue, 10 Nov 2009 01:35:32 +0000 (UTC)","[jira] Updated: (HBASE-1967) [Transactional] client.TestTransactions.testPutPutScan fails sometimes"
"""Jean-Daniel Cryans (JIRA)"" <jira@apache.org>","Tue, 10 Nov 2009 01:41:32 +0000 (UTC)","[jira] Commented: (HBASE-1967) [Transactional] client.TestTransactions.testPutPutScan fails sometimes"
"""Jean-Daniel Cryans (JIRA)"" <jira@apache.org>","Tue, 10 Nov 2009 01:41:32 +0000 (UTC)","[jira] Resolved: (HBASE-1966) Apply the fix from site/ to remove the forrest dependency on java5"
"""stack (JIRA)"" <jira@apache.org>","Tue, 10 Nov 2009 01:43:32 +0000 (UTC)","[jira] Updated: (HBASE-1904) Add tutorilal for installing HBase on Windows using Cygwin as a test and development environment"
"Apache Hudson Server <hudson@hudson.zones.apache.org>","Tue, 10 Nov 2009 03:03:26 +0000 (UTC)","Hudson build is back to normal: HBase-Patch #986"
"""Andrew Purtell (JIRA)"" <jira@apache.org>","Tue, 10 Nov 2009 04:55:32 +0000 (UTC)","[jira] Created: (HBASE-1968) Give clients access to the write buffer"
"""Andrew Purtell (JIRA)"" <jira@apache.org>","Tue, 10 Nov 2009 04:55:32 +0000 (UTC)","[jira] Commented: (HBASE-1968) Give clients access to the write buffer"
"""Andrew Purtell (JIRA)"" <jira@apache.org>","Tue, 10 Nov 2009 04:57:32 +0000 (UTC)","[jira] Resolved: (HBASE-1968) Give clients access to the write buffer"
"""Jean-Daniel Cryans (JIRA)"" <jira@apache.org>","Tue, 10 Nov 2009 04:59:32 +0000 (UTC)","[jira] Commented: (HBASE-1968) Give clients access to the write buffer"
"""stack (JIRA)"" <jira@apache.org>","Tue, 10 Nov 2009 05:07:32 +0000 (UTC)","[jira] Updated: (HBASE-1904) Add tutorilal for installing HBase on Windows using Cygwin as a test and development environment"
"""Andrew Purtell (JIRA)"" <jira@apache.org>","Tue, 10 Nov 2009 05:13:32 +0000 (UTC)","[jira] Commented: (HBASE-1968) Give clients access to the write buffer"
"Jean-Daniel Cryans <jdcryans@apache.org>","Mon, 9 Nov 2009 21:13:59 -0800","About to cut hbase 0.20.2RC1"
"""Jean-Daniel Cryans (JIRA)"" <jira@apache.org>","Tue, 10 Nov 2009 05:15:32 +0000 (UTC)","[jira] Commented: (HBASE-1968) Give clients access to the write buffer"
"Sanjay Sharma <sanjay.sharma@impetus.co.in>","Tue, 10 Nov 2009 11:49:45 +0530","1st Hadoop India User Group meet"
"""Kevin Peterson (JIRA)"" <jira@apache.org>","Tue, 10 Nov 2009 08:00:28 +0000 (UTC)","[jira] Updated: (HBASE-1963) Output to multiple tables from Hadoop MR without use of HTable"
"""Lars George (JIRA)"" <jira@apache.org>","Tue, 10 Nov 2009 11:20:27 +0000 (UTC)","[jira] Created: (HBASE-1969) HBASE-1626 does not work as advertised due to lack of ""instanceof"" check in MR framework"
"""Andrew Purtell (JIRA)"" <jira@apache.org>","Tue, 10 Nov 2009 14:29:27 +0000 (UTC)","[jira] Commented: (HBASE-1964) Add internal status monitoring to RegionServer"
"""Andrew Purtell (JIRA)"" <jira@apache.org>","Tue, 10 Nov 2009 14:35:27 +0000 (UTC)","[jira] Commented: (HBASE-1965) On restart of branch, master complains about not being able to set safe mode"
"""stack (JIRA)"" <jira@apache.org>","Tue, 10 Nov 2009 15:51:28 +0000 (UTC)","[jira] Resolved: (HBASE-1965) On restart of branch, master complains about not being able to set safe mode"
"stack <stack@duboce.net>","Tue, 10 Nov 2009 07:55:19 -0800","Re: About to cut hbase 0.20.2RC1"
"""Andrew Purtell (JIRA)"" <jira@apache.org>","Tue, 10 Nov 2009 17:23:28 +0000 (UTC)","[jira] Updated: (HBASE-1963) Output to multiple tables from Hadoop MR without use of HTable"
"Andrew Purtell <apurtell@apache.org>","Tue, 10 Nov 2009 09:46:13 -0800 (PST)","Re: About to cut hbase 0.20.2RC1"
"""Lars George (JIRA)"" <jira@apache.org>","Tue, 10 Nov 2009 18:21:28 +0000 (UTC)","[jira] Updated: (HBASE-1829) Make use of start/stop row in TableInputFormat"
"""Lars George (JIRA)"" <jira@apache.org>","Tue, 10 Nov 2009 18:27:28 +0000 (UTC)","[jira] Commented: (HBASE-1829) Make use of start/stop row in TableInputFormat"
"""Clint Morgan (JIRA)"" <jira@apache.org>","Tue, 10 Nov 2009 18:31:27 +0000 (UTC)","[jira] Assigned: (HBASE-1967) [Transactional] client.TestTransactions.testPutPutScan fails sometimes"
"Jean-Daniel Cryans <jdcryans@apache.org>","Tue, 10 Nov 2009 10:55:53 -0800","Re: About to cut hbase 0.20.2RC1"
"Jean-Daniel Cryans <jdcryans@apache.org>","Tue, 10 Nov 2009 11:19:16 -0800","ANN: hbase 0.20.2 Release Candidate 1 available for download"
"""stack (JIRA)"" <jira@apache.org>","Tue, 10 Nov 2009 21:03:27 +0000 (UTC)","[jira] Commented: (HBASE-1829) Make use of start/stop row in TableInputFormat"
"""stack (JIRA)"" <jira@apache.org>","Wed, 11 Nov 2009 00:51:28 +0000 (UTC)","[jira] Updated: (HBASE-1938) Make in-memory table scanning faster"
"""stack (JIRA)"" <jira@apache.org>","Wed, 11 Nov 2009 06:20:27 +0000 (UTC)","[jira] Updated: (HBASE-1970) Export does one version only; make it configurable how many it does"
"""stack (JIRA)"" <jira@apache.org>","Wed, 11 Nov 2009 06:20:27 +0000 (UTC)","[jira] Created: (HBASE-1970) Export does one version only; make it configurable how many it does"
"""Schubert Zhang (JIRA)"" <jira@apache.org>","Wed, 11 Nov 2009 17:35:39 +0000 (UTC)","[jira] Commented: (HBASE-1841) If multiple of same key in an hfile and they span blocks, may miss the earlier keys on a lookup"
"""stack (JIRA)"" <jira@apache.org>","Wed, 11 Nov 2009 17:49:39 +0000 (UTC)","[jira] Commented: (HBASE-1841) If multiple of same key in an hfile and they span blocks, may miss the earlier keys on a lookup"
"""Schubert Zhang (JIRA)"" <jira@apache.org>","Wed, 11 Nov 2009 18:20:39 +0000 (UTC)","[jira] Updated: (HBASE-1841) If multiple of same key in an hfile and they span blocks, may miss the earlier keys on a lookup"
"""Schubert Zhang (JIRA)"" <jira@apache.org>","Wed, 11 Nov 2009 18:22:39 +0000 (UTC)","[jira] Updated: (HBASE-1841) If multiple of same key in an hfile and they span blocks, may miss the earlier keys on a lookup"
"""stack (JIRA)"" <jira@apache.org>","Wed, 11 Nov 2009 21:08:39 +0000 (UTC)","[jira] Updated: (HBASE-1970) Export does one version only; make it configurable how many it does"
"""Schubert Zhang (JIRA)"" <jira@apache.org>","Wed, 11 Nov 2009 21:20:53 +0000 (UTC)","[jira] Updated: (HBASE-1841) If multiple of same key in an hfile and they span blocks, may miss the earlier keys on a lookup"
"""Schubert Zhang (JIRA)"" <jira@apache.org>","Wed, 11 Nov 2009 21:34:43 +0000 (UTC)","[jira] Commented: (HBASE-1841) If multiple of same key in an hfile and they span blocks, may miss the earlier keys on a lookup"
"""stack (JIRA)"" <jira@apache.org>","Wed, 11 Nov 2009 21:48:48 +0000 (UTC)","[jira] Commented: (HBASE-1841) If multiple of same key in an hfile and they span blocks, may miss the earlier keys on a lookup"
"""ryan rawson (JIRA)"" <jira@apache.org>","Wed, 11 Nov 2009 22:36:40 +0000 (UTC)","[jira] Commented: (HBASE-1841) If multiple of same key in an hfile and they span blocks, may miss the earlier keys on a lookup"
"""ryan rawson (JIRA)"" <jira@apache.org>","Wed, 11 Nov 2009 22:42:39 +0000 (UTC)","[jira] Commented: (HBASE-1841) If multiple of same key in an hfile and they span blocks, may miss the earlier keys on a lookup"
"""Jean-Daniel Cryans (JIRA)"" <jira@apache.org>","Wed, 11 Nov 2009 23:58:48 +0000 (UTC)","[jira] Created: (HBASE-1971) Unit test the full WAL replay cycle"
"""stack (JIRA)"" <jira@apache.org>","Thu, 12 Nov 2009 01:38:39 +0000 (UTC)","[jira] Created: (HBASE-1972) Failed split results in closed region and non-registration of daughters; fix the order in which things are run"
"""Schubert Zhang (JIRA)"" <jira@apache.org>","Thu, 12 Nov 2009 03:40:48 +0000 (UTC)","[jira] Updated: (HBASE-1841) If multiple of same key in an hfile and they span blocks, may miss the earlier keys on a lookup"
"""stack (JIRA)"" <jira@apache.org>","Thu, 12 Nov 2009 04:19:39 +0000 (UTC)","[jira] Commented: (HBASE-1841) If multiple of same key in an hfile and they span blocks, may miss the earlier keys on a lookup"
"""stack (JIRA)"" <jira@apache.org>","Thu, 12 Nov 2009 05:17:39 +0000 (UTC)","[jira] Created: (HBASE-1973) Second RS goes down because ""Bad connect ack with firstBadLink as..."""
"""stack (JIRA)"" <jira@apache.org>","Thu, 12 Nov 2009 05:39:39 +0000 (UTC)","[jira] Commented: (HBASE-1973) Second RS goes down because ""Bad connect ack with firstBadLink as..."""
"""stack (JIRA)"" <jira@apache.org>","Thu, 12 Nov 2009 05:45:39 +0000 (UTC)","[jira] Created: (HBASE-1974) Update to latest on hadoop 0.21 branch (November11th, 2009)"
"""stack (JIRA)"" <jira@apache.org>","Thu, 12 Nov 2009 05:51:39 +0000 (UTC)","[jira] Resolved: (HBASE-1974) Update to latest on hadoop 0.21 branch (November11th, 2009)"
"""stack (JIRA)"" <jira@apache.org>","Thu, 12 Nov 2009 05:51:39 +0000 (UTC)","[jira] Commented: (HBASE-1974) Update to latest on hadoop 0.21 branch (November11th, 2009)"
"Dave Latham <latham@davelink.net>","Thu, 12 Nov 2009 06:23:36 -0800","Re: [jira] Commented: (HBASE-1974) Update to latest on hadoop 0.21 	branch (November11th, 2009)"
"""Jeremiah Jacquet (JIRA)"" <jira@apache.org>","Thu, 12 Nov 2009 15:35:39 +0000 (UTC)","[jira] Created: (HBASE-1975) SingleColumnValueFilter: Add ability to match the value of previous versions of the specified column"
"""Andrew Purtell (JIRA)"" <jira@apache.org>","Thu, 12 Nov 2009 16:17:41 +0000 (UTC)","[jira] Assigned: (HBASE-1961) HBase EC2 scripts"
"""Age Mooij (JIRA)"" <jira@apache.org>","Thu, 12 Nov 2009 16:39:39 +0000 (UTC)","[jira] Created: (HBASE-1976) HBaseConfiguration implements hashCode() without implementing equals()"
"""Jeremiah Jacquet (JIRA)"" <jira@apache.org>","Thu, 12 Nov 2009 17:20:40 +0000 (UTC)","[jira] Updated: (HBASE-1975) SingleColumnValueFilter: Add ability to match the value of previous versions of the specified column"
"""Jeremiah Jacquet (JIRA)"" <jira@apache.org>","Thu, 12 Nov 2009 17:24:39 +0000 (UTC)","[jira] Updated: (HBASE-1975) SingleColumnValueFilter: Add ability to match the value of previous versions of the specified column"
"""stack (JIRA)"" <jira@apache.org>","Thu, 12 Nov 2009 19:14:39 +0000 (UTC)","[jira] Commented: (HBASE-1975) SingleColumnValueFilter: Add ability to match the value of previous versions of the specified column"
"""stack (JIRA)"" <jira@apache.org>","Thu, 12 Nov 2009 19:26:39 +0000 (UTC)","[jira] Commented: (HBASE-1976) HBaseConfiguration implements hashCode() without implementing equals()"
"stack <stack@duboce.net>","Thu, 12 Nov 2009 11:41:15 -0800","Re: [jira] Commented: (HBASE-1974) Update to latest on hadoop 0.21 	branch (November11th, 2009)"
"""Schubert Zhang (JIRA)"" <jira@apache.org>","Thu, 12 Nov 2009 21:00:39 +0000 (UTC)","[jira] Updated: (HBASE-1841) If multiple of same key in an hfile and they span blocks, may miss the earlier keys on a lookup"
"""Schubert Zhang (JIRA)"" <jira@apache.org>","Thu, 12 Nov 2009 21:00:39 +0000 (UTC)","[jira] Updated: (HBASE-1841) If multiple of same key in an hfile and they span blocks, may miss the earlier keys on a lookup"
"""Schubert Zhang (JIRA)"" <jira@apache.org>","Thu, 12 Nov 2009 21:00:39 +0000 (UTC)","[jira] Updated: (HBASE-1841) If multiple of same key in an hfile and they span blocks, may miss the earlier keys on a lookup"
"stack <stack@duboce.net>","Thu, 12 Nov 2009 13:08:28 -0800","Re: ANN: hbase 0.20.2 Release Candidate 1 available for download"
"""stack (JIRA)"" <jira@apache.org>","Thu, 12 Nov 2009 21:10:39 +0000 (UTC)","[jira] Commented: (HBASE-1841) If multiple of same key in an hfile and they span blocks, may miss the earlier keys on a lookup"
"""stack (JIRA)"" <jira@apache.org>","Thu, 12 Nov 2009 21:22:39 +0000 (UTC)","[jira] Commented: (HBASE-1961) HBase EC2 scripts"
"""Andrew Purtell (JIRA)"" <jira@apache.org>","Fri, 13 Nov 2009 02:04:45 +0000 (UTC)","[jira] Commented: (HBASE-1961) HBase EC2 scripts"
"""Jeremiah Jacquet (JIRA)"" <jira@apache.org>","Fri, 13 Nov 2009 02:12:39 +0000 (UTC)","[jira] Commented: (HBASE-1975) SingleColumnValueFilter: Add ability to match the value of previous versions of the specified column"
"""Andrew Purtell (JIRA)"" <jira@apache.org>","Fri, 13 Nov 2009 02:24:39 +0000 (UTC)","[jira] Commented: (HBASE-1961) HBase EC2 scripts"
"""Andrew Purtell (JIRA)"" <jira@apache.org>","Fri, 13 Nov 2009 02:28:39 +0000 (UTC)","[jira] Updated: (HBASE-1961) HBase EC2 scripts"
"""Andrew Purtell (JIRA)"" <jira@apache.org>","Fri, 13 Nov 2009 02:36:39 +0000 (UTC)","[jira] Commented: (HBASE-1961) HBase EC2 scripts"
"""Andrew Purtell (JIRA)"" <jira@apache.org>","Fri, 13 Nov 2009 02:36:39 +0000 (UTC)","[jira] Updated: (HBASE-1961) HBase EC2 scripts"
"""Andrew Purtell (JIRA)"" <jira@apache.org>","Fri, 13 Nov 2009 02:58:39 +0000 (UTC)","[jira] Updated: (HBASE-1961) HBase EC2 scripts"
"""Andrew Purtell (JIRA)"" <jira@apache.org>","Fri, 13 Nov 2009 02:58:39 +0000 (UTC)","[jira] Updated: (HBASE-1961) HBase EC2 scripts"
"""stack (JIRA)"" <jira@apache.org>","Fri, 13 Nov 2009 05:25:39 +0000 (UTC)","[jira] Updated: (HBASE-1975) SingleColumnValueFilter: Add ability to match the value of previous versions of the specified column"
"""stack (JIRA)"" <jira@apache.org>","Fri, 13 Nov 2009 06:39:39 +0000 (UTC)","[jira] Assigned: (HBASE-1841) If multiple of same key in an hfile and they span blocks, may miss the earlier keys on a lookup"
"""stack (JIRA)"" <jira@apache.org>","Fri, 13 Nov 2009 06:41:39 +0000 (UTC)","[jira] Updated: (HBASE-1841) If multiple of same key in an hfile and they span blocks, may miss the earlier keys on a lookup"
"""stack (JIRA)"" <jira@apache.org>","Fri, 13 Nov 2009 07:03:39 +0000 (UTC)","[jira] Created: (HBASE-1977) Add ts and allow setting VERSIONS when scanning in shell"
"""stack (JIRA)"" <jira@apache.org>","Fri, 13 Nov 2009 07:05:39 +0000 (UTC)","[jira] Resolved: (HBASE-1977) Add ts and allow setting VERSIONS when scanning in shell"
"""stack (JIRA)"" <jira@apache.org>","Fri, 13 Nov 2009 07:07:41 +0000 (UTC)","[jira] Updated: (HBASE-1970) Export does one version only; make it configurable how many it does"
"""Schubert Zhang (JIRA)"" <jira@apache.org>","Fri, 13 Nov 2009 10:36:39 +0000 (UTC)","[jira] Created: (HBASE-1978) Change the range/block index scheme from [start,end) to (start, end], and index range/block by endKey, specially in HFile"
"""Schubert Zhang (JIRA)"" <jira@apache.org>","Fri, 13 Nov 2009 10:44:40 +0000 (UTC)","[jira] Commented: (HBASE-1841) If multiple of same key in an hfile and they span blocks, may miss the earlier keys on a lookup"
"""Schubert Zhang (JIRA)"" <jira@apache.org>","Fri, 13 Nov 2009 10:46:39 +0000 (UTC)","[jira] Updated: (HBASE-1978) Change the range/block index scheme from [start,end) to (start, end], and index range/block by endKey, specially in HFile"
"""olivier gillet (JIRA)"" <jira@apache.org>","Fri, 13 Nov 2009 11:49:39 +0000 (UTC)","[jira] Created: (HBASE-1979) MurmurHash does not yield the same results as the reference C++ implementation when size % 4 >= 2"
"""olivier gillet (JIRA)"" <jira@apache.org>","Fri, 13 Nov 2009 12:39:39 +0000 (UTC)","[jira] Updated: (HBASE-1979) MurmurHash does not yield the same results as the reference C++ implementation when size % 4 >= 2"
"""Andrew Purtell (JIRA)"" <jira@apache.org>","Fri, 13 Nov 2009 13:02:39 +0000 (UTC)","[jira] Updated: (HBASE-1979) MurmurHash does not yield the same results as the reference C++ implementation when size % 4 >= 2"
"""Andrew Purtell (JIRA)"" <jira@apache.org>","Fri, 13 Nov 2009 13:04:39 +0000 (UTC)","[jira] Updated: (HBASE-1979) MurmurHash does not yield the same results as the reference C++ implementation when size % 4 >= 2"
"""Andrzej Bialecki  (JIRA)"" <jira@apache.org>","Fri, 13 Nov 2009 13:10:39 +0000 (UTC)","[jira] Commented: (HBASE-1979) MurmurHash does not yield the same results as the reference C++ implementation when size % 4 >= 2"
"""Andrew Purtell (JIRA)"" <jira@apache.org>","Fri, 13 Nov 2009 13:48:39 +0000 (UTC)","[jira] Commented: (HBASE-1979) MurmurHash does not yield the same results as the reference C++ implementation when size % 4 >= 2"
"""Andrew Purtell (JIRA)"" <jira@apache.org>","Fri, 13 Nov 2009 13:54:39 +0000 (UTC)","[jira] Updated: (HBASE-1961) HBase EC2 scripts"
"""Andrew Purtell (JIRA)"" <jira@apache.org>","Fri, 13 Nov 2009 13:56:39 +0000 (UTC)","[jira] Updated: (HBASE-1961) HBase EC2 scripts"
"""Andrew Purtell (JIRA)"" <jira@apache.org>","Fri, 13 Nov 2009 13:56:39 +0000 (UTC)","[jira] Updated: (HBASE-1961) HBase EC2 scripts"
"""Andrew Purtell (JIRA)"" <jira@apache.org>","Fri, 13 Nov 2009 14:11:39 +0000 (UTC)","[jira] Updated: (HBASE-1980) [EC2] EBS support"
"""Andrew Purtell (JIRA)"" <jira@apache.org>","Fri, 13 Nov 2009 14:11:39 +0000 (UTC)","[jira] Created: (HBASE-1980) [EC2]"
"""Jeremiah Jacquet (JIRA)"" <jira@apache.org>","Fri, 13 Nov 2009 17:23:39 +0000 (UTC)","[jira] Commented: (HBASE-1975) SingleColumnValueFilter: Add ability to match the value of previous versions of the specified column"
"""Jean-Daniel Cryans (JIRA)"" <jira@apache.org>","Fri, 13 Nov 2009 19:43:39 +0000 (UTC)","[jira] Updated: (HBASE-1971) Unit test the full WAL replay cycle"
"""stack (JIRA)"" <jira@apache.org>","Fri, 13 Nov 2009 23:15:39 +0000 (UTC)","[jira] Updated: (HBASE-1970) Export does one version only; make it configurable how many it does"
"""stack (JIRA)"" <jira@apache.org>","Fri, 13 Nov 2009 23:35:39 +0000 (UTC)","[jira] Commented: (HBASE-1977) Add ts and allow setting VERSIONS when scanning in shell"
"""stack (JIRA)"" <jira@apache.org>","Sat, 14 Nov 2009 00:15:40 +0000 (UTC)","[jira] Commented: (HBASE-1971) Unit test the full WAL replay cycle"
"""stack (JIRA)"" <jira@apache.org>","Sat, 14 Nov 2009 00:27:39 +0000 (UTC)","[jira] Commented: (HBASE-1961) HBase EC2 scripts"
"""ryan rawson (JIRA)"" <jira@apache.org>","Sat, 14 Nov 2009 00:39:39 +0000 (UTC)","[jira] Commented: (HBASE-1979) MurmurHash does not yield the same results as the reference C++ implementation when size % 4 >= 2"
"""stack (JIRA)"" <jira@apache.org>","Sat, 14 Nov 2009 00:39:39 +0000 (UTC)","[jira] Commented: (HBASE-1952) use hadoop murmurhash in place of our own"
"""stack (JIRA)"" <jira@apache.org>","Sat, 14 Nov 2009 00:45:39 +0000 (UTC)","[jira] Commented: (HBASE-1961) HBase EC2 scripts"
"""ryan rawson (JIRA)"" <jira@apache.org>","Sat, 14 Nov 2009 00:47:39 +0000 (UTC)","[jira] Commented: (HBASE-1979) MurmurHash does not yield the same results as the reference C++ implementation when size % 4 >= 2"
"""Andrew Purtell"" <apurtell@apache.org>","Sat, 14 Nov 2009 01:00:54 +0000","Re: [jira] Commented: (HBASE-1961) HBase EC2 scripts"
"""Andrew Purtell"" <apurtell@apache.org>","Sat, 14 Nov 2009 01:03:13 +0000","Re: [jira] Commented: (HBASE-1961) HBase EC2 scripts"
"""olivier gillet (JIRA)"" <jira@apache.org>","Sat, 14 Nov 2009 01:03:39 +0000 (UTC)","[jira] Commented: (HBASE-1979) MurmurHash does not yield the same results as the reference C++ implementation when size % 4 >= 2"
"""Andrew Purtell"" <apurtell@apache.org>","Sat, 14 Nov 2009 01:06:54 +0000","Re: [jira] Commented: (HBASE-1961) HBase EC2 scripts"
"""Schubert Zhang (JIRA)"" <jira@apache.org>","Sat, 14 Nov 2009 04:46:39 +0000 (UTC)","[jira] Commented: (HBASE-1841) If multiple of same key in an hfile and they span blocks, may miss the earlier keys on a lookup"
"""Andrew Purtell (JIRA)"" <jira@apache.org>","Sat, 14 Nov 2009 13:22:39 +0000 (UTC)","[jira] Commented: (HBASE-1961) HBase EC2 scripts"
"""Andrew Purtell (JIRA)"" <jira@apache.org>","Sat, 14 Nov 2009 13:22:39 +0000 (UTC)","[jira] Created: (HBASE-1981) [EC2] Wiki page"
"""Andrew Purtell (JIRA)"" <jira@apache.org>","Sat, 14 Nov 2009 13:24:39 +0000 (UTC)","[jira] Updated: (HBASE-1980) [EC2] EBS support"
"""Andrew Purtell (JIRA)"" <jira@apache.org>","Sat, 14 Nov 2009 13:34:39 +0000 (UTC)","[jira] Commented: (HBASE-1979) MurmurHash does not yield the same results as the reference C++ implementation when size % 4 >= 2"
"""Andrew Purtell (JIRA)"" <jira@apache.org>","Sat, 14 Nov 2009 14:04:39 +0000 (UTC)","[jira] Created: (HBASE-1982) [EC2] handle potentially large and uneven instance startup times"
"""Andrew Purtell (JIRA)"" <jira@apache.org>","Sat, 14 Nov 2009 14:12:39 +0000 (UTC)","[jira] Commented: (HBASE-1961) HBase EC2 scripts"
"""stack (JIRA)"" <jira@apache.org>","Sat, 14 Nov 2009 16:44:39 +0000 (UTC)","[jira] Commented: (HBASE-1981) [EC2] Wiki page"
"""stack (JIRA)"" <jira@apache.org>","Sat, 14 Nov 2009 16:46:39 +0000 (UTC)","[jira] Commented: (HBASE-1979) MurmurHash does not yield the same results as the reference C++ implementation when size % 4 >= 2"
"""stack (JIRA)"" <jira@apache.org>","Sat, 14 Nov 2009 16:50:39 +0000 (UTC)","[jira] Issue Comment Edited: (HBASE-1961) HBase EC2 scripts"
"""stack (JIRA)"" <jira@apache.org>","Sat, 14 Nov 2009 21:48:39 +0000 (UTC)","[jira] Updated: (HBASE-1970) Export does one version only; make it configurable how many it does"
"""stack (JIRA)"" <jira@apache.org>","Sun, 15 Nov 2009 00:10:39 +0000 (UTC)","[jira] Created: (HBASE-1983) Fix up the hbase-default.xml descriptions; in particular, note interaction between flush and write buffer"
"""stack (JIRA)"" <jira@apache.org>","Sun, 15 Nov 2009 00:30:39 +0000 (UTC)","[jira] Commented: (HBASE-1876) DroppedSnapshotException when flushing memstore after a datanode dies"
"Jean-Daniel Cryans <jdcryans@apache.org>","Sat, 14 Nov 2009 16:37:52 -0800","Should we change the default value of hbase.regionserver.flushlogentries 	for 0.21?"
"Dave Latham <latham@davelink.net>","Sat, 14 Nov 2009 17:08:11 -0800","Re: Should we change the default value of hbase.regionserver.flushlogentries 	for 0.21?"
"Ryan Rawson <ryanobjc@gmail.com>","Sat, 14 Nov 2009 17:33:36 -0800","Re: Should we change the default value of hbase.regionserver.flushlogentries 	for 0.21?"
"Chad Walters <Chad.Walters@microsoft.com>","Sun, 15 Nov 2009 02:58:05 +0000","RE: Should we change the default value of hbase.regionserver.flushlogentries 	for 0.21?"
"Ryan Rawson <ryanobjc@gmail.com>","Sat, 14 Nov 2009 19:23:39 -0800","Re: Should we change the default value of hbase.regionserver.flushlogentries 	for 0.21?"
"stack <stack@duboce.net>","Sat, 14 Nov 2009 21:45:31 -0800","Re: Should we change the default value of hbase.regionserver.flushlogentries 	for 0.21?"
"""ryan rawson (JIRA)"" <jira@apache.org>","Sun, 15 Nov 2009 05:46:39 +0000 (UTC)","[jira] Commented: (HBASE-1841) If multiple of same key in an hfile and they span blocks, may miss the earlier keys on a lookup"
"Ryan Rawson <ryanobjc@gmail.com>","Sat, 14 Nov 2009 23:22:13 -0800","Re: Should we change the default value of hbase.regionserver.flushlogentries 	for 0.21?"
"""Cosmin Lehene (JIRA)"" <jira@apache.org>","Sun, 15 Nov 2009 10:00:39 +0000 (UTC)","[jira] Commented: (HBASE-1876) DroppedSnapshotException when flushing memstore after a datanode dies"
"""stack (JIRA)"" <jira@apache.org>","Sun, 15 Nov 2009 16:34:39 +0000 (UTC)","[jira] Commented: (HBASE-1876) DroppedSnapshotException when flushing memstore after a datanode dies"
"Andrew Purtell <apurtell@apache.org>","Sun, 15 Nov 2009 08:59:57 -0800 (PST)","Re: Should we change the default value of hbase.regionserver.flushlogentries  for 0.21?"
"""Andrew Purtell (JIRA)"" <jira@apache.org>","Sun, 15 Nov 2009 17:00:39 +0000 (UTC)","[jira] Created: (HBASE-1984) Clearly document durability versus write performance tradeoff"
"""Jonathan Gray (JIRA)"" <jira@apache.org>","Sun, 15 Nov 2009 21:51:48 +0000 (UTC)","[jira] Commented: (HBASE-1962) Bulk loading script makes regions incorrectly (loadtable.rb)"
"""stack (JIRA)"" <jira@apache.org>","Sun, 15 Nov 2009 23:49:48 +0000 (UTC)","[jira] Commented: (HBASE-1962) Bulk loading script makes regions incorrectly (loadtable.rb)"
"""Peter Rietzler (JIRA)"" <jira@apache.org>","Mon, 16 Nov 2009 07:20:39 +0000 (UTC)","[jira] Created: (HBASE-1985) change HTable.delete(ArrayList) to HTable.delete(List)"
"""Peter Rietzler (JIRA)"" <jira@apache.org>","Mon, 16 Nov 2009 07:31:39 +0000 (UTC)","[jira] Created: (HBASE-1986) Batch Gets"
"Cosmin Lehene <clehene@adobe.com>","Mon, 16 Nov 2009 10:05:19 +0000","Re: Should we change the default value of hbase.regionserver.flushlogentries  for 0.21?"
"""Ryan Smith (JIRA)"" <jira@apache.org>","Mon, 16 Nov 2009 16:37:39 +0000 (UTC)","[jira] Created: (HBASE-1987) The Put object has no simple read methods for checking what has already been added."
"stack <stack@duboce.net>","Mon, 16 Nov 2009 09:32:34 -0800","Re: Should we change the default value of hbase.regionserver.flushlogentries 	for 0.21?"
"""stack (JIRA)"" <jira@apache.org>","Mon, 16 Nov 2009 17:47:39 +0000 (UTC)","[jira] Commented: (HBASE-1987) The Put object has no simple read methods for checking what has already been added."
"""Ryan Smith (JIRA)"" <jira@apache.org>","Mon, 16 Nov 2009 18:09:39 +0000 (UTC)","[jira] Commented: (HBASE-1987) The Put object has no simple read methods for checking what has already been added."
"""Ryan Smith (JIRA)"" <jira@apache.org>","Mon, 16 Nov 2009 18:25:39 +0000 (UTC)","[jira] Updated: (HBASE-1987) The Put object has no simple read methods for checking what has already been added."
"Jean-Daniel Cryans <jdcryans@apache.org>","Mon, 16 Nov 2009 11:00:17 -0800","Re: Should we change the default value of hbase.regionserver.flushlogentries 	for 0.21?"
"""stack (JIRA)"" <jira@apache.org>","Mon, 16 Nov 2009 19:20:39 +0000 (UTC)","[jira] Commented: (HBASE-1961) HBase EC2 scripts"
"""stack (JIRA)"" <jira@apache.org>","Mon, 16 Nov 2009 19:38:39 +0000 (UTC)","[jira] Commented: (HBASE-1961) HBase EC2 scripts"
"""Andrew Purtell (JIRA)"" <jira@apache.org>","Mon, 16 Nov 2009 19:52:39 +0000 (UTC)","[jira] Commented: (HBASE-1961) HBase EC2 scripts"
"""Andrew Purtell (JIRA)"" <jira@apache.org>","Mon, 16 Nov 2009 20:02:39 +0000 (UTC)","[jira] Commented: (HBASE-1961) HBase EC2 scripts"
"""stack (JIRA)"" <jira@apache.org>","Mon, 16 Nov 2009 21:00:40 +0000 (UTC)","[jira] Commented: (HBASE-1938) Make in-memory table scanning faster"
"""stack (JIRA)"" <jira@apache.org>","Mon, 16 Nov 2009 21:02:39 +0000 (UTC)","[jira] Updated: (HBASE-1938) Make in-memory table scanning faster"
"""stack (JIRA)"" <jira@apache.org>","Mon, 16 Nov 2009 21:02:39 +0000 (UTC)","[jira] Updated: (HBASE-1938) Make in-memory table scanning faster"
"""Jean-Daniel Cryans (JIRA)"" <jira@apache.org>","Mon, 16 Nov 2009 21:10:39 +0000 (UTC)","[jira] Resolved: (HBASE-1971) Unit test the full WAL replay cycle"
"""Jean-Daniel Cryans (JIRA)"" <jira@apache.org>","Mon, 16 Nov 2009 22:27:39 +0000 (UTC)","[jira] Commented: (HBASE-1720) Why we have hbase.master.lease.period still in our logs when HRS goes to ZK now?"
"""stack (JIRA)"" <jira@apache.org>","Tue, 17 Nov 2009 01:45:39 +0000 (UTC)","[jira] Commented: (HBASE-1720) Why we have hbase.master.lease.period still in our logs when HRS goes to ZK now?"
"""Jean-Daniel Cryans (JIRA)"" <jira@apache.org>","Tue, 17 Nov 2009 01:49:39 +0000 (UTC)","[jira] Commented: (HBASE-1720) Why we have hbase.master.lease.period still in our logs when HRS goes to ZK now?"
"""stack (JIRA)"" <jira@apache.org>","Tue, 17 Nov 2009 01:49:39 +0000 (UTC)","[jira] Reopened: (HBASE-1962) Bulk loading script makes regions incorrectly (loadtable.rb)"
"""stack (JIRA)"" <jira@apache.org>","Tue, 17 Nov 2009 01:51:39 +0000 (UTC)","[jira] Updated: (HBASE-1962) Bulk loading script makes regions incorrectly (loadtable.rb)"
"""stack (JIRA)"" <jira@apache.org>","Tue, 17 Nov 2009 04:27:39 +0000 (UTC)","[jira] Commented: (HBASE-1961) HBase EC2 scripts"
"""Alex Newman (JIRA)"" <jira@apache.org>","Tue, 17 Nov 2009 04:45:39 +0000 (UTC)","[jira] Assigned: (HBASE-50) Snapshot of table"
"""Alex Newman (JIRA)"" <jira@apache.org>","Tue, 17 Nov 2009 04:45:39 +0000 (UTC)","[jira] Work started: (HBASE-50) Snapshot of table"
"""Alex Newman (JIRA)"" <jira@apache.org>","Tue, 17 Nov 2009 05:07:39 +0000 (UTC)","[jira] Commented: (HBASE-50) Snapshot of table"
"""Andrew Purtell (JIRA)"" <jira@apache.org>","Tue, 17 Nov 2009 07:39:39 +0000 (UTC)","[jira] Commented: (HBASE-1961) HBase EC2 scripts"
"""Ryan Smith (JIRA)"" <jira@apache.org>","Tue, 17 Nov 2009 16:15:39 +0000 (UTC)","[jira] Updated: (HBASE-1987) The Put object has no simple read methods for checking what has already been added."
"""Ryan Smith (JIRA)"" <jira@apache.org>","Tue, 17 Nov 2009 16:15:41 +0000 (UTC)","[jira] Updated: (HBASE-1987) The Put object has no simple read methods for checking what has already been added."
"""stack (JIRA)"" <jira@apache.org>","Tue, 17 Nov 2009 18:05:39 +0000 (UTC)","[jira] Commented: (HBASE-1961) HBase EC2 scripts"
"""Andrew Purtell (JIRA)"" <jira@apache.org>","Tue, 17 Nov 2009 18:09:39 +0000 (UTC)","[jira] Commented: (HBASE-1961) HBase EC2 scripts"
"""stack (JIRA)"" <jira@apache.org>","Tue, 17 Nov 2009 19:12:39 +0000 (UTC)","[jira] Commented: (HBASE-1961) HBase EC2 scripts"
"""stack (JIRA)"" <jira@apache.org>","Tue, 17 Nov 2009 19:12:39 +0000 (UTC)","[jira] Commented: (HBASE-1961) HBase EC2 scripts"
"""Andrew Purtell (JIRA)"" <jira@apache.org>","Tue, 17 Nov 2009 19:20:42 +0000 (UTC)","[jira] Commented: (HBASE-1961) HBase EC2 scripts"
"""Andrew Purtell (JIRA)"" <jira@apache.org>","Tue, 17 Nov 2009 19:24:40 +0000 (UTC)","[jira] Commented: (HBASE-1961) HBase EC2 scripts"
"""Alex Newman (JIRA)"" <jira@apache.org>","Tue, 17 Nov 2009 19:58:39 +0000 (UTC)","[jira] Updated: (HBASE-1527) The Table attribute for the table being enabled on the table.jsp flip flops although the table works"
"""Alex Newman (JIRA)"" <jira@apache.org>","Tue, 17 Nov 2009 19:58:39 +0000 (UTC)","[jira] Resolved: (HBASE-1527) The Table attribute for the table being enabled on the table.jsp flip flops although the table works"
"""stack (JIRA)"" <jira@apache.org>","Tue, 17 Nov 2009 23:44:39 +0000 (UTC)","[jira] Commented: (HBASE-1816) Master rewrite"
"""Jonathan Gray"" <jlist@streamy.com>","Tue, 17 Nov 2009 16:36:57 -0800 (PST)","Re: Should we change the default value of      hbase.regionserver.flushlogentries  for 0.21?"
"Jean-Daniel Cryans <jdcryans@apache.org>","Tue, 17 Nov 2009 19:10:41 -0800","Re: Should we change the default value of hbase.regionserver.flushlogentries 	for 0.21?"
"Bradford Stephens <bradfordstephens@gmail.com>","Tue, 17 Nov 2009 21:09:26 -0800","Re: ANN: hbase 0.20.2 Release Candidate 1 available for download"
"Andrew Purtell <apurtell@apache.org>","Wed, 18 Nov 2009 07:43:39 -0800 (PST)","Re: brief note on 1015 (was Re: [jira] Commented: (HBASE-1816) Master rewrite)"
"""Age Mooij (JIRA)"" <jira@apache.org>","Wed, 18 Nov 2009 16:36:39 +0000 (UTC)","[jira] Commented: (HBASE-1975) SingleColumnValueFilter: Add ability to match the value of previous versions of the specified column"
"""stack (JIRA)"" <jira@apache.org>","Wed, 18 Nov 2009 17:38:39 +0000 (UTC)","[jira] Updated: (HBASE-1975) SingleColumnValueFilter: Add ability to match the value of previous versions of the specified column"
"Ryan Rawson <ryanobjc@gmail.com>","Wed, 18 Nov 2009 09:53:31 -0800","Re: brief note on 1015 (was Re: [jira] Commented: (HBASE-1816) Master 	rewrite)"
"""stack (JIRA)"" <jira@apache.org>","Wed, 18 Nov 2009 17:54:39 +0000 (UTC)","[jira] Assigned: (HBASE-1857) WrongRegionException when setting region online after .META. split"
"""Stefan Will (JIRA)"" <jira@apache.org>","Wed, 18 Nov 2009 18:50:39 +0000 (UTC)","[jira] Created: (HBASE-1988) OutOfMemoryError in RegionServer"
"""Stefan Will (JIRA)"" <jira@apache.org>","Wed, 18 Nov 2009 18:52:39 +0000 (UTC)","[jira] Updated: (HBASE-1988) OutOfMemoryError in RegionServer"
"""Stefan Will (JIRA)"" <jira@apache.org>","Wed, 18 Nov 2009 18:52:39 +0000 (UTC)","[jira] Updated: (HBASE-1988) OutOfMemoryError in RegionServer"
"Andrew Purtell <apurtell@apache.org>","Wed, 18 Nov 2009 11:16:48 -0800 (PST)","Re: brief note on 1015 (was Re: [jira] Commented: (HBASE-1816) Master  rewrite)"
"Lars George <lars@worldlingo.com>","Wed, 18 Nov 2009 20:36:31 +0100","Re: ANN: hbase 0.20.2 Release Candidate 1 available for download"
"Ryan Rawson <ryanobjc@gmail.com>","Wed, 18 Nov 2009 11:47:49 -0800","Re: brief note on 1015 (was Re: [jira] Commented: (HBASE-1816) Master 	rewrite)"
"Jean-Daniel Cryans <jdcryans@apache.org>","Wed, 18 Nov 2009 11:53:51 -0800","Re: ANN: hbase 0.20.2 Release Candidate 1 available for download"
"Andrew Purtell <apurtell@apache.org>","Wed, 18 Nov 2009 11:59:06 -0800 (PST)","Re: ANN: hbase 0.20.2 Release Candidate 1 available for download"
"""Doug Meil (JIRA)"" <jira@apache.org>","Wed, 18 Nov 2009 21:28:39 +0000 (UTC)","[jira] Created: (HBASE-1989) HBaseAdmin (et al.) not accurate with Column vs. Column-Family usage"
"""Doug Meil (JIRA)"" <jira@apache.org>","Wed, 18 Nov 2009 21:50:39 +0000 (UTC)","[jira] Created: (HBASE-1990) Add methods accepting strings for family/qualifier in client"
"""Andrew Purtell (JIRA)"" <jira@apache.org>","Wed, 18 Nov 2009 22:02:39 +0000 (UTC)","[jira] Commented: (HBASE-1990) Add methods accepting strings for family/qualifier in client"
"""Doug Meil (JIRA)"" <jira@apache.org>","Wed, 18 Nov 2009 22:02:39 +0000 (UTC)","[jira] Created: (HBASE-1991) Architectural overview of HBase internals with description of conceptual gulf between HBase and HDFS"
"""Andrew Purtell (JIRA)"" <jira@apache.org>","Wed, 18 Nov 2009 22:02:39 +0000 (UTC)","[jira] Updated: (HBASE-1990) Add methods accepting strings for family/qualifier in client"
"""stack (JIRA)"" <jira@apache.org>","Wed, 18 Nov 2009 23:31:39 +0000 (UTC)","[jira] Created: (HBASE-1992) We give up reporting splits if .META. is offline or unreachable (handlers at their maximum)"
"""Berk D. Demir (JIRA)"" <jira@apache.org>","Wed, 18 Nov 2009 23:49:39 +0000 (UTC)","[jira] Assigned: (HBASE-1316) ZooKeeper: use native threads to avoid GC stalls (JNI integration)"
"""stack (JIRA)"" <jira@apache.org>","Wed, 18 Nov 2009 23:55:39 +0000 (UTC)","[jira] Commented: (HBASE-1990) Add methods accepting strings for family/qualifier in client"
"""stack (JIRA)"" <jira@apache.org>","Thu, 19 Nov 2009 04:58:44 +0000 (UTC)","[jira] Commented: (HBASE-1989) HBaseAdmin (et al.) not accurate with Column vs. Column-Family usage"
"""stack (JIRA)"" <jira@apache.org>","Thu, 19 Nov 2009 04:58:44 +0000 (UTC)","[jira] Assigned: (HBASE-1989) HBaseAdmin (et al.) not accurate with Column vs. Column-Family usage"
"""Andrew Purtell (JIRA)"" <jira@apache.org>","Thu, 19 Nov 2009 07:27:40 +0000 (UTC)","[jira] Created: (HBASE-1993) Set up convenient ssh between instances"
"""Cosmin Lehene (JIRA)"" <jira@apache.org>","Thu, 19 Nov 2009 14:22:39 +0000 (UTC)","[jira] Created: (HBASE-1994) Master will lose hlog entries while splitting if region has empty oldlogfile.log"
"""Andrew Purtell (JIRA)"" <jira@apache.org>","Thu, 19 Nov 2009 14:39:39 +0000 (UTC)","[jira] Resolved: (HBASE-794) Language neutral IPC as a first class component of HBase architecture"
"""Andrew Purtell (JIRA)"" <jira@apache.org>","Thu, 19 Nov 2009 14:41:39 +0000 (UTC)","[jira] Updated: (HBASE-1015) pure C and C++ client libraries"
"""Doug Meil (JIRA)"" <jira@apache.org>","Thu, 19 Nov 2009 14:41:39 +0000 (UTC)","[jira] Commented: (HBASE-1990) Add methods accepting strings for family/qualifier in client"
"""Andrew Purtell (JIRA)"" <jira@apache.org>","Thu, 19 Nov 2009 14:45:39 +0000 (UTC)","[jira] Updated: (HBASE-1990) Add methods accepting strings for family/qualifier in client"
"""Lars George (JIRA)"" <jira@apache.org>","Thu, 19 Nov 2009 14:45:39 +0000 (UTC)","[jira] Commented: (HBASE-1994) Master will lose hlog entries while splitting if region has empty oldlogfile.log"
"""Andrew Purtell (JIRA)"" <jira@apache.org>","Thu, 19 Nov 2009 14:53:39 +0000 (UTC)","[jira] Commented: (HBASE-1990) Add methods accepting strings for family/qualifier in client"
"""Andrew Purtell (JIRA)"" <jira@apache.org>","Thu, 19 Nov 2009 14:57:39 +0000 (UTC)","[jira] Commented: (HBASE-1994) Master will lose hlog entries while splitting if region has empty oldlogfile.log"
"""stack (JIRA)"" <jira@apache.org>","Thu, 19 Nov 2009 15:01:41 +0000 (UTC)","[jira] Commented: (HBASE-1994) Master will lose hlog entries while splitting if region has empty oldlogfile.log"
"""Ryan Smith (JIRA)"" <jira@apache.org>","Thu, 19 Nov 2009 15:07:39 +0000 (UTC)","[jira] Updated: (HBASE-1987) The Put object has no simple read methods for checking what has already been added."
"""Ryan Smith (JIRA)"" <jira@apache.org>","Thu, 19 Nov 2009 15:07:39 +0000 (UTC)","[jira] Updated: (HBASE-1987) The Put object has no simple read methods for checking what has already been added."
"""Ryan Smith (JIRA)"" <jira@apache.org>","Thu, 19 Nov 2009 15:07:39 +0000 (UTC)","[jira] Updated: (HBASE-1987) The Put object has no simple read methods for checking what has already been added."
"""Ryan Smith (JIRA)"" <jira@apache.org>","Thu, 19 Nov 2009 15:07:39 +0000 (UTC)","[jira] Updated: (HBASE-1987) The Put object has no simple read methods for checking what has already been added."
"""Lars George (JIRA)"" <jira@apache.org>","Thu, 19 Nov 2009 15:19:39 +0000 (UTC)","[jira] Commented: (HBASE-1990) Add methods accepting strings for family/qualifier in client"
"""Lars George (JIRA)"" <jira@apache.org>","Thu, 19 Nov 2009 15:29:39 +0000 (UTC)","[jira] Commented: (HBASE-1994) Master will lose hlog entries while splitting if region has empty oldlogfile.log"
"""Lars George (JIRA)"" <jira@apache.org>","Thu, 19 Nov 2009 16:11:41 +0000 (UTC)","[jira] Commented: (HBASE-1994) Master will lose hlog entries while splitting if region has empty oldlogfile.log"
"""stack (JIRA)"" <jira@apache.org>","Thu, 19 Nov 2009 16:39:39 +0000 (UTC)","[jira] Commented: (HBASE-1990) Add methods accepting strings for family/qualifier in client"
"""stack (JIRA)"" <jira@apache.org>","Thu, 19 Nov 2009 17:27:39 +0000 (UTC)","[jira] Commented: (HBASE-1988) OutOfMemoryError in RegionServer"
"""Tatsuya Kawano (JIRA)"" <jira@apache.org>","Thu, 19 Nov 2009 18:21:39 +0000 (UTC)","[jira] Commented: (HBASE-1961) HBase EC2 scripts"
"""Andrew Purtell (JIRA)"" <jira@apache.org>","Thu, 19 Nov 2009 18:33:39 +0000 (UTC)","[jira] Commented: (HBASE-1961) HBase EC2 scripts"
"""Andrew Purtell (JIRA)"" <jira@apache.org>","Thu, 19 Nov 2009 18:49:39 +0000 (UTC)","[jira] Commented: (HBASE-1961) HBase EC2 scripts"
"""Lars George (JIRA)"" <jira@apache.org>","Thu, 19 Nov 2009 18:57:39 +0000 (UTC)","[jira] Commented: (HBASE-1969) HBASE-1626 does not work as advertised due to lack of ""instanceof"" check in MR framework"
"""Jean-Daniel Cryans (JIRA)"" <jira@apache.org>","Thu, 19 Nov 2009 19:07:40 +0000 (UTC)","[jira] Updated: (HBASE-1987) The Put object has no simple read methods for checking what has already been added."
"""Ryan Smith (JIRA)"" <jira@apache.org>","Thu, 19 Nov 2009 19:21:39 +0000 (UTC)","[jira] Updated: (HBASE-1987) The Put object has no simple read methods for checking what has already been added."
"""Ryan Smith (JIRA)"" <jira@apache.org>","Thu, 19 Nov 2009 19:21:39 +0000 (UTC)","[jira] Updated: (HBASE-1987) The Put object has no simple read methods for checking what has already been added."
"Jean-Daniel Cryans <jdcryans@apache.org>","Thu, 19 Nov 2009 12:08:08 -0800","ANN: hbase 0.20.2 is available for download"
"""Andrew Purtell (JIRA)"" <jira@apache.org>","Thu, 19 Nov 2009 20:49:39 +0000 (UTC)","[jira] Resolved: (HBASE-1993) Set up convenient ssh between instances"
"""Andrew Purtell (JIRA)"" <jira@apache.org>","Thu, 19 Nov 2009 23:31:39 +0000 (UTC)","[jira] Commented: (HBASE-1961) HBase EC2 scripts"
"""Stefan Will (JIRA)"" <jira@apache.org>","Fri, 20 Nov 2009 00:32:39 +0000 (UTC)","[jira] Commented: (HBASE-1988) OutOfMemoryError in RegionServer"
"""Andrew Purtell (JIRA)"" <jira@apache.org>","Fri, 20 Nov 2009 02:36:39 +0000 (UTC)","[jira] Updated: (HBASE-1697) Discretionary access control"
"""Ryan Smith (JIRA)"" <jira@apache.org>","Fri, 20 Nov 2009 03:06:39 +0000 (UTC)","[jira] Updated: (HBASE-1987) The Put object has no simple read methods for checking what has already been added."
"""Ryan Smith (JIRA)"" <jira@apache.org>","Fri, 20 Nov 2009 03:06:39 +0000 (UTC)","[jira] Updated: (HBASE-1987) The Put object has no simple read methods for checking what has already been added."
"""Ryan Smith (JIRA)"" <jira@apache.org>","Fri, 20 Nov 2009 03:20:42 +0000 (UTC)","[jira] Updated: (HBASE-1987) The Put object has no simple read methods for checking what has already been added."
"""Ryan Smith (JIRA)"" <jira@apache.org>","Fri, 20 Nov 2009 03:22:39 +0000 (UTC)","[jira] Updated: (HBASE-1987) The Put object has no simple read methods for checking what has already been added."
"""Lars George (JIRA)"" <jira@apache.org>","Fri, 20 Nov 2009 11:01:40 +0000 (UTC)","[jira] Commented: (HBASE-1990) Add methods accepting strings for family/qualifier in client"
"""Lars George (JIRA)"" <jira@apache.org>","Fri, 20 Nov 2009 11:01:40 +0000 (UTC)","[jira] Commented: (HBASE-1994) Master will lose hlog entries while splitting if region has empty oldlogfile.log"
"""Lars George (JIRA)"" <jira@apache.org>","Fri, 20 Nov 2009 11:05:39 +0000 (UTC)","[jira] Created: (HBASE-1995) Add configurable max value size check"
"""stack (JIRA)"" <jira@apache.org>","Fri, 20 Nov 2009 17:26:39 +0000 (UTC)","[jira] Commented: (HBASE-1995) Add configurable max value size check"
"""Jean-Daniel Cryans (JIRA)"" <jira@apache.org>","Fri, 20 Nov 2009 20:01:40 +0000 (UTC)","[jira] Commented: (HBASE-1994) Master will lose hlog entries while splitting if region has empty oldlogfile.log"
"Dave Latham <latham@davelink.net>","Fri, 20 Nov 2009 13:43:19 -0800","Re: Record limit in scan api?"
"Ryan Rawson <ryanobjc@gmail.com>","Fri, 20 Nov 2009 13:45:55 -0800","Re: Record limit in scan api?"
"Jean-Daniel Cryans <jdcryans@apache.org>","Fri, 20 Nov 2009 13:55:41 -0800","Re: Record limit in scan api?"
"""Dave Latham (JIRA)"" <jira@apache.org>","Sat, 21 Nov 2009 00:11:39 +0000 (UTC)","[jira] Created: (HBASE-1996) Configure scanner buffer in bytes instead of number of rows"
"""Dave Latham (JIRA)"" <jira@apache.org>","Sat, 21 Nov 2009 00:13:39 +0000 (UTC)","[jira] Updated: (HBASE-1996) Configure scanner buffer in bytes instead of number of rows"
"""Dave Latham (JIRA)"" <jira@apache.org>","Sat, 21 Nov 2009 00:13:40 +0000 (UTC)","[jira] Updated: (HBASE-1996) Configure scanner buffer in bytes instead of number of rows"
"Dave Latham <latham@davelink.net>","Fri, 20 Nov 2009 16:20:58 -0800","Re: Record limit in scan api?"
"Ryan Rawson <ryanobjc@gmail.com>","Fri, 20 Nov 2009 16:36:11 -0800","Re: Record limit in scan api?"
"Dave Latham <latham@davelink.net>","Fri, 20 Nov 2009 16:40:23 -0800","Re: Record limit in scan api?"
"Ryan Rawson <ryanobjc@gmail.com>","Fri, 20 Nov 2009 16:45:05 -0800","Re: Record limit in scan api?"
"Dave Latham <latham@davelink.net>","Fri, 20 Nov 2009 16:46:11 -0800","Re: Record limit in scan api?"
"Dave Latham <latham@davelink.net>","Fri, 20 Nov 2009 16:46:48 -0800","Re: Record limit in scan api?"
"""Dave Latham (JIRA)"" <jira@apache.org>","Sat, 21 Nov 2009 00:51:40 +0000 (UTC)","[jira] Commented: (HBASE-1996) Configure scanner buffer in bytes instead of number of rows"
"""stack (JIRA)"" <jira@apache.org>","Sat, 21 Nov 2009 01:11:39 +0000 (UTC)","[jira] Created: (HBASE-1997) zk tick time bounds maximum zk session time"
"""stack (JIRA)"" <jira@apache.org>","Sat, 21 Nov 2009 01:23:40 +0000 (UTC)","[jira] Created: (HBASE-1998) Check that session timeout is actually being set; it doesn't seem to be"
"""stack (JIRA)"" <jira@apache.org>","Sat, 21 Nov 2009 01:25:39 +0000 (UTC)","[jira] Created: (HBASE-1999) When HTable goes away, close zk session in shutdown hook or something..."
"""Dave Latham (JIRA)"" <jira@apache.org>","Sat, 21 Nov 2009 02:07:39 +0000 (UTC)","[jira] Updated: (HBASE-1996) Configure scanner buffer in bytes instead of number of rows"
"""Andrew Purtell (JIRA)"" <jira@apache.org>","Sat, 21 Nov 2009 03:01:41 +0000 (UTC)","[jira] Commented: (HBASE-1697) Discretionary access control"
"""Jean-Daniel Cryans (JIRA)"" <jira@apache.org>","Sat, 21 Nov 2009 04:29:39 +0000 (UTC)","[jira] Commented: (HBASE-1697) Discretionary access control"
"""stack (JIRA)"" <jira@apache.org>","Sat, 21 Nov 2009 05:42:39 +0000 (UTC)","[jira] Commented: (HBASE-1999) When HTable goes away, close zk session in shutdown hook or something..."
"""stack (JIRA)"" <jira@apache.org>","Sat, 21 Nov 2009 05:42:39 +0000 (UTC)","[jira] Commented: (HBASE-1697) Discretionary access control"
"""stack (JIRA)"" <jira@apache.org>","Sat, 21 Nov 2009 05:42:39 +0000 (UTC)","[jira] Commented: (HBASE-1999) When HTable goes away, close zk session in shutdown hook or something..."
"""Lars George (JIRA)"" <jira@apache.org>","Sat, 21 Nov 2009 14:35:39 +0000 (UTC)","[jira] Commented: (HBASE-1994) Master will lose hlog entries while splitting if region has empty oldlogfile.log"
"""Andrew Purtell (JIRA)"" <jira@apache.org>","Sat, 21 Nov 2009 16:51:40 +0000 (UTC)","[jira] Created: (HBASE-2000) Coprocessors"
"""Andrew Purtell (JIRA)"" <jira@apache.org>","Sat, 21 Nov 2009 19:18:39 +0000 (UTC)","[jira] Resolved: (HBASE-1708) CME out of HStore.getStorefilesIndexSize while deploying region"
"""Andrew Purtell (JIRA)"" <jira@apache.org>","Sat, 21 Nov 2009 19:20:39 +0000 (UTC)","[jira] Resolved: (HBASE-1707) master fails to reassign region after failed deployment"
"""Andrew Purtell (JIRA)"" <jira@apache.org>","Sat, 21 Nov 2009 19:24:39 +0000 (UTC)","[jira] Updated: (HBASE-2000) Coprocessors"
"""Andrew Purtell (JIRA)"" <jira@apache.org>","Sat, 21 Nov 2009 19:24:39 +0000 (UTC)","[jira] Assigned: (HBASE-2000) Coprocessors"
"""Andrew Purtell (JIRA)"" <jira@apache.org>","Sat, 21 Nov 2009 19:36:39 +0000 (UTC)","[jira] Created: (HBASE-2001) Coprocessors: Colocate arbitrary code with regions"
"""Andrew Purtell (JIRA)"" <jira@apache.org>","Sat, 21 Nov 2009 19:36:40 +0000 (UTC)","[jira] Commented: (HBASE-2001) Coprocessors: Colocate arbitrary code with regions"
"""Andrew Purtell (JIRA)"" <jira@apache.org>","Sat, 21 Nov 2009 19:38:39 +0000 (UTC)","[jira] Updated: (HBASE-2001) Coprocessors: Colocate arbitrary code with regions"
"""Andrew Purtell (JIRA)"" <jira@apache.org>","Sat, 21 Nov 2009 19:48:39 +0000 (UTC)","[jira] Created: (HBASE-2002) Coprocessors: Client side support"
"""stack (JIRA)"" <jira@apache.org>","Sat, 21 Nov 2009 23:23:39 +0000 (UTC)","[jira] Commented: (HBASE-2001) Coprocessors: Colocate arbitrary code with regions"
"""stack (JIRA)"" <jira@apache.org>","Sun, 22 Nov 2009 00:31:39 +0000 (UTC)","[jira] Updated: (HBASE-1997) zk tick time bounds maximum zk session time"
"""Andrew Purtell (JIRA)"" <jira@apache.org>","Sun, 22 Nov 2009 00:31:39 +0000 (UTC)","[jira] Commented: (HBASE-2001) Coprocessors: Colocate arbitrary code with regions"
"""stack (JIRA)"" <jira@apache.org>","Sun, 22 Nov 2009 01:38:39 +0000 (UTC)","[jira] Updated: (HBASE-1999) When HTable goes away, close zk session in shutdown hook or something..."
"""stack (JIRA)"" <jira@apache.org>","Sun, 22 Nov 2009 04:50:39 +0000 (UTC)","[jira] Commented: (HBASE-2000) Coprocessors"
"""Jean-Daniel Cryans (JIRA)"" <jira@apache.org>","Sun, 22 Nov 2009 06:08:39 +0000 (UTC)","[jira] Commented: (HBASE-1999) When HTable goes away, close zk session in shutdown hook or something..."
"Sanjay Sharma <sanjay.sharma@impetus.co.in>","Sun, 22 Nov 2009 22:11:14 +0530","RE: 1st Hadoop India User Group meet"
"""Lars George (JIRA)"" <jira@apache.org>","Sun, 22 Nov 2009 18:35:39 +0000 (UTC)","[jira] Updated: (HBASE-1990) Add methods accepting strings for family/qualifier in client"
"""Lars George (JIRA)"" <jira@apache.org>","Sun, 22 Nov 2009 18:57:39 +0000 (UTC)","[jira] Commented: (HBASE-1994) Master will lose hlog entries while splitting if region has empty oldlogfile.log"
"""Andrew Purtell (JIRA)"" <jira@apache.org>","Sun, 22 Nov 2009 20:32:39 +0000 (UTC)","[jira] Updated: (HBASE-2001) Coprocessors: Colocate arbitrary code with regions"
"""Andrew Purtell (JIRA)"" <jira@apache.org>","Sun, 22 Nov 2009 20:32:39 +0000 (UTC)","[jira] Updated: (HBASE-2001) Coprocessors: Colocate arbitrary code with regions"
"""stack (JIRA)"" <jira@apache.org>","Sun, 22 Nov 2009 23:37:39 +0000 (UTC)","[jira] Resolved: (HBASE-1999) When HTable goes away, close zk session in shutdown hook or something..."
"""stack (JIRA)"" <jira@apache.org>","Sun, 22 Nov 2009 23:41:39 +0000 (UTC)","[jira] Resolved: (HBASE-1997) zk tick time bounds maximum zk session time"
"""stack (JIRA)"" <jira@apache.org>","Sun, 22 Nov 2009 23:41:39 +0000 (UTC)","[jira] Updated: (HBASE-1997) zk tick time bounds maximum zk session time"
"""stack (JIRA)"" <jira@apache.org>","Sun, 22 Nov 2009 23:45:39 +0000 (UTC)","[jira] Commented: (HBASE-1697) Discretionary access control"
"""Andrew Purtell (JIRA)"" <jira@apache.org>","Mon, 23 Nov 2009 04:18:39 +0000 (UTC)","[jira] Created: (HBASE-2003) [shell] deleteall does not work quite as advertised"
"""Andrew Purtell (JIRA)"" <jira@apache.org>","Mon, 23 Nov 2009 04:18:40 +0000 (UTC)","[jira] Updated: (HBASE-2003) [shell] deleteall does not work quite as advertised"
"""Andrew Purtell (JIRA)"" <jira@apache.org>","Mon, 23 Nov 2009 04:24:39 +0000 (UTC)","[jira] Updated: (HBASE-2003) [shell] deleteall ignores column if specified"
"""Andrew Purtell (JIRA)"" <jira@apache.org>","Mon, 23 Nov 2009 04:30:39 +0000 (UTC)","[jira] Resolved: (HBASE-2003) [shell] deleteall ignores column if specified"
"Apache Hudson Server <hudson@hudson.zones.apache.org>","Mon, 23 Nov 2009 05:43:37 +0000 (UTC)","Build failed in Hudson: HBase-Patch #1005"
"""Doug Meil (JIRA)"" <jira@apache.org>","Mon, 23 Nov 2009 16:04:40 +0000 (UTC)","[jira] Created: (HBASE-2004) Client javadoc suggestion:  add code examples about obtaining historical values"
"""stack (JIRA)"" <jira@apache.org>","Mon, 23 Nov 2009 17:02:39 +0000 (UTC)","[jira] Commented: (HBASE-2004) Client javadoc suggestion:  add code examples about obtaining historical values"
"""Doug Meil (JIRA)"" <jira@apache.org>","Mon, 23 Nov 2009 18:41:40 +0000 (UTC)","[jira] Created: (HBASE-2005) 'Shell' suggestion - equivalent of 'truncate' for a table"
"""Lars George (JIRA)"" <jira@apache.org>","Mon, 23 Nov 2009 19:29:39 +0000 (UTC)","[jira] Commented: (HBASE-2005) 'Shell' suggestion - equivalent of 'truncate' for a table"
"""Doug Meil (JIRA)"" <jira@apache.org>","Mon, 23 Nov 2009 20:31:39 +0000 (UTC)","[jira] Resolved: (HBASE-2005) 'Shell' suggestion - equivalent of 'truncate' for a table"
"""Doug Meil (JIRA)"" <jira@apache.org>","Mon, 23 Nov 2009 20:31:39 +0000 (UTC)","[jira] Commented: (HBASE-2005) 'Shell' suggestion - equivalent of 'truncate' for a table"
"""Mark Vigeant (JIRA)"" <jira@apache.org>","Mon, 23 Nov 2009 21:49:39 +0000 (UTC)","[jira] Created: (HBASE-2006) Documentation of hbase-site.xml parameters"
"""Mark Vigeant (JIRA)"" <jira@apache.org>","Mon, 23 Nov 2009 21:51:39 +0000 (UTC)","[jira] Updated: (HBASE-2006) Documentation of hbase-site.xml parameters"
"""stack (JIRA)"" <jira@apache.org>","Mon, 23 Nov 2009 22:31:40 +0000 (UTC)","[jira] Commented: (HBASE-2006) Documentation of hbase-site.xml parameters"
"Patrick Hunt <phunt@apache.org>","Mon, 23 Nov 2009 17:37:02 -0800","zktop - monitor a ZooKeeper cluster in real time via curses"
"""Hudson (JIRA)"" <jira@apache.org>","Tue, 24 Nov 2009 06:38:39 +0000 (UTC)","[jira] Commented: (HBASE-630) Default hbase.rootdir is garbage"
"xu che <223xuchen@gmail.com>","Tue, 24 Nov 2009 14:59:08 +0800","HBase 0.20 has a bug in CompareFilter.java file"
"""Lars George (JIRA)"" <jira@apache.org>","Tue, 24 Nov 2009 07:24:39 +0000 (UTC)","[jira] Commented: (HBASE-2006) Documentation of hbase-site.xml parameters"
"""Hudson (JIRA)"" <jira@apache.org>","Tue, 24 Nov 2009 13:36:39 +0000 (UTC)","[jira] Commented: (HBASE-630) Default hbase.rootdir is garbage"
"""stack (JIRA)"" <jira@apache.org>","Tue, 24 Nov 2009 15:27:39 +0000 (UTC)","[jira] Commented: (HBASE-1933) Upload Hbase jars to a public maven repository"
"""stack (JIRA)"" <jira@apache.org>","Tue, 24 Nov 2009 15:41:39 +0000 (UTC)","[jira] Commented: (HBASE-2006) Documentation of hbase-site.xml parameters"
"""Mark Vigeant (JIRA)"" <jira@apache.org>","Tue, 24 Nov 2009 15:41:39 +0000 (UTC)","[jira] Commented: (HBASE-2006) Documentation of hbase-site.xml parameters"
"""Andrew Purtell (JIRA)"" <jira@apache.org>","Tue, 24 Nov 2009 16:43:39 +0000 (UTC)","[jira] Created: (HBASE-2007) handle overly large column family in one row"
"""Mark Vigeant (JIRA)"" <jira@apache.org>","Tue, 24 Nov 2009 16:47:39 +0000 (UTC)","[jira] Updated: (HBASE-2006) Documentation of hbase-site.xml parameters"
"""Mark Vigeant (JIRA)"" <jira@apache.org>","Tue, 24 Nov 2009 16:49:39 +0000 (UTC)","[jira] Commented: (HBASE-2006) Documentation of hbase-site.xml parameters"
"""Lars George (JIRA)"" <jira@apache.org>","Tue, 24 Nov 2009 17:22:39 +0000 (UTC)","[jira] Commented: (HBASE-2007) handle overly large column family in one row"
"""stack (JIRA)"" <jira@apache.org>","Tue, 24 Nov 2009 17:36:39 +0000 (UTC)","[jira] Commented: (HBASE-2006) Documentation of hbase-site.xml parameters"
"stack <stack@duboce.net>","Tue, 24 Nov 2009 10:14:25 -0800","Re: HBase 0.20 has a bug in CompareFilter.java file"
"""Mark Vigeant (JIRA)"" <jira@apache.org>","Tue, 24 Nov 2009 18:40:39 +0000 (UTC)","[jira] Commented: (HBASE-2006) Documentation of hbase-site.xml parameters"
"""stack (JIRA)"" <jira@apache.org>","Tue, 24 Nov 2009 19:23:39 +0000 (UTC)","[jira] Commented: (HBASE-2006) Documentation of hbase-site.xml parameters"
"""stack (JIRA)"" <jira@apache.org>","Tue, 24 Nov 2009 19:31:39 +0000 (UTC)","[jira] Updated: (HBASE-1979) MurmurHash does not yield the same results as the reference C++ implementation when size % 4 >= 2"
"""Andrew Purtell (JIRA)"" <jira@apache.org>","Tue, 24 Nov 2009 19:45:39 +0000 (UTC)","[jira] Created: (HBASE-2008) [EC2] Periodic automatic backup to S3"
"""stack (JIRA)"" <jira@apache.org>","Tue, 24 Nov 2009 19:45:39 +0000 (UTC)","[jira] Updated: (HBASE-1901) ""General"" partitioner for ""hbase-48"" bulk (behind the api, write hfiles direct) uploader"
"""stack (JIRA)"" <jira@apache.org>","Tue, 24 Nov 2009 19:45:40 +0000 (UTC)","[jira] Assigned: (HBASE-1901) ""General"" partitioner for ""hbase-48"" bulk (behind the api, write hfiles direct) uploader"
"""Andrew Purtell (JIRA)"" <jira@apache.org>","Tue, 24 Nov 2009 19:49:39 +0000 (UTC)","[jira] Commented: (HBASE-2008) [EC2] Periodic automatic backup to S3"
"""stack (JIRA)"" <jira@apache.org>","Tue, 24 Nov 2009 19:55:39 +0000 (UTC)","[jira] Commented: (HBASE-1962) Bulk loading script makes regions incorrectly (loadtable.rb)"
"""Andrew Purtell (JIRA)"" <jira@apache.org>","Tue, 24 Nov 2009 19:57:39 +0000 (UTC)","[jira] Updated: (HBASE-1982) [EC2] handle potentially large and uneven instance startup times"
"""Andrew Purtell (JIRA)"" <jira@apache.org>","Tue, 24 Nov 2009 19:57:39 +0000 (UTC)","[jira] Updated: (HBASE-2008) [EC2] Periodic automatic backup to S3"
"""Andrew Purtell (JIRA)"" <jira@apache.org>","Tue, 24 Nov 2009 20:01:39 +0000 (UTC)","[jira] Updated: (HBASE-2009) [EC2] support mapreduce subsystem"
"""Andrew Purtell (JIRA)"" <jira@apache.org>","Tue, 24 Nov 2009 20:01:39 +0000 (UTC)","[jira] Created: (HBASE-2009) [EC2] support mapreduce subsystem"
"""Andrew Purtell (JIRA)"" <jira@apache.org>","Tue, 24 Nov 2009 20:01:39 +0000 (UTC)","[jira] Updated: (HBASE-1961) HBase EC2 scripts"
"""stack (JIRA)"" <jira@apache.org>","Tue, 24 Nov 2009 20:11:39 +0000 (UTC)","[jira] Resolved: (HBASE-1970) Export does one version only; make it configurable how many it does"
"""stack (JIRA)"" <jira@apache.org>","Tue, 24 Nov 2009 20:13:39 +0000 (UTC)","[jira] Commented: (HBASE-1975) SingleColumnValueFilter: Add ability to match the value of previous versions of the specified column"
"""stack (JIRA)"" <jira@apache.org>","Tue, 24 Nov 2009 20:17:39 +0000 (UTC)","[jira] Commented: (HBASE-1990) Add methods accepting strings for family/qualifier in client"
"""stack (JIRA)"" <jira@apache.org>","Tue, 24 Nov 2009 20:27:39 +0000 (UTC)","[jira] Resolved: (HBASE-1987) The Put object has no simple read methods for checking what has already been added."
"""stack (JIRA)"" <jira@apache.org>","Tue, 24 Nov 2009 20:29:39 +0000 (UTC)","[jira] Commented: (HBASE-1990) Add methods accepting strings for family/qualifier in client"
"Apache Hudson Server <hudson@hudson.zones.apache.org>","Tue, 24 Nov 2009 21:00:56 +0000 (UTC)","Hudson build is back to normal: HBase-Patch #1006"
"""stack (JIRA)"" <jira@apache.org>","Tue, 24 Nov 2009 21:01:39 +0000 (UTC)","[jira] Commented: (HBASE-1998) Check that session timeout is actually being set; it doesn't seem to be"
"""stack (JIRA)"" <jira@apache.org>","Tue, 24 Nov 2009 21:03:39 +0000 (UTC)","[jira] Commented: (HBASE-1988) OutOfMemoryError in RegionServer"
"""stack (JIRA)"" <jira@apache.org>","Tue, 24 Nov 2009 21:05:39 +0000 (UTC)","[jira] Resolved: (HBASE-1973) Second RS goes down because ""Bad connect ack with firstBadLink as..."""
"""stack (JIRA)"" <jira@apache.org>","Tue, 24 Nov 2009 21:48:39 +0000 (UTC)","[jira] Commented: (HBASE-1998) Check that session timeout is actually being set; it doesn't seem to be"
"""stack (JIRA)"" <jira@apache.org>","Tue, 24 Nov 2009 22:12:39 +0000 (UTC)","[jira] Updated: (HBASE-1985) change HTable.delete(ArrayList) to HTable.delete(List)"
"""stack (JIRA)"" <jira@apache.org>","Tue, 24 Nov 2009 22:12:39 +0000 (UTC)","[jira] Resolved: (HBASE-1985) change HTable.delete(ArrayList) to HTable.delete(List)"
"""Mark Vigeant (JIRA)"" <jira@apache.org>","Tue, 24 Nov 2009 22:16:39 +0000 (UTC)","[jira] Commented: (HBASE-2006) Documentation of hbase-site.xml parameters"
"""stack (JIRA)"" <jira@apache.org>","Tue, 24 Nov 2009 22:20:39 +0000 (UTC)","[jira] Commented: (HBASE-1969) HBASE-1626 does not work as advertised due to lack of ""instanceof"" check in MR framework"
"""stack (JIRA)"" <jira@apache.org>","Tue, 24 Nov 2009 22:22:39 +0000 (UTC)","[jira] Assigned: (HBASE-1958) Remove ""# TODO: PUT BACK !!! ""${HADOOP_HOME}""/bin/hadoop dfsadmin -safemode wait"""
"""stack (JIRA)"" <jira@apache.org>","Tue, 24 Nov 2009 22:22:39 +0000 (UTC)","[jira] Resolved: (HBASE-1958) Remove ""# TODO: PUT BACK !!! ""${HADOOP_HOME}""/bin/hadoop dfsadmin -safemode wait"""
"""Andrew Purtell (JIRA)"" <jira@apache.org>","Tue, 24 Nov 2009 22:22:39 +0000 (UTC)","[jira] Updated: (HBASE-1961) HBase EC2 scripts"
"""Andrew Purtell (JIRA)"" <jira@apache.org>","Tue, 24 Nov 2009 22:31:41 +0000 (UTC)","[jira] Assigned: (HBASE-2000) Coprocessors"
"""Hudson (JIRA)"" <jira@apache.org>","Wed, 25 Nov 2009 01:40:39 +0000 (UTC)","[jira] Commented: (HBASE-630) Default hbase.rootdir is garbage"
"""Andrew Purtell (JIRA)"" <jira@apache.org>","Wed, 25 Nov 2009 02:24:39 +0000 (UTC)","[jira] Updated: (HBASE-2009) [EC2] support mapreduce subsystem"
"""Andrew Purtell (JIRA)"" <jira@apache.org>","Wed, 25 Nov 2009 02:26:39 +0000 (UTC)","[jira] Resolved: (HBASE-2009) [EC2] support mapreduce subsystem"
"""Brian Fox (JIRA)"" <jira@apache.org>","Wed, 25 Nov 2009 03:38:39 +0000 (UTC)","[jira] Commented: (HBASE-1933) Upload Hbase jars to a public maven repository"
"""stack (JIRA)"" <jira@apache.org>","Wed, 25 Nov 2009 04:10:39 +0000 (UTC)","[jira] Commented: (HBASE-2006) Documentation of hbase-site.xml parameters"
"""stack (JIRA)"" <jira@apache.org>","Wed, 25 Nov 2009 04:12:40 +0000 (UTC)","[jira] Commented: (HBASE-1933) Upload Hbase jars to a public maven repository"
"""stack (JIRA)"" <jira@apache.org>","Wed, 25 Nov 2009 05:46:39 +0000 (UTC)","[jira] Resolved: (HBASE-1601) Region server going down as a result of expiration by ZK"
"""Lars George (JIRA)"" <jira@apache.org>","Wed, 25 Nov 2009 07:46:39 +0000 (UTC)","[jira] Commented: (HBASE-1969) HBASE-1626 does not work as advertised due to lack of ""instanceof"" check in MR framework"
"""Jeff Hammerbacher (JIRA)"" <jira@apache.org>","Wed, 25 Nov 2009 07:54:39 +0000 (UTC)","[jira] Commented: (HBASE-2001) Coprocessors: Colocate arbitrary code with regions"
"""Cosmin Lehene (JIRA)"" <jira@apache.org>","Wed, 25 Nov 2009 10:03:39 +0000 (UTC)","[jira] Created: (HBASE-2010) Ant task to create the test jar is inconsistent with hadoop"
"""Cosmin Lehene (JIRA)"" <jira@apache.org>","Wed, 25 Nov 2009 10:33:21 +0000 (UTC)","[jira] Updated: (HBASE-2010) Ant task to create the test jar is inconsistent with hadoop"
"""Lars George (JIRA)"" <jira@apache.org>","Wed, 25 Nov 2009 10:48:39 +0000 (UTC)","[jira] Created: (HBASE-2011) Add zktop like output to HBase's master UI (zk.jsp)"
"Patrick Hunt <phunt@apache.org>","Wed, 25 Nov 2009 09:16:37 -0800","FYI: ZooKeeper performance on (smaller) hardware classes"
"""Andrew Purtell (JIRA)"" <jira@apache.org>","Thu, 26 Nov 2009 01:49:39 +0000 (UTC)","[jira] Created: (HBASE-2012) [EC2] LZO support"
"""Andrew Purtell (JIRA)"" <jira@apache.org>","Thu, 26 Nov 2009 08:02:39 +0000 (UTC)","[jira] Resolved: (HBASE-2012) [EC2] LZO support"
"""Andrew Purtell (JIRA)"" <jira@apache.org>","Thu, 26 Nov 2009 08:04:39 +0000 (UTC)","[jira] Updated: (HBASE-1961) HBase EC2 scripts"
"""Lars George (JIRA)"" <jira@apache.org>","Thu, 26 Nov 2009 08:50:39 +0000 (UTC)","[jira] Updated: (HBASE-2011) Add zktop like output to HBase's master UI (zk.jsp)"
"""Lars George (JIRA)"" <jira@apache.org>","Thu, 26 Nov 2009 08:52:39 +0000 (UTC)","[jira] Updated: (HBASE-2011) Add zktop like output to HBase's master UI (zk.jsp)"
"""Lars George (JIRA)"" <jira@apache.org>","Thu, 26 Nov 2009 09:24:39 +0000 (UTC)","[jira] Created: (HBASE-2013) Add useful helpers to HBaseTestingUtility.java"
"""Lars George (JIRA)"" <jira@apache.org>","Thu, 26 Nov 2009 09:28:39 +0000 (UTC)","[jira] Updated: (HBASE-2013) Add useful helpers to HBaseTestingUtility.java"
"""Andrew Purtell (JIRA)"" <jira@apache.org>","Thu, 26 Nov 2009 09:38:39 +0000 (UTC)","[jira] Updated: (HBASE-2011) Add zktop like output to HBase's master UI (zk.jsp)"
"Andrew Purtell <apurtell@apache.org>","Thu, 26 Nov 2009 02:08:26 -0800 (PST)","0.20_on_hadoop-0.18.3 branch reopened"
"Apache Hudson Server <hudson@hudson.zones.apache.org>","Thu, 26 Nov 2009 10:45:40 +0000 (UTC)","Build failed in Hudson: HBase-Patch #1013"
"Lars George <lars@worldlingo.com>","Thu, 26 Nov 2009 11:57:50 +0100","Re: Build failed in Hudson: HBase-Patch #1013"
"Andrew Purtell <apurtell@apache.org>","Thu, 26 Nov 2009 10:30:31 -0800 (PST)","Re: Build failed in Hudson: HBase-Patch #1013"
"""Andrew Purtell (JIRA)"" <jira@apache.org>","Thu, 26 Nov 2009 19:10:39 +0000 (UTC)","[jira] Assigned: (HBASE-1697) Discretionary access control"
"""Andrew Purtell (JIRA)"" <jira@apache.org>","Thu, 26 Nov 2009 19:22:39 +0000 (UTC)","[jira] Created: (HBASE-2014) [DAC] Audit"
"Apache Hudson Server <hudson@hudson.zones.apache.org>","Thu, 26 Nov 2009 20:04:38 +0000 (UTC)","Hudson build is back to normal: HBase-Patch #1014"
"""ryan rawson (JIRA)"" <jira@apache.org>","Thu, 26 Nov 2009 21:32:39 +0000 (UTC)","[jira] Commented: (HBASE-2014) [DAC] Audit"
"Erik Bengtson <erik@jpox.org>","Fri, 27 Nov 2009 10:14:04 +0100","running hbase client with a security manager activated causes 	security exceptions"
"Ryan Rawson <ryanobjc@gmail.com>","Fri, 27 Nov 2009 01:25:38 -0800","Re: running hbase client with a security manager activated causes 	security exceptions"
"""Erik Bengtson (JIRA)"" <jira@apache.org>","Fri, 27 Nov 2009 09:46:39 +0000 (UTC)","[jira] Created: (HBASE-2015) HBase client does not get privileges necessary to execute in security manager environment"
"Erik Bengtson <erik@jpox.org>","Fri, 27 Nov 2009 10:50:56 +0100","Re: running hbase client with a security manager activated causes 	security exceptions"
"Ryan Rawson <ryanobjc@gmail.com>","Fri, 27 Nov 2009 01:57:44 -0800","Re: running hbase client with a security manager activated causes 	security exceptions"
"Erik Bengtson <erik@jpox.org>","Fri, 27 Nov 2009 11:02:50 +0100","Re: running hbase client with a security manager activated causes 	security exceptions"
"""Lars Francke (JIRA)"" <jira@apache.org>","Fri, 27 Nov 2009 19:25:20 +0000 (UTC)","[jira] Commented: (HBASE-1846) Move thrift to contrib"
"""Jonathan Gray (JIRA)"" <jira@apache.org>","Fri, 27 Nov 2009 19:29:20 +0000 (UTC)","[jira] Commented: (HBASE-1846) Move thrift to contrib"
"""Tim Sell (JIRA)"" <jira@apache.org>","Fri, 27 Nov 2009 20:10:20 +0000 (UTC)","[jira] Commented: (HBASE-1744) Thrift server to match the new java api."
"""Andrew Purtell (JIRA)"" <jira@apache.org>","Sat, 28 Nov 2009 03:08:20 +0000 (UTC)","[jira] Updated: (HBASE-2001) Coprocessors: Colocate arbitrary code with regions"
"""Lars Francke (JIRA)"" <jira@apache.org>","Sat, 28 Nov 2009 14:59:20 +0000 (UTC)","[jira] Commented: (HBASE-1744) Thrift server to match the new java api."
"""Tim Sell (JIRA)"" <jira@apache.org>","Sat, 28 Nov 2009 21:11:20 +0000 (UTC)","[jira] Commented: (HBASE-1744) Thrift server to match the new java api."
"""Lars George (JIRA)"" <jira@apache.org>","Sat, 28 Nov 2009 22:07:20 +0000 (UTC)","[jira] Updated: (HBASE-1995) Add configurable max value size check"
"""Lars George (JIRA)"" <jira@apache.org>","Sat, 28 Nov 2009 22:07:20 +0000 (UTC)","[jira] Updated: (HBASE-1995) Add configurable max value size check"
"""Lars George (JIRA)"" <jira@apache.org>","Sat, 28 Nov 2009 22:07:20 +0000 (UTC)","[jira] Updated: (HBASE-1995) Add configurable max value size check"
"""Lars George (JIRA)"" <jira@apache.org>","Sat, 28 Nov 2009 22:09:20 +0000 (UTC)","[jira] Updated: (HBASE-1995) Add configurable max value size check"
"""Andrew Purtell (JIRA)"" <jira@apache.org>","Sat, 28 Nov 2009 22:54:20 +0000 (UTC)","[jira] Updated: (HBASE-2001) Coprocessors: Colocate arbitrary code with regions"
"""Andrew Purtell (JIRA)"" <jira@apache.org>","Sat, 28 Nov 2009 22:54:20 +0000 (UTC)","[jira] Updated: (HBASE-2001) Coprocessors: Colocate arbitrary code with regions"
"""Lars George (JIRA)"" <jira@apache.org>","Sat, 28 Nov 2009 23:00:20 +0000 (UTC)","[jira] Commented: (HBASE-1995) Add configurable max value size check"
"""Andrew Purtell (JIRA)"" <jira@apache.org>","Sat, 28 Nov 2009 23:04:20 +0000 (UTC)","[jira] Updated: (HBASE-1995) Add configurable max value size check"
"""Andrew Purtell (JIRA)"" <jira@apache.org>","Sat, 28 Nov 2009 23:04:20 +0000 (UTC)","[jira] Reopened: (HBASE-1995) Add configurable max value size check"
"""Andrew Purtell (JIRA)"" <jira@apache.org>","Sat, 28 Nov 2009 23:06:20 +0000 (UTC)","[jira] Commented: (HBASE-1995) Add configurable max value size check"
"""Lars George (JIRA)"" <jira@apache.org>","Sat, 28 Nov 2009 23:22:20 +0000 (UTC)","[jira] Updated: (HBASE-1995) Add configurable max value size check"
"""Lars George (JIRA)"" <jira@apache.org>","Sat, 28 Nov 2009 23:24:20 +0000 (UTC)","[jira] Updated: (HBASE-1995) Add configurable max value size check"
"""Lars George (JIRA)"" <jira@apache.org>","Sat, 28 Nov 2009 23:24:20 +0000 (UTC)","[jira] Commented: (HBASE-1995) Add configurable max value size check"
"""Andrew Purtell (JIRA)"" <jira@apache.org>","Sat, 28 Nov 2009 23:32:20 +0000 (UTC)","[jira] Updated: (HBASE-1995) Add configurable max value size check"
"Apache Hudson Server <hudson@hudson.zones.apache.org>","Sun, 29 Nov 2009 00:45:56 +0000 (UTC)","Build failed in Hudson: HBase-Patch #1016"
"""Andrew Purtell (JIRA)"" <jira@apache.org>","Sun, 29 Nov 2009 00:48:20 +0000 (UTC)","[jira] Created: (HBASE-2016) [DAC] Authentication"
"""Andrew Purtell (JIRA)"" <jira@apache.org>","Sun, 29 Nov 2009 00:48:20 +0000 (UTC)","[jira] Updated: (HBASE-2014) [DAC] Audit"
"""Andrew Purtell (JIRA)"" <jira@apache.org>","Sun, 29 Nov 2009 00:52:20 +0000 (UTC)","[jira] Updated: (HBASE-2016) [DAC] Authentication"
"Andrew Purtell <apurtell@apache.org>","Sat, 28 Nov 2009 17:41:19 -0800 (PST)","Re: Build failed in Hudson: HBase-Patch #1016"
"""ryan rawson (JIRA)"" <jira@apache.org>","Sun, 29 Nov 2009 08:22:20 +0000 (UTC)","[jira] Commented: (HBASE-1744) Thrift server to match the new java api."
"""Andrew Purtell (JIRA)"" <jira@apache.org>","Sun, 29 Nov 2009 19:59:20 +0000 (UTC)","[jira] Commented: (HBASE-1744) Thrift server to match the new java api."
"""stack (JIRA)"" <jira@apache.org>","Sun, 29 Nov 2009 21:23:20 +0000 (UTC)","[jira] Commented: (HBASE-1744) Thrift server to match the new java api."
"""Andrew Purtell (JIRA)"" <jira@apache.org>","Mon, 30 Nov 2009 00:09:20 +0000 (UTC)","[jira] Created: (HBASE-2017) Set configurable max value size check to 10MB"
"""Andrew Purtell (JIRA)"" <jira@apache.org>","Mon, 30 Nov 2009 00:11:20 +0000 (UTC)","[jira] Updated: (HBASE-2017) Set configurable max value size check to 10MB"
"""Andrew Purtell (JIRA)"" <jira@apache.org>","Mon, 30 Nov 2009 00:11:20 +0000 (UTC)","[jira] Updated: (HBASE-2017) Set configurable max value size check to 10MB"
"""stack (JIRA)"" <jira@apache.org>","Mon, 30 Nov 2009 02:31:20 +0000 (UTC)","[jira] Issue Comment Edited: (HBASE-1744) Thrift server to match the new java api."
"""stack (JIRA)"" <jira@apache.org>","Mon, 30 Nov 2009 02:31:20 +0000 (UTC)","[jira] Commented: (HBASE-2017) Set configurable max value size check to 10MB"
"""Andrew Purtell (JIRA)"" <jira@apache.org>","Mon, 30 Nov 2009 02:43:20 +0000 (UTC)","[jira] Updated: (HBASE-2017) Set configurable max value size check to 10MB"
"Apache Hudson Server <hudson@hudson.zones.apache.org>","Mon, 30 Nov 2009 03:53:32 +0000 (UTC)","Build failed in Hudson: HBase-Patch #1017"
"""stack (JIRA)"" <jira@apache.org>","Mon, 30 Nov 2009 21:07:20 +0000 (UTC)","[jira] Commented: (HBASE-2001) Coprocessors: Colocate arbitrary code with regions"
"""Jean-Daniel Cryans (JIRA)"" <jira@apache.org>","Mon, 30 Nov 2009 22:33:20 +0000 (UTC)","[jira] Created: (HBASE-2018) Updates to .META. blocked under high MemStore load"
"""Jean-Daniel Cryans (JIRA)"" <jira@apache.org>","Mon, 30 Nov 2009 22:41:20 +0000 (UTC)","[jira] Updated: (HBASE-2018) Updates to .META. blocked under high MemStore load"
