"Developer","Date","Subject"
"=?UTF-8?B?5byg6ZOOKER1byBaaGFuZyk=?= <palomino219@gmail.com>","Sun, 1 Jan 2017 09:24:13 +0800","Re: Status of branch-1.3"
"""Ted Yu (JIRA)"" <jira@apache.org>","Sun, 1 Jan 2017 02:43:58 +0000 (UTC)","[jira] [Created] (HBASE-17400) TestHRegion#testWritesWhileScanning occasionally hangs in MVCC#.waitForRead()"
"=?UTF-8?B?5byg6ZOOKER1byBaaGFuZyk=?= <palomino219@gmail.com>","Sun, 1 Jan 2017 16:08:41 +0800","Re: Status of branch-1.3"
"""Jan Hentschel (JIRA)"" <jira@apache.org>","Sun, 1 Jan 2017 14:03:58 +0000 (UTC)","[jira] [Created] (HBASE-17401) Remove unnecessary semicolons in hbase-annotations"
"Lars George <lars.george@gmail.com>","Sun, 1 Jan 2017 15:56:34 +0100","Draining mode and graceful decommissioning"
"Jerry He <jerryjch@gmail.com>","Sun, 1 Jan 2017 12:43:36 -0800","Re: Draining mode and graceful decommissioning"
"=?UTF-8?B?5byg6ZOOKER1byBaaGFuZyk=?= <palomino219@gmail.com>","Mon, 2 Jan 2017 08:53:23 +0800","Re: Status of branch-1.3"
"""Duo Zhang (JIRA)"" <jira@apache.org>","Mon, 2 Jan 2017 01:26:58 +0000 (UTC)","[jira] [Created] (HBASE-17402) TestAsyncTableScan sometimes hangs"
"Stack <stack@duboce.net>","Sun, 1 Jan 2017 17:42:48 -0800","Re: [VOTE] The 1st HBase 0.98.24 release candidate (RC0) is available"
"""ChiaPing Tsai (JIRA)"" <jira@apache.org>","Mon, 2 Jan 2017 09:34:58 +0000 (UTC)","=?utf-8?Q?[jira]_[Created]_(HBASE-17403)_ClientAsyncPrefetchScanne?= =?utf-8?Q?r_doesn=E2=80=99t_load_any_data_if_t?= =?utf-8?Q?he_MaxResultSize_is_too_small?="
"""Jan Hentschel (JIRA)"" <jira@apache.org>","Mon, 2 Jan 2017 13:43:58 +0000 (UTC)","[jira] [Created] (HBASE-17404) Replace explicit type with diamond operator in hbase-annotations"
"Apache Jenkins Server <jenkins@builds.apache.org>","Mon, 2 Jan 2017 14:58:04 +0000 (UTC)","Successful: HBase Generate Website"
"""Marcin Januszkiewicz (JIRA)"" <jira@apache.org>","Mon, 2 Jan 2017 17:18:58 +0000 (UTC)","[jira] [Created] (HBASE-17405) HBaseTestingUtility#checksumRows does not a representation of a MessageDigest object instead of return the checksum of table contents"
"""Mikhail Antonov (JIRA)"" <jira@apache.org>","Mon, 2 Jan 2017 23:02:58 +0000 (UTC)","[jira] [Created] (HBASE-17406) Occasional failed splits on branch-1.3"
"Mikhail Antonov <olorinbant@gmail.com>","Tue, 3 Jan 2017 02:20:18 +0300","Re: Status of branch-1.3"
"Apache Jenkins Server <jenkins@builds.apache.org>","Tue, 3 Jan 2017 03:43:09 +0000 (UTC)","Successful: hbase.apache.org HTML Checker"
"""Eshcar Hillel (JIRA)"" <jira@apache.org>","Tue, 3 Jan 2017 09:10:58 +0000 (UTC)","[jira] [Created] (HBASE-17407) Correct update of maxFlushedSeqId in HRegion"
"Weizhan Zeng <qgweizhan@gmail.com>","Tue, 3 Jan 2017 22:25:45 +0800","""java.net.SocketException: Too many open files"" AbortRegionServer But not ShutDown"
"Weizhan Zeng <qgweizhan@gmail.com>","Tue, 3 Jan 2017 22:56:21 +0800","Re: ""java.net.SocketException: Too many open files"" AbortRegionServer But not ShutDown"
"""Ted Yu (JIRA)"" <jira@apache.org>","Tue, 3 Jan 2017 18:01:58 +0000 (UTC)","[jira] [Created] (HBASE-17408) Introduce per request limit by number of mutations"
"""Enis Soztutar (JIRA)"" <jira@apache.org>","Tue, 3 Jan 2017 21:07:58 +0000 (UTC)","[jira] [Reopened] (HBASE-16010) Put draining function through Admin API"
"""Josh Elser (JIRA)"" <jira@apache.org>","Tue, 3 Jan 2017 22:42:58 +0000 (UTC)","[jira] [Created] (HBASE-17409) Re-fix XSS request issue in JMXJsonServlet"
"Apache Jenkins Server <jenkins@builds.apache.org>","Wed, 4 Jan 2017 14:57:38 +0000 (UTC)","Successful: HBase Generate Website"
"""Jan Hentschel (JIRA)"" <jira@apache.org>","Wed, 4 Jan 2017 17:28:58 +0000 (UTC)","[jira] [Created] (HBASE-17410) Use isEmpty instead of size() == 0 in hbase-client"
"""Jan Hentschel (JIRA)"" <jira@apache.org>","Wed, 4 Jan 2017 17:33:58 +0000 (UTC)","[jira] [Created] (HBASE-17411) Use isEmpty instead of size() == 0 in hbase-common"
"""Jan Hentschel (JIRA)"" <jira@apache.org>","Wed, 4 Jan 2017 17:36:58 +0000 (UTC)","[jira] [Created] (HBASE-17412) Use is empty instead of size() == 0 in hbase-endpoint"
"""Jan Hentschel (JIRA)"" <jira@apache.org>","Wed, 4 Jan 2017 17:38:58 +0000 (UTC)","[jira] [Created] (HBASE-17413) Use isEmpty instead of size() == 0 in hbase-hadoop2-compat"
"""Jan Hentschel (JIRA)"" <jira@apache.org>","Wed, 4 Jan 2017 17:39:58 +0000 (UTC)","[jira] [Created] (HBASE-17414) Use isEmpty instead of size() == 0 in hbase-it"
"""Jan Hentschel (JIRA)"" <jira@apache.org>","Wed, 4 Jan 2017 17:40:58 +0000 (UTC)","[jira] [Created] (HBASE-17415) Use isEmpty instead of size() == 0 in hbase-procedure"
"""Jan Hentschel (JIRA)"" <jira@apache.org>","Wed, 4 Jan 2017 17:41:58 +0000 (UTC)","[jira] [Created] (HBASE-17416) Use isEmpty instead of size() == 0 in hbase-protocol-shaded"
"""Jan Hentschel (JIRA)"" <jira@apache.org>","Wed, 4 Jan 2017 17:42:58 +0000 (UTC)","[jira] [Created] (HBASE-17417) Use isEmpty instead of size() == 0 in hbase-rest"
"""Jan Hentschel (JIRA)"" <jira@apache.org>","Wed, 4 Jan 2017 17:43:58 +0000 (UTC)","[jira] [Created] (HBASE-17418) Use isEmpty instead of size() == 0 in hbase-rsgroup"
"""Jan Hentschel (JIRA)"" <jira@apache.org>","Wed, 4 Jan 2017 17:44:58 +0000 (UTC)","[jira] [Created] (HBASE-17419) Use isEmpty instead of size() == 0 in hbase-server"
"""Jan Hentschel (JIRA)"" <jira@apache.org>","Wed, 4 Jan 2017 17:45:58 +0000 (UTC)","[jira] [Created] (HBASE-17420) Use isEmpty instead of size() == 0 in hbase-thrift"
"""Ted Yu (JIRA)"" <jira@apache.org>","Wed, 4 Jan 2017 18:55:58 +0000 (UTC)","[jira] [Created] (HBASE-17421) Update refguide w.r.t. MOB Sweeper"
"""Enis Soztutar (JIRA)"" <jira@apache.org>","Wed, 4 Jan 2017 19:18:59 +0000 (UTC)","[jira] [Reopened] (HBASE-17395) [C++] Use custom line wrapping in formatting"
"""Mikhail Antonov (JIRA)"" <jira@apache.org>","Wed, 4 Jan 2017 20:15:58 +0000 (UTC)","[jira] [Created] (HBASE-17422) Broken tests on hbase 1.3"
"""Jan Hentschel (JIRA)"" <jira@apache.org>","Wed, 4 Jan 2017 20:22:58 +0000 (UTC)","[jira] [Created] (HBASE-17423) Set capacity on ArrayList in hbase-annotations"
"Jerry He <jerryjch@gmail.com>","Wed, 4 Jan 2017 12:26:08 -0800","Re: [VOTE] The 1st HBase 0.98.24 release candidate (RC0) is available"
"""Josh Elser (JIRA)"" <jira@apache.org>","Wed, 4 Jan 2017 20:43:58 +0000 (UTC)","[jira] [Created] (HBASE-17424) Protect REST client against malicious XML responses."
"""Jan Hentschel (JIRA)"" <jira@apache.org>","Wed, 4 Jan 2017 21:07:58 +0000 (UTC)","[jira] [Created] (HBASE-17425) Fix calls to deprecated APIs in TestUpdateConfiguration"
"""Ted Yu (JIRA)"" <jira@apache.org>","Wed, 4 Jan 2017 22:05:58 +0000 (UTC)","[jira] [Created] (HBASE-17426) Inconsistent environment variable names for enabling JMX"
"""Ted Yu (JIRA)"" <jira@apache.org>","Wed, 4 Jan 2017 22:57:58 +0000 (UTC)","[jira] [Created] (HBASE-17427) region_mover.rb may move region onto the same server"
"Andrew Purtell <apurtell@apache.org>","Wed, 4 Jan 2017 16:59:24 -0800","Re: [VOTE] The 1st HBase 0.98.24 release candidate (RC0) is available"
"""Josh Elser (JIRA)"" <jira@apache.org>","Thu, 5 Jan 2017 01:12:58 +0000 (UTC)","[jira] [Created] (HBASE-17428) Expand on shell commands for detailed insight"
"""shenxianqiang (JIRA)"" <jira@apache.org>","Thu, 5 Jan 2017 08:21:58 +0000 (UTC)","[jira] [Created] (HBASE-17429) HBase bulkload cannot support HDFS viewFs"
"Apache Jenkins Server <jenkins@builds.apache.org>","Thu, 5 Jan 2017 14:59:22 +0000 (UTC)","Successful: HBase Generate Website"
"Andrew Purtell <apurtell@apache.org>","Thu, 5 Jan 2017 11:01:58 -0800","[RESULT] [VOTE] The 1st HBase 0.98.24 release candidate (RC0) is available"
"Andrew Purtell <apurtell@apache.org>","Thu, 5 Jan 2017 11:11:21 -0800","[ANNOUNCE] Apache HBase 0.98.24 is now available for download"
"""Enis Soztutar (JIRA)"" <jira@apache.org>","Thu, 5 Jan 2017 19:32:58 +0000 (UTC)","[jira] [Resolved] (HBASE-17395) [C++] Use custom line wrapping in formatting"
"""Sean Busbey (JIRA)"" <jira@apache.org>","Thu, 5 Jan 2017 22:24:58 +0000 (UTC)","[jira] [Created] (HBASE-17430) dead links in ref guide to class javadocs that moved out of user APIs."
"""Ted Yu (JIRA)"" <jira@apache.org>","Fri, 6 Jan 2017 05:49:58 +0000 (UTC)","[jira] [Created] (HBASE-17431) Incorrect precheck condition in RoundRobinPool#get()"
"Phil Yang <ud1937@gmail.com>","Fri, 6 Jan 2017 15:51:20 +0800","Re: Moving 2.0 forward"
"""Phil Yang (JIRA)"" <jira@apache.org>","Fri, 6 Jan 2017 08:09:59 +0000 (UTC)","[jira] [Created] (HBASE-17432) Use less threads to read WAL in replication"
"Apache Jenkins Server <jenkins@builds.apache.org>","Fri, 6 Jan 2017 14:59:36 +0000 (UTC)","Successful: HBase Generate Website"
"""Ted Yu (JIRA)"" <jira@apache.org>","Fri, 6 Jan 2017 17:40:58 +0000 (UTC)","[jira] [Created] (HBASE-17433) Consider deduplicating exception field of ResultOrException for multi rquest"
"Andrew Purtell <andrew.purtell@gmail.com>","Fri, 6 Jan 2017 10:40:37 -0800","Re: Moving 2.0 forward"
"""Eshcar Hillel (JIRA)"" <jira@apache.org>","Fri, 6 Jan 2017 19:03:58 +0000 (UTC)","[jira] [Created] (HBASE-17434) New Synchronization Scheme for Compaction Pipeline"
"""Ted Yu (JIRA)"" <jira@apache.org>","Fri, 6 Jan 2017 20:10:58 +0000 (UTC)","[jira] [Reopened] (HBASE-17431) Incorrect precheck condition in RoundRobinPool#get()"
"Mikhail Antonov <olorinbant@gmail.com>","Fri, 6 Jan 2017 12:42:47 -0800","[VOTE] The 1st HBase 1.3.0 release candidate (RC0) is available"
"Mikhail Antonov <olorinbant@gmail.com>","Fri, 6 Jan 2017 13:01:10 -0800","Re: Moving 2.0 forward"
"Stack <stack@duboce.net>","Fri, 6 Jan 2017 13:33:25 -0800","Re: [VOTE] The 1st HBase 1.3.0 release candidate (RC0) is available"
"""Ted Yu (JIRA)"" <jira@apache.org>","Fri, 6 Jan 2017 22:11:58 +0000 (UTC)","[jira] [Created] (HBASE-17435) Call to preCommitStoreFile() hook encounters SaslException in secure deployment"
"Jerry He <jerryjch@gmail.com>","Fri, 6 Jan 2017 14:57:36 -0800","Re: Moving 2.0 forward"
"Ted Yu <yuzhihong@gmail.com>","Fri, 6 Jan 2017 15:02:23 -0800","Re: [VOTE] The 1st HBase 1.3.0 release candidate (RC0) is available"
"""Ted Yu (JIRA)"" <jira@apache.org>","Fri, 6 Jan 2017 23:11:58 +0000 (UTC)","[jira] [Created] (HBASE-17436) Add facility to provide more information for Other Regions seen on Master UI"
"""Yishan Yang (JIRA)"" <jira@apache.org>","Fri, 6 Jan 2017 23:29:58 +0000 (UTC)","[jira] [Created] (HBASE-17437) Support specifying WAL directory to different directory with different file system (For example: S3)"
"Andrew Purtell <apurtell@apache.org>","Fri, 6 Jan 2017 16:51:51 -0800","Resignation as RM for branch 0.98"
"Stack <stack@duboce.net>","Fri, 6 Jan 2017 17:03:37 -0800","Re: Resignation as RM for branch 0.98"
"Andrew Purtell <apurtell@apache.org>","Fri, 6 Jan 2017 17:06:29 -0800","Proposal: Create ""branch RM"" roles for non releasing branches branch-1, branch-2 (when it exists), and master"
"Mikhail Antonov <olorinbant@gmail.com>","Fri, 6 Jan 2017 17:43:54 -0800","Re: Proposal: Create ""branch RM"" roles for non releasing branches branch-1, branch-2 (when it exists), and master"
"Andrew Purtell <andrew.purtell@gmail.com>","Fri, 6 Jan 2017 18:07:42 -0800","Re: Proposal: Create ""branch RM"" roles for non releasing branches branch-1, branch-2 (when it exists), and master"
"Ted Yu <yuzhihong@gmail.com>","Fri, 6 Jan 2017 19:15:42 -0800","Re: Proposal: Create ""branch RM"" roles for non releasing branches branch-1, branch-2 (when it exists), and master"
"""Ted Yu (JIRA)"" <jira@apache.org>","Sat, 7 Jan 2017 09:33:58 +0000 (UTC)","[jira] [Created] (HBASE-17438) Server side change to accommodate limit by number of mutations"
"Apache Jenkins Server <jenkins@builds.apache.org>","Sat, 7 Jan 2017 14:58:26 +0000 (UTC)","Successful: HBase Generate Website"
"""Yu Li (JIRA)"" <jira@apache.org>","Mon, 9 Jan 2017 04:29:58 +0000 (UTC)","[jira] [Resolved] (HBASE-15619) Performance regression observed: Empty random read(get) performance of branch-1 worse than 0.98"
"Phil Yang <ud1937@gmail.com>","Mon, 9 Jan 2017 16:01:08 +0800","Re: Proposal: Create ""branch RM"" roles for non releasing branches branch-1, branch-2 (when it exists), and master"
"Ashish Singhi <ashishsinghi@apache.org>","Mon, 9 Jan 2017 15:42:50 +0530","Re: [VOTE] The 1st HBase 1.3.0 release candidate (RC0) is available"
"Apache Jenkins Server <jenkins@builds.apache.org>","Mon, 9 Jan 2017 14:58:58 +0000 (UTC)","Successful: HBase Generate Website"
"""Ted Yu (JIRA)"" <jira@apache.org>","Mon, 9 Jan 2017 17:11:58 +0000 (UTC)","[jira] [Created] (HBASE-17439) Make authentication Token retrieval amenable to coprocessor"
"Andrew Purtell <andrew.purtell@gmail.com>","Mon, 9 Jan 2017 09:35:10 -0800","Re: Proposal: Create ""branch RM"" roles for non releasing branches branch-1, branch-2 (when it exists), and master"
"Sean Busbey <busbey@apache.org>","Mon, 9 Jan 2017 12:26:24 -0600","Re: Proposal: Create ""branch RM"" roles for non releasing branches branch-1, branch-2 (when it exists), and master"
"Sean Busbey <busbey@apache.org>","Mon, 9 Jan 2017 12:28:25 -0600","Re: Resignation as RM for branch 0.98"
"Mikhail Antonov <olorinbant@gmail.com>","Mon, 9 Jan 2017 10:35:48 -0800","Re: Proposal: Create ""branch RM"" roles for non releasing branches branch-1, branch-2 (when it exists), and master"
"Mikhail Antonov <olorinbant@gmail.com>","Mon, 9 Jan 2017 10:37:38 -0800","Re: Resignation as RM for branch 0.98"
"=?UTF-8?Q?Enis_S=C3=B6ztutar?= <enis@apache.org>","Mon, 9 Jan 2017 11:26:02 -0800","Re: Resignation as RM for branch 0.98"
"Ted Yu <yuzhihong@gmail.com>","Mon, 9 Jan 2017 11:27:46 -0800","Re: Resignation as RM for branch 0.98"
"""huaxiang sun (JIRA)"" <jira@apache.org>","Mon, 9 Jan 2017 19:51:58 +0000 (UTC)","[jira] [Resolved] (HBASE-17394) Correct TimeRangeTracker#init() logic"
"Andrew Purtell <apurtell@apache.org>","Mon, 9 Jan 2017 12:43:02 -0800","Re: Proposal: Create ""branch RM"" roles for non releasing branches branch-1, branch-2 (when it exists), and master"
"""Lars Hofhansl (JIRA)"" <jira@apache.org>","Mon, 9 Jan 2017 21:36:58 +0000 (UTC)","[jira] [Created] (HBASE-17440) [0.98] Make sure DelayedClosing chore is stopped as soon as an HConnection is closed"
"Mikhail Antonov <olorinbant@gmail.com>","Mon, 9 Jan 2017 13:39:07 -0800","Re: Proposal: Create ""branch RM"" roles for non releasing branches branch-1, branch-2 (when it exists), and master"
"Andrew Purtell <apurtell@apache.org>","Mon, 9 Jan 2017 13:50:45 -0800","Re: Proposal: Create ""branch RM"" roles for non releasing branches branch-1, branch-2 (when it exists), and master"
"""Sean Busbey (JIRA)"" <jira@apache.org>","Mon, 9 Jan 2017 23:02:58 +0000 (UTC)","[jira] [Created] (HBASE-17441) precommit test ""hadoopcheck"" not properly testing Hadoop 3 profile"
"""Sean Busbey (JIRA)"" <jira@apache.org>","Mon, 9 Jan 2017 23:02:58 +0000 (UTC)","[jira] [Reopened] (HBASE-14061) Support CF-level Storage Policy"
"Nick Dimiduk <ndimiduk@gmail.com>","Mon, 09 Jan 2017 23:27:43 +0000","Re: Proposal: Create ""branch RM"" roles for non releasing branches branch-1, branch-2 (when it exists), and master"
"""Lars Hofhansl (JIRA)"" <jira@apache.org>","Tue, 10 Jan 2017 00:55:58 +0000 (UTC)","[jira] [Resolved] (HBASE-17440) [0.98] Make sure DelayedClosing chore is stopped as soon as an HConnection is closed"
"""Guanghao Zhang (JIRA)"" <jira@apache.org>","Tue, 10 Jan 2017 01:22:58 +0000 (UTC)","[jira] [Created] (HBASE-17442) Move most of the replication related classes to hbase-server package"
"Andrew Purtell <apurtell@apache.org>","Mon, 9 Jan 2017 19:11:52 -0800","Re: [VOTE] The 1st HBase 1.3.0 release candidate (RC0) is available"
"Apache Jenkins Server <jenkins@builds.apache.org>","Tue, 10 Jan 2017 03:50:25 +0000 (UTC)","Successful: hbase.apache.org HTML Checker"
"""Guanghao Zhang (JIRA)"" <jira@apache.org>","Tue, 10 Jan 2017 09:22:58 +0000 (UTC)","[jira] [Created] (HBASE-17443) Move listReplicated/enableTableRep/disableTableRep from ReplicationAdmin to Admin"
"""sandeepvura (JIRA)"" <jira@apache.org>","Tue, 10 Jan 2017 11:54:58 +0000 (UTC)","[jira] [Created] (HBASE-17444) Namespaces are not showing up when grant  'R' Only permissions to group"
"""Ted Yu (JIRA)"" <jira@apache.org>","Tue, 10 Jan 2017 14:15:58 +0000 (UTC)","[jira] [Resolved] (HBASE-17431) Incorrect precheck condition in RoundRobinPool#get()"
"Apache Jenkins Server <jenkins@builds.apache.org>","Tue, 10 Jan 2017 14:59:38 +0000 (UTC)","Successful: HBase Generate Website"
"""Ted Yu (JIRA)"" <jira@apache.org>","Tue, 10 Jan 2017 18:45:58 +0000 (UTC)","[jira] [Created] (HBASE-17445) Count size of serialized exceptions in checking max result size quota"
"""Steven Hancz (JIRA)"" <jira@apache.org>","Tue, 10 Jan 2017 22:27:58 +0000 (UTC)","[jira] [Created] (HBASE-17446) replication status"
"""Josh Elser (JIRA)"" <jira@apache.org>","Tue, 10 Jan 2017 23:57:58 +0000 (UTC)","[jira] [Created] (HBASE-17447) Automatically delete quota when table is deleted"
"""Andrew Purtell (JIRA)"" <jira@apache.org>","Wed, 11 Jan 2017 01:38:58 +0000 (UTC)","[jira] [Created] (HBASE-17448) Export metrics from RecoverableZooKeeper"
"""Yu Li (JIRA)"" <jira@apache.org>","Wed, 11 Jan 2017 08:03:58 +0000 (UTC)","[jira] [Reopened] (HBASE-14061) Support CF-level Storage Policy"
"""Yu Li (JIRA)"" <jira@apache.org>","Wed, 11 Jan 2017 09:23:58 +0000 (UTC)","[jira] [Created] (HBASE-17449) Add explicit document on different timeout settings"
"""huzheng (JIRA)"" <jira@apache.org>","Wed, 11 Jan 2017 10:06:58 +0000 (UTC)","[jira] [Created] (HBASE-17450) TablePermission.equals throws NPE  after support namespace"
"""Sudeep Sunthankar (JIRA)"" <jira@apache.org>","Wed, 11 Jan 2017 11:03:58 +0000 (UTC)","[jira] [Created] (HBASE-17451) [C++] HBase Request and Response Converter"
"Apache Jenkins Server <jenkins@builds.apache.org>","Wed, 11 Jan 2017 14:59:15 +0000 (UTC)","Successful: HBase Generate Website"
"Andrew Purtell <andrew.purtell@gmail.com>","Wed, 11 Jan 2017 13:17:47 -0800","Re: Proposal: Create ""branch RM"" roles for non releasing branches branch-1, branch-2 (when it exists), and master"
"=?UTF-8?Q?Enis_S=C3=B6ztutar?= <enis@apache.org>","Wed, 11 Jan 2017 13:43:19 -0800","Re: Proposal: Create ""branch RM"" roles for non releasing branches branch-1, branch-2 (when it exists), and master"
"""huaxiang sun (JIRA)"" <jira@apache.org>","Wed, 11 Jan 2017 23:38:17 +0000 (UTC)","[jira] [Created] (HBASE-17452) Failed taking snapshot - region Manifest proto-message too large"
"""Tianying Chang (JIRA)"" <jira@apache.org>","Thu, 12 Jan 2017 01:14:16 +0000 (UTC)","[jira] [Created] (HBASE-17453) add Ping into HBase server for deprecated GetProtocolVersion"
"Sharan F <sharan@apache.org>","Thu, 12 Jan 2017 13:12:10 +0100","FOSDEM 2017 Open Source Conference - Brussels"
"Apache Jenkins Server <jenkins@builds.apache.org>","Thu, 12 Jan 2017 15:00:24 +0000 (UTC)","Successful: HBase Generate Website"
"Tulasi Paradarami <tulasi.krishna.p@gmail.com>","Thu, 12 Jan 2017 10:18:07 -0800","SocketTimeoutException on regionservers"
"""NITIN VERMA (JIRA)"" <jira@apache.org>","Fri, 13 Jan 2017 08:51:26 +0000 (UTC)","[jira] [Created] (HBASE-17460) enable_table_replication can not perform cyclic replication of a table"
"Pankaj kr <pankaj.kr@huawei.com>","Fri, 13 Jan 2017 10:47:40 +0000","Region comapction failed "
"""Wellington Chevreuil (JIRA)"" <jira@apache.org>","Fri, 13 Jan 2017 12:13:26 +0000 (UTC)","[jira] [Created] (HBASE-17461) HBase shell *major_compact* command should properly convert *table_or_region_name* parameter to java byte array properly before simply calling *HBaseAdmin.majorCompact* method"
"Ted Yu <yuzhihong@gmail.com>","Fri, 13 Jan 2017 06:30:11 -0800","Re: Region comapction failed"
"Apache Jenkins Server <jenkins@builds.apache.org>","Fri, 13 Jan 2017 15:16:02 +0000 (UTC)","Successful: HBase Generate Website"
"""Ted Yu (JIRA)"" <jira@apache.org>","Fri, 13 Jan 2017 18:27:26 +0000 (UTC)","[jira] [Created] (HBASE-17462) Investigate using sliding window for read/write request costs in StochasticLoadBalancer"
"""Enis Soztutar (JIRA)"" <jira@apache.org>","Fri, 13 Jan 2017 19:26:26 +0000 (UTC)","[jira] [Created] (HBASE-17463) [C++] RpcClient sholud close the thread pools"
"""Enis Soztutar (JIRA)"" <jira@apache.org>","Fri, 13 Jan 2017 19:30:26 +0000 (UTC)","[jira] [Resolved] (HBASE-17463) [C++] RpcClient should close the thread pool"
"""Zach York (JIRA)"" <jira@apache.org>","Fri, 13 Jan 2017 20:21:26 +0000 (UTC)","[jira] [Created] (HBASE-17464) Fix HBaseTestingUtility.getNewDataTestDirOnTestFS to always return a unique path"
"""Xiaobing Zhou (JIRA)"" <jira@apache.org>","Fri, 13 Jan 2017 23:02:26 +0000 (UTC)","[jira] [Created] (HBASE-17465) [C++] implement request retry mechanism over RPC"
"""Enis Soztutar (JIRA)"" <jira@apache.org>","Fri, 13 Jan 2017 23:24:26 +0000 (UTC)","[jira] [Created] (HBASE-17466) [C++] Speed up the tests a bit"
"""Jeff Saremi (JIRA)"" <jira@apache.org>","Sat, 14 Jan 2017 00:51:26 +0000 (UTC)","[jira] [Created] (HBASE-17467) HBase Examples: C# DemoClient"
"Pankaj kr <pankaj.kr@huawei.com>","Sat, 14 Jan 2017 01:29:37 +0000","RE: Region comapction failed"
"Ted Yu <yuzhihong@gmail.com>","Fri, 13 Jan 2017 17:41:12 -0800","Re: Region comapction failed"
"""Shridhar Sahukar (JIRA)"" <jira@apache.org>","Sat, 14 Jan 2017 02:03:26 +0000 (UTC)","[jira] [Created] (HBASE-17468) unread messages in TCP connections - possible connection leak"
"Stephen Jiang <syuanjiangdev@gmail.com>","Fri, 13 Jan 2017 19:16:24 -0800","Re: Merge and HMerge"
"""Ted Yu (JIRA)"" <jira@apache.org>","Sat, 14 Jan 2017 04:23:26 +0000 (UTC)","[jira] [Created] (HBASE-17469) Properly handle empty TableName in TablePermission#readFields and #write"
"Stack <stack@duboce.net>","Fri, 13 Jan 2017 23:25:24 -0800","Re: Moving 2.0 forward"
"Stack <stack@duboce.net>","Fri, 13 Jan 2017 23:29:23 -0800","Re: Merge and HMerge"
"Andrew Purtell <andrew.purtell@gmail.com>","Fri, 13 Jan 2017 23:49:32 -0800","Re: Moving 2.0 forward"
"Elliott Clark <eclark@apache.org>","Sat, 14 Jan 2017 00:51:27 -0800","Re: [VOTE] The 1st HBase 1.3.0 release candidate (RC0) is available"
"Ted Yu <yuzhihong@gmail.com>","Sat, 14 Jan 2017 01:29:47 -0800","Re: Moving 2.0 forward"
"Apache Jenkins Server <jenkins@builds.apache.org>","Sat, 14 Jan 2017 15:00:10 +0000 (UTC)","Successful: HBase Generate Website"
"Andrew Purtell <apurtell@apache.org>","Sat, 14 Jan 2017 11:10:19 -0800","Re: Moving 2.0 forward"
"Jerry He <jerryjch@gmail.com>","Sat, 14 Jan 2017 12:12:28 -0800","Re: [VOTE] The 1st HBase 1.3.0 release candidate (RC0) is available"
"Eric Charles <eric@apache.org>","Sat, 14 Jan 2017 21:30:43 +0100","Re: Moving 2.0 forward"
"Andrew Purtell <andrew.purtell@gmail.com>","Sat, 14 Jan 2017 14:02:23 -0800","Re: Proposal: Create ""branch RM"" roles for non releasing branches branch-1, branch-2 (when it exists), and master"
"Ted Yu <yuzhihong@gmail.com>","Sat, 14 Jan 2017 15:44:56 -0800","Re: Moving 2.0 forward"
"Stack <stack@duboce.net>","Sat, 14 Jan 2017 16:00:35 -0800","Re: Moving 2.0 forward"
"Stack <stack@duboce.net>","Sat, 14 Jan 2017 16:11:36 -0800","Re: Moving 2.0 forward"
"Ted Yu <yuzhihong@gmail.com>","Sat, 14 Jan 2017 16:52:25 -0800","Re: [DISCUSS] hbase-spark module in branch-1 and branch-2"
"""Stephen Yuan Jiang (JIRA)"" <jira@apache.org>","Sun, 15 Jan 2017 03:17:26 +0000 (UTC)","[jira] [Created] (HBASE-17470) Remove merge region code from region server"
"Stephen Jiang <syuanjiangdev@gmail.com>","Sat, 14 Jan 2017 19:25:27 -0800","Re: Merge and HMerge"
"Jerry He <jerryjch@gmail.com>","Sat, 14 Jan 2017 21:07:46 -0800","Re: [DISCUSS] hbase-spark module in branch-1 and branch-2"
"Andrew Purtell <andrew.purtell@gmail.com>","Sat, 14 Jan 2017 21:22:49 -0800","Re: [DISCUSS] hbase-spark module in branch-1 and branch-2"
"Lars George <lars.george@gmail.com>","Sun, 15 Jan 2017 06:50:45 +0100","Re: Merge and HMerge"
"Jerry He <jerryjch@gmail.com>","Sat, 14 Jan 2017 21:53:18 -0800","Re: [DISCUSS] hbase-spark module in branch-1 and branch-2"
"""Allan Yang (JIRA)"" <jira@apache.org>","Sun, 15 Jan 2017 16:15:26 +0000 (UTC)","[jira] [Created] (HBASE-17471) Region Seqid will be out of order in WAL if using mvccPreAssign"
"""huzheng (JIRA)"" <jira@apache.org>","Mon, 16 Jan 2017 04:15:26 +0000 (UTC)","[jira] [Created] (HBASE-17472) Correct the semantic of  permission grant"
"Pankaj kr <pankaj.kr@huawei.com>","Mon, 16 Jan 2017 10:22:50 +0000","RE: Region comapction failed"
"""Jan Hentschel (JIRA)"" <jira@apache.org>","Mon, 16 Jan 2017 10:26:26 +0000 (UTC)","[jira] [Created] (HBASE-17473) Set capacity on ArrayList in hbase-client"
"Mikhail Antonov <olorinbant@gmail.com>","Mon, 16 Jan 2017 02:30:20 -0800","Re: [VOTE] The 1st HBase 1.3.0 release candidate (RC0) is available"
"Guanghao Zhang <zghaobac@gmail.com>","Mon, 16 Jan 2017 19:01:47 +0800","Re: Moving 2.0 forward"
"Ted Yu <yuzhihong@gmail.com>","Mon, 16 Jan 2017 03:36:25 -0800","Re: Region comapction failed"
"Josh Elser <elserj@apache.org>","Mon, 16 Jan 2017 11:57:51 -0500","Re: Resignation as RM for branch 0.98"
"""Wellington Chevreuil (JIRA)"" <jira@apache.org>","Mon, 16 Jan 2017 18:04:26 +0000 (UTC)","[jira] [Resolved] (HBASE-17461) HBase shell ""major_compact"" command should properly convert ""table_or_region_name"" parameter to java byte array properly before simply calling ""HBaseAdmin.majorCompact"" method"
"""Ted Yu (JIRA)"" <jira@apache.org>","Mon, 16 Jan 2017 20:30:26 +0000 (UTC)","[jira] [Created] (HBASE-17474) Reduce frequency of NoSuchMethodException when calling setStoragePolicy()"
"Stack <stack@duboce.net>","Mon, 16 Jan 2017 14:10:34 -0800","Re: Moving 2.0 forward"
"""Allan Yang (JIRA)"" <jira@apache.org>","Tue, 17 Jan 2017 03:08:27 +0000 (UTC)","[jira] [Created] (HBASE-17475) Stack overflow in AsyncProcess if retry too much"
"Apache Jenkins Server <jenkins@builds.apache.org>","Tue, 17 Jan 2017 04:00:36 +0000 (UTC)","Successful: hbase.apache.org HTML Checker"
"ramkrishna vasudevan <ramkrishna.s.vasudevan@gmail.com>","Tue, 17 Jan 2017 10:30:48 +0530","Re: Resignation as RM for branch 0.98"
"Jerry He <jerryjch@gmail.com>","Mon, 16 Jan 2017 21:01:15 -0800","Re: [VOTE] The 1st HBase 1.3.0 release candidate (RC0) is available"
"Stack <stack@duboce.net>","Mon, 16 Jan 2017 21:11:41 -0800","Re: [VOTE] The 1st HBase 1.3.0 release candidate (RC0) is available"
"Stack <stack@duboce.net>","Mon, 16 Jan 2017 21:24:44 -0800","Re: Merge and HMerge"
"Stack <stack@duboce.net>","Mon, 16 Jan 2017 21:29:36 -0800","Re: SocketTimeoutException on regionservers"
"Mikhail Antonov <olorinbant@gmail.com>","Mon, 16 Jan 2017 22:01:40 -0800","Re: [VOTE] The 1st HBase 1.3.0 release candidate (RC0) is available"
"Mikhail Antonov <antonov@apache.org>","Mon, 16 Jan 2017 23:20:54 -0800","[ANNOUNCE] Apache HBase 1.3.0 is now available for download"
"""Mikhail Antonov (JIRA)"" <jira@apache.org>","Tue, 17 Jan 2017 09:02:26 +0000 (UTC)","[jira] [Resolved] (HBASE-15347) Update CHANGES.txt for 1.3"
"""Mikhail Antonov (JIRA)"" <jira@apache.org>","Tue, 17 Jan 2017 09:03:26 +0000 (UTC)","[jira] [Resolved] (HBASE-15341) 1.3 release umbrella"
"""tingtingyuchao (JIRA)"" <jira@apache.org>","Tue, 17 Jan 2017 12:26:26 +0000 (UTC)","[jira] [Created] (HBASE-17476)  FATAL org.apache.hadoop.hbase.regionserver.HRegionServer: ABORTING region server host04.byzoro.com,60020,1484273922270: org.apache.hadoop.hbase.YouAreDeadException: Server REPORT rejected; currently pros dead server"
"""Jan Hentschel (JIRA)"" <jira@apache.org>","Tue, 17 Jan 2017 13:51:26 +0000 (UTC)","[jira] [Created] (HBASE-17477) Set capacity on ArrayList in hbase-common"
"""Ted Yu (JIRA)"" <jira@apache.org>","Tue, 17 Jan 2017 14:56:26 +0000 (UTC)","[jira] [Resolved] (HBASE-17279) TestSerialReplication#testRegionSplit is flaky in branch-1"
"Apache Jenkins Server <jenkins@builds.apache.org>","Tue, 17 Jan 2017 14:58:11 +0000 (UTC)","Successful: HBase Generate Website"
"""Josh Elser (JIRA)"" <jira@apache.org>","Tue, 17 Jan 2017 19:37:26 +0000 (UTC)","[jira] [Created] (HBASE-17478) Avoid sending FSUtilization reports to master when quota support is not enabled"
"Jerry He <jerryjch@gmail.com>","Tue, 17 Jan 2017 13:01:27 -0800","Re: [VOTE] The 1st HBase 1.3.0 release candidate (RC0) is available"
"Mikhail Antonov <olorinbant@gmail.com>","Tue, 17 Jan 2017 13:05:15 -0800","Re: [VOTE] The 1st HBase 1.3.0 release candidate (RC0) is available"
"""huaxiang sun (JIRA)"" <jira@apache.org>","Tue, 17 Jan 2017 23:01:26 +0000 (UTC)","[jira] [Created] (HBASE-17479) Add one more unittest case about supporting customer filters over hbase REST"
"""Stephen Yuan Jiang (JIRA)"" <jira@apache.org>","Tue, 17 Jan 2017 23:09:26 +0000 (UTC)","[jira] [Created] (HBASE-17480) Remove split region code from Region Server"
"""Sudeep Sunthankar (JIRA)"" <jira@apache.org>","Tue, 17 Jan 2017 23:52:26 +0000 (UTC)","[jira] [Created] (HBASE-17481) [C++] Changing cpplint to ignore line wrapping warnings"
"Thiruvel Thirumoolan <thiruvel@yahoo-inc.com.INVALID>","Wed, 18 Jan 2017 02:11:15 +0000 (UTC)","Re: Moving 2.0 forward"
"""Allan Yang (JIRA)"" <jira@apache.org>","Wed, 18 Jan 2017 03:36:26 +0000 (UTC)","[jira] [Created] (HBASE-17482) mvcc mechanism failed when using mvccPreAssign"
"""ramkrishna.s.vasudevan (JIRA)"" <jira@apache.org>","Wed, 18 Jan 2017 09:12:26 +0000 (UTC)","[jira] [Resolved] (HBASE-17081) Flush the entire CompactingMemStore content to disk"
"""ramkrishna.s.vasudevan (JIRA)"" <jira@apache.org>","Wed, 18 Jan 2017 09:26:26 +0000 (UTC)","[jira] [Created] (HBASE-17483) Add equals/hashcode for OffheapKeyValue"
"""ramkrishna.s.vasudevan (JIRA)"" <jira@apache.org>","Wed, 18 Jan 2017 09:28:26 +0000 (UTC)","[jira] [Created] (HBASE-17484) Add non cached version of OffheapKV for write path"
"""Sudeep Sunthankar (JIRA)"" <jira@apache.org>","Wed, 18 Jan 2017 09:37:26 +0000 (UTC)","[jira] [Created] (HBASE-17485) [C++] Zookeeper quorum and znode lookup made configurable"
"""ramkrishna.s.vasudevan (JIRA)"" <jira@apache.org>","Wed, 18 Jan 2017 10:06:26 +0000 (UTC)","[jira] [Resolved] (HBASE-17223) Make COS#newInstance(ByteOutput, int) as public API."
"Apache Jenkins Server <jenkins@builds.apache.org>","Wed, 18 Jan 2017 14:59:09 +0000 (UTC)","Successful: HBase Generate Website"
"Rich Bowen <rbowen@apache.org>","Wed, 18 Jan 2017 11:45:41 -0500","ApacheCon CFP closing soon (11 February)"
"Stack <stack@duboce.net>","Wed, 18 Jan 2017 11:29:16 -0800","Re: Moving 2.0 forward"
"Sean Busbey <busbey@apache.org>","Wed, 18 Jan 2017 12:30:30 -0800","Re: [DISCUSS] hbase-spark module in branch-1 and branch-2"
"""stack (JIRA)"" <jira@apache.org>","Wed, 18 Jan 2017 20:31:26 +0000 (UTC)","[jira] [Reopened] (HBASE-17165) Add retry to LoadIncrementalHFiles tool"
"Ted Yu <yuzhihong@gmail.com>","Wed, 18 Jan 2017 13:26:22 -0800","Re: [DISCUSS] hbase-spark module in branch-1 and branch-2"
"""Michael Axiak (JIRA)"" <jira@apache.org>","Wed, 18 Jan 2017 22:01:26 +0000 (UTC)","[jira] [Created] (HBASE-17486) Tighten the contract for batch client methods"
"Francis Liu <toffer@apache.org>","Wed, 18 Jan 2017 22:26:38 +0000 (UTC)","Re: Moving 2.0 forward"
"Apekshit Sharma <appy@cloudera.com>","Wed, 18 Jan 2017 14:28:22 -0800","Re: Merge and HMerge"
"Stack <stack@duboce.net>","Wed, 18 Jan 2017 14:53:24 -0800","Re: Moving 2.0 forward"
"Andrew Purtell <andrew.purtell@gmail.com>","Wed, 18 Jan 2017 16:07:33 -0800","Re: Moving 2.0 forward"
"""Ted Yu (JIRA)"" <jira@apache.org>","Thu, 19 Jan 2017 02:34:28 +0000 (UTC)","[jira] [Created] (HBASE-17487) Potential data loss when pipeline is pushed to snapshot"
"""ChiaPing Tsai (JIRA)"" <jira@apache.org>","Thu, 19 Jan 2017 03:30:26 +0000 (UTC)","[jira] [Created] (HBASE-17488) WALEdit should be lazily instantiated"
"""Duo Zhang (JIRA)"" <jira@apache.org>","Thu, 19 Jan 2017 05:31:26 +0000 (UTC)","[jira] [Created] (HBASE-17489) ClientScanner may send a next request to a RegionScanner which has been exhausted"
"""Yuan Kang (JIRA)"" <jira@apache.org>","Thu, 19 Jan 2017 10:17:26 +0000 (UTC)","[jira] [Created] (HBASE-17490) hbck can't check zk /hbase/table-lock inconsistency"
"""Yuan Kang (JIRA)"" <jira@apache.org>","Thu, 19 Jan 2017 10:29:26 +0000 (UTC)","[jira] [Resolved] (HBASE-8065) bulkload can load the hfile into hbase table,but this mechanism can't remove prior data"
"""Yu Li (JIRA)"" <jira@apache.org>","Thu, 19 Jan 2017 12:08:26 +0000 (UTC)","[jira] [Created] (HBASE-17491) Remove all setters from HTable interface and introduce a TableBuilder to build Table instance"
"""Anastasia Braginsky (JIRA)"" <jira@apache.org>","Thu, 19 Jan 2017 12:09:27 +0000 (UTC)","[jira] [Created] (HBASE-17492) Fix the compacting memstore part in hbase shell ruby script"
"Apache Jenkins Server <jenkins@builds.apache.org>","Thu, 19 Jan 2017 15:04:08 +0000 (UTC)","Successful: HBase Generate Website"
"Yu Li <carp84@gmail.com>","Thu, 19 Jan 2017 23:38:19 +0800","Re: SocketTimeoutException on regionservers"
"""Ted Yu (JIRA)"" <jira@apache.org>","Thu, 19 Jan 2017 16:00:29 +0000 (UTC)","[jira] [Created] (HBASE-17493) TestAsyncTableGetMultiThreadedWithEagerCompaction intermittently fails due to NotServingRegionException"
"""ChiaPing Tsai (JIRA)"" <jira@apache.org>","Thu, 19 Jan 2017 19:02:26 +0000 (UTC)","[jira] [Created] (HBASE-17494) Guard against cloning family of all cells if no data need be replicated"
"""Ted Yu (JIRA)"" <jira@apache.org>","Thu, 19 Jan 2017 19:14:26 +0000 (UTC)","[jira] [Created] (HBASE-17495) TestHRegionWithInMemoryFlush#testFlushCacheWhileScanning intermittently fails due to assertion error"
"""Enis Soztutar (JIRA)"" <jira@apache.org>","Thu, 19 Jan 2017 23:02:26 +0000 (UTC)","[jira] [Resolved] (HBASE-15705) Add on meta cache."
"""Guangxu Cheng (JIRA)"" <jira@apache.org>","Fri, 20 Jan 2017 01:13:27 +0000 (UTC)","[jira] [Created] (HBASE-17496) RSGroup shell commands:get_server_rsgroup don't work and commands display an incorrect result size"
"""Guanghao Zhang (JIRA)"" <jira@apache.org>","Fri, 20 Jan 2017 01:50:27 +0000 (UTC)","[jira] [Created] (HBASE-17497) Add first async MetaTableAccessor impl and Implement tableExists method"
"""Guanghao Zhang (JIRA)"" <jira@apache.org>","Fri, 20 Jan 2017 02:07:26 +0000 (UTC)","[jira] [Created] (HBASE-17498) Implement listTables methods"
"""Ted Yu (JIRA)"" <jira@apache.org>","Fri, 20 Jan 2017 02:35:26 +0000 (UTC)","[jira] [Created] (HBASE-17499) Bound the total heap memory used for the rolling average of RegionLoads"
"""Guanghao Zhang (JIRA)"" <jira@apache.org>","Fri, 20 Jan 2017 07:36:26 +0000 (UTC)","[jira] [Created] (HBASE-17500) Implement getTable/creatTable/deleteTable/truncateTable methods"
"Apache Jenkins Server <jenkins@builds.apache.org>","Fri, 20 Jan 2017 14:59:57 +0000 (UTC)","Successful: HBase Generate Website"
"""Patrick Dignan (JIRA)"" <jira@apache.org>","Fri, 20 Jan 2017 19:42:26 +0000 (UTC)","[jira] [Created] (HBASE-17501) NullPointerException after Datanodes Decommissioned and Terminated"
"""Jan Hentschel (JIRA)"" <jira@apache.org>","Fri, 20 Jan 2017 23:49:26 +0000 (UTC)","[jira] [Resolved] (HBASE-17417) Use isEmpty instead of size() == 0 in hbase-rest"
"""Jerry He (JIRA)"" <jira@apache.org>","Sat, 21 Jan 2017 00:00:29 +0000 (UTC)","[jira] [Created] (HBASE-17502) Document hadoop pre-2.6.1 and Java 1.8 Kerberos problem in our hadoop support matrix"
"""Enis Soztutar (JIRA)"" <jira@apache.org>","Sat, 21 Jan 2017 03:09:27 +0000 (UTC)","[jira] [Created] (HBASE-17503) [C++] Configuration should be settable and used w/o XML files"
"Apache Jenkins Server <jenkins@builds.apache.org>","Sat, 21 Jan 2017 14:58:24 +0000 (UTC)","Successful: HBase Generate Website"
"""stack (JIRA)"" <jira@apache.org>","Sat, 21 Jan 2017 17:59:26 +0000 (UTC)","[jira] [Reopened] (HBASE-17497) Add first async MetaTableAccessor impl and Implement tableExists method"
"""ChiaPing Tsai (JIRA)"" <jira@apache.org>","Sat, 21 Jan 2017 19:08:27 +0000 (UTC)","[jira] [Created] (HBASE-17504) The passed durability of Increment is ignored when syncing WAL"
"""Jerry He (JIRA)"" <jira@apache.org>","Sat, 21 Jan 2017 21:27:26 +0000 (UTC)","[jira] [Resolved] (HBASE-17502) Document hadoop pre-2.6.1 and Java 1.8 Kerberos problem in our hadoop support matrix"
"""Duo Zhang (JIRA)"" <jira@apache.org>","Sun, 22 Jan 2017 02:13:27 +0000 (UTC)","[jira] [Created] (HBASE-17505) Do not issue close scanner request if RS tells us there is no more results for this region"
"""Duo Zhang (JIRA)"" <jira@apache.org>","Sun, 22 Jan 2017 02:29:26 +0000 (UTC)","[jira] [Resolved] (HBASE-17497) Add first async MetaTableAccessor impl and Implement tableExists method"
"""Allan Yang (JIRA)"" <jira@apache.org>","Sun, 22 Jan 2017 07:17:26 +0000 (UTC)","[jira] [Created] (HBASE-17506) started mvcc transaction is not completed in branch-1"
"""Yu Li (JIRA)"" <jira@apache.org>","Sun, 22 Jan 2017 09:13:26 +0000 (UTC)","[jira] [Created] (HBASE-17507) Add document for the mvcc preassign feature introduced in HBASE-16698"
"""Duo Zhang (JIRA)"" <jira@apache.org>","Sun, 22 Jan 2017 12:56:27 +0000 (UTC)","[jira] [Created] (HBASE-17508) Unify the implementation of small scan and regular scan for sync client"
"Apache Jenkins Server <jenkins@builds.apache.org>","Sun, 22 Jan 2017 14:57:58 +0000 (UTC)","Successful: HBase Generate Website"
"""Yu Li (JIRA)"" <jira@apache.org>","Sun, 22 Jan 2017 17:16:26 +0000 (UTC)","[jira] [Created] (HBASE-17509) Remove the mvcc preassign lock and take usage of MVCC internal lock instead"
"""Yu Li (JIRA)"" <jira@apache.org>","Mon, 23 Jan 2017 02:59:26 +0000 (UTC)","[jira] [Resolved] (HBASE-17509) Remove the mvcc preassign lock and take usage of MVCC internal lock instead"
"""ChiaPing Tsai (JIRA)"" <jira@apache.org>","Mon, 23 Jan 2017 09:19:26 +0000 (UTC)","[jira] [Created] (HBASE-17510) DefaultMemStore gets the wrong heap size after rollback"
"""Guanghao Zhang (JIRA)"" <jira@apache.org>","Mon, 23 Jan 2017 12:47:26 +0000 (UTC)","[jira] [Created] (HBASE-17511) Implement enable/disable table methods"
"Apache Jenkins Server <jenkins@builds.apache.org>","Mon, 23 Jan 2017 14:58:00 +0000 (UTC)","Successful: HBase Generate Website"
"Ted Yu <yuzhihong@gmail.com>","Mon, 23 Jan 2017 10:22:13 -0800","not receiving JIRA notification"
"Jean-Marc Spaggiari <jean-marc@spaggiari.org>","Mon, 23 Jan 2017 13:25:00 -0500","Re: not receiving JIRA notification"
"Ted Yu <yuzhihong@gmail.com>","Mon, 23 Jan 2017 10:28:28 -0800","Re: not receiving JIRA notification"
"Yu Li <carp84@gmail.com>","Tue, 24 Jan 2017 10:31:39 +0800","Re: not receiving JIRA notification"
"Ted Yu <yuzhihong@gmail.com>","Mon, 23 Jan 2017 18:48:59 -0800","Re: not receiving JIRA notification"
"Apache Jenkins Server <jenkins@builds.apache.org>","Tue, 24 Jan 2017 04:35:44 +0000 (UTC)","Successful: hbase.apache.org HTML Checker"
"Lars George <lars.george@gmail.com>","Tue, 24 Jan 2017 08:36:07 +0100","HBase Service Level Authorization"
"Lars George <lars.george@gmail.com>","Tue, 24 Jan 2017 09:17:32 +0100","Re: HBase Service Level Authorization"
"Apache Jenkins Server <jenkins@builds.apache.org>","Tue, 24 Jan 2017 15:02:18 +0000 (UTC)","Successful: HBase Generate Website"
"Chetan Khatri <chetan.opensource@gmail.com>","Wed, 25 Jan 2017 02:47:01 +0530","HBaseContext with Spark"
"""Ted Yu (JIRA)"" <jira@apache.org>","Tue, 24 Jan 2017 21:51:26 +0000 (UTC)","[jira] [Created] (HBASE-17523) Add Timeline Consistency support to hbase-thrift"
"""Mikhail Antonov (JIRA)"" <jira@apache.org>","Tue, 24 Jan 2017 22:26:26 +0000 (UTC)","[jira] [Created] (HBASE-17524) HBase 1.3.1 release"
"""Josh Elser (JIRA)"" <jira@apache.org>","Tue, 24 Jan 2017 22:44:27 +0000 (UTC)","[jira] [Created] (HBASE-17525) SecureBulkLoadEndpoint not implemented"
"""Appy (JIRA)"" <jira@apache.org>","Tue, 24 Jan 2017 23:01:26 +0000 (UTC)","[jira] [Created] (HBASE-17526) Procedure v2 - cleanup isSuspended from MasterProcedureScheduler#Queue"
"""Enis Soztutar (JIRA)"" <jira@apache.org>","Tue, 24 Jan 2017 23:40:26 +0000 (UTC)","[jira] [Resolved] (HBASE-17503) [C++] Configuration should be settable and used w/o XML files"
"""Ted Yu (JIRA)"" <jira@apache.org>","Wed, 25 Jan 2017 00:18:26 +0000 (UTC)","[jira] [Created] (HBASE-17527) Allow IntegrationTestBigLinkedList table to be in memory compacted"
"""Duo Zhang (JIRA)"" <jira@apache.org>","Wed, 25 Jan 2017 01:59:26 +0000 (UTC)","[jira] [Created] (HBASE-17528) Remove the Scan.ReadType flag introduced in HBASE-17045"
"""Ted Yu (JIRA)"" <jira@apache.org>","Wed, 25 Jan 2017 03:32:26 +0000 (UTC)","[jira] [Created] (HBASE-17529) MergeTableRegionsProcedure failed due to ArrayIndexOutOfBoundsException"
"""stack (JIRA)"" <jira@apache.org>","Wed, 25 Jan 2017 07:34:26 +0000 (UTC)","[jira] [Created] (HBASE-17530) Readd TestMergeTableRegionsProcedure mistakenly removed by HBASE-16786"
"""Sean Busbey (JIRA)"" <jira@apache.org>","Wed, 25 Jan 2017 14:49:26 +0000 (UTC)","[jira] [Reopened] (HBASE-12894) Upgrade Jetty to 9.2.6"
"""Sean Busbey (JIRA)"" <jira@apache.org>","Wed, 25 Jan 2017 14:49:27 +0000 (UTC)","[jira] [Resolved] (HBASE-12894) Upgrade Jetty to 9.2.6"
"Apache Jenkins Server <jenkins@builds.apache.org>","Wed, 25 Jan 2017 15:02:42 +0000 (UTC)","Successful: HBase Generate Website"
"""Sean Busbey (JIRA)"" <jira@apache.org>","Wed, 25 Jan 2017 15:18:26 +0000 (UTC)","[jira] [Created] (HBASE-17531) Memory tuning should account for undefined max heap"
"""Jan Hentschel (JIRA)"" <jira@apache.org>","Wed, 25 Jan 2017 18:30:26 +0000 (UTC)","[jira] [Created] (HBASE-17532) Replace explicit type with diamond operator"
"""Vladimir Rodionov (JIRA)"" <jira@apache.org>","Wed, 25 Jan 2017 19:31:26 +0000 (UTC)","[jira] [Created] (HBASE-17533) NPE in backup create session"
"""Josh Elser (JIRA)"" <jira@apache.org>","Wed, 25 Jan 2017 19:33:26 +0000 (UTC)","[jira] [Created] (HBASE-17534) SecureBulkLoadClient squashes DoNotRetryIOExceptions from the server"
"""Vladimir Rodionov (JIRA)"" <jira@apache.org>","Wed, 25 Jan 2017 19:33:26 +0000 (UTC)","[jira] [Created] (HBASE-17535) Remove backup manifest duplicates from backup file system"
"Chetan Khatri <chetan.opensource@gmail.com>","Thu, 26 Jan 2017 01:04:02 +0530","Git Pull Request to HBase"
"""York, Zach"" <zyork@amazon.com>","Wed, 25 Jan 2017 19:39:09 +0000","Re: Git Pull Request to HBase"
"""Enis Soztutar (JIRA)"" <jira@apache.org>","Wed, 25 Jan 2017 19:52:26 +0000 (UTC)","[jira] [Created] (HBASE-17536) User documentation for coprocessor metrics"
"""Appy (JIRA)"" <jira@apache.org>","Wed, 25 Jan 2017 20:15:27 +0000 (UTC)","[jira] [Created] (HBASE-17537) Remove Queue#isAvailable() since we have waits/wakes after HBASE-17067"
"""Enis Soztutar (JIRA)"" <jira@apache.org>","Wed, 25 Jan 2017 20:41:26 +0000 (UTC)","[jira] [Created] (HBASE-17538) HFS.setStoragePolicy() logs errors on local fs"
"""Ted Yu (JIRA)"" <jira@apache.org>","Wed, 25 Jan 2017 20:54:26 +0000 (UTC)","[jira] [Reopened] (HBASE-12894) Upgrade Jetty to 9.2.6"
"""stack (JIRA)"" <jira@apache.org>","Wed, 25 Jan 2017 21:35:26 +0000 (UTC)","[jira] [Resolved] (HBASE-17539) LocalFS does not allow setting storage policy so spew running in local mode"
"""Maddineni Sukumar (JIRA)"" <jira@apache.org>","Wed, 25 Jan 2017 21:59:26 +0000 (UTC)","[jira] [Created] (HBASE-17540) Change SASL server GSSAPI callback log line from DEBUG to TRACE in RegionServer to reduce log volumes in DEBUG mode"
"""Vladimir Rodionov (JIRA)"" <jira@apache.org>","Wed, 25 Jan 2017 22:49:26 +0000 (UTC)","[jira] [Created] (HBASE-17541) MasterServices to expose createNamespace API"
"""Vladimir Rodionov (JIRA)"" <jira@apache.org>","Wed, 25 Jan 2017 22:56:27 +0000 (UTC)","[jira] [Created] (HBASE-17542) Move backup system table into separate namespace"
"Ted Yu <yuzhihong@gmail.com>","Wed, 25 Jan 2017 15:05:38 -0800","table regions not shown on table.jsp for master branch"
"""Geoffrey Jacoby (JIRA)"" <jira@apache.org>","Wed, 25 Jan 2017 23:10:27 +0000 (UTC)","[jira] [Created] (HBASE-17543) Create additional ReplicationEndpoint WALEntryFilters by configuration"
"""Esteban Gutierrez (JIRA)"" <jira@apache.org>","Thu, 26 Jan 2017 06:31:24 +0000 (UTC)","[jira] [Created] (HBASE-17544) Expose metrics for the CatalogJanitor"
"""Duo Zhang (JIRA)"" <jira@apache.org>","Thu, 26 Jan 2017 13:11:24 +0000 (UTC)","[jira] [Created] (HBASE-17545) 'mvn test' does not run all the tests in hbase-endpoint"
"""Chetan Khatri (JIRA)"" <jira@apache.org>","Thu, 26 Jan 2017 14:49:24 +0000 (UTC)","[jira] [Created] (HBASE-17546) Incorrect syntax at HBase-Spark Module Examples"
"Apache Jenkins Server <jenkins@builds.apache.org>","Thu, 26 Jan 2017 14:59:30 +0000 (UTC)","Successful: HBase Generate Website"
"Chetan Khatri <chetan.opensource@gmail.com>","Thu, 26 Jan 2017 20:46:35 +0530","Re: Git Pull Request to HBase"
"""Chetan Khatri (JIRA)"" <jira@apache.org>","Thu, 26 Jan 2017 15:39:24 +0000 (UTC)","[jira] [Created] (HBASE-17547) HBase-Spark Module : TableCatelog doesn't supports multiple columns from multiple Column families"
"Ted Yu <yuzhihong@gmail.com>","Thu, 26 Jan 2017 07:39:51 -0800","Re: Git Pull Request to HBase"
"""Ted Yu (JIRA)"" <jira@apache.org>","Thu, 26 Jan 2017 15:51:24 +0000 (UTC)","[jira] [Created] (HBASE-17548) Table regions are not shown on table.jsp for master branch"
"Sean Busbey <busbey@apache.org>","Thu, 26 Jan 2017 10:02:30 -0600","[DISCUSS] JIRA component ""hbase"""
"Gary Helmling <ghelmling@gmail.com>","Thu, 26 Jan 2017 18:19:20 +0000","Re: [DISCUSS] JIRA component ""hbase"""
"""Chetan Khatri (JIRA)"" <jira@apache.org>","Thu, 26 Jan 2017 18:22:24 +0000 (UTC)","[jira] [Created] (HBASE-17549) HBase-Spark Module : Incorrect log at println and unwanted comment code"
"Andrew Purtell <apurtell@apache.org>","Thu, 26 Jan 2017 11:02:02 -0800","Re: [DISCUSS] JIRA component ""hbase"""
"Chetan Khatri <chetan.opensource@gmail.com>","Fri, 27 Jan 2017 01:01:20 +0530","Re: Git Pull Request to HBase"
"Apekshit Sharma <appy@cloudera.com>","Thu, 26 Jan 2017 11:47:13 -0800","Re: Git Pull Request to HBase"
"Apekshit Sharma <appy@cloudera.com>","Thu, 26 Jan 2017 11:55:38 -0800","Reminder: Please use git am when committing patches"
"Mikhail Antonov <olorinbant@gmail.com>","Thu, 26 Jan 2017 11:55:55 -0800","Re: [DISCUSS] JIRA component ""hbase"""
"Gary Helmling <ghelmling@gmail.com>","Thu, 26 Jan 2017 19:58:51 +0000","Replication resiliency"
"Ted Yu <yuzhihong@gmail.com>","Thu, 26 Jan 2017 11:59:51 -0800","Re: Git Pull Request to HBase"
"""stack (JIRA)"" <jira@apache.org>","Thu, 26 Jan 2017 20:00:29 +0000 (UTC)","[jira] [Reopened] (HBASE-16785) We are not running all tests"
"Apekshit Sharma <appy@cloudera.com>","Thu, 26 Jan 2017 12:12:42 -0800","Re: Git Pull Request to HBase"
"Chetan Khatri <chetan.opensource@gmail.com>","Fri, 27 Jan 2017 01:42:42 +0530","Re: Reminder: Please use git am when committing patches"
"Sean Busbey <busbey@apache.org>","Thu, 26 Jan 2017 14:48:58 -0600","[DISCUSS] Re: Replication resiliency"
"""Ted Yu (JIRA)"" <jira@apache.org>","Thu, 26 Jan 2017 20:53:24 +0000 (UTC)","[jira] [Resolved] (HBASE-17548) Table regions are not shown on table.jsp for master branch"
"Sean Busbey <busbey@apache.org>","Thu, 26 Jan 2017 14:54:43 -0600","Re: [DISCUSS] Re: Replication resiliency"
"""Ted Yu (JIRA)"" <jira@apache.org>","Thu, 26 Jan 2017 20:57:24 +0000 (UTC)","[jira] [Resolved] (HBASE-17515) Reduce memory footprint of RegionLoads kept by StochasticLoadBalancer"
"Josh Elser <elserj@apache.org>","Thu, 26 Jan 2017 17:19:32 -0500","Re: [DISCUSS] Re: Replication resiliency"
"=?UTF-8?B?5byg6ZOOKER1byBaaGFuZyk=?= <palomino219@gmail.com>","Fri, 27 Jan 2017 08:11:52 +0800","Re: [DISCUSS] JIRA component ""hbase"""
"Ted Yu <yuzhihong@gmail.com>","Thu, 26 Jan 2017 16:14:21 -0800","Re: [DISCUSS] JIRA component ""hbase"""
"""Ashu Pachauri (JIRA)"" <jira@apache.org>","Fri, 27 Jan 2017 00:22:25 +0000 (UTC)","[jira] [Created] (HBASE-17550) replication.sink.client.ops.timeout should have a documented default"
"""Ashu Pachauri (JIRA)"" <jira@apache.org>","Fri, 27 Jan 2017 00:26:24 +0000 (UTC)","[jira] [Created] (HBASE-17551) Default value for replication.sink.client.ops.timeout should align more closely to default rpc timeout"
"=?UTF-8?B?5byg6ZOOKER1byBaaGFuZyk=?= <palomino219@gmail.com>","Fri, 27 Jan 2017 08:29:01 +0800","Re: Reminder: Please use git am when committing patches"
"=?UTF-8?Q?Enis_S=C3=B6ztutar?= <enis@apache.org>","Thu, 26 Jan 2017 17:41:33 -0800","Re: Reminder: Please use git am when committing patches"
"=?UTF-8?Q?Enis_S=C3=B6ztutar?= <enis.soz@gmail.com>","Thu, 26 Jan 2017 17:53:20 -0800","Re: [DISCUSS] Re: Replication resiliency"
"=?UTF-8?B?5byg6ZOOKER1byBaaGFuZyk=?= <palomino219@gmail.com>","Fri, 27 Jan 2017 02:01:30 +0000","Re: Reminder: Please use git am when committing patches"
"Apekshit Sharma <appy@cloudera.com>","Thu, 26 Jan 2017 18:45:51 -0800","Re: Reminder: Please use git am when committing patches"
"""Appy (JIRA)"" <jira@apache.org>","Fri, 27 Jan 2017 03:11:24 +0000 (UTC)","[jira] [Created] (HBASE-17552) Update developer section in hbase book"
"Andrew Purtell <andrew.purtell@gmail.com>","Thu, 26 Jan 2017 21:02:54 -0800","Re: [DISCUSS] Re: Replication resiliency"
"""stack (JIRA)"" <jira@apache.org>","Fri, 27 Jan 2017 07:36:24 +0000 (UTC)","[jira] [Created] (HBASE-17553) Make a 2.0.0 Release"
"""stack (JIRA)"" <jira@apache.org>","Fri, 27 Jan 2017 07:44:25 +0000 (UTC)","[jira] [Created] (HBASE-17554) Figure 2.0.0 Hadoop Version Support; update refguide"
"ramkrishna vasudevan <ramkrishna.s.vasudevan@gmail.com>","Fri, 27 Jan 2017 13:19:05 +0530","Re: Moving 2.0 forward"
"""Jan Hentschel (JIRA)"" <jira@apache.org>","Fri, 27 Jan 2017 08:06:25 +0000 (UTC)","[jira] [Created] (HBASE-17555) Change calls to deprecated getHBaseAdmin to getAdmin"
"""Marcin Januszkiewicz (JIRA)"" <jira@apache.org>","Fri, 27 Jan 2017 14:34:24 +0000 (UTC)","[jira] [Created] (HBASE-17556) The client will not invalidate stale region caches"
"""Sean Busbey (JIRA)"" <jira@apache.org>","Fri, 27 Jan 2017 14:50:24 +0000 (UTC)","[jira] [Reopened] (HBASE-17526) Procedure v2 - cleanup isSuspended from MasterProcedureScheduler#Queue"
"Apache Jenkins Server <jenkins@builds.apache.org>","Fri, 27 Jan 2017 15:00:21 +0000 (UTC)","Successful: HBase Generate Website"
"""Ted Yu (JIRA)"" <jira@apache.org>","Fri, 27 Jan 2017 18:11:25 +0000 (UTC)","[jira] [Created] (HBASE-17557) HRegionServer#reportRegionSizesForQuotas() should respond to UnsupportedOperationException"
"Chetan Khatri <chetan.opensource@gmail.com>","Sat, 28 Jan 2017 00:19:56 +0530","Incremental import from HBase to Hive"
"""Sean Busbey (JIRA)"" <jira@apache.org>","Fri, 27 Jan 2017 19:25:24 +0000 (UTC)","[jira] [Created] (HBASE-17558) ZK dumping jsp should escape html"
"Josh Elser <elserj@apache.org>","Fri, 27 Jan 2017 14:26:53 -0500","Re: [DISCUSS] Re: Replication resiliency"
"""Josh Elser (JIRA)"" <jira@apache.org>","Fri, 27 Jan 2017 19:29:24 +0000 (UTC)","[jira] [Created] (HBASE-17559) Verify service threads are using the UncaughtExceptionHandler"
"""Sean Busbey (JIRA)"" <jira@apache.org>","Fri, 27 Jan 2017 19:33:24 +0000 (UTC)","[jira] [Created] (HBASE-17560) HMaster redirect should sanity check user input"
"""Sean Busbey (JIRA)"" <jira@apache.org>","Fri, 27 Jan 2017 19:41:24 +0000 (UTC)","[jira] [Created] (HBASE-17561) table status page should escape table name"
"""Enis Soztutar (JIRA)"" <jira@apache.org>","Fri, 27 Jan 2017 20:02:24 +0000 (UTC)","[jira] [Created] (HBASE-17562) Remove documentation for coprocessor execution times after HBASE-14205"
"Gary Helmling <ghelmling@gmail.com>","Fri, 27 Jan 2017 20:30:55 +0000","Re: [DISCUSS] Re: Replication resiliency"
"""Vladimir Rodionov (JIRA)"" <jira@apache.org>","Fri, 27 Jan 2017 21:03:24 +0000 (UTC)","[jira] [Resolved] (HBASE-14477) Compaction improvements: Date tiered compaction policy"
"Sean Busbey <busbey@apache.org>","Fri, 27 Jan 2017 15:03:33 -0600","Re: [DISCUSS] Re: Replication resiliency"
"Sean Busbey <busbey@apache.org>","Fri, 27 Jan 2017 15:08:01 -0600","Re: Reminder: Please use git am when committing patches"
"Andrew Purtell <andrew.purtell@gmail.com>","Fri, 27 Jan 2017 13:13:33 -0800","Re: [DISCUSS] Re: Replication resiliency"
"""Jan Hentschel (JIRA)"" <jira@apache.org>","Fri, 27 Jan 2017 22:19:24 +0000 (UTC)","[jira] [Created] (HBASE-17563) Foreach and switch in RootDocProcessor and StabilityOptions"
"""Jan Hentschel (JIRA)"" <jira@apache.org>","Fri, 27 Jan 2017 23:10:24 +0000 (UTC)","[jira] [Created] (HBASE-17564) Fix remaining calls to deprecated methods of Admin and HBaseAdmin"
"""Ted Yu (JIRA)"" <jira@apache.org>","Sat, 28 Jan 2017 00:17:24 +0000 (UTC)","[jira] [Created] (HBASE-17565) StochasticLoadBalancer may incorrectly skip balancing due to skewed multiplier sum"
"Chetan Khatri <chetan.opensource@gmail.com>","Sat, 28 Jan 2017 09:03:46 +0530","Re: Incremental import from HBase to Hive"
"""stack (JIRA)"" <jira@apache.org>","Sat, 28 Jan 2017 06:25:24 +0000 (UTC)","[jira] [Reopened] (HBASE-16785) We are not running all tests"
"""stack (JIRA)"" <jira@apache.org>","Sat, 28 Jan 2017 06:58:24 +0000 (UTC)","[jira] [Resolved] (HBASE-16785) We are not running all tests"
"Apache Jenkins Server <jenkins@builds.apache.org>","Sat, 28 Jan 2017 15:00:15 +0000 (UTC)","Successful: HBase Generate Website"
"Apache Jenkins Server <jenkins@builds.apache.org>","Sun, 29 Jan 2017 14:59:21 +0000 (UTC)","Successful: HBase Generate Website"
"Stephen Jiang <syuanjiangdev@gmail.com>","Sun, 29 Jan 2017 10:56:54 -0800","would clean up znodes in HBASE 0.94 version cause any problem?"
"Stack <stack@duboce.net>","Sun, 29 Jan 2017 21:16:22 -0800","Re: Moving 2.0 forward"
"Ted Yu <yuzhihong@gmail.com>","Mon, 30 Jan 2017 08:14:54 -0800","Re: not receiving JIRA notification"
"Dima Spivak <dimaspivak@apache.org>","Mon, 30 Jan 2017 10:07:39 -0800","Re: not receiving JIRA notification"
"Esteban Gutierrez <esteban@cloudera.com>","Mon, 30 Jan 2017 10:21:34 -0800","Re: would clean up znodes in HBASE 0.94 version cause any problem?"
"Apache Jenkins Server <jenkins@builds.apache.org>","Tue, 31 Jan 2017 04:20:06 +0000 (UTC)","Successful: hbase.apache.org HTML Checker"
"Ted Yu <yuzhihong@gmail.com>","Mon, 30 Jan 2017 20:59:56 -0800","Re: not receiving JIRA notification"
"Apache Jenkins Server <jenkins@builds.apache.org>","Tue, 31 Jan 2017 15:00:05 +0000 (UTC)","Successful: HBase Generate Website"
"Apekshit Sharma <appy@cloudera.com>","Tue, 31 Jan 2017 10:22:54 -0800","Re: Reminder: Please use git am when committing patches"
"""Andrew Purtell (JIRA)"" <jira@apache.org>","Tue, 31 Jan 2017 19:02:51 +0000 (UTC)","[jira] (HBASE-17572) HMaster: Caught throwable while processing event C_M_MERGE_REGION (UndeclaredThrowableException)"
"""Appy (JIRA)"" <jira@apache.org>","Tue, 31 Jan 2017 21:40:52 +0000 (UTC)","[jira] (HBASE-17573) Some refactor in proc wals code and adding comments on some corner cases."
"""Yi Liang (JIRA)"" <jira@apache.org>","Tue, 31 Jan 2017 22:41:51 +0000 (UTC)","[jira] [Created] (HBASE-17574) Clean up how to run tests under hbase-spark module"
