"Developer","Date","Subject"
"""Jim Kellerman (JIRA)"" <jira@apache.org>","Wed, 30 Apr 2008 18:52:55 -0700 (PDT)","[jira] Updated: (HBASE-607) MultiRegionTable.makeMultiRegionTable is not deterministic enough for regression tests"
"""Jim Kellerman (JIRA)"" <jira@apache.org>","Wed, 30 Apr 2008 18:56:55 -0700 (PDT)","[jira] Updated: (HBASE-607) MultiRegionTable.makeMultiRegionTable is not deterministic enough for regression tests"
"""Jim Kellerman (JIRA)"" <jira@apache.org>","Wed, 30 Apr 2008 18:58:55 -0700 (PDT)","[jira] Updated: (HBASE-607) MultiRegionTable.makeMultiRegionTable is not deterministic enough for regression tests"
"""stack (JIRA)"" <jira@apache.org>","Wed, 30 Apr 2008 21:20:55 -0700 (PDT)","[jira] Updated: (HBASE-608) HRegionServer::getThisIP() checks hadoop config var for dns interface name"
"""stack (JIRA)"" <jira@apache.org>","Wed, 30 Apr 2008 21:46:55 -0700 (PDT)","[jira] Commented: (HBASE-607) MultiRegionTable.makeMultiRegionTable is not deterministic enough for regression tests"
"""stack (JIRA)"" <jira@apache.org>","Wed, 30 Apr 2008 21:58:55 -0700 (PDT)","[jira] Assigned: (HBASE-609) Master doesn't see regionserver edits because of clock skew"
"""stack (JIRA)"" <jira@apache.org>","Wed, 30 Apr 2008 21:58:55 -0700 (PDT)","[jira] Updated: (HBASE-609) Master doesn't see regionserver edits because of clock skew"
"Apache Hudson Server <hudson@hudson.zones.apache.org>","Thu, 1 May 2008 05:17:07 +0000 (UTC)","Build failed in Hudson: HBase-Patch #101"
"""Bryan Duxbury (JIRA)"" <jira@apache.org>","Wed, 30 Apr 2008 22:18:55 -0700 (PDT)","[jira] Commented: (HBASE-609) Master doesn't see regionserver edits because of clock skew"
"""stack (JIRA)"" <jira@apache.org>","Wed, 30 Apr 2008 22:32:55 -0700 (PDT)","[jira] Commented: (HBASE-478) offlining of table does not run reliably"
"""stack (JIRA)"" <jira@apache.org>","Wed, 30 Apr 2008 23:02:55 -0700 (PDT)","[jira] Updated: (HBASE-609) Master doesn't see regionserver edits because of clock skew"
"""Bryan Duxbury (JIRA)"" <jira@apache.org>","Wed, 30 Apr 2008 23:08:55 -0700 (PDT)","[jira] Commented: (HBASE-47) option to set TTL for columns in hbase"
"Apache Hudson Server <hudson@hudson.zones.apache.org>","Thu, 1 May 2008 06:17:06 +0000 (UTC)","Build failed in Hudson: HBase-Patch #102"
"""stack (JIRA)"" <jira@apache.org>","Wed, 30 Apr 2008 23:28:55 -0700 (PDT)","[jira] Updated: (HBASE-82) row keys should be array of bytes with a specified comparator"
"""Bryan Duxbury (JIRA)"" <jira@apache.org>","Wed, 30 Apr 2008 23:32:55 -0700 (PDT)","[jira] Commented: (HBASE-47) option to set TTL for columns in hbase"
"""Andrew Purtell (JIRA)"" <jira@apache.org>","Thu, 1 May 2008 09:42:55 -0700 (PDT)","[jira] Commented: (HBASE-47) option to set TTL for columns in hbase"
"""Jim Kellerman (JIRA)"" <jira@apache.org>","Thu, 1 May 2008 10:44:55 -0700 (PDT)","[jira] Updated: (HBASE-607) MultiRegionTable.makeMultiRegionTable is not deterministic enough for regression tests"
"Apache Hudson Server <hudson@hudson.zones.apache.org>","Thu, 1 May 2008 18:17:20 +0000 (UTC)","Build failed in Hudson: HBase-Patch #103"
"""Jim R. Wilson (JIRA)"" <jira@apache.org>","Thu, 1 May 2008 13:08:55 -0700 (PDT)","[jira] Commented: (HBASE-608) HRegionServer::getThisIP() checks hadoop config var for dns interface name"
"Andrew Purtell <apurtell@yahoo.com>","Thu, 1 May 2008 15:42:44 -0700 (PDT)","test failures on trunk"
"""stack (JIRA)"" <jira@apache.org>","Thu, 1 May 2008 16:40:55 -0700 (PDT)","[jira] Updated: (HBASE-82) row keys should be array of bytes with a specified comparator"
"Jim Kellerman <jim@powerset.com>","Thu, 1 May 2008 17:15:09 -0700","RE: test failures on trunk"
"Andrew Purtell <apurtell@yahoo.com>","Thu, 1 May 2008 17:50:25 -0700 (PDT)","RE: test failures on trunk"
"""Jim Kellerman (JIRA)"" <jira@apache.org>","Thu, 1 May 2008 18:31:55 -0700 (PDT)","[jira] Commented: (HBASE-478) offlining of table does not run reliably"
"""Andrew Purtell (JIRA)"" <jira@apache.org>","Thu, 1 May 2008 18:41:55 -0700 (PDT)","[jira] Updated: (HBASE-47) option to set TTL for columns in hbase"
"""Andrew Purtell (JIRA)"" <jira@apache.org>","Thu, 1 May 2008 18:41:55 -0700 (PDT)","[jira] Commented: (HBASE-47) option to set TTL for columns in hbase"
"""stack (JIRA)"" <jira@apache.org>","Thu, 1 May 2008 20:00:55 -0700 (PDT)","[jira] Created: (HBASE-611) regionserver should do basic health check before reporting alls-well to the master"
"""stack (JIRA)"" <jira@apache.org>","Thu, 1 May 2008 23:18:56 -0700 (PDT)","[jira] Updated: (HBASE-82) row keys should be array of bytes with a specified comparator"
"""Tom White"" <tom.e.white@gmail.com>","Fri, 2 May 2008 10:45:42 +0100","Fwd: SVN commit restored [READ ONLY AGAIN]"
"""Andrew Purtell (JIRA)"" <jira@apache.org>","Fri, 2 May 2008 14:30:55 -0700 (PDT)","[jira] Created: (HBASE-612) HColumnDescriptor's readFields() method is version aware but its write() method is not"
"""Andrew Purtell (JIRA)"" <jira@apache.org>","Fri, 2 May 2008 14:30:55 -0700 (PDT)","[jira] Updated: (HBASE-612) HColumnDescriptor's readFields() method is version aware but its write() method is not"
"""Andrew Purtell (JIRA)"" <jira@apache.org>","Fri, 2 May 2008 14:38:55 -0700 (PDT)","[jira] Commented: (HBASE-47) option to set TTL for columns in hbase"
"""Andrew Purtell (JIRA)"" <jira@apache.org>","Fri, 2 May 2008 14:38:55 -0700 (PDT)","[jira] Updated: (HBASE-47) option to set TTL for columns in hbase"
"""Jim Kellerman (JIRA)"" <jira@apache.org>","Fri, 2 May 2008 16:48:55 -0700 (PDT)","[jira] Updated: (HBASE-478) offlining of table does not run reliably"
"""stack (JIRA)"" <jira@apache.org>","Fri, 2 May 2008 16:48:55 -0700 (PDT)","[jira] Created: (HBASE-613) Not count of cell versions properly"
"""Jim Kellerman (JIRA)"" <jira@apache.org>","Fri, 2 May 2008 16:50:55 -0700 (PDT)","[jira] Updated: (HBASE-478) offlining of table does not run reliably"
"""Jim Kellerman (JIRA)"" <jira@apache.org>","Fri, 2 May 2008 16:54:55 -0700 (PDT)","[jira] Commented: (HBASE-478) offlining of table does not run reliably"
"""Jim Kellerman (JIRA)"" <jira@apache.org>","Fri, 2 May 2008 16:54:55 -0700 (PDT)","[jira] Updated: (HBASE-478) offlining of table does not run reliably"
"""stack (JIRA)"" <jira@apache.org>","Sat, 3 May 2008 15:34:55 -0700 (PDT)","[jira] Updated: (HBASE-82) row keys should be array of bytes with a specified comparator"
"""stack (JIRA)"" <jira@apache.org>","Sat, 3 May 2008 23:23:55 -0700 (PDT)","[jira] Commented: (HBASE-478) offlining of table does not run reliably"
"""Jim Kellerman (JIRA)"" <jira@apache.org>","Sun, 4 May 2008 14:30:55 -0700 (PDT)","[jira] Updated: (HBASE-478) offlining of table does not run reliably"
"""Jim Kellerman (JIRA)"" <jira@apache.org>","Sun, 4 May 2008 14:32:55 -0700 (PDT)","[jira] Updated: (HBASE-478) offlining of table does not run reliably"
"""Jim Kellerman (JIRA)"" <jira@apache.org>","Sun, 4 May 2008 14:32:55 -0700 (PDT)","[jira] Updated: (HBASE-478) offlining of table does not run reliably"
"""stack (JIRA)"" <jira@apache.org>","Mon, 5 May 2008 09:25:55 -0700 (PDT)","[jira] Updated: (HBASE-33) Add a HTable get/obstainScanner method that retrieves all versions of a particular column and row between two timestamps"
"""stack (JIRA)"" <jira@apache.org>","Mon, 5 May 2008 10:01:55 -0700 (PDT)","[jira] Commented: (HBASE-478) offlining of table does not run reliably"
"""stack (JIRA)"" <jira@apache.org>","Mon, 5 May 2008 10:31:56 -0700 (PDT)","[jira] Updated: (HBASE-613) Timestamp-anchored scanning fails to find all records"
"""stack (JIRA)"" <jira@apache.org>","Mon, 5 May 2008 13:19:55 -0700 (PDT)","[jira] Created: (HBASE-614) Retiring regions is not used; exploit or remove"
"""Jim Kellerman (JIRA)"" <jira@apache.org>","Mon, 5 May 2008 14:53:55 -0700 (PDT)","[jira] Commented: (HBASE-478) offlining of table does not run reliably"
"""stack (JIRA)"" <jira@apache.org>","Mon, 5 May 2008 16:11:56 -0700 (PDT)","[jira] Commented: (HBASE-478) offlining of table does not run reliably"
"""Jim Kellerman (JIRA)"" <jira@apache.org>","Mon, 5 May 2008 16:57:56 -0700 (PDT)","[jira] Updated: (HBASE-478) offlining of table does not run reliably"
"""Jim Kellerman (JIRA)"" <jira@apache.org>","Mon, 5 May 2008 16:59:55 -0700 (PDT)","[jira] Updated: (HBASE-478) offlining of table does not run reliably"
"""Jim Kellerman (JIRA)"" <jira@apache.org>","Mon, 5 May 2008 18:33:55 -0700 (PDT)","[jira] Created: (HBASE-615) Region balancer oscillates during cluster startup"
"""Jim Kellerman (JIRA)"" <jira@apache.org>","Mon, 5 May 2008 20:27:56 -0700 (PDT)","[jira] Updated: (HBASE-478) offlining of table does not run reliably"
"""Jim Kellerman (JIRA)"" <jira@apache.org>","Mon, 5 May 2008 20:29:55 -0700 (PDT)","[jira] Updated: (HBASE-478) offlining of table does not run reliably"
"""stack (JIRA)"" <jira@apache.org>","Mon, 5 May 2008 21:01:55 -0700 (PDT)","[jira] Created: (HBASE-616) "" We slept XXXXXX ms, ten times longer than scheduled: 3000"" happens frequently."
"""stack (JIRA)"" <jira@apache.org>","Mon, 5 May 2008 22:57:55 -0700 (PDT)","[jira] Updated: (HBASE-82) row keys should be array of bytes with a specified comparator"
"""Jim Kellerman (JIRA)"" <jira@apache.org>","Tue, 6 May 2008 12:12:55 -0700 (PDT)","[jira] Updated: (HBASE-569) DemoClient.php"
"""Daniel Leffel (JIRA)"" <jira@apache.org>","Tue, 6 May 2008 13:12:55 -0700 (PDT)","[jira] Created: (HBASE-617) Region Server not Exiting after failing"
"""Bryan Duxbury (JIRA)"" <jira@apache.org>","Tue, 6 May 2008 13:28:55 -0700 (PDT)","[jira] Commented: (HBASE-47) option to set TTL for columns in hbase"
"""Andrew Purtell (JIRA)"" <jira@apache.org>","Tue, 6 May 2008 13:36:55 -0700 (PDT)","[jira] Commented: (HBASE-47) option to set TTL for columns in hbase"
"""Jim Kellerman (JIRA)"" <jira@apache.org>","Tue, 6 May 2008 14:12:55 -0700 (PDT)","[jira] Commented: (HBASE-617) Region Server not Exiting after failing"
"""stack (JIRA)"" <jira@apache.org>","Tue, 6 May 2008 14:24:55 -0700 (PDT)","[jira] Commented: (HBASE-617) Region Server not Exiting after failing"
"""Jim Kellerman (JIRA)"" <jira@apache.org>","Tue, 6 May 2008 15:07:55 -0700 (PDT)","[jira] Updated: (HBASE-615) Region balancer oscillates during cluster startup"
"""Jim Kellerman (JIRA)"" <jira@apache.org>","Tue, 6 May 2008 15:19:55 -0700 (PDT)","[jira] Updated: (HBASE-405) TIF and TOF use log4j directly rather than apache commons-logging"
"Apache Hudson Server <hudson@hudson.zones.apache.org>","Tue, 6 May 2008 23:20:30 +0000 (UTC)","Build failed in Hudson: HBase-Patch #104"
"""stack (JIRA)"" <jira@apache.org>","Tue, 6 May 2008 21:17:56 -0700 (PDT)","[jira] Resolved: (HBASE-47) option to set TTL for columns in hbase"
"""stack (JIRA)"" <jira@apache.org>","Tue, 6 May 2008 21:27:55 -0700 (PDT)","[jira] Created: (HBASE-618) We always compact if 2 files, regardless of the compaction threshold setting"
"""stack (JIRA)"" <jira@apache.org>","Tue, 6 May 2008 21:53:55 -0700 (PDT)","[jira] Updated: (HBASE-618) We always compact if 2 files, regardless of the compaction threshold setting"
"""stack (JIRA)"" <jira@apache.org>","Tue, 6 May 2008 22:13:55 -0700 (PDT)","[jira] Updated: (HBASE-618) We always compact if 2 files, regardless of the compaction threshold setting"
"Apache Hudson Server <hudson@hudson.zones.apache.org>","Wed, 7 May 2008 05:16:47 +0000 (UTC)","Build failed in Hudson: HBase-Patch #105"
"""Bryan Duxbury (JIRA)"" <jira@apache.org>","Wed, 7 May 2008 08:00:58 -0700 (PDT)","[jira] Commented: (HBASE-618) We always compact if 2 files, regardless of the compaction threshold setting"
"""Bryan Duxbury (JIRA)"" <jira@apache.org>","Wed, 7 May 2008 08:02:56 -0700 (PDT)","[jira] Resolved: (HBASE-612) HColumnDescriptor's readFields() method is version aware but its write() method is not"
"""stack (JIRA)"" <jira@apache.org>","Wed, 7 May 2008 10:02:57 -0700 (PDT)","[jira] Updated: (HBASE-618) We always compact if 2 files, regardless of the compaction threshold setting"
"""stack (JIRA)"" <jira@apache.org>","Wed, 7 May 2008 10:12:56 -0700 (PDT)","[jira] Commented: (HBASE-478) offlining of table does not run reliably"
"""stack (JIRA)"" <jira@apache.org>","Wed, 7 May 2008 10:24:59 -0700 (PDT)","[jira] Created: (HBASE-619) Fix 'logs' link in UI"
"""stack (JIRA)"" <jira@apache.org>","Wed, 7 May 2008 10:26:57 -0700 (PDT)","[jira] Resolved: (HBASE-619) Fix 'logs' link in UI"
"""Jim Kellerman (JIRA)"" <jira@apache.org>","Wed, 7 May 2008 10:58:55 -0700 (PDT)","[jira] Updated: (HBASE-478) offlining of table does not run reliably"
"Apache Hudson Server <hudson@hudson.zones.apache.org>","Wed, 7 May 2008 18:17:45 +0000 (UTC)","Build failed in Hudson: HBase-Patch #106"
"Apache Hudson Server <hudson@hudson.zones.apache.org>","Wed, 7 May 2008 18:23:15 +0000 (UTC)","Build failed in Hudson: HBase-Patch #107"
"""Jim Kellerman (JIRA)"" <jira@apache.org>","Wed, 7 May 2008 11:34:56 -0700 (PDT)","[jira] Resolved: (HBASE-599) CME iterating return from ServerManager.getMarkedToClose"
"""Jim Kellerman (JIRA)"" <jira@apache.org>","Wed, 7 May 2008 12:18:56 -0700 (PDT)","[jira] Assigned: (HBASE-600) Filters have excessive DEBUG logging"
"""Jim Kellerman (JIRA)"" <jira@apache.org>","Wed, 7 May 2008 12:36:56 -0700 (PDT)","[jira] Resolved: (HBASE-600) Filters have excessive DEBUG logging"
"""stack (JIRA)"" <jira@apache.org>","Wed, 7 May 2008 12:50:55 -0700 (PDT)","[jira] Commented: (HBASE-616) "" We slept XXXXXX ms, ten times longer than scheduled: 3000"" happens frequently."
"""stack (JIRA)"" <jira@apache.org>","Wed, 7 May 2008 13:02:57 -0700 (PDT)","[jira] Commented: (HBASE-616) "" We slept XXXXXX ms, ten times longer than scheduled: 3000"" happens frequently."
"Apache Hudson Server <hudson@hudson.zones.apache.org>","Wed, 7 May 2008 20:17:18 +0000 (UTC)","Build failed in Hudson: HBase-Patch #108"
"""Jim Kellerman (JIRA)"" <jira@apache.org>","Wed, 7 May 2008 13:23:56 -0700 (PDT)","[jira] Resolved: (HBASE-453) undeclared throwable exception from HTable.get"
"Apache Hudson Server <hudson@hudson.zones.apache.org>","Wed, 7 May 2008 21:17:17 +0000 (UTC)","Build failed in Hudson: HBase-Patch #109"
"""Jim Kellerman (JIRA)"" <jira@apache.org>","Wed, 7 May 2008 15:09:56 -0700 (PDT)","[jira] Resolved: (HBASE-611) regionserver should do basic health check before reporting alls-well to the master"
"Apache Hudson Server <hudson@hudson.zones.apache.org>","Wed, 7 May 2008 22:17:48 +0000 (UTC)","Build failed in Hudson: HBase-Patch #110"
"""stack (JIRA)"" <jira@apache.org>","Wed, 7 May 2008 16:21:56 -0700 (PDT)","[jira] Updated: (HBASE-620) testmergetool failing in branch and trunk since hbase-618 went in"
"""stack (JIRA)"" <jira@apache.org>","Wed, 7 May 2008 16:21:56 -0700 (PDT)","[jira] Created: (HBASE-620) testmergetool failing in branch and trunk since hbase-618 went in"
"""stack (JIRA)"" <jira@apache.org>","Wed, 7 May 2008 16:49:56 -0700 (PDT)","[jira] Resolved: (HBASE-620) testmergetool failing in branch and trunk since hbase-618 went in"
"stack <stack@duboce.net>","Wed, 07 May 2008 17:03:40 -0700","[ANN] hbase-0.1.2 release candidate 1 (releases are zero-based)"
"stack <stack@duboce.net>","Wed, 07 May 2008 17:06:25 -0700","Re: [ANN] hbase-0.1.2 release candidate 1 (releases are zero-based)"
"stack <stack@duboce.net>","Wed, 07 May 2008 17:15:37 -0700","[PROPOSAL] HUG3 -- The 3rd HBase User Group meetup -- in SF, the evening of Tues, May 20th?"
"Apache Hudson Server <hudson@hudson.zones.apache.org>","Thu, 8 May 2008 00:17:06 +0000 (UTC)","Build failed in Hudson: HBase-Patch #111"
"""Daniel Leffel"" <daniel.leffel@gmail.com>","Wed, 7 May 2008 21:29:40 -0700","Advice for smaller clusters in write-heavy environments"
"Jim Kellerman <jim@powerset.com>","Thu, 8 May 2008 12:18:02 -0700","RE: [ANN] hbase-0.1.2 release candidate 1 (releases are zero-based)"
"""Jim Kellerman (JIRA)"" <jira@apache.org>","Thu, 8 May 2008 12:46:40 -0700 (PDT)","[jira] Assigned: (HBASE-614) Retiring regions is not used; exploit or remove"
"""Jim Kellerman (JIRA)"" <jira@apache.org>","Thu, 8 May 2008 13:57:08 -0700 (PDT)","[jira] Commented: (HBASE-614) Retiring regions is not used; exploit or remove"
"""Jim Kellerman (JIRA)"" <jira@apache.org>","Thu, 8 May 2008 16:46:55 -0700 (PDT)","[jira] Resolved: (HBASE-614) Retiring regions is not used; exploit or remove"
"Apache Hudson Server <hudson@hudson.zones.apache.org>","Fri, 9 May 2008 00:17:37 +0000 (UTC)","Build failed in Hudson: HBase-Patch #112"
"""stack (JIRA)"" <jira@apache.org>","Thu, 8 May 2008 17:20:57 -0700 (PDT)","[jira] Updated: (HBASE-82) row keys should be array of bytes with a specified comparator"
"""Jim Kellerman (JIRA)"" <jira@apache.org>","Fri, 9 May 2008 08:36:56 -0700 (PDT)","[jira] Assigned: (HBASE-538) Improve exceptions that come out on client-side"
"""stack (JIRA)"" <jira@apache.org>","Fri, 9 May 2008 10:28:55 -0700 (PDT)","[jira] Created: (HBASE-621) Make MAX_VERSIONS work like TTL: In scans and gets, check MAX_VERSIONs setting and return that many only rather than wait on compaction"
"""stack (JIRA)"" <jira@apache.org>","Sun, 11 May 2008 17:07:55 -0700 (PDT)","[jira] Updated: (HBASE-82) row keys should be array of bytes with a specified comparator"
"""stack (JIRA)"" <jira@apache.org>","Mon, 12 May 2008 11:26:55 -0700 (PDT)","[jira] Commented: (HBASE-23) UI listing regions should be sorted by address and show additional region state"
"""Jean-Daniel Cryans (JIRA)"" <jira@apache.org>","Mon, 12 May 2008 11:30:55 -0700 (PDT)","[jira] Commented: (HBASE-23) UI listing regions should be sorted by address and show additional region state"
"""stack (JIRA)"" <jira@apache.org>","Mon, 12 May 2008 11:30:55 -0700 (PDT)","[jira] Commented: (HBASE-23) UI listing regions should be sorted by address and show additional region state"
"""Jean-Daniel Cryans (JIRA)"" <jira@apache.org>","Mon, 12 May 2008 11:50:55 -0700 (PDT)","[jira] Commented: (HBASE-23) UI listing regions should be sorted by address and show additional region state"
"""stack (JIRA)"" <jira@apache.org>","Mon, 12 May 2008 12:18:55 -0700 (PDT)","[jira] Commented: (HBASE-23) UI listing regions should be sorted by address and show additional region state"
"""Jean-Daniel Cryans (JIRA)"" <jira@apache.org>","Mon, 12 May 2008 13:45:55 -0700 (PDT)","[jira] Commented: (HBASE-23) UI listing regions should be sorted by address and show additional region state"
"""Jim Kellerman (JIRA)"" <jira@apache.org>","Mon, 12 May 2008 13:51:55 -0700 (PDT)","[jira] Created: (HBASE-622) Remove StaticTestEnvironment and put a log4j.properties in src/test"
"""Jean-Daniel Cryans (JIRA)"" <jira@apache.org>","Mon, 12 May 2008 14:11:55 -0700 (PDT)","[jira] Commented: (HBASE-23) UI listing regions should be sorted by address and show additional region state"
"""Jim Kellerman (JIRA)"" <jira@apache.org>","Mon, 12 May 2008 14:25:55 -0700 (PDT)","[jira] Resolved: (HBASE-622) Remove StaticTestEnvironment and put a log4j.properties in src/test"
"""stack (JIRA)"" <jira@apache.org>","Mon, 12 May 2008 14:33:55 -0700 (PDT)","[jira] Commented: (HBASE-23) UI listing regions should be sorted by address and show additional region state"
"Apache Hudson Server <hudson@hudson.zones.apache.org>","Mon, 12 May 2008 22:17:23 +0000 (UTC)","Build failed in Hudson: HBase-Patch #113"
"""Jean-Daniel Cryans (JIRA)"" <jira@apache.org>","Mon, 12 May 2008 15:27:55 -0700 (PDT)","[jira] Commented: (HBASE-23) UI listing regions should be sorted by address and show additional region state"
"""Jean-Daniel Cryans (JIRA)"" <jira@apache.org>","Mon, 12 May 2008 15:56:55 -0700 (PDT)","[jira] Commented: (HBASE-23) UI listing regions should be sorted by address and show additional region state"
"""stack (JIRA)"" <jira@apache.org>","Mon, 12 May 2008 16:08:55 -0700 (PDT)","[jira] Commented: (HBASE-23) UI listing regions should be sorted by address and show additional region state"
"""stack (JIRA)"" <jira@apache.org>","Mon, 12 May 2008 17:56:55 -0700 (PDT)","[jira] Updated: (HBASE-82) row keys should be array of bytes with a specified comparator"
"""stack (JIRA)"" <jira@apache.org>","Mon, 12 May 2008 17:56:55 -0700 (PDT)","[jira] Updated: (HBASE-82) row keys should be array of bytes with a specified comparator"
"""stack (JIRA)"" <jira@apache.org>","Mon, 12 May 2008 17:58:55 -0700 (PDT)","[jira] Created: (HBASE-623) migration script for hbase-82"
"""stack (JIRA)"" <jira@apache.org>","Mon, 12 May 2008 22:30:56 -0700 (PDT)","[jira] Commented: (HBASE-82) row keys should be array of bytes with a specified comparator"
"""Jim Kellerman (JIRA)"" <jira@apache.org>","Tue, 13 May 2008 08:28:55 -0700 (PDT)","[jira] Created: (HBASE-624) Master will shut down if number of active region servers is zero even if shutdown was not requested"
"Apache Hudson Server <hudson@hudson.zones.apache.org>","Tue, 13 May 2008 16:17:04 +0000 (UTC)","Build failed in Hudson: HBase-Patch #114"
"""Jim Kellerman (JIRA)"" <jira@apache.org>","Tue, 13 May 2008 09:31:55 -0700 (PDT)","[jira] Commented: (HBASE-624) Master will shut down if number of active region servers is zero even if shutdown was not requested"
"""stack (JIRA)"" <jira@apache.org>","Tue, 13 May 2008 09:33:55 -0700 (PDT)","[jira] Created: (HBASE-625) cluster load history: emissions and graphs"
"""stack (JIRA)"" <jira@apache.org>","Tue, 13 May 2008 10:19:56 -0700 (PDT)","[jira] Commented: (HBASE-82) row keys should be array of bytes with a specified comparator"
"""Jim Kellerman (JIRA)"" <jira@apache.org>","Tue, 13 May 2008 11:27:55 -0700 (PDT)","[jira] Resolved: (HBASE-624) Master will shut down if number of active region servers is zero even if shutdown was not requested"
"""Jean-Daniel Cryans (JIRA)"" <jira@apache.org>","Tue, 13 May 2008 11:57:55 -0700 (PDT)","[jira] Updated: (HBASE-23) UI listing regions should be sorted by address and show additional region state"
"Apache Hudson Server <hudson@hudson.zones.apache.org>","Tue, 13 May 2008 19:17:10 +0000 (UTC)","Build failed in Hudson: HBase-Patch #115"
"""Jean-Daniel Cryans (JIRA)"" <jira@apache.org>","Tue, 13 May 2008 12:43:55 -0700 (PDT)","[jira] Updated: (HBASE-23) UI listing regions should be sorted by address and show additional region state"
"""Jean-Daniel Cryans (JIRA)"" <jira@apache.org>","Tue, 13 May 2008 13:05:55 -0700 (PDT)","[jira] Created: (HBASE-626) Use Visitor pattern in MetaRegion to reduce code clones in HTable and HConnectionManager"
"""Jean-Daniel Cryans (JIRA)"" <jira@apache.org>","Tue, 13 May 2008 13:29:55 -0700 (PDT)","[jira] Commented: (HBASE-626) Use Visitor pattern in MetaRegion to reduce code clones in HTable and HConnectionManager"
"""stack (JIRA)"" <jira@apache.org>","Tue, 13 May 2008 13:53:55 -0700 (PDT)","[jira] Commented: (HBASE-626) Use Visitor pattern in MetaRegion to reduce code clones in HTable and HConnectionManager"
"""Jim Kellerman (JIRA)"" <jira@apache.org>","Tue, 13 May 2008 14:41:55 -0700 (PDT)","[jira] Updated: (HBASE-538) Improve exceptions that come out on client-side"
"""Jim Kellerman (JIRA)"" <jira@apache.org>","Tue, 13 May 2008 14:43:55 -0700 (PDT)","[jira] Updated: (HBASE-538) Improve exceptions that come out on client-side"
"""stack (JIRA)"" <jira@apache.org>","Tue, 13 May 2008 15:01:57 -0700 (PDT)","[jira] Updated: (HBASE-82) row keys should be array of bytes with a specified comparator"
"""stack (JIRA)"" <jira@apache.org>","Tue, 13 May 2008 15:25:55 -0700 (PDT)","[jira] Commented: (HBASE-538) Improve exceptions that come out on client-side"
"stack <stack@duboce.net>","Tue, 13 May 2008 21:52:31 -0700","[ANN] HUG3 -- The Third HBase User Group Meeting, 20th May in San Francisco"
"""stack (JIRA)"" <jira@apache.org>","Tue, 13 May 2008 23:19:55 -0700 (PDT)","[jira] Commented: (HBASE-23) UI listing regions should be sorted by address and show additional region state"
"stack <stack@duboce.net>","Tue, 13 May 2008 23:51:31 -0700","[ANN] hbase-0.1.2 release now available for download"
"""stack (JIRA)"" <jira@apache.org>","Wed, 14 May 2008 00:19:55 -0700 (PDT)","[jira] Commented: (HBASE-82) row keys should be array of bytes with a specified comparator"
"""Jean-Daniel Cryans (JIRA)"" <jira@apache.org>","Wed, 14 May 2008 07:01:55 -0700 (PDT)","[jira] Commented: (HBASE-23) UI listing regions should be sorted by address and show additional region state"
"""Jean-Daniel Cryans (JIRA)"" <jira@apache.org>","Wed, 14 May 2008 09:12:56 -0700 (PDT)","[jira] Updated: (HBASE-23) UI listing regions should be sorted by address and show additional region state"
"""Jean-Daniel Cryans (JIRA)"" <jira@apache.org>","Wed, 14 May 2008 10:26:56 -0700 (PDT)","[jira] Commented: (HBASE-626) Use Visitor pattern in MetaRegion to reduce code clones in HTable and HConnectionManager"
"""stack (JIRA)"" <jira@apache.org>","Wed, 14 May 2008 10:38:55 -0700 (PDT)","[jira] Commented: (HBASE-626) Use Visitor pattern in MetaRegion to reduce code clones in HTable and HConnectionManager"
"""Jim Kellerman (JIRA)"" <jira@apache.org>","Wed, 14 May 2008 11:08:55 -0700 (PDT)","[jira] Updated: (HBASE-538) Improve exceptions that come out on client-side"
"Apache Hudson Server <hudson@hudson.zones.apache.org>","Wed, 14 May 2008 18:17:06 +0000 (UTC)","Build failed in Hudson: HBase-Patch #116"
"""stack (JIRA)"" <jira@apache.org>","Wed, 14 May 2008 12:08:55 -0700 (PDT)","[jira] Resolved: (HBASE-23) UI listing regions should be sorted by address and show additional region state"
"Apache Hudson Server <hudson@hudson.zones.apache.org>","Wed, 14 May 2008 19:17:07 +0000 (UTC)","Build failed in Hudson: HBase-Patch #117"
"Apache Hudson Server <hudson@hudson.zones.apache.org>","Wed, 14 May 2008 23:17:19 +0000 (UTC)","Build failed in Hudson: HBase-Patch #118"
"""stack (JIRA)"" <jira@apache.org>","Wed, 14 May 2008 18:19:55 -0700 (PDT)","[jira] Updated: (HBASE-82) row keys should be array of bytes with a specified comparator"
"Apache Hudson Server <hudson@hudson.zones.apache.org>","Thu, 15 May 2008 04:16:51 +0000 (UTC)","Build failed in Hudson: HBase-Patch #119"
"Apache Hudson Server <hudson@hudson.zones.apache.org>","Thu, 15 May 2008 05:17:06 +0000 (UTC)","Build failed in Hudson: HBase-Patch #120"
"""stack (JIRA)"" <jira@apache.org>","Wed, 14 May 2008 22:27:55 -0700 (PDT)","[jira] Updated: (HBASE-569) DemoClient.php"
"""stack (JIRA)"" <jira@apache.org>","Wed, 14 May 2008 22:55:55 -0700 (PDT)","[jira] Commented: (HBASE-481) Use smaller dataset in TestTableIndex and TestTableMapReduce"
"""stack (JIRA)"" <jira@apache.org>","Wed, 14 May 2008 23:07:55 -0700 (PDT)","[jira] Resolved: (HBASE-450) [gui] mapping from row name to hosting regionserver"
"Apache Hudson Server <hudson@hudson.zones.apache.org>","Thu, 15 May 2008 06:17:35 +0000 (UTC)","Build failed in Hudson: HBase-Patch #121"
"Apache Hudson Server <hudson@hudson.zones.apache.org>","Thu, 15 May 2008 06:31:53 +0000 (UTC)","Build failed in Hudson: HBase-Patch #122"
"Apache Hudson Server <hudson@hudson.zones.apache.org>","Thu, 15 May 2008 06:32:17 +0000 (UTC)","Build failed in Hudson: HBase-Patch #123"
"Apache Hudson Server <hudson@hudson.zones.apache.org>","Thu, 15 May 2008 06:49:01 +0000 (UTC)","Build failed in Hudson: HBase-Patch #124"
"Apache Hudson Server <hudson@hudson.zones.apache.org>","Thu, 15 May 2008 07:15:24 +0000 (UTC)","Build failed in Hudson: HBase-Patch #125"
"""Bryan Duxbury (JIRA)"" <jira@apache.org>","Thu, 15 May 2008 00:21:55 -0700 (PDT)","[jira] Commented: (HBASE-481) Use smaller dataset in TestTableIndex and TestTableMapReduce"
"""Michaela Buergle (JIRA)"" <jira@apache.org>","Thu, 15 May 2008 02:59:58 -0700 (PDT)","[jira] Created: (HBASE-627) Disable table doesn't work reliably"
"""Michaela Buergle (JIRA)"" <jira@apache.org>","Thu, 15 May 2008 03:42:55 -0700 (PDT)","[jira] Updated: (HBASE-627) Disable table doesn't work reliably"
"""Michaela Buergle (JIRA)"" <jira@apache.org>","Thu, 15 May 2008 06:19:56 -0700 (PDT)","[jira] Updated: (HBASE-627) Disable table doesn't work reliably"
"""Jean-Daniel Cryans (JIRA)"" <jira@apache.org>","Thu, 15 May 2008 09:43:55 -0700 (PDT)","[jira] Updated: (HBASE-626) Use Visitor pattern in MetaRegion to reduce code clones in HTable and HConnectionManager"
"""Jean-Daniel Cryans (JIRA)"" <jira@apache.org>","Thu, 15 May 2008 10:13:55 -0700 (PDT)","[jira] Commented: (HBASE-49) [hbase] Merge region tool exposed in shell and/or in UI"
"""Jim Kellerman (JIRA)"" <jira@apache.org>","Thu, 15 May 2008 10:17:55 -0700 (PDT)","[jira] Commented: (HBASE-627) Disable table doesn't work reliably"
"""stack (JIRA)"" <jira@apache.org>","Thu, 15 May 2008 11:13:55 -0700 (PDT)","[jira] Created: (HBASE-628) automatic merging-up of too small issues"
"""stack (JIRA)"" <jira@apache.org>","Thu, 15 May 2008 11:13:55 -0700 (PDT)","[jira] Resolved: (HBASE-49) [hbase] Merge region tool exposed in shell and/or in UI"
"""stack (JIRA)"" <jira@apache.org>","Thu, 15 May 2008 11:29:55 -0700 (PDT)","[jira] Resolved: (HBASE-411) Fix fact that hadoop must be first on the CLASSPATH"
"""stack (JIRA)"" <jira@apache.org>","Thu, 15 May 2008 12:24:55 -0700 (PDT)","[jira] Resolved: (HBASE-558) Output hbase+hadoop+jvm version as well as java opts, ulimit, into master/regionserver log on startup"
"""stack (JIRA)"" <jira@apache.org>","Thu, 15 May 2008 12:30:56 -0700 (PDT)","[jira] Resolved: (HBASE-21) hbase jar has hbase-default.xml at top-level rather than under a conf dir"
"""stack (JIRA)"" <jira@apache.org>","Thu, 15 May 2008 12:38:55 -0700 (PDT)","[jira] Resolved: (HBASE-14) [hbase] Hung MR job writing hbase"
"Apache Hudson Server <hudson@hudson.zones.apache.org>","Thu, 15 May 2008 19:42:12 +0000 (UTC)","Hudson build is back to normal: HBase-Patch #126"
"""stack (JIRA)"" <jira@apache.org>","Thu, 15 May 2008 12:46:55 -0700 (PDT)","[jira] Resolved: (HBASE-593) build on hudson failing compiling jsp"
"""Jim Kellerman (JIRA)"" <jira@apache.org>","Thu, 15 May 2008 13:12:55 -0700 (PDT)","[jira] Commented: (HBASE-82) row keys should be array of bytes with a specified comparator"
"""stack (JIRA)"" <jira@apache.org>","Thu, 15 May 2008 13:38:55 -0700 (PDT)","[jira] Commented: (HBASE-626) Use Visitor pattern in MetaRegion to reduce code clones in HTable and HConnectionManager"
"""Jean-Daniel Cryans (JIRA)"" <jira@apache.org>","Thu, 15 May 2008 13:50:55 -0700 (PDT)","[jira] Commented: (HBASE-626) Use Visitor pattern in MetaRegion to reduce code clones in HTable and HConnectionManager"
"""stack (JIRA)"" <jira@apache.org>","Thu, 15 May 2008 14:34:55 -0700 (PDT)","[jira] Commented: (HBASE-82) row keys should be array of bytes with a specified comparator"
"""stack (JIRA)"" <jira@apache.org>","Thu, 15 May 2008 14:36:55 -0700 (PDT)","[jira] Commented: (HBASE-481) Use smaller dataset in TestTableIndex and TestTableMapReduce"
"""Jim Kellerman (JIRA)"" <jira@apache.org>","Thu, 15 May 2008 14:46:56 -0700 (PDT)","[jira] Commented: (HBASE-82) row keys should be array of bytes with a specified comparator"
"""Bryan Duxbury (JIRA)"" <jira@apache.org>","Thu, 15 May 2008 14:48:55 -0700 (PDT)","[jira] Commented: (HBASE-481) Use smaller dataset in TestTableIndex and TestTableMapReduce"
"""stack (JIRA)"" <jira@apache.org>","Thu, 15 May 2008 14:50:55 -0700 (PDT)","[jira] Commented: (HBASE-626) Use Visitor pattern in MetaRegion to reduce code clones in HTable and HConnectionManager"
"""stack (JIRA)"" <jira@apache.org>","Thu, 15 May 2008 14:54:55 -0700 (PDT)","[jira] Commented: (HBASE-481) Use smaller dataset in TestTableIndex and TestTableMapReduce"
"""stack (JIRA)"" <jira@apache.org>","Thu, 15 May 2008 15:00:58 -0700 (PDT)","[jira] Updated: (HBASE-82) row keys should be array of bytes"
"""stack (JIRA)"" <jira@apache.org>","Thu, 15 May 2008 15:02:55 -0700 (PDT)","[jira] Updated: (HBASE-76) Purge servers of Text"
"""stack (JIRA)"" <jira@apache.org>","Thu, 15 May 2008 15:04:55 -0700 (PDT)","[jira] Resolved: (HBASE-76) Purge servers of Text"
"""stack (JIRA)"" <jira@apache.org>","Thu, 15 May 2008 15:04:55 -0700 (PDT)","[jira] Resolved: (HBASE-404) TextSequence does not obey ISA Text semantics"
"""stack (JIRA)"" <jira@apache.org>","Thu, 15 May 2008 15:06:57 -0700 (PDT)","[jira] Resolved: (HBASE-522) Where new Text(string) might be used in client side method calls, add an overload that takes strings"
"""stack (JIRA)"" <jira@apache.org>","Thu, 15 May 2008 15:06:57 -0700 (PDT)","[jira] Resolved: (HBASE-570) Remove HQL unit test"
"""stack (JIRA)"" <jira@apache.org>","Thu, 15 May 2008 15:14:55 -0700 (PDT)","[jira] Updated: (HBASE-82) row keys should be array of bytes"
"""stack (JIRA)"" <jira@apache.org>","Thu, 15 May 2008 15:14:55 -0700 (PDT)","[jira] Assigned: (HBASE-570) Remove HQL unit test"
"""stack (JIRA)"" <jira@apache.org>","Thu, 15 May 2008 15:14:55 -0700 (PDT)","[jira] Assigned: (HBASE-76) Purge servers of Text"
"""stack (JIRA)"" <jira@apache.org>","Thu, 15 May 2008 15:14:55 -0700 (PDT)","[jira] Assigned: (HBASE-522) Where new Text(string) might be used in client side method calls, add an overload that takes strings"
"""stack (JIRA)"" <jira@apache.org>","Thu, 15 May 2008 15:16:55 -0700 (PDT)","[jira] Assigned: (HBASE-593) build on hudson failing compiling jsp"
"""Bryan Duxbury (JIRA)"" <jira@apache.org>","Thu, 15 May 2008 15:20:55 -0700 (PDT)","[jira] Resolved: (HBASE-481) Use smaller dataset in TestTableIndex and TestTableMapReduce"
"""stack (JIRA)"" <jira@apache.org>","Thu, 15 May 2008 15:20:55 -0700 (PDT)","[jira] Assigned: (HBASE-626) Use Visitor pattern in MetaRegion to reduce code clones in HTable and HConnectionManager"
"""stack (JIRA)"" <jira@apache.org>","Thu, 15 May 2008 15:20:55 -0700 (PDT)","[jira] Assigned: (HBASE-23) UI listing regions should be sorted by address and show additional region state"
"""stack (JIRA)"" <jira@apache.org>","Thu, 15 May 2008 15:22:55 -0700 (PDT)","[jira] Updated: (HBASE-610) Autoincrementing cell version"
"""stack (JIRA)"" <jira@apache.org>","Thu, 15 May 2008 15:34:55 -0700 (PDT)","[jira] Updated: (HBASE-621) Make MAX_VERSIONS work like TTL: In scans and gets, check MAX_VERSIONs setting and return that many only rather than wait on compaction"
"Apache Hudson Server <hudson@hudson.zones.apache.org>","Thu, 15 May 2008 22:48:13 +0000 (UTC)","Build failed in Hudson: HBase-Patch #128"
"""stack (JIRA)"" <jira@apache.org>","Thu, 15 May 2008 15:50:56 -0700 (PDT)","[jira] Updated: (HBASE-605) allow scanners which return results ordred by a column value"
"""stack (JIRA)"" <jira@apache.org>","Thu, 15 May 2008 15:52:55 -0700 (PDT)","[jira] Updated: (HBASE-583) RangeRowFilter, allow to choose rows based on a (lexicographic) comparison to  column's values"
"""stack (JIRA)"" <jira@apache.org>","Thu, 15 May 2008 15:54:55 -0700 (PDT)","[jira] Updated: (HBASE-617) Region Server not Exiting after failing"
"""stack (JIRA)"" <jira@apache.org>","Thu, 15 May 2008 15:54:55 -0700 (PDT)","[jira] Commented: (HBASE-553) Remove bloom filters from HBase when they become available in Hadoop"
"Apache Hudson Server <hudson@hudson.zones.apache.org>","Fri, 16 May 2008 00:02:02 +0000 (UTC)","Build failed in Hudson: HBase-Patch #129"
"""Jean-Daniel Cryans (JIRA)"" <jira@apache.org>","Thu, 15 May 2008 19:00:55 -0700 (PDT)","[jira] Commented: (HBASE-626) Use Visitor pattern in MetaRegion to reduce code clones in HTable and HConnectionManager"
"Apache Hudson Server <hudson@hudson.zones.apache.org>","Fri, 16 May 2008 15:42:31 +0000 (UTC)","Hudson build is back to normal: HBase-Patch #130"
"""Jean-Daniel Cryans (JIRA)"" <jira@apache.org>","Fri, 16 May 2008 09:11:55 -0700 (PDT)","[jira] Commented: (HBASE-626) Use Visitor pattern in MetaRegion to reduce code clones in HTable and HConnectionManager"
"""Jim Kellerman (JIRA)"" <jira@apache.org>","Fri, 16 May 2008 10:27:55 -0700 (PDT)","[jira] Created: (HBASE-629) Split reports incorrect elapsed time"
"""Jean-Daniel Cryans (JIRA)"" <jira@apache.org>","Fri, 16 May 2008 10:41:55 -0700 (PDT)","[jira] Updated: (HBASE-626) Use Visitor pattern in MetaRegion to reduce code clones in HTable and HConnectionManager"
"Apache Hudson Server <hudson@hudson.zones.apache.org>","Fri, 16 May 2008 17:56:51 +0000 (UTC)","Build failed in Hudson: HBase-Patch #131"
"""stack (JIRA)"" <jira@apache.org>","Fri, 16 May 2008 11:09:55 -0700 (PDT)","[jira] Commented: (HBASE-487) Replace hql w/ a hbase-friendly jirb or jython shell"
"""stack (JIRA)"" <jira@apache.org>","Fri, 16 May 2008 11:17:55 -0700 (PDT)","[jira] Commented: (HBASE-629) Split reports incorrect elapsed time"
"""Jean-Daniel Cryans (JIRA)"" <jira@apache.org>","Fri, 16 May 2008 13:41:55 -0700 (PDT)","[jira] Assigned: (HBASE-621) Make MAX_VERSIONS work like TTL: In scans and gets, check MAX_VERSIONs setting and return that many only rather than wait on compaction"
"""Jim Kellerman (JIRA)"" <jira@apache.org>","Fri, 16 May 2008 13:57:55 -0700 (PDT)","[jira] Updated: (HBASE-629) Split reports incorrect elapsed time"
"""stack (JIRA)"" <jira@apache.org>","Fri, 16 May 2008 14:11:55 -0700 (PDT)","[jira] Commented: (HBASE-629) Split reports incorrect elapsed time"
"""stack (JIRA)"" <jira@apache.org>","Fri, 16 May 2008 14:13:55 -0700 (PDT)","[jira] Commented: (HBASE-626) Use Visitor pattern in MetaRegion to reduce code clones in HTable and HConnectionManager"
"""Jim Kellerman (JIRA)"" <jira@apache.org>","Fri, 16 May 2008 14:47:55 -0700 (PDT)","[jira] Resolved: (HBASE-629) Split reports incorrect elapsed time"
"""Jim Kellerman (JIRA)"" <jira@apache.org>","Fri, 16 May 2008 15:27:55 -0700 (PDT)","[jira] Resolved: (HBASE-566) Hadoop has deprecated FileSystem.delete(Path) in favor of FileSystem.delete(Path, boolean)"
"Apache Hudson Server <hudson@hudson.zones.apache.org>","Fri, 16 May 2008 23:35:20 +0000 (UTC)","Build failed in Hudson: HBase-Patch #132"
"""stack (JIRA)"" <jira@apache.org>","Sun, 18 May 2008 15:01:55 -0700 (PDT)","[jira] Updated: (HBASE-623) migration script for hbase-82"
"""Jim Kellerman (JIRA)"" <jira@apache.org>","Sun, 18 May 2008 23:11:55 -0700 (PDT)","[jira] Assigned: (HBASE-613) Timestamp-anchored scanning fails to find all records"
"""Jim Kellerman (JIRA)"" <jira@apache.org>","Sun, 18 May 2008 23:11:55 -0700 (PDT)","[jira] Assigned: (HBASE-33) Add a HTable get/obstainScanner method that retrieves all versions of a particular column and row between two timestamps"
"""Michaela Buergle (JIRA)"" <jira@apache.org>","Mon, 19 May 2008 03:07:55 -0700 (PDT)","[jira] Commented: (HBASE-627) Disable table doesn't work reliably"
"""Michaela Buergle (JIRA)"" <jira@apache.org>","Mon, 19 May 2008 08:49:58 -0700 (PDT)","[jira] Commented: (HBASE-627) Disable table doesn't work reliably"
"stack <stack@duboce.net>","Mon, 19 May 2008 09:45:26 -0700","[ANN] REMINDER HBase User Group Meeting 3: Tomorrow night, May 20th, in San Franciso"
"""stack (JIRA)"" <jira@apache.org>","Mon, 19 May 2008 09:55:55 -0700 (PDT)","[jira] Commented: (HBASE-627) Disable table doesn't work reliably"
"""stack (JIRA)"" <jira@apache.org>","Mon, 19 May 2008 11:39:55 -0700 (PDT)","[jira] Updated: (HBASE-623) migration script for hbase-82"
"""stack (JIRA)"" <jira@apache.org>","Mon, 19 May 2008 11:39:55 -0700 (PDT)","[jira] Updated: (HBASE-623) migration script for hbase-82"
"""stack (JIRA)"" <jira@apache.org>","Mon, 19 May 2008 12:39:55 -0700 (PDT)","[jira] Commented: (HBASE-605) allow scanners which return results ordred by a column value"
"""stack (JIRA)"" <jira@apache.org>","Mon, 19 May 2008 12:53:55 -0700 (PDT)","[jira] Commented: (HBASE-583) RangeRowFilter, allow to choose rows based on a (lexicographic) comparison to  column's values"
"""Jim Kellerman (JIRA)"" <jira@apache.org>","Mon, 19 May 2008 15:25:55 -0700 (PDT)","[jira] Commented: (HBASE-623) migration script for hbase-82"
"""stack (JIRA)"" <jira@apache.org>","Mon, 19 May 2008 15:48:55 -0700 (PDT)","[jira] Updated: (HBASE-623) migration script for hbase-82"
"Apache Hudson Server <hudson@hudson.zones.apache.org>","Tue, 20 May 2008 00:11:02 +0000 (UTC)","Build failed in Hudson: HBase-Patch #133"
"""stack (JIRA)"" <jira@apache.org>","Mon, 19 May 2008 20:06:55 -0700 (PDT)","[jira] Updated: (HBASE-504) Allow HMsg's carry a payload: e.g. exception that happened over on the remote side."
"""stack (JIRA)"" <jira@apache.org>","Mon, 19 May 2008 21:28:57 -0700 (PDT)","[jira] Created: (HBASE-630) Default hbase.rootdir is garbage"
"""stack (JIRA)"" <jira@apache.org>","Mon, 19 May 2008 21:32:55 -0700 (PDT)","[jira] Resolved: (HBASE-630) Default hbase.rootdir is garbage"
"""stack (JIRA)"" <jira@apache.org>","Mon, 19 May 2008 21:32:55 -0700 (PDT)","[jira] Assigned: (HBASE-630) Default hbase.rootdir is garbage"
"""stack (JIRA)"" <jira@apache.org>","Mon, 19 May 2008 21:32:55 -0700 (PDT)","[jira] Assigned: (HBASE-504) Allow HMsg's carry a payload: e.g. exception that happened over on the remote side."
"""stack (JIRA)"" <jira@apache.org>","Mon, 19 May 2008 22:30:55 -0700 (PDT)","[jira] Updated: (HBASE-504) Allow HMsg's carry a payload: e.g. exception that happened over on the remote side."
"Apache Hudson Server <hudson@hudson.zones.apache.org>","Tue, 20 May 2008 05:49:49 +0000 (UTC)","Build failed in Hudson: HBase-Patch #134"
"""Jean-Daniel Cryans (JIRA)"" <jira@apache.org>","Tue, 20 May 2008 07:34:55 -0700 (PDT)","[jira] Updated: (HBASE-626) Use Visitor pattern in MetaRegion to reduce code clones in HTable and HConnectionManager"
"""Jean-Daniel Cryans (JIRA)"" <jira@apache.org>","Tue, 20 May 2008 07:38:55 -0700 (PDT)","[jira] Updated: (HBASE-626) Use Visitor pattern in MetaRegion to reduce code clones in HTable and HConnectionManager"
"""Jean-Daniel Cryans (JIRA)"" <jira@apache.org>","Tue, 20 May 2008 07:38:55 -0700 (PDT)","[jira] Updated: (HBASE-626) Use Visitor pattern in MetaRegion to reduce code clones in HTable and HConnectionManager"
"""Jean-Daniel Cryans (JIRA)"" <jira@apache.org>","Tue, 20 May 2008 08:12:55 -0700 (PDT)","[jira] Commented: (HBASE-621) Make MAX_VERSIONS work like TTL: In scans and gets, check MAX_VERSIONs setting and return that many only rather than wait on compaction"
"""Jean-Daniel Cryans (JIRA)"" <jira@apache.org>","Tue, 20 May 2008 09:17:55 -0700 (PDT)","[jira] Commented: (HBASE-621) Make MAX_VERSIONS work like TTL: In scans and gets, check MAX_VERSIONs setting and return that many only rather than wait on compaction"
"""stack (JIRA)"" <jira@apache.org>","Tue, 20 May 2008 09:55:55 -0700 (PDT)","[jira] Resolved: (HBASE-626) Use Visitor pattern in MetaRegion to reduce code clones in HTable and HConnectionManager"
"""stack (JIRA)"" <jira@apache.org>","Tue, 20 May 2008 10:15:55 -0700 (PDT)","[jira] Commented: (HBASE-621) Make MAX_VERSIONS work like TTL: In scans and gets, check MAX_VERSIONs setting and return that many only rather than wait on compaction"
"""Jean-Daniel Cryans (JIRA)"" <jira@apache.org>","Tue, 20 May 2008 10:23:55 -0700 (PDT)","[jira] Commented: (HBASE-533) Region Historian"
"""Jean-Daniel Cryans (JIRA)"" <jira@apache.org>","Tue, 20 May 2008 13:10:55 -0700 (PDT)","[jira] Updated: (HBASE-621) Make MAX_VERSIONS work like TTL: In scans and gets, check MAX_VERSIONs setting and return that many only rather than wait on compaction"
"""stack (JIRA)"" <jira@apache.org>","Tue, 20 May 2008 13:42:55 -0700 (PDT)","[jira] Resolved: (HBASE-621) Make MAX_VERSIONS work like TTL: In scans and gets, check MAX_VERSIONs setting and return that many only rather than wait on compaction"
"""Jean-Daniel Cryans (JIRA)"" <jira@apache.org>","Tue, 20 May 2008 13:44:55 -0700 (PDT)","[jira] Assigned: (HBASE-533) Region Historian"
"""stack (JIRA)"" <jira@apache.org>","Tue, 20 May 2008 14:30:56 -0700 (PDT)","[jira] Updated: (HBASE-504) Allow HMsg's carry a payload: e.g. exception that happened over on the remote side."
"""stack (JIRA)"" <jira@apache.org>","Tue, 20 May 2008 14:30:56 -0700 (PDT)","[jira] Updated: (HBASE-504) Allow HMsg's carry a payload: e.g. exception that happened over on the remote side."
"""Jim Kellerman (JIRA)"" <jira@apache.org>","Tue, 20 May 2008 15:24:55 -0700 (PDT)","[jira] Commented: (HBASE-504) Allow HMsg's carry a payload: e.g. exception that happened over on the remote side."
"""stack (JIRA)"" <jira@apache.org>","Tue, 20 May 2008 15:30:57 -0700 (PDT)","[jira] Updated: (HBASE-504) Allow HMsg's carry a payload: e.g. exception that happened over on the remote side."
"Apache Hudson Server <hudson@hudson.zones.apache.org>","Tue, 20 May 2008 23:47:23 +0000 (UTC)","Build failed in Hudson: HBase-Patch #136"
"""Clint Morgan"" <cm-public@troove.net>","Tue, 20 May 2008 17:06:58 -0700","Re: [jira] Updated: (HBASE-82) row keys should be array of bytes"
"""Bryan Duxbury (JIRA)"" <jira@apache.org>","Tue, 20 May 2008 19:48:55 -0700 (PDT)","[jira] Commented: (HBASE-42) Set region split size on table creation"
"""Ryan Lynch (JIRA)"" <jira@apache.org>","Tue, 20 May 2008 22:30:56 -0700 (PDT)","[jira] Created: (HBASE-631) HTable.getRow() for only a column family"
"""Bryan Duxbury (JIRA)"" <jira@apache.org>","Wed, 21 May 2008 07:57:55 -0700 (PDT)","[jira] Created: (HBASE-632) HTable.getMetadata is very inefficient"
"""Jim Kellerman (JIRA)"" <jira@apache.org>","Wed, 21 May 2008 08:23:55 -0700 (PDT)","[jira] Updated: (HBASE-613) Timestamp-anchored scanning fails to find all records"
"""stack (JIRA)"" <jira@apache.org>","Wed, 21 May 2008 09:21:55 -0700 (PDT)","[jira] Commented: (HBASE-613) Timestamp-anchored scanning fails to find all records"
"""stack (JIRA)"" <jira@apache.org>","Wed, 21 May 2008 10:23:55 -0700 (PDT)","[jira] Assigned: (HBASE-42) Set region split size on table creation"
"""stack (JIRA)"" <jira@apache.org>","Wed, 21 May 2008 10:59:55 -0700 (PDT)","[jira] Updated: (HBASE-633) See if compacting to local fs runs faster than compacting into hdfs"
"""stack (JIRA)"" <jira@apache.org>","Wed, 21 May 2008 10:59:55 -0700 (PDT)","[jira] Created: (HBASE-633) See if compacting to local fs runs faster than compacting into hdfs"
"""stack (JIRA)"" <jira@apache.org>","Wed, 21 May 2008 14:45:55 -0700 (PDT)","[jira] Created: (HBASE-634) hbase hungup on hdfs: appending to HLog.  Won't shut down."
"""Clint Morgan (JIRA)"" <jira@apache.org>","Wed, 21 May 2008 15:25:55 -0700 (PDT)","[jira] Updated: (HBASE-605) allow scanners which return results ordred by a column value"
"""Clint Morgan (JIRA)"" <jira@apache.org>","Wed, 21 May 2008 15:33:55 -0700 (PDT)","[jira] Updated: (HBASE-583) RangeRowFilter, allow to choose rows based on a (lexicographic) comparison to  column's values"
"""Clint Morgan (JIRA)"" <jira@apache.org>","Wed, 21 May 2008 15:41:55 -0700 (PDT)","[jira] Commented: (HBASE-583) RangeRowFilter, allow to choose rows based on a (lexicographic) comparison to  column's values"
"Apache Hudson Server <hudson@hudson.zones.apache.org>","Wed, 21 May 2008 23:25:08 +0000 (UTC)","Build failed in Hudson: HBase-Patch #137"
"stack <stack@duboce.net>","Wed, 21 May 2008 17:21:12 -0700","Re: [jira] Updated: (HBASE-82) row keys should be array of bytes"
"""stack (JIRA)"" <jira@apache.org>","Wed, 21 May 2008 17:51:55 -0700 (PDT)","[jira] Resolved: (HBASE-634) hbase hungup on hdfs: appending to HLog.  Won't shut down."
"""Daniel Leffel (JIRA)"" <jira@apache.org>","Wed, 21 May 2008 17:51:55 -0700 (PDT)","[jira] Created: (HBASE-635) Individual TableMap tasks don't report percentage complete."
"""stack (JIRA)"" <jira@apache.org>","Wed, 21 May 2008 20:57:57 -0700 (PDT)","[jira] Commented: (HBASE-583) RangeRowFilter, allow to choose rows based on a (lexicographic) comparison to  column's values"
"""stack (JIRA)"" <jira@apache.org>","Wed, 21 May 2008 21:15:55 -0700 (PDT)","[jira] Commented: (HBASE-605) allow scanners which return results ordred by a column value"
"Apache Hudson Server <hudson@hudson.zones.apache.org>","Thu, 22 May 2008 04:48:40 +0000 (UTC)","Build failed in Hudson: HBase-Patch #138"
"""Bryan Duxbury (JIRA)"" <jira@apache.org>","Thu, 22 May 2008 07:11:56 -0700 (PDT)","[jira] Commented: (HBASE-615) Region balancer oscillates during cluster startup"
"""Bryan Duxbury (JIRA)"" <jira@apache.org>","Thu, 22 May 2008 07:13:56 -0700 (PDT)","[jira] Updated: (HBASE-615) Region balancer oscillates during cluster startup"
"""Clint Morgan (JIRA)"" <jira@apache.org>","Thu, 22 May 2008 09:21:55 -0700 (PDT)","[jira] Updated: (HBASE-583) RangeRowFilter, allow to choose rows based on a (lexicographic) comparison to  column's values"
"""stack (JIRA)"" <jira@apache.org>","Thu, 22 May 2008 10:19:55 -0700 (PDT)","[jira] Updated: (HBASE-583) RangeRowFilter, allow to choose rows based on a (lexicographic) comparison to  column's values"
"Apache Hudson Server <hudson@hudson.zones.apache.org>","Thu, 22 May 2008 17:49:31 +0000 (UTC)","Build failed in Hudson: HBase-Patch #139"
"""Clint Morgan (JIRA)"" <jira@apache.org>","Thu, 22 May 2008 11:41:55 -0700 (PDT)","[jira] Updated: (HBASE-605) allow scanners which return results ordred by a column value"
"Apache Hudson Server <hudson@hudson.zones.apache.org>","Thu, 22 May 2008 18:49:30 +0000 (UTC)","Build failed in Hudson: HBase-Patch #140"
"""stack (JIRA)"" <jira@apache.org>","Thu, 22 May 2008 12:29:55 -0700 (PDT)","[jira] Commented: (HBASE-625) cluster load history: emissions and graphs"
"""stack (JIRA)"" <jira@apache.org>","Thu, 22 May 2008 12:51:55 -0700 (PDT)","[jira] Created: (HBASE-636) java6 as a requirement"
"""stack (JIRA)"" <jira@apache.org>","Thu, 22 May 2008 12:53:56 -0700 (PDT)","[jira] Commented: (HBASE-605) allow scanners which return results ordred by a column value"
"""Jim Kellerman (JIRA)"" <jira@apache.org>","Thu, 22 May 2008 13:13:57 -0700 (PDT)","[jira] Created: (HBASE-637) Update filter test to ue ColumnValueFilter instead of RegExpRowFilter"
"""Jim Kellerman (JIRA)"" <jira@apache.org>","Thu, 22 May 2008 13:35:55 -0700 (PDT)","[jira] Resolved: (HBASE-589) Remove references to deprecated methods in Hadoop once hadoop-0.17.0 is released"
"""Jim Kellerman (JIRA)"" <jira@apache.org>","Thu, 22 May 2008 13:35:55 -0700 (PDT)","[jira] Resolved: (HBASE-579) Add hadoop 0.17.x"
"""Clint Morgan (JIRA)"" <jira@apache.org>","Thu, 22 May 2008 13:45:55 -0700 (PDT)","[jira] Commented: (HBASE-605) allow scanners which return results ordred by a column value"
"""stack (JIRA)"" <jira@apache.org>","Thu, 22 May 2008 13:47:56 -0700 (PDT)","[jira] Created: (HBASE-638) Purge \r from src"
"""Andrew Purtell (JIRA)"" <jira@apache.org>","Thu, 22 May 2008 13:47:56 -0700 (PDT)","[jira] Work started: (HBASE-42) Set region split size on table creation"
"""stack (JIRA)"" <jira@apache.org>","Thu, 22 May 2008 13:49:56 -0700 (PDT)","[jira] Resolved: (HBASE-638) Purge \r from src"
"""stack (JIRA)"" <jira@apache.org>","Thu, 22 May 2008 14:05:55 -0700 (PDT)","[jira] Updated: (HBASE-605) allow scanners which return results ordred by a column value"
"""Bryan Duxbury (JIRA)"" <jira@apache.org>","Thu, 22 May 2008 14:11:55 -0700 (PDT)","[jira] Commented: (HBASE-605) allow scanners which return results ordred by a column value"
"""Clint Morgan (JIRA)"" <jira@apache.org>","Thu, 22 May 2008 14:19:55 -0700 (PDT)","[jira] Commented: (HBASE-605) allow scanners which return results ordred by a column value"
"Apache Hudson Server <hudson@hudson.zones.apache.org>","Thu, 22 May 2008 21:50:30 +0000 (UTC)","Build failed in Hudson: HBase-Patch #141"
"""Jim Kellerman (JIRA)"" <jira@apache.org>","Thu, 22 May 2008 15:35:56 -0700 (PDT)","[jira] Commented: (HBASE-615) Region balancer oscillates during cluster startup"
"""Michael Bieniosek (JIRA)"" <jira@apache.org>","Thu, 22 May 2008 16:21:55 -0700 (PDT)","[jira] Created: (HBASE-639) add HBaseAdmin.getTableDescriptor function"
"""stack (JIRA)"" <jira@apache.org>","Thu, 22 May 2008 16:25:55 -0700 (PDT)","[jira] Updated: (HBASE-639) add HBaseAdmin.getTableDescriptor function"
"""Bryan Duxbury (JIRA)"" <jira@apache.org>","Thu, 22 May 2008 16:29:55 -0700 (PDT)","[jira] Commented: (HBASE-639) add HBaseAdmin.getTableDescriptor function"
"""Michael Bieniosek (JIRA)"" <jira@apache.org>","Thu, 22 May 2008 16:35:56 -0700 (PDT)","[jira] Commented: (HBASE-639) add HBaseAdmin.getTableDescriptor function"
"""stack (JIRA)"" <jira@apache.org>","Thu, 22 May 2008 17:05:56 -0700 (PDT)","[jira] Commented: (HBASE-487) Replace hql w/ a hbase-friendly jirb or jython shell"
"""stack (JIRA)"" <jira@apache.org>","Thu, 22 May 2008 17:33:56 -0700 (PDT)","[jira] Commented: (HBASE-487) Replace hql w/ a hbase-friendly jirb or jython shell"
"""Jean-Daniel Cryans (JIRA)"" <jira@apache.org>","Thu, 22 May 2008 17:43:58 -0700 (PDT)","[jira] Commented: (HBASE-487) Replace hql w/ a hbase-friendly jirb or jython shell"
"""Jim Kellerman (JIRA)"" <jira@apache.org>","Thu, 22 May 2008 18:05:57 -0700 (PDT)","[jira] Commented: (HBASE-487) Replace hql w/ a hbase-friendly jirb or jython shell"
"""Bryan Duxbury (JIRA)"" <jira@apache.org>","Thu, 22 May 2008 18:17:57 -0700 (PDT)","[jira] Commented: (HBASE-487) Replace hql w/ a hbase-friendly jirb or jython shell"
"""Jim Kellerman (JIRA)"" <jira@apache.org>","Thu, 22 May 2008 18:27:58 -0700 (PDT)","[jira] Commented: (HBASE-613) Timestamp-anchored scanning fails to find all records"
"""Tim Dysinger (JIRA)"" <jira@apache.org>","Thu, 22 May 2008 18:33:58 -0700 (PDT)","[jira] Commented: (HBASE-487) Replace hql w/ a hbase-friendly jirb or jython shell"
"Apache Hudson Server <hudson@hudson.zones.apache.org>","Fri, 23 May 2008 01:50:36 +0000 (UTC)","Build failed in Hudson: HBase-Patch #142"
"""stack (JIRA)"" <jira@apache.org>","Thu, 22 May 2008 20:15:55 -0700 (PDT)","[jira] Created: (HBASE-640) TestMigrate failing on hudson"
"""stack (JIRA)"" <jira@apache.org>","Thu, 22 May 2008 21:19:56 -0700 (PDT)","[jira] Commented: (HBASE-613) Timestamp-anchored scanning fails to find all records"
"""stack (JIRA)"" <jira@apache.org>","Thu, 22 May 2008 21:48:01 -0700 (PDT)","[jira] Commented: (HBASE-487) Replace hql w/ a hbase-friendly jirb or jython shell"
"""stack (JIRA)"" <jira@apache.org>","Thu, 22 May 2008 23:23:55 -0700 (PDT)","[jira] Commented: (HBASE-487) Replace hql w/ a hbase-friendly jirb or jython shell"
"Apache Hudson Server <hudson@hudson.zones.apache.org>","Fri, 23 May 2008 07:17:13 +0000 (UTC)","Build failed in Hudson: HBase-Patch #143"
"""Bryan Duxbury (JIRA)"" <jira@apache.org>","Fri, 23 May 2008 07:53:55 -0700 (PDT)","[jira] Commented: (HBASE-487) Replace hql w/ a hbase-friendly jirb or jython shell"
"""Tim Dysinger (JIRA)"" <jira@apache.org>","Fri, 23 May 2008 09:31:56 -0700 (PDT)","[jira] Commented: (HBASE-487) Replace hql w/ a hbase-friendly jirb or jython shell"
"""stack (JIRA)"" <jira@apache.org>","Fri, 23 May 2008 10:01:55 -0700 (PDT)","[jira] Commented: (HBASE-487) Replace hql w/ a hbase-friendly jirb or jython shell"
"""Bryan Duxbury (JIRA)"" <jira@apache.org>","Fri, 23 May 2008 10:25:55 -0700 (PDT)","[jira] Commented: (HBASE-487) Replace hql w/ a hbase-friendly jirb or jython shell"
"""stack (JIRA)"" <jira@apache.org>","Fri, 23 May 2008 10:41:55 -0700 (PDT)","[jira] Commented: (HBASE-487) Replace hql w/ a hbase-friendly jirb or jython shell"
"Apache Hudson Server <hudson@hudson.zones.apache.org>","Fri, 23 May 2008 19:17:09 +0000 (UTC)","Build failed in Hudson: HBase-Patch #144"
"""stack (JIRA)"" <jira@apache.org>","Fri, 23 May 2008 16:23:56 -0700 (PDT)","[jira] Updated: (HBASE-487) Replace hql w/ a hbase-friendly jirb or jython shell"
"""stack (JIRA)"" <jira@apache.org>","Fri, 23 May 2008 21:47:56 -0700 (PDT)","[jira] Updated: (HBASE-487) Replace hql w/ a hbase-friendly jirb or jython shell"
"""stack (JIRA)"" <jira@apache.org>","Sat, 24 May 2008 14:23:55 -0700 (PDT)","[jira] Created: (HBASE-641) Improve master split logging"
"""stack (JIRA)"" <jira@apache.org>","Sat, 24 May 2008 14:37:55 -0700 (PDT)","[jira] Created: (HBASE-642) Splitting log in a hostile environment -- bad hdfs -- we drop logs"
"""stack (JIRA)"" <jira@apache.org>","Sat, 24 May 2008 14:39:56 -0700 (PDT)","[jira] Updated: (HBASE-642) Splitting log in a hostile environment -- bad hdfs -- we drop write-ahead-log edits"
"""stack (JIRA)"" <jira@apache.org>","Sat, 24 May 2008 14:51:55 -0700 (PDT)","[jira] Commented: (HBASE-487) Replace hql w/ a hbase-friendly jirb or jython shell"
"""Marcus Herou"" <marcus.herou@tailsweep.com>","Sun, 25 May 2008 16:19:27 +0200","Share'n care - HBase implementation"
"""Michael Bieniosek (JIRA)"" <jira@apache.org>","Sun, 25 May 2008 11:59:55 -0700 (PDT)","[jira] Created: (HBASE-643) Rename tables"
"""stack (JIRA)"" <jira@apache.org>","Sun, 25 May 2008 13:13:55 -0700 (PDT)","[jira] Created: (HBASE-644) DroppedSnapshotException but RegionServer doesn't restart"
"""stack (JIRA)"" <jira@apache.org>","Sun, 25 May 2008 13:33:56 -0700 (PDT)","[jira] Updated: (HBASE-644) DroppedSnapshotException but RegionServer doesn't restart"
"""stack (JIRA)"" <jira@apache.org>","Sun, 25 May 2008 13:39:55 -0700 (PDT)","[jira] Commented: (HBASE-644) DroppedSnapshotException but RegionServer doesn't restart"
"""stack (JIRA)"" <jira@apache.org>","Sun, 25 May 2008 13:41:55 -0700 (PDT)","[jira] Updated: (HBASE-644) DroppedSnapshotException but RegionServer doesn't restart"
"""stack (JIRA)"" <jira@apache.org>","Sun, 25 May 2008 13:41:55 -0700 (PDT)","[jira] Updated: (HBASE-644) DroppedSnapshotException but RegionServer doesn't restart"
"""stack (JIRA)"" <jira@apache.org>","Sun, 25 May 2008 13:41:55 -0700 (PDT)","[jira] Updated: (HBASE-644) DroppedSnapshotException but RegionServer doesn't restart"
"""Jim Kellerman (JIRA)"" <jira@apache.org>","Sun, 25 May 2008 19:39:56 -0700 (PDT)","[jira] Commented: (HBASE-644) DroppedSnapshotException but RegionServer doesn't restart"
"""Edward J. Yoon (JIRA)"" <jira@apache.org>","Mon, 26 May 2008 03:25:55 -0700 (PDT)","[jira] Commented: (HBASE-643) Rename tables"
"""Bryan Duxbury (JIRA)"" <jira@apache.org>","Mon, 26 May 2008 12:39:57 -0700 (PDT)","[jira] Commented: (HBASE-643) Rename tables"
"""stack (JIRA)"" <jira@apache.org>","Mon, 26 May 2008 13:01:56 -0700 (PDT)","[jira] Updated: (HBASE-644) DroppedSnapshotException but RegionServer doesn't restart"
"""Jim Kellerman (JIRA)"" <jira@apache.org>","Mon, 26 May 2008 14:10:00 -0700 (PDT)","[jira] Commented: (HBASE-644) DroppedSnapshotException but RegionServer doesn't restart"
"""Jim Kellerman (JIRA)"" <jira@apache.org>","Mon, 26 May 2008 15:05:56 -0700 (PDT)","[jira] Updated: (HBASE-613) Timestamp-anchored scanning fails to find all records"
"""Jim Kellerman (JIRA)"" <jira@apache.org>","Mon, 26 May 2008 15:47:57 -0700 (PDT)","[jira] Commented: (HBASE-613) Timestamp-anchored scanning fails to find all records"
"""Jim Kellerman (JIRA)"" <jira@apache.org>","Mon, 26 May 2008 15:53:58 -0700 (PDT)","[jira] Commented: (HBASE-613) Timestamp-anchored scanning fails to find all records"
"""Jim Kellerman (JIRA)"" <jira@apache.org>","Mon, 26 May 2008 16:01:58 -0700 (PDT)","[jira] Updated: (HBASE-613) Timestamp-anchored scanning fails to find all records"
"""Jim Kellerman (JIRA)"" <jira@apache.org>","Mon, 26 May 2008 16:11:58 -0700 (PDT)","[jira] Commented: (HBASE-613) Timestamp-anchored scanning fails to find all records"
"""stack (JIRA)"" <jira@apache.org>","Mon, 26 May 2008 21:19:57 -0700 (PDT)","[jira] Updated: (HBASE-644) DroppedSnapshotException but RegionServer doesn't restart"
"Apache Hudson Server <hudson@hudson.zones.apache.org>","Tue, 27 May 2008 05:17:29 +0000 (UTC)","Build failed in Hudson: HBase-Patch #145"
"""stack (JIRA)"" <jira@apache.org>","Tue, 27 May 2008 11:52:03 -0700 (PDT)","[jira] Created: (HBASE-645) EOFException opening region (HBASE-550 redux)"
"""stack (JIRA)"" <jira@apache.org>","Tue, 27 May 2008 12:12:04 -0700 (PDT)","[jira] Assigned: (HBASE-33) Add a HTable get/obstainScanner method that retrieves all versions of a particular column and row between two timestamps"
"""stack (JIRA)"" <jira@apache.org>","Tue, 27 May 2008 12:46:04 -0700 (PDT)","[jira] Updated: (HBASE-31) Add means of getting the timestamps for all cell versions: e.g. long [] getVersions(row, column)"
"""stack (JIRA)"" <jira@apache.org>","Tue, 27 May 2008 13:02:00 -0700 (PDT)","[jira] Updated: (HBASE-645) EOFException opening region (HBASE-550 redux)"
"""stack (JIRA)"" <jira@apache.org>","Tue, 27 May 2008 13:38:59 -0700 (PDT)","[jira] Resolved: (HBASE-645) EOFException opening region (HBASE-550 redux)"
"""stack (JIRA)"" <jira@apache.org>","Tue, 27 May 2008 13:42:59 -0700 (PDT)","[jira] Resolved: (HBASE-641) Improve master split logging"
"Apache Hudson Server <hudson@hudson.zones.apache.org>","Tue, 27 May 2008 21:17:16 +0000 (UTC)","Build failed in Hudson: HBase-Patch #146"
"Apache Hudson Server <hudson@hudson.zones.apache.org>","Tue, 27 May 2008 22:17:13 +0000 (UTC)","Build failed in Hudson: HBase-Patch #147"
"""stack (JIRA)"" <jira@apache.org>","Tue, 27 May 2008 22:51:45 -0700 (PDT)","[jira] Created: (HBASE-646) EOFException opening HStoreFile info file (spin on HBASE-645 and 550)"
"""stack (JIRA)"" <jira@apache.org>","Tue, 27 May 2008 23:11:46 -0700 (PDT)","[jira] Created: (HBASE-647) Remove the HStoreFile 'info' file"
"""stack (JIRA)"" <jira@apache.org>","Wed, 28 May 2008 09:55:45 -0700 (PDT)","[jira] Commented: (HBASE-646) EOFException opening HStoreFile info file (spin on HBASE-645 and 550)"
"""Jean-Daniel Cryans (JIRA)"" <jira@apache.org>","Wed, 28 May 2008 09:55:45 -0700 (PDT)","[jira] Commented: (HBASE-533) Region Historian"
"""stack (JIRA)"" <jira@apache.org>","Wed, 28 May 2008 10:17:45 -0700 (PDT)","[jira] Commented: (HBASE-533) Region Historian"
"""stack (JIRA)"" <jira@apache.org>","Wed, 28 May 2008 11:11:46 -0700 (PDT)","[jira] Assigned: (HBASE-645) EOFException opening region (HBASE-550 redux)"
"""stack (JIRA)"" <jira@apache.org>","Wed, 28 May 2008 11:11:46 -0700 (PDT)","[jira] Assigned: (HBASE-644) DroppedSnapshotException but RegionServer doesn't restart"
"""stack (JIRA)"" <jira@apache.org>","Wed, 28 May 2008 11:11:46 -0700 (PDT)","[jira] Assigned: (HBASE-641) Improve master split logging"
"""stack (JIRA)"" <jira@apache.org>","Wed, 28 May 2008 11:15:45 -0700 (PDT)","[jira] Resolved: (HBASE-642) Splitting log in a hostile environment -- bad hdfs -- we drop write-ahead-log edits"
"""stack (JIRA)"" <jira@apache.org>","Wed, 28 May 2008 11:21:45 -0700 (PDT)","[jira] Assigned: (HBASE-646) EOFException opening HStoreFile info file (spin on HBASE-645 and 550)"
"""stack (JIRA)"" <jira@apache.org>","Wed, 28 May 2008 11:21:45 -0700 (PDT)","[jira] Updated: (HBASE-646) EOFException opening HStoreFile info file (spin on HBASE-645 and 550)"
"""stack (JIRA)"" <jira@apache.org>","Wed, 28 May 2008 11:23:45 -0700 (PDT)","[jira] Commented: (HBASE-646) EOFException opening HStoreFile info file (spin on HBASE-645 and 550)"
"""Jean-Daniel Cryans (JIRA)"" <jira@apache.org>","Wed, 28 May 2008 11:29:45 -0700 (PDT)","[jira] Commented: (HBASE-533) Region Historian"
"""stack (JIRA)"" <jira@apache.org>","Wed, 28 May 2008 11:41:45 -0700 (PDT)","[jira] Resolved: (HBASE-646) EOFException opening HStoreFile info file (spin on HBASE-645 and 550)"
"""Jean-Daniel Cryans (JIRA)"" <jira@apache.org>","Wed, 28 May 2008 11:53:45 -0700 (PDT)","[jira] Commented: (HBASE-533) Region Historian"
"Apache Hudson Server <hudson@hudson.zones.apache.org>","Wed, 28 May 2008 19:17:07 +0000 (UTC)","Build failed in Hudson: HBase-Patch #148"
"""Jean-Daniel Cryans (JIRA)"" <jira@apache.org>","Wed, 28 May 2008 13:13:45 -0700 (PDT)","[jira] Updated: (HBASE-533) Region Historian"
"""stack (JIRA)"" <jira@apache.org>","Wed, 28 May 2008 13:58:45 -0700 (PDT)","[jira] Created: (HBASE-648) If mapfile index is empty, run repair"
"""stack (JIRA)"" <jira@apache.org>","Wed, 28 May 2008 14:02:45 -0700 (PDT)","[jira] Updated: (HBASE-648) If mapfile index is empty, run repair"
"""stack (JIRA)"" <jira@apache.org>","Wed, 28 May 2008 14:08:45 -0700 (PDT)","[jira] Assigned: (HBASE-648) If mapfile index is empty, run repair"
"""Franco Salvetti (JIRA)"" <jira@apache.org>","Wed, 28 May 2008 14:10:45 -0700 (PDT)","[jira] Commented: (HBASE-643) Rename tables"
"""stack (JIRA)"" <jira@apache.org>","Wed, 28 May 2008 14:18:45 -0700 (PDT)","[jira] Resolved: (HBASE-648) If mapfile index is empty, run repair"
"""stack (JIRA)"" <jira@apache.org>","Wed, 28 May 2008 15:04:45 -0700 (PDT)","[jira] Commented: (HBASE-648) If mapfile index is empty, run repair"
"Apache Hudson Server <hudson@hudson.zones.apache.org>","Wed, 28 May 2008 22:17:08 +0000 (UTC)","Build failed in Hudson: HBase-Patch #149"
"""stack (JIRA)"" <jira@apache.org>","Wed, 28 May 2008 15:50:45 -0700 (PDT)","[jira] Commented: (HBASE-533) Region Historian"
"Apache Hudson Server <hudson@hudson.zones.apache.org>","Wed, 28 May 2008 23:17:19 +0000 (UTC)","Build failed in Hudson: HBase-Patch #150"
"""Jean-Daniel Cryans (JIRA)"" <jira@apache.org>","Wed, 28 May 2008 16:44:45 -0700 (PDT)","[jira] Updated: (HBASE-533) Region Historian"
"Apache Hudson Server <hudson@hudson.zones.apache.org>","Thu, 29 May 2008 01:07:55 +0000 (UTC)","Build failed in Hudson: HBase-Patch #151"
"""stack (JIRA)"" <jira@apache.org>","Wed, 28 May 2008 21:52:45 -0700 (PDT)","[jira] Assigned: (HBASE-640) TestMigrate failing on hudson"
"""stack (JIRA)"" <jira@apache.org>","Wed, 28 May 2008 21:54:45 -0700 (PDT)","[jira] Updated: (HBASE-640) TestMigrate failing on hudson"
"""stack (JIRA)"" <jira@apache.org>","Wed, 28 May 2008 22:30:46 -0700 (PDT)","[jira] Commented: (HBASE-533) Region Historian"
"Apache Hudson Server <hudson@hudson.zones.apache.org>","Thu, 29 May 2008 05:39:50 +0000 (UTC)","Hudson build is back to normal: HBase-Patch #152"
"""stack (JIRA)"" <jira@apache.org>","Wed, 28 May 2008 22:58:45 -0700 (PDT)","[jira] Commented: (HBASE-640) TestMigrate failing on hudson"
"""Pratyush Banerjee (JIRA)"" <jira@apache.org>","Thu, 29 May 2008 03:08:45 -0700 (PDT)","[jira] Commented: (HBASE-528) table 'does not exist' when it does"
"""Pratyush Banerjee (JIRA)"" <jira@apache.org>","Thu, 29 May 2008 03:08:45 -0700 (PDT)","[jira] Updated: (HBASE-528) table 'does not exist' when it does"
"""Pratyush Banerjee (JIRA)"" <jira@apache.org>","Thu, 29 May 2008 03:10:45 -0700 (PDT)","[jira] Commented: (HBASE-514) table 'does not exist' when it does"
"""Pratyush Banerjee (JIRA)"" <jira@apache.org>","Thu, 29 May 2008 03:42:45 -0700 (PDT)","[jira] Issue Comment Edited: (HBASE-514) table 'does not exist' when it does"
"""Pratyush Banerjee (JIRA)"" <jira@apache.org>","Thu, 29 May 2008 03:44:45 -0700 (PDT)","[jira] Issue Comment Edited: (HBASE-514) table 'does not exist' when it does"
"""Pratyush Banerjee (JIRA)"" <jira@apache.org>","Thu, 29 May 2008 03:46:45 -0700 (PDT)","[jira] Issue Comment Edited: (HBASE-514) table 'does not exist' when it does"
"""Jean-Daniel Cryans (JIRA)"" <jira@apache.org>","Thu, 29 May 2008 06:28:45 -0700 (PDT)","[jira] Commented: (HBASE-533) Region Historian"
"""stack (JIRA)"" <jira@apache.org>","Thu, 29 May 2008 07:48:45 -0700 (PDT)","[jira] Commented: (HBASE-533) Region Historian"
"""Jean-Daniel Cryans (JIRA)"" <jira@apache.org>","Thu, 29 May 2008 07:56:46 -0700 (PDT)","[jira] Commented: (HBASE-533) Region Historian"
"""stack (JIRA)"" <jira@apache.org>","Thu, 29 May 2008 09:59:45 -0700 (PDT)","[jira] Commented: (HBASE-514) table 'does not exist' when it does"
"""Jean-Daniel Cryans (JIRA)"" <jira@apache.org>","Thu, 29 May 2008 10:13:45 -0700 (PDT)","[jira] Updated: (HBASE-533) Region Historian"
"""stack (JIRA)"" <jira@apache.org>","Thu, 29 May 2008 10:25:45 -0700 (PDT)","[jira] Created: (HBASE-649) API polluted with default and protected access data members and methods"
"""stack (JIRA)"" <jira@apache.org>","Thu, 29 May 2008 10:27:45 -0700 (PDT)","[jira] Commented: (HBASE-649) API polluted with default and protected access data members and methods"
"""stack (JIRA)"" <jira@apache.org>","Thu, 29 May 2008 10:49:45 -0700 (PDT)","[jira] Commented: (HBASE-613) Timestamp-anchored scanning fails to find all records"
"""stack (JIRA)"" <jira@apache.org>","Thu, 29 May 2008 11:37:45 -0700 (PDT)","[jira] Commented: (HBASE-533) Region Historian"
"""stack (JIRA)"" <jira@apache.org>","Thu, 29 May 2008 11:53:45 -0700 (PDT)","[jira] Commented: (HBASE-533) Region Historian"
"""Jean-Daniel Cryans (JIRA)"" <jira@apache.org>","Thu, 29 May 2008 12:03:45 -0700 (PDT)","[jira] Commented: (HBASE-533) Region Historian"
"""stack (JIRA)"" <jira@apache.org>","Thu, 29 May 2008 13:41:45 -0700 (PDT)","[jira] Created: (HBASE-650) Add String versions of get, scanner, put in HTable"
"""Michael Bieniosek (JIRA)"" <jira@apache.org>","Thu, 29 May 2008 13:49:45 -0700 (PDT)","[jira] Created: (HBASE-651) table.commit should throw NoSuchColumnFamilyException if column family doesn't exist"
"""Michael Bieniosek (JIRA)"" <jira@apache.org>","Thu, 29 May 2008 14:25:45 -0700 (PDT)","[jira] Created: (HBASE-652) dropping table / adding column family fails silently if table isn't disabled"
"""Michael Bieniosek (JIRA)"" <jira@apache.org>","Thu, 29 May 2008 14:27:45 -0700 (PDT)","[jira] Created: (HBASE-653) Given an HTable, I should be able to enable/disable the table without having to get the HBaseConfiguration object"
"""stack (JIRA)"" <jira@apache.org>","Thu, 29 May 2008 15:23:45 -0700 (PDT)","[jira] Commented: (HBASE-653) Given an HTable, I should be able to enable/disable the table without having to get the HBaseConfiguration object"
"""stack (JIRA)"" <jira@apache.org>","Thu, 29 May 2008 15:23:45 -0700 (PDT)","[jira] Updated: (HBASE-652) dropping table / adding column family fails silently if table isn't disabled"
"""Michael Bieniosek (JIRA)"" <jira@apache.org>","Thu, 29 May 2008 15:23:45 -0700 (PDT)","[jira] Resolved: (HBASE-652) dropping table / adding column family fails silently if table isn't disabled"
"""Michael Bieniosek (JIRA)"" <jira@apache.org>","Thu, 29 May 2008 15:25:45 -0700 (PDT)","[jira] Created: (HBASE-654) API HTable.getMetadata().addFamily shouldn't be exposed to user"
"""stack (JIRA)"" <jira@apache.org>","Thu, 29 May 2008 15:37:44 -0700 (PDT)","[jira] Resolved: (HBASE-651) table.commit should throw NoSuchColumnFamilyException if column family doesn't exist"
"""stack (JIRA)"" <jira@apache.org>","Thu, 29 May 2008 15:39:45 -0700 (PDT)","[jira] Updated: (HBASE-654) API HTable.getMetadata().addFamily shouldn't be exposed to user"
"""stack (JIRA)"" <jira@apache.org>","Thu, 29 May 2008 15:43:46 -0700 (PDT)","[jira] Assigned: (HBASE-651) table.commit should throw NoSuchColumnFamilyException if column family doesn't exist"
"""Michael Bieniosek (JIRA)"" <jira@apache.org>","Thu, 29 May 2008 16:01:45 -0700 (PDT)","[jira] Created: (HBASE-655) need programmatic way to add column family: need programmatic way to enable/disable table"
"""stack (JIRA)"" <jira@apache.org>","Thu, 29 May 2008 17:01:45 -0700 (PDT)","[jira] Assigned: (HBASE-650) Add String versions of get, scanner, put in HTable"
"""stack (JIRA)"" <jira@apache.org>","Thu, 29 May 2008 17:05:45 -0700 (PDT)","[jira] Created: (HBASE-656) Do not retry exceptions such as unknown scanner or illegal argument"
"""Todd Lipcon (JIRA)"" <jira@apache.org>","Thu, 29 May 2008 17:43:45 -0700 (PDT)","[jira] Created: (HBASE-657) InvalidColumnNameException not passed through to Thrift interface"
"""stack (JIRA)"" <jira@apache.org>","Thu, 29 May 2008 17:53:45 -0700 (PDT)","[jira] Resolved: (HBASE-650) Add String versions of get, scanner, put in HTable"
"""stack (JIRA)"" <jira@apache.org>","Thu, 29 May 2008 17:53:45 -0700 (PDT)","[jira] Assigned: (HBASE-649) API polluted with default and protected access data members and methods"
"""stack (JIRA)"" <jira@apache.org>","Thu, 29 May 2008 17:53:45 -0700 (PDT)","[jira] Assigned: (HBASE-655) need programmatic way to add column family: need programmatic way to enable/disable table"
"""stack (JIRA)"" <jira@apache.org>","Thu, 29 May 2008 17:53:45 -0700 (PDT)","[jira] Resolved: (HBASE-655) need programmatic way to add column family: need programmatic way to enable/disable table"
"""stack (JIRA)"" <jira@apache.org>","Thu, 29 May 2008 17:53:45 -0700 (PDT)","[jira] Resolved: (HBASE-649) API polluted with default and protected access data members and methods"
"""stack (JIRA)"" <jira@apache.org>","Thu, 29 May 2008 17:53:45 -0700 (PDT)","[jira] Resolved: (HBASE-656) Do not retry exceptions such as unknown scanner or illegal argument"
"""stack (JIRA)"" <jira@apache.org>","Thu, 29 May 2008 17:53:45 -0700 (PDT)","[jira] Assigned: (HBASE-656) Do not retry exceptions such as unknown scanner or illegal argument"
"""stack (JIRA)"" <jira@apache.org>","Thu, 29 May 2008 17:53:45 -0700 (PDT)","[jira] Commented: (HBASE-649) API polluted with default and protected access data members and methods"
"""stack (JIRA)"" <jira@apache.org>","Thu, 29 May 2008 17:55:45 -0700 (PDT)","[jira] Reopened: (HBASE-655) need programmatic way to add column family: need programmatic way to enable/disable table"
"""stack (JIRA)"" <jira@apache.org>","Thu, 29 May 2008 22:18:46 -0700 (PDT)","[jira] Commented: (HBASE-487) Replace hql w/ a hbase-friendly jirb or jython shell"
"""Pratyush Banerjee (JIRA)"" <jira@apache.org>","Thu, 29 May 2008 23:12:45 -0700 (PDT)","[jira] Commented: (HBASE-514) table 'does not exist' when it does"
"""Jean-Daniel Cryans (JIRA)"" <jira@apache.org>","Fri, 30 May 2008 07:26:45 -0700 (PDT)","[jira] Commented: (HBASE-533) Region Historian"
"""stack (JIRA)"" <jira@apache.org>","Fri, 30 May 2008 09:38:45 -0700 (PDT)","[jira] Commented: (HBASE-533) Region Historian"
"""stack (JIRA)"" <jira@apache.org>","Fri, 30 May 2008 13:18:44 -0700 (PDT)","[jira] Created: (HBASE-658) Dump into log loading to the region level for ganglia, etc."
"""stack (JIRA)"" <jira@apache.org>","Fri, 30 May 2008 13:36:44 -0700 (PDT)","[jira] Created: (HBASE-659) HLog#cacheFlushLock not cleared; hangs a region"
"""stack (JIRA)"" <jira@apache.org>","Fri, 30 May 2008 13:48:45 -0700 (PDT)","[jira] Assigned: (HBASE-558) Output hbase+hadoop+jvm version as well as java opts, ulimit, into master/regionserver log on startup"
"""stack (JIRA)"" <jira@apache.org>","Fri, 30 May 2008 13:50:45 -0700 (PDT)","[jira] Assigned: (HBASE-620) testmergetool failing in branch and trunk since hbase-618 went in"
"""stack (JIRA)"" <jira@apache.org>","Fri, 30 May 2008 13:58:45 -0700 (PDT)","[jira] Commented: (HBASE-659) HLog#cacheFlushLock not cleared; hangs a region"
"""stack (JIRA)"" <jira@apache.org>","Fri, 30 May 2008 16:34:44 -0700 (PDT)","[jira] Created: (HBASE-660) [Migration] addColumn/deleteColumn functionality in MetaUtils"
"""stack (JIRA)"" <jira@apache.org>","Fri, 30 May 2008 16:36:45 -0700 (PDT)","[jira] Updated: (HBASE-660) [Migration] addColumn/deleteColumn functionality in MetaUtils"
"""stack (JIRA)"" <jira@apache.org>","Sat, 31 May 2008 14:43:45 -0700 (PDT)","[jira] Commented: (HBASE-659) HLog#cacheFlushLock not cleared; hangs a region"
"""stack (JIRA)"" <jira@apache.org>","Sat, 31 May 2008 16:24:45 -0700 (PDT)","[jira] Updated: (HBASE-659) HLog#cacheFlushLock not cleared; hangs a region"
