"Developer","Date","Subject"
"Yu Li <carp84@gmail.com>","Wed, 1 Jun 2016 11:36:48 +0800","Re: [ANNOUNCE] Mikhail Antonov joins the Apache HBase PMC"
"Pankaj kr <pankaj.kr@huawei.com>","Wed, 1 Jun 2016 03:42:40 +0000","RE: [ANNOUNCE] Mikhail Antonov joins the Apache HBase PMC"
"""Ted Yu (JIRA)"" <jira@apache.org>","Wed, 1 Jun 2016 04:06:12 +0000 (UTC)","[jira] [Resolved] (HBASE-15861) Add support for table sets in restore operation"
"""Dima Spivak (JIRA)"" <jira@apache.org>","Wed, 1 Jun 2016 04:59:12 +0000 (UTC)","[jira] [Created] (HBASE-15930) Make IntegrationTestReplication's waitForReplication() smarter"
"Anoop John <anoop.hbase@gmail.com>","Wed, 1 Jun 2016 12:58:24 +0530","Re: [ANNOUNCE] Mikhail Antonov joins the Apache HBase PMC"
"""Yu Li (JIRA)"" <jira@apache.org>","Wed, 1 Jun 2016 09:24:59 +0000 (UTC)","[jira] [Created] (HBASE-15931) Add log for long-running tasks in AsyncProcess"
"""Ted Yu (JIRA)"" <jira@apache.org>","Wed, 1 Jun 2016 14:16:59 +0000 (UTC)","[jira] [Created] (HBASE-15932) Shell test fails due to uninitialized constant"
"Apache Jenkins Server <jenkins@builds.apache.org>","Wed, 1 Jun 2016 14:55:34 +0000 (UTC)","Successful: HBase Generate Website"
"""Ted Yu (JIRA)"" <jira@apache.org>","Wed, 1 Jun 2016 16:01:59 +0000 (UTC)","[jira] [Created] (HBASE-15933) NullPointerException may be thrown from SimpleRegionNormalizer#getRegionSize()"
"Pranavan Theivendiram <pranavan.11@cse.mrt.ac.lk>","Wed, 1 Jun 2016 22:09:08 +0530","HBase Master is shutting down with error"
"Dima Spivak <dspivak@cloudera.com>","Wed, 1 Jun 2016 11:36:24 -0700","Re: HBase Master is shutting down with error"
"""Joseph (JIRA)"" <jira@apache.org>","Wed, 1 Jun 2016 18:57:59 +0000 (UTC)","[jira] [Created] (HBASE-15934) Integration Test with Concurrent Read-Writes"
"""Joseph (JIRA)"" <jira@apache.org>","Wed, 1 Jun 2016 21:16:59 +0000 (UTC)","[jira] [Created] (HBASE-15935) Add concurrency support for Generator and Verify"
"""Dima Spivak (JIRA)"" <jira@apache.org>","Wed, 1 Jun 2016 23:02:59 +0000 (UTC)","[jira] [Created] (HBASE-15936) Sort out how to push to apache/ repositories on Docker Hub"
"""Joseph (JIRA)"" <jira@apache.org>","Thu, 2 Jun 2016 01:14:59 +0000 (UTC)","[jira] [Created] (HBASE-15937) Figure out retry limit and timing for replication queue table operations"
"""Appy (JIRA)"" <jira@apache.org>","Thu, 2 Jun 2016 02:01:04 +0000 (UTC)","[jira] [Created] (HBASE-15938) submit-patch.py: Don't crash if there are tests with same name. Refactor: Split out html template to separate file."
"Dima Spivak <dspivak@cloudera.com>","Wed, 1 Jun 2016 19:36:40 -0700","Anyone wanna try running a Docker container-based HBase cluster?"
"""Ted Yu (JIRA)"" <jira@apache.org>","Thu, 2 Jun 2016 02:41:59 +0000 (UTC)","[jira] [Created] (HBASE-15939) Two shell test failures on master"
"""Stephen Yuan Jiang (JIRA)"" <jira@apache.org>","Thu, 2 Jun 2016 02:42:59 +0000 (UTC)","[jira] [Created] (HBASE-15940) HBCK unnecessary moves reference files when a table has split region to fix non-existing overlap regions"
"Andrew Purtell <andrew.purtell@gmail.com>","Wed, 1 Jun 2016 19:55:20 -0700","Re: Anyone wanna try running a Docker container-based HBase cluster?"
"""Stephen Yuan Jiang (JIRA)"" <jira@apache.org>","Thu, 2 Jun 2016 03:26:59 +0000 (UTC)","[jira] [Created] (HBASE-15941) HBCK repair should not unsplit healthy splitted region"
"""Guang Yang (JIRA)"" <jira@apache.org>","Thu, 2 Jun 2016 03:48:59 +0000 (UTC)","[jira] [Created] (HBASE-15942) User with 'RWX' permission of the table should be able to describe the table"
"ramkrishna vasudevan <ramkrishna.s.vasudevan@gmail.com>","Thu, 2 Jun 2016 09:36:59 +0530","Re: [ANNOUNCE] Mikhail Antonov joins the Apache HBase PMC"
"Anoop John <anoop.hbase@gmail.com>","Thu, 2 Jun 2016 11:27:14 +0530","Re: CPU usage not being fully utilized on region server"
"""Samir Ahmic (JIRA)"" <jira@apache.org>","Thu, 2 Jun 2016 07:15:59 +0000 (UTC)","[jira] [Created] (HBASE-15943) Add page displaying JVM process metrics"
"""Appy (JIRA)"" <jira@apache.org>","Thu, 2 Jun 2016 08:02:59 +0000 (UTC)","[jira] [Created] (HBASE-15944) Spark test flooding mvn output. Redirect test logs to file."
"""Sudeep Sunthankar (JIRA)"" <jira@apache.org>","Thu, 2 Jun 2016 10:14:59 +0000 (UTC)","[jira] [Created] (HBASE-15945) Patch for Key Value, Bytes and Cell"
"Apache Jenkins Server <jenkins@builds.apache.org>","Thu, 2 Jun 2016 14:53:42 +0000 (UTC)","Successful: HBase Generate Website"
"""Sean Mackrory (JIRA)"" <jira@apache.org>","Thu, 2 Jun 2016 19:06:59 +0000 (UTC)","[jira] [Created] (HBASE-15946) Eliminate possible security concerns in RS web UI's store file metrics"
"""Sean Mackrory (JIRA)"" <jira@apache.org>","Thu, 2 Jun 2016 19:14:59 +0000 (UTC)","[jira] [Created] (HBASE-15947) Classes used only for tests included in main code base"
"""Ted Yu (JIRA)"" <jira@apache.org>","Thu, 2 Jun 2016 22:19:59 +0000 (UTC)","[jira] [Resolved] (HBASE-15899) HBase incremental restore should handle namespaces properly"
"""Elliott Clark (JIRA)"" <jira@apache.org>","Thu, 2 Jun 2016 22:29:59 +0000 (UTC)","[jira] [Resolved] (HBASE-15348) Fix tests broken by recent metrics re-work"
"""stack (JIRA)"" <jira@apache.org>","Thu, 2 Jun 2016 23:59:59 +0000 (UTC)","[jira] [Created] (HBASE-15948) Port ""HADOOP-9956  RPC listener inefficiently assigns connections to readers"""
"Nick Dimiduk <ndimiduk@gmail.com>","Thu, 2 Jun 2016 17:30:17 -0700","[DISCUSS] Include Deb and RPM packages in releases"
"Andrew Purtell <apurtell@apache.org>","Thu, 2 Jun 2016 17:52:51 -0700","Re: [DISCUSS] Include Deb and RPM packages in releases"
"""Appy (JIRA)"" <jira@apache.org>","Fri, 3 Jun 2016 03:16:59 +0000 (UTC)","[jira] [Created] (HBASE-15949) Cleanup TestRegionServerMetrics"
"""Enis Soztutar (JIRA)"" <jira@apache.org>","Fri, 3 Jun 2016 03:56:59 +0000 (UTC)","[jira] [Created] (HBASE-15950) We are grossly overestimating the memstore size"
"""ramkrishna.s.vasudevan (JIRA)"" <jira@apache.org>","Fri, 3 Jun 2016 07:06:59 +0000 (UTC)","[jira] [Created] (HBASE-15951) Ensure write path uses Key interface"
"""Ashish Singhi (JIRA)"" <jira@apache.org>","Fri, 3 Jun 2016 13:27:59 +0000 (UTC)","[jira] [Created] (HBASE-15952) Bulk load data replication is not working when RS user does not have permission on hfile-refs node"
"Apache Jenkins Server <jenkins@builds.apache.org>","Fri, 3 Jun 2016 14:53:58 +0000 (UTC)","Successful: HBase Generate Website"
"""Vladimir Rodionov (JIRA)"" <jira@apache.org>","Fri, 3 Jun 2016 15:08:59 +0000 (UTC)","[jira] [Created] (HBASE-15953) HBase backup set list command does not list any existing sets"
"Nick Dimiduk <ndimiduk@gmail.com>","Fri, 3 Jun 2016 09:22:04 -0700","Re: [DISCUSS] Include Deb and RPM packages in releases"
"""Ted Yu (JIRA)"" <jira@apache.org>","Fri, 3 Jun 2016 16:31:59 +0000 (UTC)","[jira] [Resolved] (HBASE-15953) HBase backup set list command does not list any existing sets"
"Andrew Purtell <apurtell@apache.org>","Fri, 3 Jun 2016 10:56:07 -0700","[ANNOUNCE] New HBase committer Apekshit Sharma"
"Ted Yu <yuzhihong@gmail.com>","Fri, 3 Jun 2016 10:58:51 -0700","Re: [ANNOUNCE] New HBase committer Apekshit Sharma"
"Jesse Yates <jesse.k.yates@gmail.com>","Fri, 03 Jun 2016 17:59:27 +0000","Re: [ANNOUNCE] New HBase committer Apekshit Sharma"
"Mikhail Antonov <olorinbant@gmail.com>","Fri, 3 Jun 2016 11:06:43 -0700","Re: [ANNOUNCE] New HBase committer Apekshit Sharma"
"=?UTF-8?Q?Enis_S=C3=B6ztutar?= <enis@apache.org>","Fri, 3 Jun 2016 11:13:43 -0700","Re: [ANNOUNCE] New HBase committer Apekshit Sharma"
"Anoop John <anoop.hbase@gmail.com>","Fri, 3 Jun 2016 23:45:46 +0530","Re: [ANNOUNCE] New HBase committer Apekshit Sharma"
"""Enis Soztutar (JIRA)"" <jira@apache.org>","Fri, 3 Jun 2016 18:20:59 +0000 (UTC)","[jira] [Created] (HBASE-15954) REST server should log requests with TRACE instead of DEBUG"
"Dima Spivak <dspivak@cloudera.com>","Fri, 3 Jun 2016 11:22:38 -0700","Re: [ANNOUNCE] New HBase committer Apekshit Sharma"
"""Stephen Yuan Jiang (JIRA)"" <jira@apache.org>","Fri, 3 Jun 2016 18:35:59 +0000 (UTC)","[jira] [Created] (HBASE-15955) Disable action in CatalogJanitor#setEnabled should wait for active cleanup scan to finish"
"""Joseph (JIRA)"" <jira@apache.org>","Fri, 3 Jun 2016 18:47:59 +0000 (UTC)","[jira] [Created] (HBASE-15956) Modify queue naming standards to speed up ReplicationQueuesHBaseImpl"
"""Sergey Soldatov (JIRA)"" <jira@apache.org>","Fri, 3 Jun 2016 18:51:59 +0000 (UTC)","[jira] [Created] (HBASE-15957) RpcClientImpl.close never ends in some circumstances"
"Apekshit Sharma <appy@cloudera.com>","Fri, 3 Jun 2016 13:41:26 -0700","Re: [ANNOUNCE] New HBase committer Apekshit Sharma"
"""Joseph (JIRA)"" <jira@apache.org>","Fri, 3 Jun 2016 20:59:59 +0000 (UTC)","[jira] [Created] (HBASE-15958) Implement ClaimQueues"
"Jerry He <jerryjch@gmail.com>","Fri, 3 Jun 2016 14:10:31 -0700","Re: [ANNOUNCE] New HBase committer Apekshit Sharma"
"Esteban Gutierrez <esteban@cloudera.com>","Fri, 3 Jun 2016 14:22:33 -0700","Re: [ANNOUNCE] New HBase committer Apekshit Sharma"
"""Appy (JIRA)"" <jira@apache.org>","Fri, 3 Jun 2016 22:23:59 +0000 (UTC)","[jira] [Created] (HBASE-15959) Fix flaky test TestRegionServerMetrics.testMobMetrics"
"""Joseph (JIRA)"" <jira@apache.org>","Fri, 3 Jun 2016 22:43:59 +0000 (UTC)","[jira] [Created] (HBASE-15960) Add Javadocs for ReplicationQueuesHBaseImpl"
"""Appy (JIRA)"" <jira@apache.org>","Fri, 3 Jun 2016 22:51:59 +0000 (UTC)","[jira] [Resolved] (HBASE-15849) Shell Cleanup: Simplify handling of commands' runtime"
"Stephen Jiang <syuanjiangdev@gmail.com>","Fri, 3 Jun 2016 16:02:26 -0700","Re: [ANNOUNCE] New HBase committer Apekshit Sharma"
"Jonathan Hsieh <jon@cloudera.com>","Fri, 3 Jun 2016 16:43:01 -0700","Re: [ANNOUNCE] New HBase committer Apekshit Sharma"
"Nick Dimiduk <ndimiduk@gmail.com>","Fri, 3 Jun 2016 17:09:49 -0700","Re: [ANNOUNCE] New HBase committer Apekshit Sharma"
"""Dima Spivak (JIRA)"" <jira@apache.org>","Sat, 4 Jun 2016 00:44:59 +0000 (UTC)","[jira] [Created] (HBASE-15961) Create documentation on how to use of clusterdock"
"""Dima Spivak (JIRA)"" <jira@apache.org>","Sat, 4 Jun 2016 00:47:59 +0000 (UTC)","[jira] [Created] (HBASE-15962) Create Jenkins automation to build clusterdock framework regularly"
"""Dima Spivak (JIRA)"" <jira@apache.org>","Sat, 4 Jun 2016 00:49:59 +0000 (UTC)","[jira] [Created] (HBASE-15963) Create Jenkins automation to build apache-hbase clusterdock images"
"""Dima Spivak (JIRA)"" <jira@apache.org>","Sat, 4 Jun 2016 00:51:59 +0000 (UTC)","[jira] [Created] (HBASE-15964) Create Jenkins automation to run ITBLL on upstream infrastructure"
"""Appy (JIRA)"" <jira@apache.org>","Sat, 4 Jun 2016 11:34:59 +0000 (UTC)","[jira] [Created] (HBASE-15965) Shell test changes. Use @shell.command instead directly calling functions in admin.rb and other libraries."
"Apache Jenkins Server <jenkins@builds.apache.org>","Sat, 4 Jun 2016 14:54:05 +0000 (UTC)","Successful: HBase Generate Website"
"""Dustin Christmann (JIRA)"" <jira@apache.org>","Sun, 5 Jun 2016 02:23:59 +0000 (UTC)","[jira] [Created] (HBASE-15966) Bulk load unable to read HFiles from different filesystem type than fs.defaultFS"
"""stack (JIRA)"" <jira@apache.org>","Sun, 5 Jun 2016 19:09:59 +0000 (UTC)","[jira] [Created] (HBASE-15967) Metric for active ipc Readers and make default fraction of cpu count"
"""stack (JIRA)"" <jira@apache.org>","Sun, 5 Jun 2016 19:46:59 +0000 (UTC)","[jira] [Resolved] (HBASE-6103) Optimize the HBaseServer to deserialize the data for each ipc connection in parallel"
"Heng Chen <heng.chen.1986@gmail.com>","Mon, 6 Jun 2016 10:34:01 +0800","Re: [ANNOUNCE] New HBase committer Apekshit Sharma"
"ashish singhi <ashish.singhi@huawei.com>","Mon, 6 Jun 2016 05:48:16 +0000","RE: [ANNOUNCE] New HBase committer Apekshit Sharma"
"Duo Zhang <zhangduo@apache.org>","Mon, 6 Jun 2016 14:05:10 +0800","Re: [ANNOUNCE] New HBase committer Apekshit Sharma"
"Pankaj kr <pankaj.kr@huawei.com>","Mon, 6 Jun 2016 06:19:03 +0000","RE: [ANNOUNCE] New HBase committer Apekshit Sharma"
"""Phil Yang (JIRA)"" <jira@apache.org>","Mon, 6 Jun 2016 12:37:21 +0000 (UTC)","[jira] [Created] (HBASE-15968) Strong semantics of versions"
"Apache Jenkins Server <jenkins@builds.apache.org>","Mon, 6 Jun 2016 15:12:47 +0000 (UTC)","Successful: HBase Generate Website"
"""Sean Busbey (JIRA)"" <jira@apache.org>","Mon, 6 Jun 2016 17:13:20 +0000 (UTC)","[jira] [Created] (HBASE-15969) add precommit check for commit message formating"
"""Joseph (JIRA)"" <jira@apache.org>","Mon, 6 Jun 2016 17:13:21 +0000 (UTC)","[jira] [Resolved] (HBASE-15960) Add Javadocs for ReplicationQueuesHBaseImpl"
"""Joseph (JIRA)"" <jira@apache.org>","Mon, 6 Jun 2016 17:16:20 +0000 (UTC)","[jira] [Created] (HBASE-15970) Move Replication Peers into an HBase table too"
"Sean Busbey <busbey@cloudera.com>","Mon, 6 Jun 2016 11:03:42 -0700","Re: [DISCUSS] Include Deb and RPM packages in releases"
"Apache Jenkins Server <jenkins@builds.apache.org>","Mon, 6 Jun 2016 18:30:37 +0000 (UTC)","Successful: hbase.apache.org HTML Checker"
"Andrew Purtell <apurtell@apache.org>","Mon, 6 Jun 2016 11:38:02 -0700","Re: [DISCUSS] Include Deb and RPM packages in releases"
"Jean-Marc Spaggiari <jean-marc@spaggiari.org>","Mon, 6 Jun 2016 14:41:27 -0400","Re: [DISCUSS] Include Deb and RPM packages in releases"
"Andrew Purtell <apurtell@apache.org>","Mon, 6 Jun 2016 12:03:14 -0700","Re: [DISCUSS] Include Deb and RPM packages in releases"
"Mikhail Antonov <olorinbant@gmail.com>","Mon, 6 Jun 2016 12:28:52 -0700","Re: [DISCUSS] Include Deb and RPM packages in releases"
"Andrew Purtell <apurtell@apache.org>","Mon, 6 Jun 2016 12:32:17 -0700","Re: [DISCUSS] Include Deb and RPM packages in releases"
"""stack (JIRA)"" <jira@apache.org>","Mon, 6 Jun 2016 21:53:21 +0000 (UTC)","[jira] [Created] (HBASE-15971) Regression: Random Read/WorkloadC slower in 1.x than 0.98"
"""Ted Yu (JIRA)"" <jira@apache.org>","Mon, 6 Jun 2016 23:00:24 +0000 (UTC)","[jira] [Created] (HBASE-15972) hbase backup set command should not accept non-existing table"
"""Enis Soztutar (JIRA)"" <jira@apache.org>","Mon, 6 Jun 2016 23:35:21 +0000 (UTC)","[jira] [Created] (HBASE-15973) PeriodicMemstoreFlusher is causing excessive flushes when back-in-time inserts are happening"
"""Joseph (JIRA)"" <jira@apache.org>","Tue, 7 Jun 2016 00:07:21 +0000 (UTC)","[jira] [Created] (HBASE-15974) Create a ReplicationQueuesClientHBaseImpl"
"""huaxiang sun (JIRA)"" <jira@apache.org>","Tue, 7 Jun 2016 00:37:20 +0000 (UTC)","[jira] [Created] (HBASE-15975) logic in TestHTableDescriptor#testAddCoprocessorWithSpecStr is wrong"
"""Vladimir Rodionov (JIRA)"" <jira@apache.org>","Tue, 7 Jun 2016 01:04:21 +0000 (UTC)","[jira] [Resolved] (HBASE-15330) HBase Backup/Restore Phase 3: support delete/truncate table"
"""Liu Junhong (JIRA)"" <jira@apache.org>","Tue, 7 Jun 2016 03:15:21 +0000 (UTC)","[jira] [Created] (HBASE-15976) RegionServerMetricsWrapperRunnable will be failure  when disable blockcache."
"Apache Jenkins Server <jenkins@builds.apache.org>","Tue, 7 Jun 2016 14:54:42 +0000 (UTC)","Successful: HBase Generate Website"
"""Nick Dimiduk (JIRA)"" <jira@apache.org>","Tue, 7 Jun 2016 16:15:21 +0000 (UTC)","[jira] [Created] (HBASE-15977) Failed variable substitution on home page"
"""Nick Dimiduk (JIRA)"" <jira@apache.org>","Tue, 7 Jun 2016 16:21:21 +0000 (UTC)","[jira] [Created] (HBASE-15978) Netty API leaked into public API"
"""Ted Yu (JIRA)"" <jira@apache.org>","Tue, 7 Jun 2016 16:55:21 +0000 (UTC)","[jira] [Resolved] (HBASE-15972) hbase backup set command should not accept non-existing table"
"Andrew Purtell <apurtell@apache.org>","Tue, 7 Jun 2016 10:39:12 -0700","Re: Thinking about 0.98.20"
"""Ted Yu (JIRA)"" <jira@apache.org>","Tue, 7 Jun 2016 17:53:21 +0000 (UTC)","[jira] [Created] (HBASE-15979) replication_admin_test.rb fails in 0.98 branch"
"""huaxiang sun (JIRA)"" <jira@apache.org>","Tue, 7 Jun 2016 19:30:21 +0000 (UTC)","[jira] [Created] (HBASE-15980) TestRegionServerMetrics#testMobMetrics failed with the master"
"""Bryan Beaudreault (JIRA)"" <jira@apache.org>","Tue, 7 Jun 2016 19:30:21 +0000 (UTC)","[jira] [Created] (HBASE-15981) Stripe and Date-tiered compactions inaccurately suggest disabling table in docs"
"""Andrew Purtell (JIRA)"" <jira@apache.org>","Tue, 7 Jun 2016 20:30:21 +0000 (UTC)","[jira] [Created] (HBASE-15982) Interface ReplicationEndpoint extends Guava's Service"
"""huaxiang sun (JIRA)"" <jira@apache.org>","Tue, 7 Jun 2016 20:38:20 +0000 (UTC)","[jira] [Resolved] (HBASE-15980) TestRegionServerMetrics#testMobMetrics failed with the master"
"""Sean Busbey (JIRA)"" <jira@apache.org>","Tue, 7 Jun 2016 20:47:20 +0000 (UTC)","[jira] [Created] (HBASE-15983) Replication improperly discards data from end-of-wal in some cases."
"""Sean Busbey (JIRA)"" <jira@apache.org>","Tue, 7 Jun 2016 20:58:20 +0000 (UTC)","[jira] [Created] (HBASE-15984) Given failure to parse a given WAL that was closed cleanly, replay the WAL."
"""Sean Busbey (JIRA)"" <jira@apache.org>","Tue, 7 Jun 2016 21:33:21 +0000 (UTC)","[jira] [Created] (HBASE-15985) clarify promises about edits from replication in ref guide"
"""Ted Yu (JIRA)"" <jira@apache.org>","Tue, 7 Jun 2016 21:46:20 +0000 (UTC)","[jira] [Created] (HBASE-15986) BackupServerUtil.getWALFilesOlderThan() should handle oldWALs properly"
"""Enis Soztutar (JIRA)"" <jira@apache.org>","Tue, 7 Jun 2016 21:46:21 +0000 (UTC)","[jira] [Reopened] (HBASE-15406) Split / merge switch left disabled after early termination of hbck"
"""Andrew Purtell (JIRA)"" <jira@apache.org>","Wed, 8 Jun 2016 00:11:21 +0000 (UTC)","[jira] [Created] (HBASE-15987) [0.98] Downgrade maven-site-plugin to 2.4"
"""Andrew Purtell (JIRA)"" <jira@apache.org>","Wed, 8 Jun 2016 00:11:21 +0000 (UTC)","[jira] [Resolved] (HBASE-15987) [0.98] Downgrade maven-site-plugin to 2.4"
"""Vladimir Rodionov (JIRA)"" <jira@apache.org>","Wed, 8 Jun 2016 01:05:21 +0000 (UTC)","[jira] [Created] (HBASE-15988) Backup set add command MUST initiate full backup for a table(s) being added"
"Andrew Purtell <apurtell@apache.org>","Tue, 7 Jun 2016 18:26:02 -0700","[VOTE] The 1st HBase 0.98.20 release candidate (RC0) is available"
"""Nick Dimiduk (JIRA)"" <jira@apache.org>","Wed, 8 Jun 2016 04:33:21 +0000 (UTC)","[jira] [Created] (HBASE-15989) Remove hbase.online.schema.update.enable"
"""ChiaPing Tsai (JIRA)"" <jira@apache.org>","Wed, 8 Jun 2016 06:58:21 +0000 (UTC)","[jira] [Created] (HBASE-15990) The priority value of subsequent coprocessor in the Coprocessor.Priority.SYSTEM list are not incremented by one"
"""ramkrishna.s.vasudevan (JIRA)"" <jira@apache.org>","Wed, 8 Jun 2016 13:05:21 +0000 (UTC)","[jira] [Created] (HBASE-15991) CompactingMemstore#InMemoryFlushRunnable should implement Comparable/Comparator"
"Apache Jenkins Server <jenkins@builds.apache.org>","Wed, 8 Jun 2016 14:55:43 +0000 (UTC)","Successful: HBase Generate Website"
"""Hari Krishna Dara (JIRA)"" <jira@apache.org>","Wed, 8 Jun 2016 17:22:21 +0000 (UTC)","[jira] [Created] (HBASE-15992) Preserve original KeeperException when converted to external exceptions"
"Dima Spivak <dspivak@cloudera.com>","Wed, 8 Jun 2016 10:26:39 -0700","Re: [VOTE] The 1st HBase 0.98.20 release candidate (RC0) is available"
"Andrew Purtell <apurtell@apache.org>","Wed, 8 Jun 2016 11:05:54 -0700","Re: [VOTE] The 1st HBase 0.98.20 release candidate (RC0) is available"
"""Vladimir Rodionov (JIRA)"" <jira@apache.org>","Wed, 8 Jun 2016 19:00:23 +0000 (UTC)","[jira] [Created] (HBASE-15993) Regex support in table names"
"""Vladimir Rodionov (JIRA)"" <jira@apache.org>","Wed, 8 Jun 2016 19:01:21 +0000 (UTC)","[jira] [Resolved] (HBASE-14142) HBase Backup/Restore Phase 3: Edits deduplication during backup"
"""Joseph (JIRA)"" <jira@apache.org>","Wed, 8 Jun 2016 19:18:21 +0000 (UTC)","[jira] [Resolved] (HBASE-15956) Modify queue naming standards to speed up ReplicationQueuesHBaseImpl"
"""stack (JIRA)"" <jira@apache.org>","Wed, 8 Jun 2016 19:20:21 +0000 (UTC)","[jira] [Created] (HBASE-15994) Allow selection of RpcSchedulers"
"Ted Yu <yuzhihong@gmail.com>","Wed, 8 Jun 2016 13:42:09 -0700","Re: [VOTE] The 1st HBase 0.98.20 release candidate (RC0) is available"
"""Ted Yu (JIRA)"" <jira@apache.org>","Wed, 8 Jun 2016 22:10:20 +0000 (UTC)","[jira] [Resolved] (HBASE-15986) BackupServerUtil.getWALFilesOlderThan() should handle oldWALs properly"
"""Vincent Poon (JIRA)"" <jira@apache.org>","Wed, 8 Jun 2016 22:49:21 +0000 (UTC)","[jira] [Created] (HBASE-15995) Separate replication WAL reading from shipping"
"""Enis Soztutar (JIRA)"" <jira@apache.org>","Wed, 8 Jun 2016 23:17:21 +0000 (UTC)","[jira] [Resolved] (HBASE-15973) PeriodicMemstoreFlusher is causing excessive flushes when back-in-time inserts are happening"
"""Vladimir Rodionov (JIRA)"" <jira@apache.org>","Thu, 9 Jun 2016 00:29:21 +0000 (UTC)","[jira] [Created] (HBASE-15996) Asynchronous execution mode"
"""Vladimir Rodionov (JIRA)"" <jira@apache.org>","Thu, 9 Jun 2016 00:42:20 +0000 (UTC)","[jira] [Created] (HBASE-15997) Cancel backup operation support"
"""Vladimir Rodionov (JIRA)"" <jira@apache.org>","Thu, 9 Jun 2016 00:44:20 +0000 (UTC)","[jira] [Created] (HBASE-15998) Cancel restore operation support"
"Dima Spivak <dspivak@cloudera.com>","Wed, 8 Jun 2016 22:53:26 -0700","Re: [VOTE] The 1st HBase 0.98.20 release candidate (RC0) is available"
"""ramkrishna.s.vasudevan (JIRA)"" <jira@apache.org>","Thu, 9 Jun 2016 12:19:20 +0000 (UTC)","[jira] [Created] (HBASE-15999) Do not append the current thread name for the threads in the INMEMORY_COMPACTION_POOL"
"Apache Jenkins Server <jenkins@builds.apache.org>","Thu, 9 Jun 2016 14:54:38 +0000 (UTC)","Successful: HBase Generate Website"
"Andrew Purtell <apurtell@apache.org>","Thu, 9 Jun 2016 10:03:20 -0700","Re: [VOTE] The 1st HBase 0.98.20 release candidate (RC0) is available"
"Andrew Purtell <apurtell@apache.org>","Thu, 9 Jun 2016 10:03:38 -0700","Re: [VOTE] The 1st HBase 0.98.20 release candidate (RC0) is available"
"""Nick Dimiduk (JIRA)"" <jira@apache.org>","Thu, 9 Jun 2016 17:42:21 +0000 (UTC)","[jira] [Created] (HBASE-16000) Table#checkAndPut() docs are too vague"
"""Nick Dimiduk (JIRA)"" <jira@apache.org>","Thu, 9 Jun 2016 17:52:21 +0000 (UTC)","[jira] [Created] (HBASE-16001) Support batching of CAS operations"
"""Nick Dimiduk (JIRA)"" <jira@apache.org>","Thu, 9 Jun 2016 21:12:21 +0000 (UTC)","[jira] [Created] (HBASE-16002) Many DataType constructors are not public"
"""ramkrishna.s.vasudevan (JIRA)"" <jira@apache.org>","Fri, 10 Jun 2016 05:03:21 +0000 (UTC)","[jira] [Created] (HBASE-16003) Compacting memstore related fixes"
"Apache Jenkins Server <jenkins@builds.apache.org>","Fri, 10 Jun 2016 15:24:45 +0000 (UTC)","Successful: HBase Generate Website"
"""Jurriaan Mous (JIRA)"" <jira@apache.org>","Fri, 10 Jun 2016 15:57:21 +0000 (UTC)","[jira] [Created] (HBASE-16004) Update to Netty 4.1.1"
"""Joseph (JIRA)"" <jira@apache.org>","Fri, 10 Jun 2016 16:52:20 +0000 (UTC)","[jira] [Created] (HBASE-16005) Implement HFile ref's tracking (bulk loading) in ReplicationQueuesHBaseImpl and ReplicationQueuesClientHBaseImpl"
"""Ted Yu (JIRA)"" <jira@apache.org>","Fri, 10 Jun 2016 17:52:21 +0000 (UTC)","[jira] [Created] (HBASE-16006) FileSystem should be obtained from specified path in WALInputFormat#getSplits()"
"Sean Busbey <busbey@cloudera.com>","Fri, 10 Jun 2016 13:06:04 -0500","Re: [VOTE] The 1st HBase 0.98.20 release candidate (RC0) is available"
"""Ted Yu (JIRA)"" <jira@apache.org>","Fri, 10 Jun 2016 18:52:20 +0000 (UTC)","[jira] [Created] (HBASE-16007) Job's Configuration should be passed to TableMapReduceUtil#addDependencyJars() in WALPlayer"
"""Stephen Yuan Jiang (JIRA)"" <jira@apache.org>","Fri, 10 Jun 2016 19:06:20 +0000 (UTC)","[jira] [Created] (HBASE-16008) A robust way deal with early termination of HBCK"
"""Ted Yu (JIRA)"" <jira@apache.org>","Fri, 10 Jun 2016 20:41:21 +0000 (UTC)","[jira] [Created] (HBASE-16009) Restoring an incremental backup should not require -overwrite"
"""Jerry He (JIRA)"" <jira@apache.org>","Fri, 10 Jun 2016 23:15:21 +0000 (UTC)","[jira] [Created] (HBASE-16010) Put draining function through Admin API"
"Mikhail Antonov <olorinbant@gmail.com>","Fri, 10 Jun 2016 17:00:41 -0700","Re: Branch for 1.3"
"Ted Yu <yuzhihong@gmail.com>","Fri, 10 Jun 2016 17:04:10 -0700","Re: Branch for 1.3"
"=?UTF-8?Q?Enis_S=C3=B6ztutar?= <enis@apache.org>","Fri, 10 Jun 2016 19:38:17 -0700","Re: Branch for 1.3"
" <larsh@apache.org>","Sat, 11 Jun 2016 04:54:31 +0000 (UTC)","Re: [VOTE] The 1st HBase 0.98.20 release candidate (RC0) is available"
"""Daniel Vimont (JIRA)"" <jira@apache.org>","Sat, 11 Jun 2016 10:54:21 +0000 (UTC)","[jira] [Reopened] (HBASE-15835) HBaseTestingUtility#startMiniCluster throws ""HMasterAddress already in use"" RuntimeException when a local instance of HBase is running"
"Apache Jenkins Server <jenkins@builds.apache.org>","Sat, 11 Jun 2016 14:54:12 +0000 (UTC)","Successful: HBase Generate Website"
"""Youngjoon Kim (JIRA)"" <jira@apache.org>","Sun, 12 Jun 2016 07:44:21 +0000 (UTC)","[jira] [Created] (HBASE-16011) TableSnapshotScanner and TableSnapshotInputFormat can produce duplicate rows"
"""Ted Yu (JIRA)"" <jira@apache.org>","Sun, 12 Jun 2016 21:24:21 +0000 (UTC)","[jira] [Resolved] (HBASE-15979) replication_admin_test.rb fails in 0.98 branch"
"""Ted Yu (JIRA)"" <jira@apache.org>","Sun, 12 Jun 2016 21:25:21 +0000 (UTC)","[jira] [Resolved] (HBASE-15853) HBase backups fail if there is no /user/hbase directory on HDFS"
"""=?utf-8?B?RG9uZyBMaQ==?=""<lidong@apache.org>","Mon, 13 Jun 2016 10:08:04 +0800","Re: CPU usage not being fully utilized on region server"
"""Du, Jingcheng"" <jingcheng.du@intel.com>","Mon, 13 Jun 2016 03:15:17 +0000","RE: CPU usage not being fully utilized on region server"
"Gerry Morales <gerrymorales@gmail.com>","Sun, 12 Jun 2016 21:30:36 -0700","Re: CPU usage not being fully utilized on region server"
"Madhur Sharma <madhurs99@gmail.com>","Mon, 13 Jun 2016 14:35:19 +0530","HBase Task #57953b5d"
"""ramkrishna.s.vasudevan (JIRA)"" <jira@apache.org>","Mon, 13 Jun 2016 09:37:21 +0000 (UTC)","[jira] [Reopened] (HBASE-15991) CompactingMemstore#InMemoryFlushRunnable should implement Comparable/Comparator"
"""Guanghao Zhang (JIRA)"" <jira@apache.org>","Mon, 13 Jun 2016 10:39:21 +0000 (UTC)","[jira] [Created] (HBASE-16012) Major compaction can't work because left scanner read point in RegionServer"
"""ramkrishna.s.vasudevan (JIRA)"" <jira@apache.org>","Mon, 13 Jun 2016 11:18:21 +0000 (UTC)","[jira] [Created] (HBASE-16013) Compaction process can be improved for a default case"
"""ramkrishna.s.vasudevan (JIRA)"" <jira@apache.org>","Mon, 13 Jun 2016 12:15:21 +0000 (UTC)","[jira] [Resolved] (HBASE-15991) CompactingMemstore#InMemoryFlushRunnable should implement Comparable/Comparator"
"Sean Busbey <busbey@cloudera.com>","Mon, 13 Jun 2016 09:11:46 -0500","Re: Branch for 1.3"
"Apache Jenkins Server <jenkins@builds.apache.org>","Mon, 13 Jun 2016 15:11:38 +0000 (UTC)","Successful: HBase Generate Website"
"Ted Yu <yuzhihong@gmail.com>","Mon, 13 Jun 2016 09:44:30 -0700","Re: HBase Task #57953b5d"
"""Ted Yu (JIRA)"" <jira@apache.org>","Mon, 13 Jun 2016 17:43:20 +0000 (UTC)","[jira] [Resolved] (HBASE-15584) Revisit handling of BackupState#CANCELLED"
"Apache Jenkins Server <jenkins@builds.apache.org>","Mon, 13 Jun 2016 18:36:19 +0000 (UTC)","Successful: hbase.apache.org HTML Checker"
"""Nick Dimiduk (JIRA)"" <jira@apache.org>","Mon, 13 Jun 2016 18:48:30 +0000 (UTC)","[jira] [Created] (HBASE-16014) Get and Put constructor argument lists are divergent"
"Mikhail Antonov <olorinbant@gmail.com>","Mon, 13 Jun 2016 11:52:21 -0700","Re: Branch for 1.3"
"""KarthikP (JIRA)"" <jira@apache.org>","Mon, 13 Jun 2016 19:41:30 +0000 (UTC)","[jira] [Created] (HBASE-16015) Usability - VerifyReplication performance is too slow"
"""Stephen Yuan Jiang (JIRA)"" <jira@apache.org>","Mon, 13 Jun 2016 20:31:04 +0000 (UTC)","[jira] [Created] (HBASE-16016) AssignmentManager#waitForAssignment could have unexpected negative deadline"
"""Zhan Zhang (JIRA)"" <jira@apache.org>","Mon, 13 Jun 2016 21:37:03 +0000 (UTC)","[jira] [Created] (HBASE-16017) HBase TableOutputFormat has connection leak in getRecordWriter"
"""Joseph (JIRA)"" <jira@apache.org>","Mon, 13 Jun 2016 23:43:57 +0000 (UTC)","[jira] [Created] (HBASE-16018) Better documentation of ReplicationPeers"
"""Sean Busbey (JIRA)"" <jira@apache.org>","Tue, 14 Jun 2016 05:01:02 +0000 (UTC)","[jira] [Created] (HBASE-16019) Cut HBase 1.2.2 release"
"Stephen Jiang <syuanjiangdev@gmail.com>","Mon, 13 Jun 2016 22:40:41 -0700","RegionCoprocessorHost.preClose() execute multiple times"
"Matteo Bertozzi <theo.bertozzi@gmail.com>","Tue, 14 Jun 2016 08:21:38 +0200","Re: RegionCoprocessorHost.preClose() execute multiple times"
"""ramkrishna.s.vasudevan (JIRA)"" <jira@apache.org>","Tue, 14 Jun 2016 09:47:01 +0000 (UTC)","[jira] [Created] (HBASE-16020) Make the number of threads in the IN_MEMORY_COMPACTION_POOL configurable"
"""Samir Ahmic (JIRA)"" <jira@apache.org>","Tue, 14 Jun 2016 13:07:01 +0000 (UTC)","[jira] [Created] (HBASE-16021) graceful_stop.sh: Wrap variables in double quote to avoid  ""[: too many arguments"" error"
"Apache Jenkins Server <jenkins@builds.apache.org>","Tue, 14 Jun 2016 14:56:47 +0000 (UTC)","Successful: HBase Generate Website"
"Stephen Jiang <syuanjiangdev@gmail.com>","Tue, 14 Jun 2016 09:43:33 -0700","Re: RegionCoprocessorHost.preClose() execute multiple times"
"""stack (JIRA)"" <jira@apache.org>","Tue, 14 Jun 2016 17:54:27 +0000 (UTC)","[jira] [Created] (HBASE-16022) Add fast path when doing FIFO that skips queue"
"Dima Spivak <dspivak@cloudera.com>","Tue, 14 Jun 2016 10:59:35 -0700","Re: Anyone wanna try running a Docker container-based HBase cluster?"
"""stack (JIRA)"" <jira@apache.org>","Tue, 14 Jun 2016 18:08:27 +0000 (UTC)","[jira] [Created] (HBASE-16023) Fastpath for the FIFO rpcscheduler"
"Andrew Purtell <apurtell@apache.org>","Tue, 14 Jun 2016 11:09:00 -0700","Re: Anyone wanna try running a Docker container-based HBase cluster?"
"""stack (JIRA)"" <jira@apache.org>","Tue, 14 Jun 2016 18:26:27 +0000 (UTC)","[jira] [Resolved] (HBASE-16022) Add fast path when doing FIFO that skips queue"
"Nick Dimiduk <ndimiduk@gmail.com>","Tue, 14 Jun 2016 11:58:09 -0700","Re: Anyone wanna try running a Docker container-based HBase cluster?"
"Samir Ahmic <ahmic.samir@gmail.com>","Tue, 14 Jun 2016 21:28:34 +0200","Re: Anyone wanna try running a Docker container-based HBase cluster?"
"Dima Spivak <dspivak@cloudera.com>","Tue, 14 Jun 2016 12:35:12 -0700","Re: Anyone wanna try running a Docker container-based HBase cluster?"
"""Stephen Yuan Jiang (JIRA)"" <jira@apache.org>","Tue, 14 Jun 2016 20:30:30 +0000 (UTC)","[jira] [Reopened] (HBASE-15746) Remove extra RegionCoprocessor preClose() in RSRpcServices#closeRegion"
"""Mikhail Antonov (JIRA)"" <jira@apache.org>","Tue, 14 Jun 2016 22:33:30 +0000 (UTC)","[jira] [Created] (HBASE-16024) Revert HBASE-15406 from branch-1.3"
"""Gary Helmling (JIRA)"" <jira@apache.org>","Tue, 14 Jun 2016 22:44:30 +0000 (UTC)","[jira] [Created] (HBASE-16025) Cache table state to reduce load on META"
"""Mikhail Antonov (JIRA)"" <jira@apache.org>","Tue, 14 Jun 2016 22:46:30 +0000 (UTC)","[jira] [Created] (HBASE-16026) Master UI should display status of additional ZK switches"
"""Tianying Chang (JIRA)"" <jira@apache.org>","Tue, 14 Jun 2016 23:56:33 +0000 (UTC)","[jira] [Created] (HBASE-16027) All Regions are flushed at about same time when MEMSTORE_PERIODIC_FLUSH is on, causing flush spike"
"""Tianying Chang (JIRA)"" <jira@apache.org>","Tue, 14 Jun 2016 23:59:09 +0000 (UTC)","[jira] [Created] (HBASE-16028) All Regions are flushed at about same time when MEMSTORE_PERIODIC_FLUSH is on, causing flush spike"
"""Tianying Chang (JIRA)"" <jira@apache.org>","Tue, 14 Jun 2016 23:59:51 +0000 (UTC)","[jira] [Created] (HBASE-16029) All Regions are flushed at about same time when MEMSTORE_PERIODIC_FLUSH is on, causing flush spike"
"""Tianying Chang (JIRA)"" <jira@apache.org>","Wed, 15 Jun 2016 00:08:49 +0000 (UTC)","[jira] [Created] (HBASE-16030) All Regions are flushed at about same time when MEMSTORE_PERIODIC_FLUSH is on, causing flush spike"
"""Heng Chen (JIRA)"" <jira@apache.org>","Wed, 15 Jun 2016 03:39:12 +0000 (UTC)","[jira] [Created] (HBASE-16031) Documents about ""hbase.replication"" default value seems wrong"
"""Ted Yu (JIRA)"" <jira@apache.org>","Wed, 15 Jun 2016 04:36:09 +0000 (UTC)","[jira] [Resolved] (HBASE-15862) Backup - Delete- Restore does not restore deleted data"
"Sean Busbey <busbey@apache.org>","Tue, 14 Jun 2016 23:43:48 -0500","[VOTE] First release candidate for HBase 1.2.2 (RC0) is available"
"""Mikhail Antonov (JIRA)"" <jira@apache.org>","Wed, 15 Jun 2016 05:44:09 +0000 (UTC)","[jira] [Resolved] (HBASE-15406) Split / merge switch left disabled after early termination of hbck"
"""Tianying Chang (JIRA)"" <jira@apache.org>","Wed, 15 Jun 2016 06:26:09 +0000 (UTC)","[jira] [Resolved] (HBASE-16027) All Regions are flushed at about same time when MEMSTORE_PERIODIC_FLUSH is on, causing flush spike"
"""Tianying Chang (JIRA)"" <jira@apache.org>","Wed, 15 Jun 2016 06:27:09 +0000 (UTC)","[jira] [Resolved] (HBASE-16029) All Regions are flushed at about same time when MEMSTORE_PERIODIC_FLUSH is on, causing flush spike"
"""Tianying Chang (JIRA)"" <jira@apache.org>","Wed, 15 Jun 2016 06:27:09 +0000 (UTC)","[jira] [Resolved] (HBASE-16028) All Regions are flushed at about same time when MEMSTORE_PERIODIC_FLUSH is on, causing flush spike"
"ngkmh <ngkmh@yahoo.com>","Wed, 15 Jun 2016 05:41:14 -0700 (MST)","Connecting to secured HBase using Java and hbase.regionserver.kerberos.principal"
"""Yu Li (JIRA)"" <jira@apache.org>","Wed, 15 Jun 2016 14:51:09 +0000 (UTC)","[jira] [Created] (HBASE-16032) Possible memory leak in StoreScanner"
"""Yu Li (JIRA)"" <jira@apache.org>","Wed, 15 Jun 2016 15:16:09 +0000 (UTC)","[jira] [Created] (HBASE-16033) Add more details in logging of responseTooSlow/TooLarge"
"Apache Jenkins Server <jenkins@builds.apache.org>","Wed, 15 Jun 2016 16:53:42 +0000 (UTC)","Successful: HBase Generate Website"
"""Matteo Bertozzi (JIRA)"" <jira@apache.org>","Wed, 15 Jun 2016 17:53:09 +0000 (UTC)","[jira] [Created] (HBASE-16034) Fix ProcedureTestingUtility#LoadCounter.setMaxProcId()"
"""Sean Mackrory (JIRA)"" <jira@apache.org>","Wed, 15 Jun 2016 19:05:09 +0000 (UTC)","[jira] [Created] (HBASE-16035) Nested AutoCloseables might not all get closed"
"""Joseph (JIRA)"" <jira@apache.org>","Wed, 15 Jun 2016 19:28:09 +0000 (UTC)","[jira] [Created] (HBASE-16036) Fix ReplicationQueuesHBaseImpl initialization non-blocking"
"""Mikhail Antonov (JIRA)"" <jira@apache.org>","Wed, 15 Jun 2016 20:10:09 +0000 (UTC)","[jira] [Resolved] (HBASE-16026) Master UI should display status of additional ZK switches"
"""Mikhail Antonov (JIRA)"" <jira@apache.org>","Wed, 15 Jun 2016 21:11:09 +0000 (UTC)","[jira] [Reopened] (HBASE-15908) Checksum verification is broken due to incorrect passing of ByteBuffers in DataChecksum"
"""Vladimir Rodionov (JIRA)"" <jira@apache.org>","Wed, 15 Jun 2016 21:57:09 +0000 (UTC)","[jira] [Created] (HBASE-16037) Automatic and overwrite restore modes. Do we need them?"
"""Appy (JIRA)"" <jira@apache.org>","Wed, 15 Jun 2016 22:40:09 +0000 (UTC)","[jira] [Created] (HBASE-16038) Ignore JVM crashes or machine shutdown failures in report-flakies"
"""Romil Choksi (JIRA)"" <jira@apache.org>","Thu, 16 Jun 2016 02:08:05 +0000 (UTC)","[jira] [Created] (HBASE-16039) Incremental backup action failed with NPE"
"kevin <kiss.kevin119@gmail.com>","Thu, 16 Jun 2016 10:27:06 +0800","May I run hbase on top of Alluxio/tacyon"
"Apekshit Sharma <appy@cloudera.com>","Wed, 15 Jun 2016 20:50:58 -0700","Surge of flaky tests"
"Ted Yu <yuzhihong@gmail.com>","Wed, 15 Jun 2016 21:04:15 -0700","Re: Surge of flaky tests"
"Mikhail Antonov <olorinbant@gmail.com>","Wed, 15 Jun 2016 21:09:08 -0700","Re: Surge of flaky tests"
"Mikhail Antonov <olorinbant@gmail.com>","Wed, 15 Jun 2016 21:24:12 -0700","Re: Branch for 1.3"
"Andrew Purtell <apurtell@apache.org>","Wed, 15 Jun 2016 23:07:37 -0700","Re: [VOTE] First release candidate for HBase 1.2.2 (RC0) is available"
"""Heng Chen (JIRA)"" <jira@apache.org>","Thu, 16 Jun 2016 08:07:05 +0000 (UTC)","[jira] [Resolved] (HBASE-16031) Documents about ""hbase.replication"" default value seems wrong"
"""Heng Chen (JIRA)"" <jira@apache.org>","Thu, 16 Jun 2016 08:14:05 +0000 (UTC)","[jira] [Created] (HBASE-16040) Remove configuration ""hbase.replication"""
"""Jurriaan Mous (JIRA)"" <jira@apache.org>","Thu, 16 Jun 2016 09:55:05 +0000 (UTC)","[jira] [Created] (HBASE-16041) Update build pipeline to JDK8"
"""ramkrishna.s.vasudevan (JIRA)"" <jira@apache.org>","Thu, 16 Jun 2016 12:16:05 +0000 (UTC)","[jira] [Created] (HBASE-16042) Add support in PE tool for InMemory Compaction"
"Ted Yu <yuzhihong@gmail.com>","Thu, 16 Jun 2016 06:44:50 -0700","Re: Surge of flaky tests"
"""Josh Elser (JIRA)"" <jira@apache.org>","Thu, 16 Jun 2016 13:46:05 +0000 (UTC)","[jira] [Created] (HBASE-16043) Backport SPNEGO support to 0.98"
"""Samir Ahmic (JIRA)"" <jira@apache.org>","Thu, 16 Jun 2016 14:22:05 +0000 (UTC)","[jira] [Created] (HBASE-16044) Fix 'hbase shell' output parsing in bash scripts"
"Apache Jenkins Server <jenkins@builds.apache.org>","Thu, 16 Jun 2016 14:54:54 +0000 (UTC)","Successful: HBase Generate Website"
"Sean Busbey <busbey@apache.org>","Thu, 16 Jun 2016 10:43:53 -0500","Re: Testing and CI -- Apache Jenkins Builds (WAS -> Re: Testing)"
"""Ted Yu (JIRA)"" <jira@apache.org>","Thu, 16 Jun 2016 17:13:05 +0000 (UTC)","[jira] [Created] (HBASE-16045) endtime argument for VerifyReplication was incorrectly specified in usage"
"""Ted Yu (JIRA)"" <jira@apache.org>","Thu, 16 Jun 2016 17:42:05 +0000 (UTC)","[jira] [Resolved] (HBASE-16039) Incremental backup action failed with NPE when table in full backup is deleted in between"
"""stack (JIRA)"" <jira@apache.org>","Thu, 16 Jun 2016 17:49:05 +0000 (UTC)","[jira] [Created] (HBASE-16046) [UMBRELLA] Make our default rpc scheduler the adaptive LIFO+CoDel added in HBASE-15136"
"Apekshit Sharma <appy@cloudera.com>","Thu, 16 Jun 2016 11:42:33 -0700","Re: Surge of flaky tests"
"""Mikhail Antonov (JIRA)"" <jira@apache.org>","Thu, 16 Jun 2016 18:56:05 +0000 (UTC)","[jira] [Resolved] (HBASE-15908) Checksum verification is broken due to incorrect passing of ByteBuffers in DataChecksum"
"""Mikhail Antonov (JIRA)"" <jira@apache.org>","Thu, 16 Jun 2016 19:22:05 +0000 (UTC)","[jira] [Created] (HBASE-16047) TestFastFail is broken again"
"""Ted Yu (JIRA)"" <jira@apache.org>","Thu, 16 Jun 2016 20:57:05 +0000 (UTC)","[jira] [Created] (HBASE-16048) Consider tagging InternalScanner with LimitedPrivate(HBaseInterfaceAudience.COPROC)"
"""Mikhail Antonov (JIRA)"" <jira@apache.org>","Thu, 16 Jun 2016 21:23:05 +0000 (UTC)","[jira] [Created] (HBASE-16049) TestRowProcessorEndpoint is failing on Apache Builds"
"Apekshit Sharma <appy@cloudera.com>","Thu, 16 Jun 2016 15:15:55 -0700","Re: Hangout on Slack?"
"Dima Spivak <dspivak@cloudera.com>","Thu, 16 Jun 2016 15:20:57 -0700","Re: Hangout on Slack?"
"""Andrew Purtell (JIRA)"" <jira@apache.org>","Thu, 16 Jun 2016 22:26:05 +0000 (UTC)","[jira] [Reopened] (HBASE-15977) Failed variable substitution on home page"
"Dima Spivak <dspivak@cloudera.com>","Thu, 16 Jun 2016 15:35:22 -0700","Re: [VOTE] First release candidate for HBase 1.2.2 (RC0) is available"
"""Misty Stanley-Jones (JIRA)"" <jira@apache.org>","Thu, 16 Jun 2016 22:41:05 +0000 (UTC)","[jira] [Resolved] (HBASE-15977) Failed variable substitution on home page"
"""Andrew Purtell (JIRA)"" <jira@apache.org>","Thu, 16 Jun 2016 22:45:06 +0000 (UTC)","[jira] [Created] (HBASE-16050) Fully document site building procedure"
"""Mikhail Antonov (JIRA)"" <jira@apache.org>","Thu, 16 Jun 2016 23:17:05 +0000 (UTC)","[jira] [Created] (HBASE-16051) TestScannerHeartbeatMessages fails on some machines"
"Nick Dimiduk <ndimiduk@apache.org>","Thu, 16 Jun 2016 17:33:18 -0700","Time for 1.1.6"
"""Ben Lau (JIRA)"" <jira@apache.org>","Fri, 17 Jun 2016 00:42:05 +0000 (UTC)","[jira] [Created] (HBASE-16052) Improve HBaseFsck Scalability"
"""Andrew Purtell (JIRA)"" <jira@apache.org>","Fri, 17 Jun 2016 00:58:05 +0000 (UTC)","[jira] [Resolved] (HBASE-14289) Backport HBASE-13965 'Stochastic Load Balancer JMX Metrics' to 0.98"
"""Andrew Purtell (JIRA)"" <jira@apache.org>","Fri, 17 Jun 2016 00:59:05 +0000 (UTC)","[jira] [Resolved] (HBASE-13667) Backport HBASE-12975 to 1.0 and 0.98 without changing coprocessors hooks"
"""Andrew Purtell (JIRA)"" <jira@apache.org>","Fri, 17 Jun 2016 01:00:17 +0000 (UTC)","[jira] [Resolved] (HBASE-14259) Backport Namespace quota support to 98 branch"
"""Andrew Purtell (JIRA)"" <jira@apache.org>","Fri, 17 Jun 2016 01:02:05 +0000 (UTC)","[jira] [Resolved] (HBASE-13096) NPE from SecureWALCellCodec$EncryptedKvEncoder#write when using WAL encryption and Phoenix secondary indexes"
"""Andrew Purtell (JIRA)"" <jira@apache.org>","Fri, 17 Jun 2016 01:03:05 +0000 (UTC)","[jira] [Resolved] (HBASE-14177) Full GC on client may lead to missing scan results"
"""Enis Soztutar (JIRA)"" <jira@apache.org>","Fri, 17 Jun 2016 02:50:05 +0000 (UTC)","[jira] [Created] (HBASE-16053) Master code is not setting the table in ENABLING state in create table"
"""Colin Ma (JIRA)"" <jira@apache.org>","Fri, 17 Jun 2016 06:43:05 +0000 (UTC)","[jira] [Created] (HBASE-16054) OutOfMemory exception when use AsyncRpcClient with encryption"
"""ramkrishna.s.vasudevan (JIRA)"" <jira@apache.org>","Fri, 17 Jun 2016 06:53:05 +0000 (UTC)","[jira] [Created] (HBASE-16055) PutSortReducer loses any Visibility/acl attribute set on the Puts"
"""Matteo Bertozzi (JIRA)"" <jira@apache.org>","Fri, 17 Jun 2016 07:40:05 +0000 (UTC)","[jira] [Created] (HBASE-16056) Procedure v2 - fix master crash for FileNotFound"
"""Shuai Lin (JIRA)"" <jira@apache.org>","Fri, 17 Jun 2016 13:51:05 +0000 (UTC)","[jira] [Created] (HBASE-16057) Regions never get online when the region server fails to handle the OpenRegionRequest before the rpc timeout"
"Apache Jenkins Server <jenkins@builds.apache.org>","Fri, 17 Jun 2016 14:54:16 +0000 (UTC)","Successful: HBase Generate Website"
"""Andrew Purtell (JIRA)"" <jira@apache.org>","Fri, 17 Jun 2016 17:05:05 +0000 (UTC)","[jira] [Resolved] (HBASE-13336) Consistent rules for security meta table protections"
"""Mikhail Antonov (JIRA)"" <jira@apache.org>","Fri, 17 Jun 2016 17:38:05 +0000 (UTC)","[jira] [Created] (HBASE-16058) TestHRegion fails on 1.4 builds"
"""Romil Choksi (JIRA)"" <jira@apache.org>","Fri, 17 Jun 2016 20:28:05 +0000 (UTC)","[jira] [Created] (HBASE-16059) Region normalizer failed to trigger merge action where expected"
"""Mikhail Antonov (JIRA)"" <jira@apache.org>","Fri, 17 Jun 2016 21:13:05 +0000 (UTC)","[jira] [Reopened] (HBASE-15224) Undo  ""hbase.increment.fast.but.narrow.consistency"" option; it is not necessary since HBASE-15213"
"""Mikhail Antonov (JIRA)"" <jira@apache.org>","Fri, 17 Jun 2016 21:13:05 +0000 (UTC)","[jira] [Resolved] (HBASE-15224) Undo  ""hbase.increment.fast.but.narrow.consistency"" option; it is not necessary since HBASE-15213"
"""Enis Soztutar (JIRA)"" <jira@apache.org>","Fri, 17 Jun 2016 21:24:05 +0000 (UTC)","[jira] [Created] (HBASE-16060) 1.x clients cannot access table state talking to 2.0 cluster"
"=?UTF-8?Q?Enis_S=C3=B6ztutar?= <enis@apache.org>","Fri, 17 Jun 2016 15:06:46 -0700","Re: Branch for 1.3"
"=?UTF-8?Q?Enis_S=C3=B6ztutar?= <enis@apache.org>","Fri, 17 Jun 2016 15:07:52 -0700","Re: Branch for 1.3"
"Mikhail Antonov <olorinbant@gmail.com>","Fri, 17 Jun 2016 15:24:11 -0700","Re: Branch for 1.3"
"""Elliott Clark (JIRA)"" <jira@apache.org>","Fri, 17 Jun 2016 23:08:05 +0000 (UTC)","[jira] [Created] (HBASE-16061) Allow logging to a buffered console"
"Apekshit Sharma <appy@cloudera.com>","Fri, 17 Jun 2016 16:43:40 -0700","Re: Hangout on Slack?"
"""Vladimir Rodionov (JIRA)"" <jira@apache.org>","Fri, 17 Jun 2016 23:53:05 +0000 (UTC)","[jira] [Created] (HBASE-16062) Improper error handling in WAL Reader/Writer creation"
"Apekshit Sharma <appy@cloudera.com>","Fri, 17 Jun 2016 17:23:32 -0700","Re: Hangout on Slack?"
"""stack (JIRA)"" <jira@apache.org>","Sat, 18 Jun 2016 00:25:05 +0000 (UTC)","[jira] [Created] (HBASE-16063) Race condition in new FIFO fastpath from HBASE-16023"
"""Romil Choksi (JIRA)"" <jira@apache.org>","Sat, 18 Jun 2016 01:12:05 +0000 (UTC)","[jira] [Created] (HBASE-16064) HBase shell delete backup command shows HDFS permission error, after successfully deleting the intended backup"
"""Romil Choksi (JIRA)"" <jira@apache.org>","Sat, 18 Jun 2016 01:21:05 +0000 (UTC)","[jira] [Created] (HBASE-16065) hbase backup set describe command does not inform if the set does not exist"
"Rohit Chaudhri <torohit@gmail.com>","Sat, 18 Jun 2016 09:50:57 -0400","Task #57953b5d"
"Apache Jenkins Server <jenkins@builds.apache.org>","Sat, 18 Jun 2016 14:53:51 +0000 (UTC)","Successful: HBase Generate Website"
"Apekshit Sharma <appy@cloudera.com>","Sat, 18 Jun 2016 13:02:21 -0700","Re: Task #57953b5d"
"Gerry Morales <gerrymorales@gmail.com>","Sun, 19 Jun 2016 01:29:42 -0700","Re: Task #57953b5d"
"""Yu Li (JIRA)"" <jira@apache.org>","Sun, 19 Jun 2016 09:05:05 +0000 (UTC)","[jira] [Created] (HBASE-16066) Resolve RpC_REPEATED_CONDITIONAL_TEST findbugs warnings in HMaster"
"Apache Jenkins Server <jenkins@builds.apache.org>","Sun, 19 Jun 2016 14:54:08 +0000 (UTC)","Successful: HBase Generate Website"
"Lars George <lars.george@gmail.com>","Sun, 19 Jun 2016 18:36:44 +0200","MutableQuantiles"
"Andrew Purtell <andrew.purtell@gmail.com>","Sun, 19 Jun 2016 10:06:16 -0700","Re: MutableQuantiles"
"Andrew Purtell <andrew.purtell@gmail.com>","Sun, 19 Jun 2016 13:49:33 -0700","[RESULT] [VOTE] The 1st HBase 0.98.20 release candidate (RC0) is available"
"""binlijin (JIRA)"" <jira@apache.org>","Mon, 20 Jun 2016 04:04:05 +0000 (UTC)","[jira] [Created] (HBASE-16067) Add READ_COMMITTED IsolationLevel for scan and the current is SNAPSHOT."
"Andrew Purtell <apurtell@apache.org>","Sun, 19 Jun 2016 22:20:12 -0700","[ANNOUNCE] Apache HBase 0.98.20 is now available for download"
"""Matteo Bertozzi (JIRA)"" <jira@apache.org>","Mon, 20 Jun 2016 07:45:05 +0000 (UTC)","[jira] [Created] (HBASE-16068) Procedure v2 - use consts for conf properties in tests"
"""li xiang (JIRA)"" <jira@apache.org>","Mon, 20 Jun 2016 07:47:05 +0000 (UTC)","[jira] [Created] (HBASE-16069) Typo ""trapsparently"" in item 3 of chapter 87.2"
"""ramkrishna.s.vasudevan (JIRA)"" <jira@apache.org>","Mon, 20 Jun 2016 11:15:05 +0000 (UTC)","[jira] [Created] (HBASE-16070) Mapreduce Serialization class do not Interface audience"
"""ChiaPing Tsai (JIRA)"" <jira@apache.org>","Mon, 20 Jun 2016 11:33:05 +0000 (UTC)","[jira] [Created] (HBASE-16071) The VisibilityLabelFilter should not count the ""delete cell"""
"Lars George <lars.george@gmail.com>","Mon, 20 Jun 2016 13:36:54 +0200","Re: MutableQuantiles"
"""benbenqiang (JIRA)"" <jira@apache.org>","Mon, 20 Jun 2016 11:43:05 +0000 (UTC)","[jira] [Created] (HBASE-16072) CRUD actions stucked when using spark1.6 manipulate hbase1.2.1"
"Lars George <lars.george@gmail.com>","Mon, 20 Jun 2016 14:19:28 +0200","Re: MutableQuantiles"
"Apache Jenkins Server <jenkins@builds.apache.org>","Mon, 20 Jun 2016 14:55:06 +0000 (UTC)","Successful: HBase Generate Website"
"Sean Busbey <busbey@cloudera.com>","Mon, 20 Jun 2016 11:12:27 -0500","Re: [VOTE] First release candidate for HBase 1.2.2 (RC0) is available"
"Sean Busbey <busbey@cloudera.com>","Mon, 20 Jun 2016 11:14:30 -0500","Re: Hangout on Slack?"
"""Sean Busbey (JIRA)"" <jira@apache.org>","Mon, 20 Jun 2016 16:42:05 +0000 (UTC)","[jira] [Created] (HBASE-16073) update compatibility_checker for jacc dropping comma sep args"
"Elliott Clark <eclark@apache.org>","Mon, 20 Jun 2016 10:13:14 -0700","Re: MutableQuantiles"
"Sean Busbey <busbey@apache.org>","Mon, 20 Jun 2016 12:38:24 -0500","[RESULT] Re: [VOTE] First release candidate for HBase 1.2.2 (RC0) is available"
"Apekshit Sharma <appy@cloudera.com>","Mon, 20 Jun 2016 11:36:23 -0700","Re: Hangout on Slack?"
"Stephen Jiang <syuanjiangdev@gmail.com>","Mon, 20 Jun 2016 12:30:53 -0700","HBCK options to disable master maintenance threads"
"""Mikhail Antonov (JIRA)"" <jira@apache.org>","Mon, 20 Jun 2016 19:30:58 +0000 (UTC)","[jira] [Resolved] (HBASE-14397) PrefixFilter doesn't filter all remaining rows if the prefix is longer than rowkey being compared"
"=?UTF-8?Q?Enis_S=C3=B6ztutar?= <enis.soz@gmail.com>","Mon, 20 Jun 2016 13:44:51 -0700","Re: HBCK options to disable master maintenance threads"
"Stephen Jiang <syuanjiangdev@gmail.com>","Mon, 20 Jun 2016 13:49:02 -0700","Re: HBCK options to disable master maintenance threads"
"Apekshit Sharma <appy@cloudera.com>","Mon, 20 Jun 2016 14:13:50 -0700","Re: Hangout on Slack?"
"=?UTF-8?Q?Enis_S=C3=B6ztutar?= <enis@apache.org>","Mon, 20 Jun 2016 14:33:37 -0700","Re: HBCK options to disable master maintenance threads"
"Apache Jenkins Server <jenkins@builds.apache.org>","Mon, 20 Jun 2016 21:42:54 +0000 (UTC)","Successful: hbase.apache.org HTML Checker"
"""Mikhail Antonov (JIRA)"" <jira@apache.org>","Mon, 20 Jun 2016 21:48:57 +0000 (UTC)","[jira] [Created] (HBASE-16074) ITBLL fails, reports lost big or tine families"
"Ted Yu <yuzhihong@gmail.com>","Mon, 20 Jun 2016 14:50:57 -0700","Re: HBCK options to disable master maintenance threads"
"=?UTF-8?Q?Enis_S=C3=B6ztutar?= <enis@apache.org>","Mon, 20 Jun 2016 14:58:52 -0700","[DISCUSS] HBase-2.0 SHOULD be rolling upgradable and wire-compatible with 1.x"
"Dima Spivak <dspivak@cloudera.com>","Mon, 20 Jun 2016 15:05:14 -0700","Re: [DISCUSS] HBase-2.0 SHOULD be rolling upgradable and wire-compatible with 1.x"
"""Mikhail Antonov (JIRA)"" <jira@apache.org>","Tue, 21 Jun 2016 01:56:57 +0000 (UTC)","[jira] [Created] (HBASE-16075) TestAcidGuarantees is flaky"
"Mikhail Antonov <antonov@apache.org>","Mon, 20 Jun 2016 19:02:54 -0700","Flaky tests"
"""Youngjoon Kim (JIRA)"" <jira@apache.org>","Tue, 21 Jun 2016 04:56:57 +0000 (UTC)","[jira] [Created] (HBASE-16076) Cannot configure split policy in HBase shell"
"""Bibin A Chundatt (JIRA)"" <jira@apache.org>","Tue, 21 Jun 2016 05:45:58 +0000 (UTC)","[jira] [Created] (HBASE-16077) Replication status doesnt show failed RS metrics in CLI"
"Matteo Bertozzi <theo.bertozzi@gmail.com>","Tue, 21 Jun 2016 08:30:42 +0200","Re: [DISCUSS] HBase-2.0 SHOULD be rolling upgradable and wire-compatible with 1.x"
"=?UTF-8?B?5byg6ZOO?= <palomino219@gmail.com>","Tue, 21 Jun 2016 16:10:09 +0800","Re: [DISCUSS] HBase-2.0 SHOULD be rolling upgradable and wire-compatible with 1.x"
"Lars George <lars.george@gmail.com>","Tue, 21 Jun 2016 15:46:30 +0200","Re: MutableQuantiles"
"""Samir Ahmic (JIRA)"" <jira@apache.org>","Tue, 21 Jun 2016 13:53:58 +0000 (UTC)","[jira] [Created] (HBASE-16078) Create java cli tool for managing blancer states for scripts usage."
"bhupendra jain <bhupendra.jain@huawei.com>","Tue, 21 Jun 2016 14:37:00 +0000","Not able to enable Table after network error"
"Apache Jenkins Server <jenkins@builds.apache.org>","Tue, 21 Jun 2016 14:56:25 +0000 (UTC)","Successful: HBase Generate Website"
"Andrew Purtell <andrew.purtell@gmail.com>","Tue, 21 Jun 2016 10:51:48 -0700","Re: [DISCUSS] HBase-2.0 SHOULD be rolling upgradable and wire-compatible with 1.x"
"=?UTF-8?Q?Enis_S=C3=B6ztutar?= <enis@apache.org>","Tue, 21 Jun 2016 11:13:02 -0700","Re: [DISCUSS] HBase-2.0 SHOULD be rolling upgradable and wire-compatible with 1.x"
"""Mikhail Antonov (JIRA)"" <jira@apache.org>","Wed, 22 Jun 2016 00:57:57 +0000 (UTC)","[jira] [Created] (HBASE-16079) TestFailedAppendAndSync fails"
"""Elliott Clark (JIRA)"" <jira@apache.org>","Wed, 22 Jun 2016 01:04:57 +0000 (UTC)","[jira] [Created] (HBASE-16080) Fix flakey tests"
"Dima Spivak <dspivak@cloudera.com>","Tue, 21 Jun 2016 18:30:49 -0700","Any PMCs interested in apache/hbase Bintray access?"
"""Ashu Pachauri (JIRA)"" <jira@apache.org>","Wed, 22 Jun 2016 01:47:57 +0000 (UTC)","[jira] [Created] (HBASE-16081) Replication remove_peer gets stuck and blocks WAL rolling"
"Heng Chen <heng.chen.1986@gmail.com>","Wed, 22 Jun 2016 10:29:36 +0800","Re: [DISCUSS] HBase-2.0 SHOULD be rolling upgradable and wire-compatible with 1.x"
"Andrew Purtell <andrew.purtell@gmail.com>","Tue, 21 Jun 2016 19:36:58 -0700","Re: Any PMCs interested in apache/hbase Bintray access?"
"Sean Busbey <busbey@apache.org>","Tue, 21 Jun 2016 21:40:16 -0500","Re: Any PMCs interested in apache/hbase Bintray access?"
"jinhong lu <lujinhong2@gmail.com>","Wed, 22 Jun 2016 12:39:24 +0800","hbase get big table problem"
"Apache Jenkins Server <jenkins@builds.apache.org>","Wed, 22 Jun 2016 14:54:41 +0000 (UTC)","Successful: HBase Generate Website"
"""Matteo Bertozzi (JIRA)"" <jira@apache.org>","Wed, 22 Jun 2016 16:07:57 +0000 (UTC)","[jira] [Created] (HBASE-16082) Procedure v2 - Move out helpers from MasterProcedureScheduler"
"Misty Stanley-Jones <mstanleyjones@cloudera.com>","Wed, 22 Jun 2016 09:25:21 -0700","Company affiliations in the team list"
"""Joseph (JIRA)"" <jira@apache.org>","Wed, 22 Jun 2016 16:32:58 +0000 (UTC)","[jira] [Created] (HBASE-16083) Fix replication related configs"
"Sean Busbey <busbey@apache.org>","Wed, 22 Jun 2016 11:35:03 -0500","Re: Company affiliations in the team list"
"""Ted Yu (JIRA)"" <jira@apache.org>","Wed, 22 Jun 2016 17:20:58 +0000 (UTC)","[jira] [Created] (HBASE-16084) Clean up the stale references in javadoc"
"=?UTF-8?Q?Enis_S=C3=B6ztutar?= <enis@apache.org>","Wed, 22 Jun 2016 10:42:03 -0700","Re: Company affiliations in the team list"
"Andrew Purtell <andrew.purtell@gmail.com>","Wed, 22 Jun 2016 10:47:10 -0700","Re: Company affiliations in the team list"
"""Elliott Clark (JIRA)"" <jira@apache.org>","Wed, 22 Jun 2016 19:09:08 +0000 (UTC)","[jira] [Created] (HBASE-16085) Add on metric for failed compactions"
"Mikhail Antonov <olorinbant@gmail.com>","Wed, 22 Jun 2016 12:28:47 -0700","Re: Branch for 1.3"
"""churro morales (JIRA)"" <jira@apache.org>","Wed, 22 Jun 2016 19:35:16 +0000 (UTC)","[jira] [Created] (HBASE-16086) TableCfWALEntryFilter and ScopeWALEntryFilter should not redundantly iterate over cells."
"Elliott Clark <eclark@apache.org>","Wed, 22 Jun 2016 12:47:33 -0700","Re: Branch for 1.3"
"""Elliott Clark (JIRA)"" <jira@apache.org>","Wed, 22 Jun 2016 20:21:16 +0000 (UTC)","[jira] [Created] (HBASE-16087) Replication shouldn't start on a master if if only hosts system tables"
"Dima Spivak <dspivak@cloudera.com>","Wed, 22 Jun 2016 14:21:34 -0700","Re: Branch for 1.3"
"""Ted Yu (JIRA)"" <jira@apache.org>","Wed, 22 Jun 2016 21:43:16 +0000 (UTC)","[jira] [Created] (HBASE-16088) hbase restore gives a misleading message if the table doesn't exist"
"""Joseph (JIRA)"" <jira@apache.org>","Wed, 22 Jun 2016 22:01:16 +0000 (UTC)","[jira] [Reopened] (HBASE-16083) Fix table based replication related configs"
"Elliott Clark <eclark@apache.org>","Wed, 22 Jun 2016 15:15:52 -0700","Re: Branch for 1.3"
"""Elliott Clark (JIRA)"" <jira@apache.org>","Wed, 22 Jun 2016 23:05:16 +0000 (UTC)","[jira] [Created] (HBASE-16089) Add on FastPath for CoDel"
"""Ted Yu (JIRA)"" <jira@apache.org>","Wed, 22 Jun 2016 23:06:16 +0000 (UTC)","[jira] [Created] (HBASE-16090) ResultScanner is not closed in SyncTable#finishRemainingHashRanges()"
"""Ted Yu (JIRA)"" <jira@apache.org>","Thu, 23 Jun 2016 00:33:16 +0000 (UTC)","[jira] [Resolved] (HBASE-16083) Fix table based replication related configs"
"Ted Yu <yuzhihong@gmail.com>","Wed, 22 Jun 2016 20:01:40 -0700","Re: Branch for 1.3"
"""Heng Chen (JIRA)"" <jira@apache.org>","Thu, 23 Jun 2016 06:23:16 +0000 (UTC)","[jira] [Resolved] (HBASE-15900) RS stuck in get lock of HStore"
"Dima Spivak <dspivak@cloudera.com>","Wed, 22 Jun 2016 23:52:34 -0700","Re: Branch for 1.3"
"""Vishal Khandelwal (JIRA)"" <jira@apache.org>","Thu, 23 Jun 2016 09:39:16 +0000 (UTC)","[jira] [Created] (HBASE-16091) Canary takes lot more time when there are delete markers in the table"
"Yu Li <carp84@gmail.com>","Thu, 23 Jun 2016 18:03:07 +0800","Re: [DISCUSS] HBase-2.0 SHOULD be rolling upgradable and wire-compatible with 1.x"
"Jim Dykes <jimd4au@gmail.com>","Thu, 23 Jun 2016 10:04:13 -0400","want to get involved in hadoop related apache projects - hbase has a help wanted I am interested in"
"Apache Jenkins Server <jenkins@builds.apache.org>","Thu, 23 Jun 2016 14:53:27 +0000 (UTC)","Successful: HBase Generate Website"
"""Matteo Bertozzi (JIRA)"" <jira@apache.org>","Thu, 23 Jun 2016 16:13:16 +0000 (UTC)","[jira] [Created] (HBASE-16092) Procedure v2 - complete child procedure support"
"""Ted Yu (JIRA)"" <jira@apache.org>","Thu, 23 Jun 2016 17:24:16 +0000 (UTC)","[jira] [Resolved] (HBASE-16088) hbase restore gives a misleading message if the table doesn't exist"
"Mikhail Antonov <antonov@apache.org>","Thu, 23 Jun 2016 10:51:08 -0700","Git / SSL issues on ASF builds?"
"""Elliott Clark (JIRA)"" <jira@apache.org>","Thu, 23 Jun 2016 17:58:16 +0000 (UTC)","[jira] [Created] (HBASE-16093) Splits failed before creating daughter regions leave meta inconsistent"
"Dima Spivak <dspivak@cloudera.com>","Thu, 23 Jun 2016 11:18:37 -0700","Re: Git / SSL issues on ASF builds?"
"Mikhail Antonov <olorinbant@gmail.com>","Thu, 23 Jun 2016 11:26:32 -0700","Re: Git / SSL issues on ASF builds?"
"Dima Spivak <dspivak@cloudera.com>","Thu, 23 Jun 2016 13:00:49 -0700","Re: Git / SSL issues on ASF builds?"
"""Appy (JIRA)"" <jira@apache.org>","Thu, 23 Jun 2016 20:17:16 +0000 (UTC)","[jira] [Created] (HBASE-16094) Improve cleaning up of proc wals"
"Dima Spivak <dspivak@cloudera.com>","Thu, 23 Jun 2016 13:28:23 -0700","Re: Git / SSL issues on ASF builds?"
"""Enis Soztutar (JIRA)"" <jira@apache.org>","Thu, 23 Jun 2016 20:29:16 +0000 (UTC)","[jira] [Created] (HBASE-16095) Add priority to TableDescriptor and priority region open thread pool"
"Mikhail Antonov <olorinbant@gmail.com>","Thu, 23 Jun 2016 13:42:56 -0700","Re: Git / SSL issues on ASF builds?"
"""Ashu Pachauri (JIRA)"" <jira@apache.org>","Thu, 23 Jun 2016 21:03:16 +0000 (UTC)","[jira] [Created] (HBASE-16096) Replication keeps accumulating znodes"
"""Gary Helmling (JIRA)"" <jira@apache.org>","Thu, 23 Jun 2016 21:08:16 +0000 (UTC)","[jira] [Created] (HBASE-16097) Flushes and compactions fail on getting split point"
"""Dima Spivak (JIRA)"" <jira@apache.org>","Thu, 23 Jun 2016 21:42:16 +0000 (UTC)","[jira] [Created] (HBASE-16098) Chaos Monkey shouldn't run during ITBLL's RandomInputGenerator phase"
"Sean Busbey <busbey@apache.org>","Thu, 23 Jun 2016 17:58:50 -0500","[VOTE] Second release candidate for HBase 1.2.2 (RC1)"
"Elliott Clark <eclark@apache.org>","Thu, 23 Jun 2016 16:26:20 -0700","Re: [VOTE] Second release candidate for HBase 1.2.2 (RC1)"
"Vladimir Rodionov <vladrodionov@gmail.com>","Thu, 23 Jun 2016 16:53:55 -0700","Re: want to get involved in hadoop related apache projects - hbase has a help wanted I am interested in"
"""Appy (JIRA)"" <jira@apache.org>","Fri, 24 Jun 2016 02:27:16 +0000 (UTC)","[jira] [Created] (HBASE-16099) Procedures tests timing out"
"""Appy (JIRA)"" <jira@apache.org>","Fri, 24 Jun 2016 03:02:16 +0000 (UTC)","[jira] [Created] (HBASE-16100) Procedure v2 - Tools"
"""Appy (JIRA)"" <jira@apache.org>","Fri, 24 Jun 2016 03:04:16 +0000 (UTC)","[jira] [Created] (HBASE-16101) Procedure v2 - Perf Tool"
"""Appy (JIRA)"" <jira@apache.org>","Fri, 24 Jun 2016 03:09:16 +0000 (UTC)","[jira] [Created] (HBASE-16102) Procedure v2 - Print Procedure Graphs"
"Apekshit Sharma <appy@cloudera.com>","Thu, 23 Jun 2016 20:39:58 -0700","Re: Flaky tests"
"ramkrishna vasudevan <ramkrishna.s.vasudevan@gmail.com>","Fri, 24 Jun 2016 11:15:09 +0530","Re: Flaky tests"
"Apekshit Sharma <appy@cloudera.com>","Thu, 23 Jun 2016 23:38:37 -0700","Re: Flaky tests"
"ramkrishna vasudevan <ramkrishna.s.vasudevan@gmail.com>","Fri, 24 Jun 2016 12:48:03 +0530","Re: Flaky tests"
"""Matteo Bertozzi (JIRA)"" <jira@apache.org>","Fri, 24 Jun 2016 08:19:16 +0000 (UTC)","[jira] [Created] (HBASE-16103) Procedure v2 - TestCloneSnaphotProcedure relies on execution order"
"""darion yaphet (JIRA)"" <jira@apache.org>","Fri, 24 Jun 2016 09:57:16 +0000 (UTC)","[jira] [Created] (HBASE-16104) Support ColumnFamily in PerformanceEvaluation"
"""ramkrishna.s.vasudevan (JIRA)"" <jira@apache.org>","Fri, 24 Jun 2016 10:03:16 +0000 (UTC)","[jira] [Created] (HBASE-16105) Document usage of SYSTEM label"
"""Blaye Nicolas (JIRA)"" <jira@apache.org>","Fri, 24 Jun 2016 12:32:16 +0000 (UTC)","[jira] [Created] (HBASE-16106) HBase Rest API: unexpected behavior of get with timestamp"
"Apache Jenkins Server <jenkins@builds.apache.org>","Fri, 24 Jun 2016 14:55:36 +0000 (UTC)","Successful: HBase Generate Website"
"""Ted Yu (JIRA)"" <jira@apache.org>","Fri, 24 Jun 2016 19:40:11 +0000 (UTC)","[jira] [Resolved] (HBASE-16065) hbase backup set describe command does not inform if the set does not exist"
"""Ashu Pachauri (JIRA)"" <jira@apache.org>","Fri, 24 Jun 2016 21:28:16 +0000 (UTC)","[jira] [Created] (HBASE-16107) More rpc queues for replication"
"""Geoffrey Jacoby (JIRA)"" <jira@apache.org>","Fri, 24 Jun 2016 21:30:16 +0000 (UTC)","[jira] [Created] (HBASE-16108) RowCounter should support multiple key ranges"
"""Ted Yu (JIRA)"" <jira@apache.org>","Fri, 24 Jun 2016 21:35:16 +0000 (UTC)","[jira] [Created] (HBASE-16109) Add Interface audience annotation to a few classes"
"""Matteo Bertozzi (JIRA)"" <jira@apache.org>","Fri, 24 Jun 2016 21:37:16 +0000 (UTC)","[jira] [Reopened] (HBASE-16092) Procedure v2 - complete child procedure support"
"""Sean Busbey (JIRA)"" <jira@apache.org>","Fri, 24 Jun 2016 21:56:16 +0000 (UTC)","[jira] [Created] (HBASE-16110) AsyncFS WAL doesn't work with Hadoop 2.8+"
"""Ted Yu (JIRA)"" <jira@apache.org>","Fri, 24 Jun 2016 22:42:16 +0000 (UTC)","[jira] [Resolved] (HBASE-16037) Make automatic mode default one"
"""Elliott Clark (JIRA)"" <jira@apache.org>","Fri, 24 Jun 2016 23:59:16 +0000 (UTC)","[jira] [Created] (HBASE-16111) Truncate preserve shell command is broken"
"""Ted Yu (JIRA)"" <jira@apache.org>","Sat, 25 Jun 2016 14:30:37 +0000 (UTC)","[jira] [Created] (HBASE-16112) TestMobFlushSnapshotFromClient is flaky"
"Apache Jenkins Server <jenkins@builds.apache.org>","Sat, 25 Jun 2016 14:53:38 +0000 (UTC)","Successful: HBase Generate Website"
"""ChiaPing Tsai (JIRA)"" <jira@apache.org>","Sat, 25 Jun 2016 20:09:37 +0000 (UTC)","[jira] [Created] (HBASE-16113) The raw scan with ""zero"" max versions should return empty result"
"""Thiruvel Thirumoolan (JIRA)"" <jira@apache.org>","Sun, 26 Jun 2016 03:36:37 +0000 (UTC)","[jira] [Created] (HBASE-16114) Get regionLocation of only required regions for MR jobs"
"""Lars Hofhansl (JIRA)"" <jira@apache.org>","Sun, 26 Jun 2016 04:52:37 +0000 (UTC)","[jira] [Created] (HBASE-16115) Missing security context in RegionObserver coprocessor when a compaction is triggered through the UI"
"""ChiaPing Tsai (JIRA)"" <jira@apache.org>","Sun, 26 Jun 2016 07:13:33 +0000 (UTC)","[jira] [Resolved] (HBASE-16113) The raw scan with ""zero"" max versions should return empty result"
"James Taylor <jamestaylor@apache.org>","Sun, 26 Jun 2016 00:19:56 -0700","Re: Hbase replucation"
"Apache Jenkins Server <jenkins@builds.apache.org>","Sun, 26 Jun 2016 14:53:27 +0000 (UTC)","Successful: HBase Generate Website"
"""Konstantin Ryakhovskiy (JIRA)"" <jira@apache.org>","Sun, 26 Jun 2016 18:29:52 +0000 (UTC)","[jira] [Created] (HBASE-16116) .gitignore file contains '*.iml' two times"
"Andrew Purtell <andrew.purtell@gmail.com>","Sun, 26 Jun 2016 15:46:32 -0700","Re: [VOTE] Second release candidate for HBase 1.2.2 (RC1)"
"""Jonathan Hsieh (JIRA)"" <jira@apache.org>","Sun, 26 Jun 2016 23:51:52 +0000 (UTC)","[jira] [Created] (HBASE-16117) Fix Connection leak in mapred.TableOutputFormat when spark uses it."
"Ted Malaska <ted.malaska@cloudera.com>","Sun, 26 Jun 2016 20:01:41 -0400","Re: [jira] [Created] (HBASE-16117) Fix Connection leak in mapred.TableOutputFormat when spark uses it."
"""Mikhail Antonov (JIRA)"" <jira@apache.org>","Mon, 27 Jun 2016 04:26:52 +0000 (UTC)","[jira] [Created] (HBASE-16118) TestHFileOutputFormat2 is broken"
"""Matteo Bertozzi (JIRA)"" <jira@apache.org>","Mon, 27 Jun 2016 05:54:52 +0000 (UTC)","[jira] [Created] (HBASE-16119) Procedure v2 - Reimplement merge"
"""Heng Chen (JIRA)"" <jira@apache.org>","Mon, 27 Jun 2016 08:26:52 +0000 (UTC)","[jira] [Resolved] (HBASE-16111) Truncate preserve shell command is broken"
"""Appy (JIRA)"" <jira@apache.org>","Mon, 27 Jun 2016 11:40:52 +0000 (UTC)","[jira] [Created] (HBASE-16120) Add shell test for truncate_preserve"
"Jonathan Hsieh <jon@cloudera.com>","Mon, 27 Jun 2016 07:10:56 -0700","Re: [jira] [Created] (HBASE-16117) Fix Connection leak in mapred.TableOutputFormat when spark uses it."
"Apache Jenkins Server <jenkins@builds.apache.org>","Mon, 27 Jun 2016 14:54:46 +0000 (UTC)","Successful: HBase Generate Website"
"""Matteo Bertozzi (JIRA)"" <jira@apache.org>","Mon, 27 Jun 2016 16:21:52 +0000 (UTC)","[jira] [Created] (HBASE-16121) Require only MasterServices to the ServerManager constructor"
"""Ted Yu (JIRA)"" <jira@apache.org>","Mon, 27 Jun 2016 17:16:52 +0000 (UTC)","[jira] [Resolved] (HBASE-16009) Restoring an incremental backup should not require -overwrite"
"Sean Busbey <busbey@cloudera.com>","Mon, 27 Jun 2016 12:42:35 -0500","Re: [VOTE] Second release candidate for HBase 1.2.2 (RC1)"
"""Ted Yu (JIRA)"" <jira@apache.org>","Mon, 27 Jun 2016 18:12:52 +0000 (UTC)","[jira] [Created] (HBASE-16122) PerformanceEvaluation should provide user friendly hint when client threads argument is missing"
"""Joseph (JIRA)"" <jira@apache.org>","Mon, 27 Jun 2016 18:20:52 +0000 (UTC)","[jira] [Created] (HBASE-16123) Race Condition inside of TestReplicationStateHBase Unit Tests."
"""Dima Spivak (JIRA)"" <jira@apache.org>","Mon, 27 Jun 2016 18:27:52 +0000 (UTC)","[jira] [Created] (HBASE-16124) Make check_compatibility.sh less verbose when building HBase"
"Apache Jenkins Server <jenkins@builds.apache.org>","Mon, 27 Jun 2016 18:30:30 +0000 (UTC)","Successful: hbase.apache.org HTML Checker"
"""Vladimir Rodionov (JIRA)"" <jira@apache.org>","Mon, 27 Jun 2016 19:24:52 +0000 (UTC)","[jira] [Created] (HBASE-16125) RegionMover uses hardcoded, Unix-style tmp folder - breaks Windows"
"""Talat UYARER (JIRA)"" <jira@apache.org>","Mon, 27 Jun 2016 20:15:52 +0000 (UTC)","[jira] [Created] (HBASE-16126) Test Snappy Compress on RPC"
"""Talat UYARER (JIRA)"" <jira@apache.org>","Mon, 27 Jun 2016 20:21:52 +0000 (UTC)","[jira] [Created] (HBASE-16127) Implement FAST_DIFF Block Encoding in RPC"
"""Tianying Chang (JIRA)"" <jira@apache.org>","Mon, 27 Jun 2016 21:38:57 +0000 (UTC)","[jira] [Created] (HBASE-16128) add support for p999 histogram metrics"
"""Dima Spivak (JIRA)"" <jira@apache.org>","Mon, 27 Jun 2016 22:05:57 +0000 (UTC)","[jira] [Created] (HBASE-16129) check_compatibility.sh is broken when using Java API Compliance Checker v1.7"
"""Appy (JIRA)"" <jira@apache.org>","Tue, 28 Jun 2016 00:07:57 +0000 (UTC)","[jira] [Created] (HBASE-16130) Add comments to ProcedureStoreTracker"
"""Andrew Purtell (JIRA)"" <jira@apache.org>","Tue, 28 Jun 2016 00:19:57 +0000 (UTC)","[jira] [Created] (HBASE-16131) Add optional docker image build and publish steps to release documentation and build_rc.sh"
"""binlijin (JIRA)"" <jira@apache.org>","Tue, 28 Jun 2016 00:54:57 +0000 (UTC)","[jira] [Created] (HBASE-16132) Scan do not return all result when regionserver is busy."
"""Enis Soztutar (JIRA)"" <jira@apache.org>","Tue, 28 Jun 2016 03:10:57 +0000 (UTC)","[jira] [Created] (HBASE-16133) RSGroupBasedLoadBalancer.retainAssignment() might miss a region"
"""Adam Faris (JIRA)"" <jira@apache.org>","Tue, 28 Jun 2016 04:40:57 +0000 (UTC)","[jira] [Resolved] (HBASE-14114) hbase-config.sh sets MLOCK_AGENT to incorrect value"
"""Anoop Sam John (JIRA)"" <jira@apache.org>","Tue, 28 Jun 2016 07:52:57 +0000 (UTC)","[jira] [Created] (HBASE-16134) Introduce InternalCell"
"""Duo Zhang (JIRA)"" <jira@apache.org>","Tue, 28 Jun 2016 10:19:57 +0000 (UTC)","[jira] [Created] (HBASE-16135) PeerClusterZnode under rs of removed peer may never be deleted"
"""darion yaphet (JIRA)"" <jira@apache.org>","Tue, 28 Jun 2016 13:54:57 +0000 (UTC)","[jira] [Created] (HBASE-16136) Check component is alive when closing it"
"Apache Jenkins Server <jenkins@builds.apache.org>","Tue, 28 Jun 2016 15:16:38 +0000 (UTC)","Successful: HBase Generate Website"
"""huaxiang sun (JIRA)"" <jira@apache.org>","Tue, 28 Jun 2016 16:45:57 +0000 (UTC)","[jira] [Created] (HBASE-16137) Fix findbugs warning introduced by hbase-14730"
"""Joseph (JIRA)"" <jira@apache.org>","Tue, 28 Jun 2016 19:02:57 +0000 (UTC)","[jira] [Created] (HBASE-16138) Cannot open regions after non-graceful shutdown due to deadlock with Replication Table"
"""NIDHI GAMBHIR (JIRA)"" <jira@apache.org>","Tue, 28 Jun 2016 19:43:57 +0000 (UTC)","[jira] [Created] (HBASE-16139) Use CellUtil instead of KeyValueUtil in Import.java"
"""Jonathan Hsieh (JIRA)"" <jira@apache.org>","Tue, 28 Jun 2016 21:40:57 +0000 (UTC)","[jira] [Created] (HBASE-16140) bump owasp.esapi from 2.1.0 to 2.1.0.1"
"Nick Dimiduk <ndimiduk@apache.org>","Tue, 28 Jun 2016 21:01:10 -0700","[DISCUSS] Move ""stable"" pointer to 1.2.x"
"Sean Busbey <busbey@cloudera.com>","Tue, 28 Jun 2016 23:08:23 -0500","Re: [DISCUSS] Move ""stable"" pointer to 1.2.x"
"Ted Yu <yuzhihong@gmail.com>","Tue, 28 Jun 2016 21:13:11 -0700","Re: [DISCUSS] Move ""stable"" pointer to 1.2.x"
"""Gary Helmling (JIRA)"" <jira@apache.org>","Wed, 29 Jun 2016 05:25:45 +0000 (UTC)","[jira] [Created] (HBASE-16141) Unwind use of UserGroupInformation.doAs() to convey requester identity in coprocessor upcalls"
"""stack (JIRA)"" <jira@apache.org>","Wed, 29 Jun 2016 05:28:45 +0000 (UTC)","[jira] [Created] (HBASE-16142) Trigger JFR session when under duress -- e.g. backed-up request queue count -- and dump the recording to log dir"
"""ramkrishna.s.vasudevan (JIRA)"" <jira@apache.org>","Wed, 29 Jun 2016 06:31:45 +0000 (UTC)","[jira] [Created] (HBASE-16143) Change MemstoreScanner constructor to accept List<KeyValueScanner>"
"""Phil Yang (JIRA)"" <jira@apache.org>","Wed, 29 Jun 2016 06:55:45 +0000 (UTC)","[jira] [Created] (HBASE-16144) Replication queue's lock will live forever if RS acquiring the lock has dead"
"""Konstantin Ryakhovskiy (JIRA)"" <jira@apache.org>","Wed, 29 Jun 2016 11:02:37 +0000 (UTC)","[jira] [Created] (HBASE-16145) MultiRowRangeFilter constructor shouldn't throw IOException"
"Apache Jenkins Server <jenkins@builds.apache.org>","Wed, 29 Jun 2016 15:04:57 +0000 (UTC)","Successful: HBase Generate Website"
"""Alex (Jitbit)"" <alex@jitbit.com>","Wed, 29 Jun 2016 19:39:32 +0300","""powered by hbase"" listing"
"Dima Spivak <dspivak@cloudera.com>","Wed, 29 Jun 2016 10:19:13 -0700","Re: ""powered by hbase"" listing"
"""Sean Busbey (JIRA)"" <jira@apache.org>","Wed, 29 Jun 2016 18:03:17 +0000 (UTC)","[jira] [Reopened] (HBASE-16093) Splits failed before creating daughter regions leave meta inconsistent"
"""stack (JIRA)"" <jira@apache.org>","Wed, 29 Jun 2016 19:06:05 +0000 (UTC)","[jira] [Resolved] (HBASE-7100) Allow multiple connections from HBaseClient to each remote endpoint"
"""stack (JIRA)"" <jira@apache.org>","Wed, 29 Jun 2016 19:06:05 +0000 (UTC)","[jira] [Resolved] (HBASE-7163) Low-hanging perf  improvements in HBase client"
"""stack (JIRA)"" <jira@apache.org>","Wed, 29 Jun 2016 19:07:05 +0000 (UTC)","[jira] [Resolved] (HBASE-7067) HBase Get perf improvements"
"""stack (JIRA)"" <jira@apache.org>","Wed, 29 Jun 2016 19:16:05 +0000 (UTC)","[jira] [Created] (HBASE-16146) Counter is a perf killer"
"=?UTF-8?Q?Enis_S=C3=B6ztutar?= <enis@apache.org>","Wed, 29 Jun 2016 12:40:43 -0700","Re: [DISCUSS] Move ""stable"" pointer to 1.2.x"
"Sean Busbey <busbey@apache.org>","Wed, 29 Jun 2016 15:06:02 -0500","[DISCUSS] issue trackers and recent stability of issues.apache/jira"
"Andrew Purtell <apurtell@apache.org>","Wed, 29 Jun 2016 14:06:30 -0700","Re: [DISCUSS] issue trackers and recent stability of issues.apache/jira"
"Mikhail Antonov <olorinbant@gmail.com>","Wed, 29 Jun 2016 14:20:08 -0700","Re: [DISCUSS] issue trackers and recent stability of issues.apache/jira"
"Andrew Purtell <apurtell@apache.org>","Wed, 29 Jun 2016 14:31:33 -0700","Re: [DISCUSS] issue trackers and recent stability of issues.apache/jira"
"Mikhail Antonov <olorinbant@gmail.com>","Wed, 29 Jun 2016 15:05:59 -0700","Re: [DISCUSS] issue trackers and recent stability of issues.apache/jira"
"""Ted Yu (JIRA)"" <jira@apache.org>","Wed, 29 Jun 2016 22:17:10 +0000 (UTC)","[jira] [Created] (HBASE-16147) Add ruby wrapper for getting compaction state"
"""Sai Teja Ranuva (JIRA)"" <jira@apache.org>","Wed, 29 Jun 2016 23:34:33 +0000 (UTC)","[jira] [Created] (HBASE-16148) Hybrid Logical Clocks"
"Jonathan Hsieh <jon@cloudera.com>","Wed, 29 Jun 2016 18:07:04 -0700","Re: [DISCUSS] Move ""stable"" pointer to 1.2.x"
"Krishna <research800@gmail.com>","Wed, 29 Jun 2016 21:09:19 -0700","DeleteColumn in KeyValue"
"""Jerry He (JIRA)"" <jira@apache.org>","Thu, 30 Jun 2016 05:29:10 +0000 (UTC)","[jira] [Created] (HBASE-16149) Log the underlying RPC exception in RpcRetryingCallerImpl"
"""Hiroshi Ikeda (JIRA)"" <jira@apache.org>","Thu, 30 Jun 2016 06:27:10 +0000 (UTC)","[jira] [Reopened] (HBASE-14279) Race condition in ConcurrentIndex"
"""Hiroshi Ikeda (JIRA)"" <jira@apache.org>","Thu, 30 Jun 2016 06:35:10 +0000 (UTC)","[jira] [Created] (HBASE-16150) Remove ConcurrentIndex"
"""Jack Jiang (JIRA)"" <jira@apache.org>","Thu, 30 Jun 2016 07:16:10 +0000 (UTC)","[jira] [Created] (HBASE-16151) what's wrong when using  bulkload to load file to table in hbase ?"
"Konstantin Ryakhovskiy <ryakhovskiy.developer@gmail.com>","Thu, 30 Jun 2016 10:44:39 +0200","Intellij IDEA useres, share code style xml"
"""Jingcheng Du (JIRA)"" <jira@apache.org>","Thu, 30 Jun 2016 09:00:20 +0000 (UTC)","[jira] [Resolved] (HBASE-16151) what's wrong when using  bulkload to load file to table in hbase ?"
"""qgxiaozhan (JIRA)"" <jira@apache.org>","Thu, 30 Jun 2016 09:03:10 +0000 (UTC)","[jira] [Created] (HBASE-16152) HBase1.1.2 jmx  some table region information missing"
"""Du, Jingcheng"" <jingcheng.du@intel.com>","Thu, 30 Jun 2016 09:27:58 +0000","RE: DeleteColumn in KeyValue"
"""ramkrishna.s.vasudevan (JIRA)"" <jira@apache.org>","Thu, 30 Jun 2016 12:06:10 +0000 (UTC)","[jira] [Created] (HBASE-16153) Correct the config name 'hbase.memestore.inmemoryflush.threshold.factor'"
"""ramkrishna.s.vasudevan (JIRA)"" <jira@apache.org>","Thu, 30 Jun 2016 12:16:10 +0000 (UTC)","[jira] [Resolved] (HBASE-16153) Correct the config name 'hbase.memestore.inmemoryflush.threshold.factor'"
"""stack (JIRA)"" <jira@apache.org>","Thu, 30 Jun 2016 12:18:10 +0000 (UTC)","[jira] [Reopened] (HBASE-14279) Race condition in ConcurrentIndex"
"Lars Francke <lars.francke@gmail.com>","Thu, 30 Jun 2016 14:37:42 +0200","Re: [DISCUSS] issue trackers and recent stability of issues.apache/jira"
"""Sean Busbey (JIRA)"" <jira@apache.org>","Thu, 30 Jun 2016 13:00:14 +0000 (UTC)","[jira] [Created] (HBASE-16154) bring non-master branches up to date wrt check_compatibility script"
"""Anoop Sam John (JIRA)"" <jira@apache.org>","Thu, 30 Jun 2016 14:09:10 +0000 (UTC)","[jira] [Created] (HBASE-16155) Compacting Memstore : Few log improvements"
"Apache Jenkins Server <jenkins@builds.apache.org>","Thu, 30 Jun 2016 14:54:02 +0000 (UTC)","Successful: HBase Generate Website"
"""ramkrishna.s.vasudevan (JIRA)"" <jira@apache.org>","Thu, 30 Jun 2016 16:08:10 +0000 (UTC)","[jira] [Created] (HBASE-16156) In write heavy scenario creating in memory flushes leads to contention"
"""stack (JIRA)"" <jira@apache.org>","Thu, 30 Jun 2016 18:10:10 +0000 (UTC)","[jira] [Resolved] (HBASE-14279) Race condition in ConcurrentIndex"
"""ChiaPing Tsai (JIRA)"" <jira@apache.org>","Thu, 30 Jun 2016 18:22:10 +0000 (UTC)","[jira] [Created] (HBASE-16157) The incorrect block cache count and size are caused by removing duplicate block key in the HBase LruBlockCache"
"""Dima Spivak (JIRA)"" <jira@apache.org>","Thu, 30 Jun 2016 21:00:14 +0000 (UTC)","[jira] [Resolved] (HBASE-15800) check_compatibility.sh broken as of upstream b8f125f"
"""Dima Spivak (JIRA)"" <jira@apache.org>","Thu, 30 Jun 2016 21:21:10 +0000 (UTC)","[jira] [Resolved] (HBASE-14933) check_compatibility.sh does not work with jdk8"
"""Dima Spivak (JIRA)"" <jira@apache.org>","Thu, 30 Jun 2016 21:27:10 +0000 (UTC)","[jira] [Created] (HBASE-16158) Automate runs of check_compatibility.sh on upstream infra"
