"Developer","Date","Subject"
"""Adam Nichols (JIRA)"" <jira@apache.org>","Fri, 30 Apr 2010 20:11:56 -0400 (EDT)","[jira] Created: (PDFBOX-717) Bookmarks don't match up to any page"
"""Adam Nichols (JIRA)"" <jira@apache.org>","Fri, 30 Apr 2010 20:20:58 -0400 (EDT)","[jira] Updated: (PDFBOX-717) Bookmarks don't match up to any page"
"=?utf-8?Q?Andreas_Lehmk=C3=BChler_=28JIRA=29?= <jira@apache.org>","Sat, 1 May 2010 08:41:00 -0400 (EDT)","[jira] Resolved: (PDFBOX-716) right parenthess are not handled properly in bookmarks"
"=?utf-8?Q?Andreas_Lehmk=C3=BChler_=28JIRA=29?= <jira@apache.org>","Sat, 1 May 2010 08:42:58 -0400 (EDT)","[jira] Issue Comment Edited: (PDFBOX-716) right parenthess are not handled properly in bookmarks"
"Apache Hudson Server <hudson@hudson.zones.apache.org>","Sat, 1 May 2010 13:02:46 +0000 (UTC)","=?UTF-8?Q?Hudson_build_is_still_unstable:_?= =?UTF-8?Q?PDFBox-trunk_=C2=BB_Apache_PDFBox_#75?="
"Apache Hudson Server <hudson@hudson.zones.apache.org>","Sat, 1 May 2010 13:02:47 +0000 (UTC)","Hudson build is still unstable: PDFBox-trunk #75"
"=?utf-8?Q?Andreas_Lehmk=C3=BChler_=28JIRA=29?= <jira@apache.org>","Sat, 1 May 2010 11:25:57 -0400 (EDT)","[jira] Resolved: (PDFBOX-696) PDTrueTypeFont limits number of glyph widths to 256. This can easily be removed."
"=?utf-8?Q?Andreas_Lehmk=C3=BChler_=28JIRA=29?= <jira@apache.org>","Sun, 2 May 2010 11:04:56 -0400 (EDT)","[jira] Resolved: (PDFBOX-683) PDFStreamParser can't read ""d0"" and ""d1"" operators"
"Apache Hudson Server <hudson@hudson.zones.apache.org>","Sun, 2 May 2010 16:02:36 +0000 (UTC)","=?UTF-8?Q?Hudson_build_is_still_unstable:_?= =?UTF-8?Q?PDFBox-trunk_=C2=BB_Apache_PDFBox_#76?="
"Apache Hudson Server <hudson@hudson.zones.apache.org>","Sun, 2 May 2010 16:02:38 +0000 (UTC)","Hudson build is still unstable: PDFBox-trunk #76"
"=?utf-8?Q?Andreas_Lehmk=C3=BChler_=28JIRA=29?= <jira@apache.org>","Sun, 2 May 2010 12:10:55 -0400 (EDT)","[jira] Commented: (PDFBOX-688) Refactoring rendering-related classes/methods for extensibility"
"Andreas Lehmkuehler <andreas@lehmi.de>","Sun, 02 May 2010 18:50:34 +0200","Re: Date format issues"
"Apache Hudson Server <hudson@hudson.zones.apache.org>","Sun, 2 May 2010 17:04:21 +0000 (UTC)","=?UTF-8?Q?Hudson_build_is_still_unstable:_?= =?UTF-8?Q?PDFBox-trunk_=C2=BB_Apache_PDFBox_#77?="
"Apache Hudson Server <hudson@hudson.zones.apache.org>","Sun, 2 May 2010 17:04:26 +0000 (UTC)","Hudson build is still unstable: PDFBox-trunk #77"
"=?utf-8?Q?Andreas_Lehmk=C3=BChler_=28JIRA=29?= <jira@apache.org>","Mon, 3 May 2010 01:58:00 -0400 (EDT)","[jira] Resolved: (PDFBOX-700) NullPointerException when trying to merge PDFs"
"Apache Hudson Server <hudson@hudson.zones.apache.org>","Mon, 3 May 2010 06:02:52 +0000 (UTC)","=?UTF-8?Q?Hudson_build_is_still_unstable:_?= =?UTF-8?Q?PDFBox-trunk_=C2=BB_Apache_PDFBox_#78?="
"Apache Hudson Server <hudson@hudson.zones.apache.org>","Mon, 3 May 2010 06:02:53 +0000 (UTC)","Hudson build is still unstable: PDFBox-trunk #78"
"=?utf-8?Q?Andreas_Lehmk=C3=BChler_=28JIRA=29?= <jira@apache.org>","Mon, 3 May 2010 02:09:56 -0400 (EDT)","[jira] Resolved: (PDFBOX-711) Findbugs: Bug: Doomed test for equality to NaN PDFTextStripper.java"
"Apache Hudson Server <hudson@hudson.zones.apache.org>","Mon, 3 May 2010 07:02:31 +0000 (UTC)","=?UTF-8?Q?Hudson_build_is_still_unstable:_?= =?UTF-8?Q?PDFBox-trunk_=C2=BB_Apache_PDFBox_#79?="
"Apache Hudson Server <hudson@hudson.zones.apache.org>","Mon, 3 May 2010 07:02:32 +0000 (UTC)","Hudson build is still unstable: PDFBox-trunk #79"
"""Johannes Koch (JIRA)"" <jira@apache.org>","Mon, 3 May 2010 04:38:56 -0400 (EDT)","[jira] Created: (PDFBOX-718) TestTestStripper fails"
"""Johannes Koch (JIRA)"" <jira@apache.org>","Mon, 3 May 2010 04:41:00 -0400 (EDT)","[jira] Updated: (PDFBOX-718) TestTestStripper fails"
"""Johannes Koch (JIRA)"" <jira@apache.org>","Mon, 3 May 2010 04:42:56 -0400 (EDT)","[jira] Resolved: (PDFBOX-715) TestDateUtil fails"
"Apache Hudson Server <hudson@hudson.zones.apache.org>","Mon, 3 May 2010 09:03:09 +0000 (UTC)","=?UTF-8?Q?Hudson_build_is_still_unstable:_?= =?UTF-8?Q?PDFBox-trunk_=C2=BB_Apache_PDFBox_#80?="
"Apache Hudson Server <hudson@hudson.zones.apache.org>","Mon, 3 May 2010 09:03:13 +0000 (UTC)","Hudson build is still unstable: PDFBox-trunk #80"
"=?utf-8?Q?Andreas_Lehmk=C3=BChler_=28JIRA=29?= <jira@apache.org>","Mon, 3 May 2010 05:13:56 -0400 (EDT)","[jira] Commented: (PDFBOX-718) TestTestStripper fails"
"""Maruan Sahyoun (JIRA)"" <jira@apache.org>","Mon, 3 May 2010 05:31:56 -0400 (EDT)","[jira] Commented: (PDFBOX-678) Support missing Text Rendering Modes when rendering a PDF"
"""Adam Nichols (JIRA)"" <jira@apache.org>","Mon, 3 May 2010 15:23:59 -0400 (EDT)","[jira] Created: (PDFBOX-719) Bookmarks not merged correctly by PDFMergerUtility"
"""Adam Nichols (JIRA)"" <jira@apache.org>","Mon, 3 May 2010 15:26:01 -0400 (EDT)","[jira] Updated: (PDFBOX-719) Bookmarks not merged correctly by PDFMergerUtility"
"=?ISO-8859-2?B?Smn47SBTeXJvdv0=?= <syrovy.jiri@gmail.com>","Tue, 4 May 2010 14:50:56 +0200","Deflate compression"
"=?ISO-8859-2?B?Smn47SBTeXJvdv0=?= <syrovy.jiri@gmail.com>","Tue, 4 May 2010 17:04:26 +0200","Deflate compression"
"Andreas Lehmkuehler <andreas@lehmi.de>","Tue, 04 May 2010 19:51:42 +0200","Re: Deflate compression"
"=?ISO-8859-2?B?Smn47SBTeXJvdv0=?= <syrovy.jiri@gmail.com>","Tue, 4 May 2010 20:14:26 +0200","Re: Deflate compression"
"=?utf-8?Q?Andreas_Lehmk=C3=BChler_=28JIRA=29?= <jira@apache.org>","Tue, 4 May 2010 14:45:56 -0400 (EDT)","[jira] Commented: (PDFBOX-678) Support missing Text Rendering Modes when rendering a PDF"
"=?utf-8?Q?Andreas_Lehmk=C3=BChler_=28JIRA=29?= <jira@apache.org>","Tue, 4 May 2010 15:21:56 -0400 (EDT)","[jira] Commented: (PDFBOX-718) TestTestStripper fails"
"""Adam Nichols (JIRA)"" <jira@apache.org>","Tue, 4 May 2010 18:56:17 -0400 (EDT)","[jira] Created: (PDFBOX-720) Inconsistency in parsing PDFs between Windows and Linux"
"""Adam Nichols (JIRA)"" <jira@apache.org>","Tue, 4 May 2010 18:58:05 -0400 (EDT)","[jira] Updated: (PDFBOX-720) Inconsistency in parsing PDFs between Windows and Linux"
"""Adam Nichols (JIRA)"" <jira@apache.org>","Wed, 5 May 2010 13:12:08 -0400 (EDT)","[jira] Updated: (PDFBOX-719) Bookmarks not merged correctly by PDFMergerUtility"
"""Adam Nichols (JIRA)"" <jira@apache.org>","Wed, 5 May 2010 13:14:10 -0400 (EDT)","[jira] Updated: (PDFBOX-719) Bookmarks not merged correctly by PDFMergerUtility"
"""Adam Nichols (JIRA)"" <jira@apache.org>","Wed, 5 May 2010 13:14:10 -0400 (EDT)","[jira] Updated: (PDFBOX-719) Bookmarks not merged correctly by PDFMergerUtility"
"""Bernard (JIRA)"" <jira@apache.org>","Wed, 5 May 2010 19:22:10 -0400 (EDT)","[jira] Created: (PDFBOX-721) Regression from 1.1.0 to 0.7.8 on accents"
"""Bernard (JIRA)"" <jira@apache.org>","Wed, 5 May 2010 19:26:03 -0400 (EDT)","[jira] Updated: (PDFBOX-721) Regression from 1.1.0 to 0.7.8 on accents"
"""Maruan Sahyoun (JIRA)"" <jira@apache.org>","Thu, 6 May 2010 05:46:49 -0400 (EDT)","[jira] Commented: (PDFBOX-678) Support missing Text Rendering Modes when rendering a PDF"
"=?utf-8?Q?Andreas_Lehmk=C3=BChler_=28JIRA=29?= <jira@apache.org>","Thu, 6 May 2010 07:32:48 -0400 (EDT)","[jira] Commented: (PDFBOX-678) Support missing Text Rendering Modes when rendering a PDF"
"""Teka (JIRA)"" <jira@apache.org>","Thu, 6 May 2010 08:06:47 -0400 (EDT)","[jira] Created: (PDFBOX-722) Add support to draw or fill a polygon"
"""Teka (JIRA)"" <jira@apache.org>","Thu, 6 May 2010 08:08:48 -0400 (EDT)","[jira] Updated: (PDFBOX-722) Add support to draw or fill a polygon"
"""Daniel Wilson (JIRA)"" <jira@apache.org>","Thu, 6 May 2010 09:32:51 -0400 (EDT)","[jira] Commented: (PDFBOX-722) Add support to draw or fill a polygon"
"""Teka (JIRA)"" <jira@apache.org>","Thu, 6 May 2010 10:02:48 -0400 (EDT)","[jira] Commented: (PDFBOX-722) Add support to draw or fill a polygon"
"""Teka (JIRA)"" <jira@apache.org>","Thu, 6 May 2010 10:02:49 -0400 (EDT)","[jira] Updated: (PDFBOX-722) Add support to draw or fill a polygon"
"""Teka (JIRA)"" <jira@apache.org>","Thu, 6 May 2010 10:04:48 -0400 (EDT)","[jira] Updated: (PDFBOX-722) Add support to draw or fill a polygon"
"""Alexey Zavizionov (JIRA)"" <jira@apache.org>","Thu, 6 May 2010 11:55:51 -0400 (EDT)","[jira] Created: (PDFBOX-723) Our test hangs with custom pdf file on operation PDPage.convertToImage()"
"""Alexey Zavizionov (JIRA)"" <jira@apache.org>","Thu, 6 May 2010 11:57:50 -0400 (EDT)","[jira] Updated: (PDFBOX-723) Our test hangs with custom pdf file on operation PDPage.convertToImage()"
"""Alexey Zavizionov (JIRA)"" <jira@apache.org>","Thu, 6 May 2010 11:59:49 -0400 (EDT)","[jira] Updated: (PDFBOX-723) Our test hangs with custom pdf file on operation PDPage.convertToImage()"
"""Maruan Sahyoun (JIRA)"" <jira@apache.org>","Thu, 6 May 2010 12:05:48 -0400 (EDT)","[jira] Commented: (PDFBOX-678) Support missing Text Rendering Modes when rendering a PDF"
"""Maruan Sahyoun (JIRA)"" <jira@apache.org>","Thu, 6 May 2010 12:05:49 -0400 (EDT)","[jira] Updated: (PDFBOX-678) Support missing Text Rendering Modes when rendering a PDF"
"=?utf-8?Q?Andreas_Lehmk=C3=BChler_=28JIRA=29?= <jira@apache.org>","Thu, 6 May 2010 13:08:50 -0400 (EDT)","[jira] Commented: (PDFBOX-678) Support missing Text Rendering Modes when rendering a PDF"
"=?utf-8?Q?Andreas_Lehmk=C3=BChler_=28JIRA=29?= <jira@apache.org>","Thu, 6 May 2010 13:16:54 -0400 (EDT)","[jira] Commented: (PDFBOX-667) Last characters in a line overlap when a PDF is printed"
"=?utf-8?Q?Andreas_Lehmk=C3=BChler_=28JIRA=29?= <jira@apache.org>","Thu, 6 May 2010 13:24:51 -0400 (EDT)","[jira] Commented: (PDFBOX-721) Regression from 1.1.0 to 0.7.8 on accents"
"=?utf-8?Q?Andreas_Lehmk=C3=BChler_=28JIRA=29?= <jira@apache.org>","Thu, 6 May 2010 13:48:48 -0400 (EDT)","[jira] Resolved: (PDFBOX-695) COSStream doesn't actually stream tokens, causing OOM in larger PDF text extraction"
"=?utf-8?Q?Andreas_Lehmk=C3=BChler_=28JIRA=29?= <jira@apache.org>","Thu, 6 May 2010 14:04:49 -0400 (EDT)","[jira] Resolved: (PDFBOX-699) Add support for InputStreams to PDFMergerUtility"
"=?utf-8?Q?Andreas_Lehmk=C3=BChler_=28JIRA=29?= <jira@apache.org>","Thu, 6 May 2010 14:06:48 -0400 (EDT)","[jira] Updated: (PDFBOX-722) Add support to draw or fill a polygon"
"=?utf-8?Q?Andreas_Lehmk=C3=BChler_=28JIRA=29?= <jira@apache.org>","Thu, 6 May 2010 14:14:49 -0400 (EDT)","[jira] Resolved: (PDFBOX-703) Null pointer Exception with org.apache.fontbox.cff.CFFParser$DictData.getEntry(CFFParser.java:626)"
"Apache Hudson Server <hudson@hudson.zones.apache.org>","Thu, 6 May 2010 18:33:29 +0000 (UTC)","=?UTF-8?Q?Hudson_build_is_back_to_stable_:?= =?UTF-8?Q?_PDFBox-trunk_=C2=BB_Apache_PDFBox_#81?="
"Apache Hudson Server <hudson@hudson.zones.apache.org>","Thu, 6 May 2010 18:33:30 +0000 (UTC)","Hudson build is back to stable : PDFBox-trunk #81"
"""Adam Nichols (JIRA)"" <jira@apache.org>","Thu, 6 May 2010 14:50:52 -0400 (EDT)","[jira] Created: (PDFBOX-724) ClassCastException when merging PDFs using PDFMergerUtility"
"""Adam Nichols (JIRA)"" <jira@apache.org>","Thu, 6 May 2010 15:14:54 -0400 (EDT)","[jira] Updated: (PDFBOX-724) ClassCastException when merging PDFs using PDFMergerUtility"
"""Adam Nichols (JIRA)"" <jira@apache.org>","Thu, 6 May 2010 15:46:55 -0400 (EDT)","[jira] Updated: (PDFBOX-724) ClassCastException when merging PDFs using PDFMergerUtility"
"=?utf-8?Q?Andreas_Lehmk=C3=BChler_=28JIRA=29?= <jira@apache.org>","Fri, 7 May 2010 01:47:48 -0400 (EDT)","[jira] Resolved: (PDFBOX-718) TestTestStripper fails"
"=?utf-8?Q?Andreas_Lehmk=C3=BChler_=28JIRA=29?= <jira@apache.org>","Sun, 9 May 2010 10:17:48 -0400 (EDT)","[jira] Resolved: (PDFBOX-668) TrueType Font - Feature for CMAPEncodingEntry"
"=?utf-8?Q?Andreas_Lehmk=C3=BChler_=28JIRA=29?= <jira@apache.org>","Sun, 9 May 2010 10:29:48 -0400 (EDT)","[jira] Resolved: (PDFBOX-685) inefficient implementation in org.apache.pdfbox.util.ICU4JImpl.normalizeDiac()"
"=?utf-8?Q?Andreas_Lehmk=C3=BChler_=28JIRA=29?= <jira@apache.org>","Sun, 9 May 2010 11:10:48 -0400 (EDT)","[jira] Resolved: (PDFBOX-669) CFFFont - Management of CIDKeyed"
"=?utf-8?Q?Andreas_Lehmk=C3=BChler_=28JIRA=29?= <jira@apache.org>","Sun, 9 May 2010 11:30:48 -0400 (EDT)","[jira] Resolved: (PDFBOX-691) TrueTypeParser : Error on CMapEntry with the subtype0 ?"
"=?utf-8?Q?Andreas_Lehmk=C3=BChler_=28JIRA=29?= <jira@apache.org>","Sun, 9 May 2010 11:36:53 -0400 (EDT)","[jira] Resolved: (PDFBOX-724) ClassCastException when merging PDFs using PDFMergerUtility"
"=?utf-8?Q?Andreas_Lehmk=C3=BChler_=28JIRA=29?= <jira@apache.org>","Sun, 9 May 2010 13:36:48 -0400 (EDT)","[jira] Resolved: (PDFBOX-410) Two small performance issue in COSString, these are not bugs"
"=?utf-8?Q?Andreas_Lehmk=C3=BChler_=28JIRA=29?= <jira@apache.org>","Sun, 9 May 2010 13:46:49 -0400 (EDT)","[jira] Resolved: (PDFBOX-406) Small error in class defination in PDMatrix it should not be Cloneable"
"=?utf-8?Q?Andreas_Lehmk=C3=BChler_=28JIRA=29?= <jira@apache.org>","Sun, 9 May 2010 13:56:48 -0400 (EDT)","[jira] Updated: (PDFBOX-563) Class Cast thrown when merging PDF's"
"=?utf-8?Q?Andreas_Lehmk=C3=BChler_=28JIRA=29?= <jira@apache.org>","Sun, 9 May 2010 13:58:47 -0400 (EDT)","[jira] Resolved: (PDFBOX-563) Class Cast thrown when merging PDF's"
"""Peter Costello (JIRA)"" <jira@apache.org>","Mon, 10 May 2010 16:48:30 -0400 (EDT)","[jira] Created: (PDFBOX-725) Text extraction fails due to font problem with Type0, supplement-0 font"
"""Radim Hatlapatka (JIRA)"" <jira@apache.org>","Tue, 11 May 2010 04:53:43 -0400 (EDT)","[jira] Closed: (PDFBOX-698) Unable parse images from PDF documents concated by tex"
"Apache Hudson Server <hudson@hudson.zones.apache.org>","Tue, 11 May 2010 15:17:58 +0000 (UTC)","Hudson build is back to normal : PDFBox-trunk #86"
"""Adam Nichols (JIRA)"" <jira@apache.org>","Tue, 11 May 2010 13:35:44 -0400 (EDT)","[jira] Updated: (PDFBOX-717) Bookmarks don't match up to any page"
"""Bernard (JIRA)"" <jira@apache.org>","Wed, 12 May 2010 16:53:04 -0400 (EDT)","[jira] Closed: (PDFBOX-721) Regression from 1.1.0 to 0.7.8 on accents"
"""Ryan Nideffer (JIRA)"" <jira@apache.org>","Thu, 13 May 2010 17:55:42 -0400 (EDT)","[jira] Created: (PDFBOX-726) PDFTextStripper: allow access to currentPageNo variable"
"""Adam Nichols (JIRA)"" <jira@apache.org>","Thu, 13 May 2010 18:47:46 -0400 (EDT)","[jira] Updated: (PDFBOX-717) Bookmarks don't match up to any page"
"""Adam Nichols (JIRA)"" <jira@apache.org>","Thu, 13 May 2010 18:47:47 -0400 (EDT)","[jira] Updated: (PDFBOX-717) Bookmarks don't match up to any page"
"""Adam Nichols (JIRA)"" <jira@apache.org>","Thu, 13 May 2010 18:47:47 -0400 (EDT)","[jira] Updated: (PDFBOX-717) Bookmarks don't match up to any page"
"""Thomas Fischer (JIRA)"" <jira@apache.org>","Sun, 16 May 2010 07:18:44 -0400 (EDT)","[jira] Created: (PDFBOX-727) The extracted text of a PDF document created using TeX contains remnants of TeX commands like \parenleftbig etc."
"""Thomas Fischer (JIRA)"" <jira@apache.org>","Sun, 16 May 2010 07:22:44 -0400 (EDT)","[jira] Updated: (PDFBOX-727) The extracted text of a PDF document created using TeX contains remnants of TeX commands like \parenleftbig etc."
"""Thomas Fischer (JIRA)"" <jira@apache.org>","Sun, 16 May 2010 07:40:42 -0400 (EDT)","[jira] Created: (PDFBOX-728) Text extracted from a TeX-created PDF file comes in some form of hex encoding"
"""Thomas Fischer (JIRA)"" <jira@apache.org>","Sun, 16 May 2010 07:42:45 -0400 (EDT)","[jira] Updated: (PDFBOX-728) Text extracted from a TeX-created PDF file comes in some form of hex encoding"
"""Thomas Fischer (JIRA)"" <jira@apache.org>","Sun, 16 May 2010 08:02:43 -0400 (EDT)","[jira] Updated: (PDFBOX-534) PDF file created with LaTeX is bad parsed"
"""Thomas Fischer (JIRA)"" <jira@apache.org>","Sun, 16 May 2010 08:12:42 -0400 (EDT)","[jira] Updated: (PDFBOX-534) PDF file created with LaTeX is bad parsed"
"""Thomas Fischer (JIRA)"" <jira@apache.org>","Sun, 16 May 2010 08:28:45 -0400 (EDT)","[jira] Created: (PDFBOX-729) Text extracted from a TeX-created PDF file is unintelligible, but not of the form a1a2a3..."
"""Thomas Fischer (JIRA)"" <jira@apache.org>","Sun, 16 May 2010 08:32:42 -0400 (EDT)","[jira] Updated: (PDFBOX-729) Text extracted from a TeX-created PDF file is unintelligible, but not of the form a1a2a3..."
"=?utf-8?Q?Andreas_Lehmk=C3=BChler_=28JIRA=29?= <jira@apache.org>","Sun, 16 May 2010 12:20:42 -0400 (EDT)","[jira] Updated: (PDFBOX-534) PDF file created with LaTeX is bad parsed"
"=?utf-8?Q?Andreas_Lehmk=C3=BChler_=28JIRA=29?= <jira@apache.org>","Sun, 16 May 2010 13:12:42 -0400 (EDT)","[jira] Resolved: (PDFBOX-534) PDF file created with LaTeX is bad parsed"
"=?utf-8?Q?Andreas_Lehmk=C3=BChler_=28JIRA=29?= <jira@apache.org>","Sun, 16 May 2010 13:17:42 -0400 (EDT)","[jira] Updated: (PDFBOX-728) Text extracted from a TeX-created PDF file comes in some form of hex encoding"
"=?utf-8?Q?Andreas_Lehmk=C3=BChler_=28JIRA=29?= <jira@apache.org>","Sun, 16 May 2010 13:19:43 -0400 (EDT)","[jira] Resolved: (PDFBOX-728) Text extracted from a TeX-created PDF file comes in some form of hex encoding"
"=?utf-8?Q?Andreas_Lehmk=C3=BChler_=28JIRA=29?= <jira@apache.org>","Sun, 16 May 2010 13:27:44 -0400 (EDT)","[jira] Updated: (PDFBOX-727) The extracted text of a PDF document created using TeX contains remnants of TeX commands like \parenleftbig etc."
"=?utf-8?Q?Andreas_Lehmk=C3=BChler_=28JIRA=29?= <jira@apache.org>","Sun, 16 May 2010 13:29:44 -0400 (EDT)","[jira] Commented: (PDFBOX-727) The extracted text of a PDF document created using TeX contains remnants of TeX commands like \parenleftbig etc."
"=?utf-8?Q?Andreas_Lehmk=C3=BChler_=28JIRA=29?= <jira@apache.org>","Sun, 16 May 2010 13:55:42 -0400 (EDT)","[jira] Resolved: (PDFBOX-659) Newlines added in the middle of words"
"Andreas Lehmkuehler <lehmi@apache.org>","Mon, 17 May 2010 07:26:03 +0200","[Fwd: [Travel Assistance] - Applications Open for ApacheCon NA 2010]"
"=?utf-8?Q?Andreas_Lehmk=C3=BChler_=28JIRA=29?= <jira@apache.org>","Mon, 17 May 2010 02:07:42 -0400 (EDT)","[jira] Updated: (PDFBOX-37) Text Extraction Weirdness"
"=?utf-8?Q?Andreas_Lehmk=C3=BChler_=28JIRA=29?= <jira@apache.org>","Mon, 17 May 2010 02:09:41 -0400 (EDT)","[jira] Updated: (PDFBOX-37) Text Extraction Weirdness"
"""Maruan Sahyoun (JIRA)"" <jira@apache.org>","Mon, 17 May 2010 02:23:42 -0400 (EDT)","[jira] Commented: (PDFBOX-678) Support missing Text Rendering Modes when rendering a PDF"
"=?utf-8?Q?Andreas_Lehmk=C3=BChler_=28JIRA=29?= <jira@apache.org>","Mon, 17 May 2010 03:04:44 -0400 (EDT)","[jira] Commented: (PDFBOX-729) Text extracted from a TeX-created PDF file is unintelligible, but not of the form a1a2a3..."
"=?utf-8?Q?Andreas_Lehmk=C3=BChler_=28JIRA=29?= <jira@apache.org>","Mon, 17 May 2010 03:12:43 -0400 (EDT)","[jira] Updated: (PDFBOX-729) Disable text extraction hwne using type3 fonts (was: Text extracted from a TeX-created PDF file is unintelligible, but not of the form a1a2a3...)"
"=?utf-8?Q?Andreas_Lehmk=C3=BChler_=28JIRA=29?= <jira@apache.org>","Mon, 17 May 2010 03:14:43 -0400 (EDT)","[jira] Updated: (PDFBOX-729) Disable text extraction whne using type3 fonts (was: Text extracted from a TeX-created PDF file is unintelligible, but not of the form a1a2a3...)"
"""Thomas Fischer (JIRA)"" <jira@apache.org>","Mon, 17 May 2010 08:53:44 -0400 (EDT)","[jira] Updated: (PDFBOX-728) Text extracted from a TeX-created PDF file comes in some form of hex encoding"
"""Thomas Fischer (JIRA)"" <jira@apache.org>","Mon, 17 May 2010 08:55:44 -0400 (EDT)","[jira] Reopened: (PDFBOX-728) Text extracted from a TeX-created PDF file comes in some form of hex encoding"
"""Bernard (JIRA)"" <jira@apache.org>","Tue, 18 May 2010 11:17:51 -0400 (EDT)","[jira] Updated: (PDFBOX-586) Text Extraction Regression ?"
"""Bernard (JIRA)"" <jira@apache.org>","Tue, 18 May 2010 11:17:51 -0400 (EDT)","[jira] Updated: (PDFBOX-586) Text Extraction Regression ?"
"""Bernard (JIRA)"" <jira@apache.org>","Tue, 18 May 2010 11:19:47 -0400 (EDT)","[jira] Updated: (PDFBOX-586) Text Extraction Regression ?"
"""Bernard (JIRA)"" <jira@apache.org>","Tue, 18 May 2010 11:19:50 -0400 (EDT)","[jira] Updated: (PDFBOX-586) Text Extraction Regression ?"
"""Bernard (JIRA)"" <jira@apache.org>","Tue, 18 May 2010 13:48:42 -0400 (EDT)","[jira] Updated: (PDFBOX-586) Text Extraction Regression ?"
"=?utf-8?Q?Andreas_Lehmk=C3=BChler_=28JIRA=29?= <jira@apache.org>","Tue, 18 May 2010 15:01:50 -0400 (EDT)","[jira] Updated: (PDFBOX-586) Text Extraction Regression ?"
"=?utf-8?Q?Andreas_Lehmk=C3=BChler_=28JIRA=29?= <jira@apache.org>","Tue, 18 May 2010 15:05:42 -0400 (EDT)","[jira] Commented: (PDFBOX-586) Text Extraction Regression ?"
"""Bernard (JIRA)"" <jira@apache.org>","Tue, 18 May 2010 16:39:42 -0400 (EDT)","[jira] Updated: (PDFBOX-586) Text Extraction Regression ?"
"""Colin Bell (JIRA)"" <jira@apache.org>","Wed, 19 May 2010 08:17:58 -0400 (EDT)","[jira] Commented: (PDFBOX-490) Pdf Printing of text from embedded fonts"
"""Adam Nichols (JIRA)"" <jira@apache.org>","Wed, 19 May 2010 17:18:00 -0400 (EDT)","[jira] Created: (PDFBOX-730) Basic implementation of Crypt filter"
"""Adam Nichols (JIRA)"" <jira@apache.org>","Wed, 19 May 2010 17:21:55 -0400 (EDT)","[jira] Updated: (PDFBOX-730) Basic implementation of Crypt filter"
"""Michael van Rooyen (JIRA)"" <jira@apache.org>","Fri, 21 May 2010 09:16:17 -0400 (EDT)","[jira] Created: (PDFBOX-731) Inconsistencies in TextPositionComparator and sortByPosition"
"=?utf-8?Q?Andreas_Lehmk=C3=BChler_=28JIRA=29?= <jira@apache.org>","Fri, 21 May 2010 14:01:32 -0400 (EDT)","[jira] Commented: (PDFBOX-728) Text extracted from a TeX-created PDF file comes in some form of hex encoding"
"=?utf-8?Q?Andreas_Lehmk=C3=BChler_=28JIRA=29?= <jira@apache.org>","Fri, 21 May 2010 16:04:17 -0400 (EDT)","[jira] Resolved: (PDFBOX-722) Add support to draw or fill a polygon"
"=?utf-8?Q?Andreas_Lehmk=C3=BChler_=28JIRA=29?= <jira@apache.org>","Fri, 21 May 2010 16:04:18 -0400 (EDT)","[jira] Issue Comment Edited: (PDFBOX-722) Add support to draw or fill a polygon"
"Apache Hudson Server <hudson@hudson.zones.apache.org>","Fri, 21 May 2010 20:28:46 +0000 (UTC)","=?UTF-8?Q?Build_failed_in_Hudson:_PDFBox-trunk_=C2=BB_Apache_PDFBox_#90?="
"Apache Hudson Server <hudson@hudson.zones.apache.org>","Fri, 21 May 2010 20:28:57 +0000 (UTC)","Build failed in Hudson: PDFBox-trunk #90"
"Apache Hudson Server <hudson@hudson.zones.apache.org>","Fri, 21 May 2010 22:02:55 +0000 (UTC)","=?UTF-8?Q?Hudson_build_is_back_to_normal_:?= =?UTF-8?Q?_PDFBox-trunk_=C2=BB_Apache_PDFBox_#91?="
"Apache Hudson Server <hudson@hudson.zones.apache.org>","Fri, 21 May 2010 22:03:00 +0000 (UTC)","Hudson build is back to normal : PDFBox-trunk #91"
"=?utf-8?Q?Andreas_Lehmk=C3=BChler_=28JIRA=29?= <jira@apache.org>","Sun, 23 May 2010 07:29:17 -0400 (EDT)","[jira] Updated: (PDFBOX-31) bug with the Type3 font"
"""Thomas Fischer (JIRA)"" <jira@apache.org>","Tue, 25 May 2010 06:44:24 -0400 (EDT)","[jira] Updated: (PDFBOX-728) Text extracted from a TeX-created PDF file comes in some form of hex encoding"
"""Neil McErlean (JIRA)"" <jira@apache.org>","Thu, 27 May 2010 06:17:37 -0400 (EDT)","[jira] Created: (PDFBOX-732) Loading TTF font files from the classpath"
"=?utf-8?Q?Andreas_Lehmk=C3=BChler_=28JIRA=29?= <jira@apache.org>","Fri, 28 May 2010 04:37:43 -0400 (EDT)","[jira] Created: (PDFBOX-733) Implementation of function types 0,2 and 3 to be used in Separation and DeviceN colorspaces"
"""Neil McErlean (JIRA)"" <jira@apache.org>","Fri, 28 May 2010 05:51:37 -0400 (EDT)","[jira] Updated: (PDFBOX-732) Loading TTF font files from the classpath"
"buildbot@apache.org","Sat, 29 May 2010 03:28:57 +0000","buildbot success in ASF Buildbot on pdfbox-trunk"
"""Harry Lee (JIRA)"" <jira@apache.org>","Sat, 29 May 2010 07:59:37 -0400 (EDT)","[jira] Created: (PDFBOX-734) how to access a PDoutlineNode object's parent without using its protected menthod getParent() ?"
"""Johannes Koch (JIRA)"" <jira@apache.org>","Sat, 29 May 2010 12:07:37 -0400 (EDT)","[jira] Commented: (PDFBOX-734) how to access a PDoutlineNode object's parent without using its protected menthod getParent() ?"
"=?utf-8?Q?Andreas_Lehmk=C3=BChler_=28JIRA=29?= <jira@apache.org>","Sun, 30 May 2010 14:03:38 -0400 (EDT)","[jira] Commented: (PDFBOX-733) Implementation of function types 0,2 and 3 to be used in Separation and DeviceN colorspaces"
"Andreas Lehmkuehler <andreas@lehmi.de>","Mon, 31 May 2010 07:43:00 +0200","Re: buildbot success in ASF Buildbot on pdfbox-trunk"
"Jukka Zitting <jukka.zitting@gmail.com>","Mon, 31 May 2010 10:52:25 +0200","Re: buildbot success in ASF Buildbot on pdfbox-trunk"
"""Jukka Zitting (JIRA)"" <jira@apache.org>","Mon, 31 May 2010 04:52:36 -0400 (EDT)","[jira] Created: (PDFBOX-735) Automatic license header checks"
"""=?iso-8859-1?q?=41=6e=64=72=65=61=73=20=4c=65=68=6d=6b=fc=68=6c=65=72?="" <andreas@lehmi.de>","Mon, 31 May 2010 11:05:54 +0200 (MEST)","Re: Re: buildbot success in ASF Buildbot on pdfbox-trunk"
"""Jukka Zitting (JIRA)"" <jira@apache.org>","Mon, 31 May 2010 06:02:36 -0400 (EDT)","[jira] Resolved: (PDFBOX-735) Automatic license header checks"
"""Jukka Zitting (JIRA)"" <jira@apache.org>","Mon, 31 May 2010 07:15:36 -0400 (EDT)","[jira] Resolved: (PDFBOX-687) Standalone PDFBox jar"
"""Daniel Wilson (JIRA)"" <jira@apache.org>","Mon, 31 May 2010 09:34:41 -0400 (EDT)","[jira] Commented: (PDFBOX-687) Standalone PDFBox jar"
"""=?iso-8859-1?q?=41=6e=64=72=65=61=73=20=4c=65=68=6d=6b=fc=68=6c=65=72?="" <andreas@lehmi.de>","Mon, 31 May 2010 17:34:29 +0200 (MEST)","Is PDFToTextTask still needed?"
"Johannes Koch <johannes.koch@fit.fraunhofer.de>","Mon, 31 May 2010 17:44:03 +0200","Re: Is PDFToTextTask still needed?"
"Jukka Zitting <jukka.zitting@gmail.com>","Mon, 31 May 2010 17:48:14 +0200","Re: Is PDFToTextTask still needed?"
"Andreas Lehmkuehler <andreas@lehmi.de>","Mon, 31 May 2010 18:16:00 +0200","Re: Is PDFToTextTask still needed?"
"=?utf-8?Q?Andreas_Lehmk=C3=BChler_=28JIRA=29?= <jira@apache.org>","Mon, 31 May 2010 14:04:38 -0400 (EDT)","[jira] Created: (PDFBOX-736) Implementation of the DeviceN colorspace"
"bala chandar <balachandarkrishna@gmail.com>","Mon, 31 May 2010 11:23:39 -0700","New post"
"=?utf-8?Q?Andreas_Lehmk=C3=BChler_=28JIRA=29?= <jira@apache.org>","Mon, 31 May 2010 16:55:43 -0400 (EDT)","[jira] Resolved: (PDFBOX-736) Implementation of the DeviceN colorspace"
"""Bernard (JIRA)"" <jira@apache.org>","Mon, 31 May 2010 19:31:37 -0400 (EDT)","[jira] Commented: (PDFBOX-586) Text Extraction Regression ?"
