"Developer","Date","Subject"
"=?utf-8?Q?Andreas_Lehmk=C3=BChler_=28JIRA=29?= <jira@apache.org>","Sat, 1 Dec 2012 09:39:58 +0000 (UTC)","[jira] [Updated] (PDFBOX-1463) Unreadable fonts on UNIX"
"=?utf-8?Q?Andreas_Lehmk=C3=BChler_=28JIRA=29?= <jira@apache.org>","Sat, 1 Dec 2012 09:45:58 +0000 (UTC)","[jira] [Commented] (PDFBOX-1463) Unreadable fonts on UNIX"
"""David Fisher (JIRA)"" <jira@apache.org>","Mon, 3 Dec 2012 12:05:58 +0000 (UTC)","[jira] [Commented] (PDFBOX-1463) Unreadable fonts on UNIX"
"""Sindhu N Kashyap (JIRA)"" <jira@apache.org>","Mon, 3 Dec 2012 12:27:59 +0000 (UTC)","[jira] [Updated] (PDFBOX-1463) Unreadable fonts on UNIX"
"""Sindhu N Kashyap (JIRA)"" <jira@apache.org>","Tue, 4 Dec 2012 12:13:00 +0000 (UTC)","[jira] [Commented] (PDFBOX-490) Pdf Printing of text from embedded fonts"
"""Alex Wajda (JIRA)"" <jira@apache.org>","Tue, 4 Dec 2012 16:47:59 +0000 (UTC)","[jira] [Commented] (PDFBOX-940) [pdmodel.font.PDFont] Error: Could not parse predefined CMAP  file for 'PDFXC-Indentity0-0'"
"""Sindhu N Kashyap (JIRA)"" <jira@apache.org>","Wed, 5 Dec 2012 05:00:58 +0000 (UTC)","[jira] [Commented] (PDFBOX-1463) Unreadable fonts on UNIX"
"""Gerrit Lober"" <gerritlober@gmx.de>","Wed, 05 Dec 2012 14:49:08 +0100","Problem with PDFont.getStringWidth()"
"Maruan Sahyoun <sahyoun@fileaffairs.de>","Wed, 5 Dec 2012 18:12:31 +0100","Re: Problem with PDFont.getStringWidth()"
"Andreas Lehmkuehler <andreas@lehmi.de>","Wed, 05 Dec 2012 20:05:57 +0100","Re: Problem with PDFont.getStringWidth()"
"""Gerrit Lober"" <gerritlober@gmx.de>","Thu, 06 Dec 2012 08:22:27 +0100","Re: Problem with PDFont.getStringWidth()"
"""Johan van der Knijff (JIRA)"" <jira@apache.org>","Thu, 6 Dec 2012 12:02:59 +0000 (UTC)","[jira] [Created] (PDFBOX-1465) Preflight crashes on PDF"
"""Sindhu N Kashyap (JIRA)"" <jira@apache.org>","Thu, 6 Dec 2012 15:17:09 +0000 (UTC)","[jira] [Updated] (PDFBOX-1463) Unreadable fonts on UNIX"
"""Sindhu N Kashyap (JIRA)"" <jira@apache.org>","Thu, 6 Dec 2012 15:17:10 +0000 (UTC)","[jira] [Updated] (PDFBOX-1463) Unreadable fonts on UNIX"
"Andreas Lehmkuehler <andreas@lehmi.de>","Thu, 06 Dec 2012 18:35:58 +0100","Re: Problem with PDFont.getStringWidth()"
"""Eric Leleu (JIRA)"" <jira@apache.org>","Thu, 6 Dec 2012 20:05:09 +0000 (UTC)","[jira] [Assigned] (PDFBOX-1446) PreflightDocument constructor ignores given PreflightConfiguration instance"
"""Eric Leleu (JIRA)"" <jira@apache.org>","Thu, 6 Dec 2012 20:17:09 +0000 (UTC)","[jira] [Resolved] (PDFBOX-1446) PreflightDocument constructor ignores given PreflightConfiguration instance"
"""Eric Leleu (JIRA)"" <jira@apache.org>","Thu, 6 Dec 2012 20:17:09 +0000 (UTC)","[jira] [Closed] (PDFBOX-1446) PreflightDocument constructor ignores given PreflightConfiguration instance"
"""Eric Leleu (JIRA)"" <jira@apache.org>","Thu, 6 Dec 2012 20:55:10 +0000 (UTC)","[jira] [Assigned] (PDFBOX-1449) Preflight doesn't report on non-embedded font"
"""Eric Leleu (JIRA)"" <jira@apache.org>","Thu, 6 Dec 2012 21:21:09 +0000 (UTC)","[jira] [Commented] (PDFBOX-1449) Preflight doesn't report on non-embedded font"
"""Eric Leleu (JIRA)"" <jira@apache.org>","Thu, 6 Dec 2012 21:55:10 +0000 (UTC)","[jira] [Updated] (PDFBOX-1454) false reject of Pdf A1b?"
"""Gerrit Lober"" <gerritlober@gmx.de>","Fri, 07 Dec 2012 12:46:44 +0100","No output after Stream.drawString()"
"""Gerrit Lober"" <gerritlober@gmx.de>","Fri, 07 Dec 2012 12:47:41 +0100","Re: Problem with PDFont.getStringWidth()"
"""Sindhu N Kashyap (JIRA)"" <jira@apache.org>","Fri, 7 Dec 2012 16:09:22 +0000 (UTC)","[jira] [Commented] (PDFBOX-1463) Unreadable fonts on UNIX"
"""Sindhu N Kashyap (JIRA)"" <jira@apache.org>","Fri, 7 Dec 2012 16:17:22 +0000 (UTC)","[jira] [Updated] (PDFBOX-1463) Unreadable fonts on UNIX"
"=?utf-8?Q?Andreas_Lehmk=C3=BChler_=28JIRA=29?= <jira@apache.org>","Sat, 8 Dec 2012 11:01:21 +0000 (UTC)","[jira] [Commented] (PDFBOX-1463) Unreadable fonts on UNIX"
"=?utf-8?Q?Andreas_Lehmk=C3=BChler_=28JIRA=29?= <jira@apache.org>","Sat, 8 Dec 2012 13:23:21 +0000 (UTC)","[jira] [Commented] (PDFBOX-1438) Problems with Image Extraction from PDF"
"Andreas Lehmkuehler <andreas@lehmi.de>","Sat, 08 Dec 2012 14:30:44 +0100","Re: No output after Stream.drawString()"
"=?utf-8?Q?Andreas_Lehmk=C3=BChler_=28JIRA=29?= <jira@apache.org>","Sat, 8 Dec 2012 13:35:21 +0000 (UTC)","[jira] [Closed] (PDFBOX-1438) Problems with Image Extraction from PDF"
"=?utf-8?Q?Andreas_Lehmk=C3=BChler_=28JIRA=29?= <jira@apache.org>","Sun, 9 Dec 2012 15:05:21 +0000 (UTC)","[jira] [Commented] (PDFBOX-1445) /ImageMask true does not work. Patch included."
"""Maurice Koch (JIRA)"" <jira@apache.org>","Mon, 10 Dec 2012 09:43:21 +0000 (UTC)","[jira] [Created] (PDFBOX-1466) Rendering of pattern colorspace fails"
"""Maurice Koch (JIRA)"" <jira@apache.org>","Mon, 10 Dec 2012 09:43:22 +0000 (UTC)","[jira] [Updated] (PDFBOX-1466) Rendering of pattern colorspace fails"
"""Maurice Koch (JIRA)"" <jira@apache.org>","Mon, 10 Dec 2012 09:45:21 +0000 (UTC)","[jira] [Updated] (PDFBOX-1466) Rendering of pattern colorspace fails"
"""Maurice Koch (JIRA)"" <jira@apache.org>","Mon, 10 Dec 2012 09:45:21 +0000 (UTC)","[jira] [Updated] (PDFBOX-1466) Rendering of pattern colorspace fails"
"""Sindhu N Kashyap (JIRA)"" <jira@apache.org>","Mon, 10 Dec 2012 12:33:22 +0000 (UTC)","[jira] [Commented] (PDFBOX-1463) Unreadable fonts on UNIX"
"""Johan van der Knijff (JIRA)"" <jira@apache.org>","Mon, 10 Dec 2012 15:51:21 +0000 (UTC)","[jira] [Commented] (PDFBOX-1449) Preflight doesn't report on non-embedded font"
"gerritlober@gmx.de","Tue, 11 Dec 2012 21:29:35 +0100 (CET)","Re: No output after Stream.drawString()"
"""Gerrit Lober"" <gerritlober@gmx.de>","Wed, 12 Dec 2012 08:42:12 +0100","Fwd: Re: No output after Stream.drawString()"
"""Clemens Wyss (JIRA)"" <jira@apache.org>","Wed, 12 Dec 2012 09:01:30 +0000 (UTC)","[jira] [Commented] (PDFBOX-940) [pdmodel.font.PDFont] Error: Could not parse predefined CMAP  file for 'PDFXC-Indentity0-0'"
"=?ISO-8859-1?Q?Martin_Schr=F6der?= <martin@oneiros.de>","Wed, 12 Dec 2012 21:41:38 +0100","Re: Re: No output after Stream.drawString()"
"""Peter Lehto (JIRA)"" <jira@apache.org>","Thu, 13 Dec 2012 11:28:11 +0000 (UTC)","[jira] [Created] (PDFBOX-1467) PDocumentCatalog.getAllPages returns empty list for certain pdfs, affects many other methods as well"
"""Peter Lehto (JIRA)"" <jira@apache.org>","Thu, 13 Dec 2012 11:30:12 +0000 (UTC)","[jira] [Updated] (PDFBOX-1467) PDocumentCatalog.getAllPages returns empty list for certain pdfs, affects many other methods as well"
"""Juraj Lonc (JIRA)"" <jira@apache.org>","Thu, 13 Dec 2012 14:32:12 +0000 (UTC)","[jira] [Updated] (PDFBOX-1468) Decrypting unencrypted strings"
"""Juraj Lonc (JIRA)"" <jira@apache.org>","Thu, 13 Dec 2012 14:32:12 +0000 (UTC)","[jira] [Created] (PDFBOX-1468) Decrypting unencrypted strings"
"""Juraj Lonc (JIRA)"" <jira@apache.org>","Thu, 13 Dec 2012 14:34:12 +0000 (UTC)","[jira] [Commented] (PDFBOX-1468) Decrypting unencrypted strings"
"""Juraj Lonc (JIRA)"" <jira@apache.org>","Thu, 13 Dec 2012 14:36:12 +0000 (UTC)","[jira] [Updated] (PDFBOX-1468) Decrypting unencrypted strings"
"""Juraj Lonc (JIRA)"" <jira@apache.org>","Thu, 13 Dec 2012 14:36:12 +0000 (UTC)","[jira] [Updated] (PDFBOX-1468) Decrypting unencrypted strings"
"""Guillaume Bailleul (JIRA)"" <jira@apache.org>","Fri, 14 Dec 2012 06:14:12 +0000 (UTC)","[jira] [Assigned] (PDFBOX-1454) false reject of Pdf A1b?"
"""Guillaume Bailleul (JIRA)"" <jira@apache.org>","Fri, 14 Dec 2012 06:44:12 +0000 (UTC)","[jira] [Updated] (PDFBOX-1454) false reject of Pdf A1b?"
"""Guillaume Bailleul (JIRA)"" <jira@apache.org>","Fri, 14 Dec 2012 06:44:13 +0000 (UTC)","[jira] [Resolved] (PDFBOX-1454) false reject of Pdf A1b?"
"""Guillaume Bailleul (JIRA)"" <jira@apache.org>","Fri, 14 Dec 2012 06:44:13 +0000 (UTC)","[jira] [Commented] (PDFBOX-1454) false reject of Pdf A1b?"
"""Yegor Kozlov (JIRA)"" <jira@apache.org>","Fri, 14 Dec 2012 13:14:12 +0000 (UTC)","[jira] [Created] (PDFBOX-1469) [PATCH] PDPageContentStream incorrectly sets colors in CMYK color space"
"""Yegor Kozlov (JIRA)"" <jira@apache.org>","Fri, 14 Dec 2012 13:16:12 +0000 (UTC)","[jira] [Updated] (PDFBOX-1469) [PATCH] PDPageContentStream incorrectly sets colors in CMYK color space"
"""Aaptha (JIRA)"" <jira@apache.org>","Sat, 15 Dec 2012 06:34:13 +0000 (UTC)","[jira] [Commented] (PDFBOX-1213) Adding style information to the PDF to HTML converter"
"""Guillaume Bailleul (JIRA)"" <jira@apache.org>","Sun, 16 Dec 2012 10:20:14 +0000 (UTC)","[jira] [Created] (PDFBOX-1470) about attribute is serialized more than one time in XmpSerializer"
"""Guillaume Bailleul (JIRA)"" <jira@apache.org>","Sun, 16 Dec 2012 10:22:13 +0000 (UTC)","[jira] [Created] (PDFBOX-1471) Parsing of xmp properties set in xml attributes is not done"
"""Guillaume Bailleul (JIRA)"" <jira@apache.org>","Sun, 16 Dec 2012 10:22:14 +0000 (UTC)","[jira] [Updated] (PDFBOX-1471) Parsing of xmp properties set in xml attributes is not done"
"""Guillaume Bailleul (JIRA)"" <jira@apache.org>","Sun, 16 Dec 2012 10:24:12 +0000 (UTC)","[jira] [Resolved] (PDFBOX-1471) Parsing of xmp properties set in xml attributes is not done"
"""Guillaume Bailleul (JIRA)"" <jira@apache.org>","Sun, 16 Dec 2012 10:26:12 +0000 (UTC)","[jira] [Resolved] (PDFBOX-1470) about attribute is serialized more than one time in XmpSerializer"
"""Guillaume Bailleul (JIRA)"" <jira@apache.org>","Sun, 16 Dec 2012 10:38:12 +0000 (UTC)","[jira] [Updated] (PDFBOX-1461) wasted work in TestIsartorValidationFromClasspath.validate()"
"""Guillaume Bailleul (JIRA)"" <jira@apache.org>","Sun, 16 Dec 2012 10:38:12 +0000 (UTC)","[jira] [Closed] (PDFBOX-1461) wasted work in TestIsartorValidationFromClasspath.validate()"
"""Guillaume Bailleul (JIRA)"" <jira@apache.org>","Sun, 16 Dec 2012 10:38:12 +0000 (UTC)","[jira] [Commented] (PDFBOX-1461) wasted work in TestIsartorValidationFromClasspath.validate()"
"""Guillaume Bailleul (JIRA)"" <jira@apache.org>","Sun, 16 Dec 2012 10:46:12 +0000 (UTC)","[jira] [Closed] (PDFBOX-1455) wasted work in CIDType0Container.getFontProgramWidth()"
"""Guillaume Bailleul (JIRA)"" <jira@apache.org>","Sun, 16 Dec 2012 10:48:13 +0000 (UTC)","[jira] [Commented] (PDFBOX-1457) wasted work in TrailerValidationProcess.compareIds()"
"""Guillaume Bailleul (JIRA)"" <jira@apache.org>","Sun, 16 Dec 2012 10:48:13 +0000 (UTC)","[jira] [Updated] (PDFBOX-1457) wasted work in TrailerValidationProcess.compareIds()"
"""Guillaume Bailleul (JIRA)"" <jira@apache.org>","Sun, 16 Dec 2012 10:48:14 +0000 (UTC)","[jira] [Closed] (PDFBOX-1457) wasted work in TrailerValidationProcess.compareIds()"
"""Guillaume Bailleul (JIRA)"" <jira@apache.org>","Sun, 16 Dec 2012 10:52:12 +0000 (UTC)","[jira] [Updated] (PDFBOX-1460) wasted work in AbstractInvalidFileTester.validate()"
"""Guillaume Bailleul (JIRA)"" <jira@apache.org>","Sun, 16 Dec 2012 10:52:13 +0000 (UTC)","[jira] [Closed] (PDFBOX-1460) wasted work in AbstractInvalidFileTester.validate()"
"""Guillaume Bailleul (JIRA)"" <jira@apache.org>","Sun, 16 Dec 2012 10:52:13 +0000 (UTC)","[jira] [Commented] (PDFBOX-1460) wasted work in AbstractInvalidFileTester.validate()"
"""Guillaume Bailleul (JIRA)"" <jira@apache.org>","Sun, 16 Dec 2012 10:54:13 +0000 (UTC)","[jira] [Commented] (PDFBOX-1459) wasted work in AbstractTestAction.valid()"
"""Guillaume Bailleul (JIRA)"" <jira@apache.org>","Sun, 16 Dec 2012 10:54:13 +0000 (UTC)","[jira] [Updated] (PDFBOX-1459) wasted work in AbstractTestAction.valid()"
"""Guillaume Bailleul (JIRA)"" <jira@apache.org>","Sun, 16 Dec 2012 10:54:14 +0000 (UTC)","[jira] [Closed] (PDFBOX-1459) wasted work in AbstractTestAction.valid()"
"Apache Jenkins Server  <jenkins@builds.apache.org>","Sun, 16 Dec 2012 11:04:25 +0000 (UTC)","=?UTF-8?Q?Build_failed_in_Jenkins:_PDFBox-trunk_=C2=BB_Apache_XmpBox_#572?="
"Apache Jenkins Server  <jenkins@builds.apache.org>","Sun, 16 Dec 2012 11:04:29 +0000 (UTC)","Build failed in Jenkins: PDFBox-trunk #572"
"=?utf-8?Q?Andreas_Lehmk=C3=BChler_=28JIRA=29?= <jira@apache.org>","Sun, 16 Dec 2012 12:00:13 +0000 (UTC)","[jira] [Assigned] (PDFBOX-1469) [PATCH] PDPageContentStream incorrectly sets colors in CMYK color space"
"=?utf-8?Q?Andreas_Lehmk=C3=BChler_=28JIRA=29?= <jira@apache.org>","Sun, 16 Dec 2012 12:12:12 +0000 (UTC)","[jira] [Resolved] (PDFBOX-1469) [PATCH] PDPageContentStream incorrectly sets colors in CMYK color space"
"Apache Jenkins Server  <jenkins@builds.apache.org>","Sun, 16 Dec 2012 13:10:25 +0000 (UTC)","=?UTF-8?Q?Build_failed_in_Jenkins:_PDFBox-trunk_=C2=BB_Apache_XmpBox_#573?="
"Apache Jenkins Server  <jenkins@builds.apache.org>","Sun, 16 Dec 2012 13:10:41 +0000 (UTC)","Build failed in Jenkins: PDFBox-trunk #573"
"Apache Jenkins Server  <jenkins@builds.apache.org>","Sun, 16 Dec 2012 14:34:13 +0000 (UTC)","=?UTF-8?Q?Jenkins_build_is_back_to_normal_:?= =?UTF-8?Q?_PDFBox-trunk_=C2=BB_Apache_XmpBox_#574?="
"Apache Jenkins Server  <jenkins@builds.apache.org>","Sun, 16 Dec 2012 14:34:22 +0000 (UTC)","Jenkins build is back to normal : PDFBox-trunk #574"
"=?utf-8?Q?Andreas_Lehmk=C3=BChler_=28JIRA=29?= <jira@apache.org>","Mon, 17 Dec 2012 11:34:12 +0000 (UTC)","[jira] [Commented] (PDFBOX-1213) Adding style information to the PDF to HTML converter"
"=?utf-8?Q?Andreas_Lehmk=C3=BChler_=28JIRA=29?= <jira@apache.org>","Mon, 17 Dec 2012 18:04:12 +0000 (UTC)","[jira] [Resolved] (PDFBOX-1468) Decrypting unencrypted strings"
"=?utf-8?Q?Andreas_Lehmk=C3=BChler_=28JIRA=29?= <jira@apache.org>","Mon, 17 Dec 2012 18:04:13 +0000 (UTC)","[jira] [Updated] (PDFBOX-1468) Decrypting unencrypted strings"
"""Johan van der Knijff (JIRA)"" <jira@apache.org>","Tue, 18 Dec 2012 16:34:13 +0000 (UTC)","[jira] [Updated] (PDFBOX-1465) Preflight crashes on PDF"
"""Thiago Barbosa Lima de Moura (JIRA)"" <jira@apache.org>","Wed, 19 Dec 2012 00:24:12 +0000 (UTC)","[jira] [Created] (PDFBOX-1472) Problem when tried to Use ICCBased Elements"
"""Thiago Barbosa Lima de Moura (JIRA)"" <jira@apache.org>","Wed, 19 Dec 2012 00:26:12 +0000 (UTC)","[jira] [Updated] (PDFBOX-1472) Problem when tried to Use ICCBased Elements"
"""Thiago Barbosa Lima de Moura (JIRA)"" <jira@apache.org>","Wed, 19 Dec 2012 00:26:12 +0000 (UTC)","[jira] [Updated] (PDFBOX-1472) Problem when tried to Use ICCBased Elements"
"=?utf-8?Q?Andreas_Lehmk=C3=BChler_=28JIRA=29?= <jira@apache.org>","Wed, 19 Dec 2012 06:55:14 +0000 (UTC)","[jira] [Commented] (PDFBOX-1472) Problem when tried to Use ICCBased Elements"
"""Juraj Lonc (JIRA)"" <jira@apache.org>","Wed, 19 Dec 2012 08:07:13 +0000 (UTC)","[jira] [Created] (PDFBOX-1473) Incorrect handling of OpenType fonts"
"""Juraj Lonc (JIRA)"" <jira@apache.org>","Wed, 19 Dec 2012 08:09:13 +0000 (UTC)","[jira] [Updated] (PDFBOX-1473) Incorrect handling of OpenType fonts"
"""Juraj Lonc (JIRA)"" <jira@apache.org>","Wed, 19 Dec 2012 08:15:12 +0000 (UTC)","[jira] [Updated] (PDFBOX-1473) Incorrect handling of OpenType fonts"
"""Juraj Lonc (JIRA)"" <jira@apache.org>","Wed, 19 Dec 2012 08:17:12 +0000 (UTC)","[jira] [Updated] (PDFBOX-1473) Incorrect handling of OpenType fonts"
"""Juraj Lonc (JIRA)"" <jira@apache.org>","Wed, 19 Dec 2012 08:23:12 +0000 (UTC)","[jira] [Commented] (PDFBOX-1473) Incorrect handling of OpenType fonts"
"=?utf-8?Q?Andreas_Lehmk=C3=BChler_=28JIRA=29?= <jira@apache.org>","Wed, 19 Dec 2012 10:21:13 +0000 (UTC)","[jira] [Commented] (PDFBOX-1473) Incorrect handling of OpenType fonts"
"""Juraj Lonc (JIRA)"" <jira@apache.org>","Wed, 19 Dec 2012 10:29:13 +0000 (UTC)","[jira] [Commented] (PDFBOX-1473) Incorrect handling of OpenType fonts"
"""Juraj Lonc (JIRA)"" <jira@apache.org>","Wed, 19 Dec 2012 10:37:13 +0000 (UTC)","[jira] [Commented] (PDFBOX-1473) Incorrect handling of OpenType fonts"
"=?utf-8?Q?Andreas_Lehmk=C3=BChler_=28JIRA=29?= <jira@apache.org>","Wed, 19 Dec 2012 11:13:23 +0000 (UTC)","[jira] [Commented] (PDFBOX-1473) Incorrect handling of OpenType fonts"
"=?utf-8?Q?Andreas_Lehmk=C3=BChler_=28JIRA=29?= <jira@apache.org>","Wed, 19 Dec 2012 11:13:23 +0000 (UTC)","[jira] [Assigned] (PDFBOX-1473) Incorrect handling of OpenType fonts"
"""Juraj Lonc (JIRA)"" <jira@apache.org>","Wed, 19 Dec 2012 13:09:12 +0000 (UTC)","[jira] [Commented] (PDFBOX-1473) Incorrect handling of OpenType fonts"
"""Josue Martinez Buenrrostro (JIRA)"" <jira@apache.org>","Wed, 19 Dec 2012 23:19:13 +0000 (UTC)","[jira] [Created] (PDFBOX-1474) PDDocument.decrypt does not throws InvalidPasswordException"
"""Juraj Lonc (JIRA)"" <jira@apache.org>","Thu, 20 Dec 2012 09:53:13 +0000 (UTC)","[jira] [Updated] (PDFBOX-1473) Incorrect handling of OpenType fonts"
"""Alexey Gavrilov (JIRA)"" <jira@apache.org>","Thu, 20 Dec 2012 13:29:12 +0000 (UTC)","[jira] [Created] (PDFBOX-1475) Exception thrown if /DecodeParms specified indirectly (as [9 0 R])"
"""Alexey Gavrilov (JIRA)"" <jira@apache.org>","Thu, 20 Dec 2012 13:31:12 +0000 (UTC)","[jira] [Updated] (PDFBOX-1475) Exception thrown if /DecodeParms specified indirectly (like [9 0 R])"
"""Alexey Gavrilov (JIRA)"" <jira@apache.org>","Thu, 20 Dec 2012 13:31:14 +0000 (UTC)","[jira] [Updated] (PDFBOX-1475) Exception thrown during rendering page if /DecodeParms specified indirectly (like [9 0 R]) in XObject/Image"
"""Alexey Gavrilov (JIRA)"" <jira@apache.org>","Thu, 20 Dec 2012 13:31:15 +0000 (UTC)","[jira] [Updated] (PDFBOX-1475) Exception thrown during rendering page if /DecodeParms specified indirectly (like [9 0 R]) in XObject/Image"
"""Alexey Gavrilov (JIRA)"" <jira@apache.org>","Thu, 20 Dec 2012 13:49:12 +0000 (UTC)","[jira] [Updated] (PDFBOX-1475) Exception thrown during rendering page if /DecodeParms specified indirectly (like [9 0 R]) in XObject/Image"
"""Alexey Gavrilov (JIRA)"" <jira@apache.org>","Thu, 20 Dec 2012 13:51:12 +0000 (UTC)","[jira] [Updated] (PDFBOX-1475) Exception thrown during rendering page if /DecodeParms specified indirectly (like [9 0 R]) in XObject/Image"
"""Alexey Gavrilov (JIRA)"" <jira@apache.org>","Thu, 20 Dec 2012 13:53:13 +0000 (UTC)","[jira] [Updated] (PDFBOX-1475) Exception thrown during rendering page if /DecodeParms specified indirectly (like [9 0 R]) in XObject/Image"
"""Thiago Barbosa Lima de Moura (JIRA)"" <jira@apache.org>","Thu, 20 Dec 2012 17:13:13 +0000 (UTC)","[jira] [Updated] (PDFBOX-1472) Problem when tried to Use ICCBased Elements"
"=?utf-8?Q?Andreas_Lehmk=C3=BChler_=28JIRA=29?= <jira@apache.org>","Thu, 20 Dec 2012 22:13:13 +0000 (UTC)","[jira] [Commented] (PDFBOX-1472) Problem when tried to Use ICCBased Elements"
"""Guillaume Bailleul (JIRA)"" <jira@apache.org>","Sat, 22 Dec 2012 08:41:12 +0000 (UTC)","[jira] [Created] (PDFBOX-1476) Isartor tests fails due to bad rdf:about handling"
"""Guillaume Bailleul (JIRA)"" <jira@apache.org>","Sat, 22 Dec 2012 08:43:12 +0000 (UTC)","[jira] [Resolved] (PDFBOX-1476) Isartor tests fails due to bad rdf:about handling"
"""Eric Leleu (JIRA)"" <jira@apache.org>","Sat, 22 Dec 2012 15:03:13 +0000 (UTC)","[jira] [Resolved] (PDFBOX-1449) Preflight doesn't report on non-embedded font"
"""Eric Leleu (JIRA)"" <jira@apache.org>","Sat, 22 Dec 2012 15:03:13 +0000 (UTC)","[jira] [Commented] (PDFBOX-1449) Preflight doesn't report on non-embedded font"
"""Eric Leleu (JIRA)"" <jira@apache.org>","Sat, 22 Dec 2012 15:23:13 +0000 (UTC)","[jira] [Resolved] (PDFBOX-1260) parser.XmpUnexpectedElementException...Commercial validators verify as a valid PDF/A"
"""Eric Leleu (JIRA)"" <jira@apache.org>","Sat, 22 Dec 2012 15:53:12 +0000 (UTC)","[jira] [Assigned] (PDFBOX-1465) Preflight crashes on PDF"
"=?utf-8?Q?Andreas_Lehmk=C3=BChler_=28JIRA=29?= <jira@apache.org>","Sat, 22 Dec 2012 15:55:12 +0000 (UTC)","[jira] [Commented] (PDFBOX-1473) Incorrect handling of OpenType fonts"
"""Eric Leleu (JIRA)"" <jira@apache.org>","Sat, 22 Dec 2012 15:55:13 +0000 (UTC)","[jira] [Updated] (PDFBOX-1465) Preflight crashes on PDF"
"""Eric Leleu (JIRA)"" <jira@apache.org>","Sat, 22 Dec 2012 15:59:12 +0000 (UTC)","[jira] [Resolved] (PDFBOX-1465) Preflight crashes on PDF"
"=?utf-8?Q?Andreas_Lehmk=C3=BChler_=28JIRA=29?= <jira@apache.org>","Sat, 22 Dec 2012 16:13:13 +0000 (UTC)","[jira] [Commented] (PDFBOX-1473) Incorrect handling of OpenType fonts"
"Apache Jenkins Server  <jenkins@builds.apache.org>","Sat, 22 Dec 2012 17:02:43 +0000 (UTC)","Jenkins build is back to normal : PDFBox-ant #864"
"=?utf-8?Q?Andreas_Lehmk=C3=BChler_=28JIRA=29?= <jira@apache.org>","Sat, 22 Dec 2012 17:41:12 +0000 (UTC)","[jira] [Commented] (PDFBOX-1473) Incorrect handling of OpenType fonts"
"""Juraj Lonc (JIRA)"" <jira@apache.org>","Sat, 22 Dec 2012 18:09:12 +0000 (UTC)","[jira] [Commented] (PDFBOX-1473) Incorrect handling of OpenType fonts"
"""Guillaume Bailleul (JIRA)"" <jira@apache.org>","Sun, 23 Dec 2012 07:24:12 +0000 (UTC)","[jira] [Created] (PDFBOX-1477) PDF/A file is declared invalid on windows and valid with linux"
"""Guillaume Bailleul (JIRA)"" <jira@apache.org>","Sun, 23 Dec 2012 07:26:12 +0000 (UTC)","[jira] [Updated] (PDFBOX-1477) PDF/A file is declared invalid on windows and valid with linux"
"""Maho Rashad (JIRA)"" <jira@apache.org>","Mon, 24 Dec 2012 11:42:12 +0000 (UTC)","[jira] [Created] (PDFBOX-1478) Problem with printing landscape document"
"=?utf-8?Q?Andreas_Lehmk=C3=BChler_=28JIRA=29?= <jira@apache.org>","Mon, 24 Dec 2012 15:14:12 +0000 (UTC)","[jira] [Commented] (PDFBOX-1478) Problem with printing landscape document"
"=?utf-8?Q?Andreas_Lehmk=C3=BChler_=28JIRA=29?= <jira@apache.org>","Mon, 24 Dec 2012 15:14:13 +0000 (UTC)","[jira] [Updated] (PDFBOX-1474) PDDocument.decrypt does not throws InvalidPasswordException"
"=?utf-8?Q?Andreas_Lehmk=C3=BChler_=28JIRA=29?= <jira@apache.org>","Mon, 24 Dec 2012 15:14:13 +0000 (UTC)","[jira] [Updated] (PDFBOX-1466) Rendering of pattern colorspace fails"
"""lucas leong (JIRA)"" <jira@apache.org>","Tue, 25 Dec 2012 03:18:12 +0000 (UTC)","[jira] [Created] (PDFBOX-1479) Text location in ExtractText"
"""lucas leong (JIRA)"" <jira@apache.org>","Tue, 25 Dec 2012 03:20:12 +0000 (UTC)","[jira] [Updated] (PDFBOX-1479) Text location in ExtractText"
"""lucas leong (JIRA)"" <jira@apache.org>","Tue, 25 Dec 2012 03:26:15 +0000 (UTC)","[jira] [Updated] (PDFBOX-1479) Text location in ExtractText"
"=?utf-8?Q?Andreas_Lehmk=C3=BChler_=28JIRA=29?= <jira@apache.org>","Tue, 25 Dec 2012 17:54:12 +0000 (UTC)","[jira] [Updated] (PDFBOX-1479) Text location in ExtractText"
"""lucas leong (JIRA)"" <jira@apache.org>","Wed, 26 Dec 2012 05:08:13 +0000 (UTC)","[jira] [Commented] (PDFBOX-1479) Text location in ExtractText"
"""lucas leong (JIRA)"" <jira@apache.org>","Wed, 26 Dec 2012 05:10:17 +0000 (UTC)","[jira] [Closed] (PDFBOX-1479) Text location in ExtractText"
"""Maho Rashad (JIRA)"" <jira@apache.org>","Wed, 26 Dec 2012 12:38:12 +0000 (UTC)","[jira] [Commented] (PDFBOX-1478) Problem with printing landscape document"
"""Maho Rashad (JIRA)"" <jira@apache.org>","Wed, 26 Dec 2012 12:38:12 +0000 (UTC)","[jira] [Comment Edited] (PDFBOX-1478) Problem with printing landscape document"
"""Maho Rashad (JIRA)"" <jira@apache.org>","Wed, 26 Dec 2012 12:54:12 +0000 (UTC)","[jira] [Updated] (PDFBOX-1478) Problem with printing landscape document"
"=?utf-8?Q?Andreas_Lehmk=C3=BChler_=28JIRA=29?= <jira@apache.org>","Wed, 26 Dec 2012 14:28:14 +0000 (UTC)","[jira] [Resolved] (PDFBOX-1475) Exception thrown during rendering page if /DecodeParms specified indirectly (like [9 0 R]) in XObject/Image"
"=?utf-8?Q?Andreas_Lehmk=C3=BChler_=28JIRA=29?= <jira@apache.org>","Wed, 26 Dec 2012 14:36:13 +0000 (UTC)","[jira] [Commented] (PDFBOX-1467) PDocumentCatalog.getAllPages returns empty list for certain pdfs, affects many other methods as well"
"=?utf-8?Q?Andreas_Lehmk=C3=BChler_=28JIRA=29?= <jira@apache.org>","Wed, 26 Dec 2012 15:42:12 +0000 (UTC)","[jira] [Commented] (PDFBOX-1473) Incorrect handling of OpenType fonts"
"=?utf-8?Q?Andreas_Lehmk=C3=BChler_=28JIRA=29?= <jira@apache.org>","Wed, 26 Dec 2012 15:46:12 +0000 (UTC)","[jira] [Resolved] (PDFBOX-969) IndexOutOfBound whle creating a Type1C font"
"=?utf-8?Q?Andreas_Lehmk=C3=BChler_=28JIRA=29?= <jira@apache.org>","Wed, 26 Dec 2012 15:54:12 +0000 (UTC)","[jira] [Updated] (PDFBOX-831) PDPage.convertToImage throwing an uncaught IOException internally"
"=?utf-8?Q?Andreas_Lehmk=C3=BChler_=28JIRA=29?= <jira@apache.org>","Wed, 26 Dec 2012 15:54:13 +0000 (UTC)","[jira] [Closed] (PDFBOX-831) PDPage.convertToImage throwing an uncaught IOException internally"
"=?utf-8?Q?Andreas_Lehmk=C3=BChler_=28JIRA=29?= <jira@apache.org>","Wed, 26 Dec 2012 16:00:13 +0000 (UTC)","[jira] [Updated] (PDFBOX-1284) PDFBox giving ??? characters"
"""Greg Werner (JIRA)"" <jira@apache.org>","Wed, 26 Dec 2012 16:30:14 +0000 (UTC)","[jira] [Created] (PDFBOX-1480) PDFBox treats some DeviceRGB images as DeviceGRAY"
"""Greg Werner (JIRA)"" <jira@apache.org>","Wed, 26 Dec 2012 16:30:14 +0000 (UTC)","[jira] [Updated] (PDFBOX-1480) PDFBox treats some DeviceRGB pdfs as DeviceGRAY"
"""Greg Werner (JIRA)"" <jira@apache.org>","Wed, 26 Dec 2012 16:32:12 +0000 (UTC)","[jira] [Updated] (PDFBOX-1480) PDFBox treats some DeviceRGB pdfs as DeviceGRAY"
"=?utf-8?Q?Andreas_Lehmk=C3=BChler_=28JIRA=29?= <jira@apache.org>","Wed, 26 Dec 2012 16:32:13 +0000 (UTC)","[jira] [Commented] (PDFBOX-1480) PDFBox treats some DeviceRGB pdfs as DeviceGRAY"
"""Greg Werner (JIRA)"" <jira@apache.org>","Wed, 26 Dec 2012 16:40:12 +0000 (UTC)","[jira] [Commented] (PDFBOX-1480) PDFBox treats some DeviceRGB pdfs as DeviceGRAY"
"""Greg Werner (JIRA)"" <jira@apache.org>","Wed, 26 Dec 2012 16:40:12 +0000 (UTC)","[jira] [Updated] (PDFBOX-1480) PDFBox treats some DeviceRGB pdfs as DeviceGRAY"
"""Greg Werner (JIRA)"" <jira@apache.org>","Wed, 26 Dec 2012 16:42:12 +0000 (UTC)","[jira] [Updated] (PDFBOX-1480) PDFBox treats some DeviceRGB pdfs as DeviceGRAY"
"""Greg Werner (JIRA)"" <jira@apache.org>","Wed, 26 Dec 2012 16:42:12 +0000 (UTC)","[jira] [Issue Comment Deleted] (PDFBOX-1480) PDFBox treats some DeviceRGB pdfs as DeviceGRAY"
"=?utf-8?Q?Andreas_Lehmk=C3=BChler_=28JIRA=29?= <jira@apache.org>","Wed, 26 Dec 2012 16:46:12 +0000 (UTC)","[jira] [Closed] (PDFBOX-76) Text Extraction Unsuccessful with PDFBox"
"=?utf-8?Q?Andreas_Lehmk=C3=BChler_=28JIRA=29?= <jira@apache.org>","Wed, 26 Dec 2012 17:00:15 +0000 (UTC)","[jira] [Commented] (PDFBOX-1480) PDFBox treats some DeviceRGB pdfs as DeviceGRAY"
"""Greg Werner (JIRA)"" <jira@apache.org>","Wed, 26 Dec 2012 17:38:13 +0000 (UTC)","[jira] [Commented] (PDFBOX-1480) PDFBox treats some DeviceRGB pdfs as DeviceGRAY"
"=?utf-8?Q?Andreas_Lehmk=C3=BChler_=28JIRA=29?= <jira@apache.org>","Wed, 26 Dec 2012 17:52:12 +0000 (UTC)","[jira] [Resolved] (PDFBOX-992) IndexOutOfBoundsException: while parsing few pdf's"
"""HOREHLED Markus (sage) (JIRA)"" <jira@apache.org>","Wed, 26 Dec 2012 17:54:13 +0000 (UTC)","[jira] [Commented] (PDFBOX-992) IndexOutOfBoundsException: while parsing few pdf's"
"=?utf-8?Q?Andreas_Lehmk=C3=BChler_=28JIRA=29?= <jira@apache.org>","Wed, 26 Dec 2012 18:02:13 +0000 (UTC)","[jira] [Commented] (PDFBOX-905) NullPointerException when writing pdf to image"
"=?utf-8?Q?Andreas_Lehmk=C3=BChler_=28JIRA=29?= <jira@apache.org>","Wed, 26 Dec 2012 18:06:12 +0000 (UTC)","[jira] [Resolved] (PDFBOX-1298) java.lang.IllegalArgumentException: fromIndex(0) > toIndex(-2)"
"=?utf-8?Q?Andreas_Lehmk=C3=BChler_=28JIRA=29?= <jira@apache.org>","Wed, 26 Dec 2012 18:24:12 +0000 (UTC)","[jira] [Commented] (PDFBOX-1480) PDFBox treats some DeviceRGB pdfs as DeviceGRAY"
"""Greg Werner (JIRA)"" <jira@apache.org>","Wed, 26 Dec 2012 18:48:12 +0000 (UTC)","[jira] [Commented] (PDFBOX-1480) PDFBox treats some DeviceRGB pdfs as DeviceGRAY"
"""Greg Werner (JIRA)"" <jira@apache.org>","Wed, 26 Dec 2012 18:50:12 +0000 (UTC)","[jira] [Comment Edited] (PDFBOX-1480) PDFBox treats some DeviceRGB pdfs as DeviceGRAY"
"=?utf-8?Q?Andreas_Lehmk=C3=BChler_=28JIRA=29?= <jira@apache.org>","Thu, 27 Dec 2012 14:28:13 +0000 (UTC)","[jira] [Created] (PDFBOX-1481) Ignore postscript code when parsing a type1 font"
"=?utf-8?Q?Andreas_Lehmk=C3=BChler_=28JIRA=29?= <jira@apache.org>","Thu, 27 Dec 2012 14:38:12 +0000 (UTC)","[jira] [Resolved] (PDFBOX-1481) Ignore postscript code when parsing a type1 font"
"=?utf-8?Q?Andreas_Lehmk=C3=BChler_=28JIRA=29?= <jira@apache.org>","Thu, 27 Dec 2012 14:38:13 +0000 (UTC)","[jira] [Resolved] (PDFBOX-1084) java.lang.NumberFormatException when getting PDF text of some PDF file if dup line does not contains font index"
"=?utf-8?Q?Andreas_Lehmk=C3=BChler_=28JIRA=29?= <jira@apache.org>","Thu, 27 Dec 2012 14:42:13 +0000 (UTC)","[jira] [Updated] (PDFBOX-1084) java.lang.NumberFormatException when getting PDF text of some PDF file if dup line does not contains font index"
"=?utf-8?Q?Andreas_Lehmk=C3=BChler_=28JIRA=29?= <jira@apache.org>","Thu, 27 Dec 2012 14:42:13 +0000 (UTC)","[jira] [Updated] (PDFBOX-1481) Ignore postscript code when parsing a type1 font"
"=?utf-8?Q?Andreas_Lehmk=C3=BChler_=28JIRA=29?= <jira@apache.org>","Thu, 27 Dec 2012 14:52:13 +0000 (UTC)","[jira] [Closed] (PDFBOX-1480) PDFBox treats some DeviceRGB pdfs as DeviceGRAY"
"""Olivier Ceulemans (JIRA)"" <jira@apache.org>","Thu, 27 Dec 2012 21:38:12 +0000 (UTC)","[jira] [Created] (PDFBOX-1482) Java color spaces returned by PDDeviceN doesn't take tint transformation into account and type mismatch"
"""Olivier Ceulemans (JIRA)"" <jira@apache.org>","Thu, 27 Dec 2012 21:42:12 +0000 (UTC)","[jira] [Updated] (PDFBOX-1482) Java color spaces returned by PDDeviceN do not take tint transformation into account and type mismatch"
"""Olivier Ceulemans (JIRA)"" <jira@apache.org>","Thu, 27 Dec 2012 21:42:12 +0000 (UTC)","[jira] [Updated] (PDFBOX-1482) Java color spaces returned by PDDeviceN doesn't take tint transformation into account and type mismatch"
"=?utf-8?Q?Andreas_Lehmk=C3=BChler_=28JIRA=29?= <jira@apache.org>","Thu, 27 Dec 2012 23:04:12 +0000 (UTC)","[jira] [Assigned] (PDFBOX-1464) unnecessary linear searches in ""CFFParser.Format0FDSelect.getFd"""
"""Manuel Aristaran (JIRA)"" <jira@apache.org>","Fri, 28 Dec 2012 00:18:12 +0000 (UTC)","[jira] [Created] (PDFBOX-1483) java.util.zip.ZipException: unknown compression method"
"""Manuel Aristaran (JIRA)"" <jira@apache.org>","Fri, 28 Dec 2012 00:22:13 +0000 (UTC)","[jira] [Updated] (PDFBOX-1483) java.util.zip.ZipException: unknown compression method"
"""Manuel Aristaran (JIRA)"" <jira@apache.org>","Fri, 28 Dec 2012 00:36:12 +0000 (UTC)","[jira] [Commented] (PDFBOX-1483) java.util.zip.ZipException: unknown compression method"
"=?utf-8?Q?Axel_D=C3=B6rfler_=28JIRA=29?= <jira@apache.org>","Fri, 28 Dec 2012 15:24:13 +0000 (UTC)","[jira] [Commented] (PDFBOX-1213) Adding style information to the PDF to HTML converter"
"""Thiago Barbosa Lima de Moura (JIRA)"" <jira@apache.org>","Fri, 28 Dec 2012 18:10:12 +0000 (UTC)","[jira] [Commented] (PDFBOX-1472) Problem when tried to Use ICCBased Elements"
"=?utf-8?Q?Andreas_Lehmk=C3=BChler_=28JIRA=29?= <jira@apache.org>","Fri, 28 Dec 2012 18:36:12 +0000 (UTC)","[jira] [Commented] (PDFBOX-1472) Problem when tried to Use ICCBased Elements"
"""Maho Rashad (JIRA)"" <jira@apache.org>","Sat, 29 Dec 2012 09:52:12 +0000 (UTC)","[jira] [Commented] (PDFBOX-1478) Problem with printing landscape document"
"""Maho Rashad (JIRA)"" <jira@apache.org>","Sat, 29 Dec 2012 09:54:12 +0000 (UTC)","[jira] [Comment Edited] (PDFBOX-1478) Problem with printing landscape document"
"""Claude Catherine (JIRA)"" <jira@apache.org>","Mon, 31 Dec 2012 10:26:12 +0000 (UTC)","[jira] [Created] (PDFBOX-1484) Exception when using Preflight validation on PDF/A 1b"
"""Claude Catherine (JIRA)"" <jira@apache.org>","Mon, 31 Dec 2012 10:30:12 +0000 (UTC)","[jira] [Updated] (PDFBOX-1484) Exception when using Preflight validation on PDF/A 1b"
"""Aaptha (JIRA)"" <jira@apache.org>","Mon, 31 Dec 2012 17:20:12 +0000 (UTC)","[jira] [Commented] (PDFBOX-1213) Adding style information to the PDF to HTML converter"
