"Developer","Date","Subject"
"Andreas Lehmkuehler <andreas@lehmi.de>","Sat, 01 Jun 2013 23:56:35 +0200","[RESULT][VOTE] Release Apache PDFBox 1.8.2"
"""philip huang (JIRA)"" <jira@apache.org>","Sun, 2 Jun 2013 10:35:19 +0000 (UTC)","[jira] [Created] (PDFBOX-1620) Missing contents on pdf reader view"
"""philip huang (JIRA)"" <jira@apache.org>","Sun, 2 Jun 2013 10:35:20 +0000 (UTC)","[jira] [Updated] (PDFBOX-1620) Missing contents on pdf reader view"
"""philip huang (JIRA)"" <jira@apache.org>","Sun, 2 Jun 2013 10:37:19 +0000 (UTC)","[jira] [Updated] (PDFBOX-1620) Missing contents on pdf reader view"
"""philip huang (JIRA)"" <jira@apache.org>","Sun, 2 Jun 2013 10:39:19 +0000 (UTC)","[jira] [Updated] (PDFBOX-1620) Missing contents on pdf reader view"
"""Eric Leleu (JIRA)"" <jira@apache.org>","Sun, 2 Jun 2013 13:21:20 +0000 (UTC)","[jira] [Assigned] (PDFBOX-1617) Null pointer exception"
"Andreas Lehmkuehler <lehmi@apache.org>","Sun, 02 Jun 2013 15:27:14 +0200","[ANNOUNCE] Apache PDFBox 1.8.2 released"
"Andreas Lehmkuehler <andreas@lehmi.de>","Sun, 02 Jun 2013 15:38:59 +0200","Closed all 1.8.2 issues"
"Andreas Lehmkuehler <andreas@lehmi.de>","Sun, 02 Jun 2013 16:53:53 +0200","Re: svn commit: r1488722 - in /pdfbox/branches/1.8/preflight/src/main/java/org/apache/pdfbox/preflight/font/container: FontContainer.java Type0Container.java Type1Container.java"
"Leleu Eric <eric.leleu.dev@gmail.com>","Sun, 2 Jun 2013 23:20:57 +0200","Re: svn commit: r1488722 - in /pdfbox/branches/1.8/preflight/src/main/java/org/apache/pdfbox/preflight/font/container: FontContainer.java Type0Container.java Type1Container.java"
"""Eric Leleu (JIRA)"" <jira@apache.org>","Sun, 2 Jun 2013 21:27:20 +0000 (UTC)","[jira] [Updated] (PDFBOX-1617) Null pointer exception"
"Andreas Lehmkuehler <andreas@lehmi.de>","Sun, 02 Jun 2013 23:28:23 +0200","Re: svn commit: r1488722 - in /pdfbox/branches/1.8/preflight/src/main/java/org/apache/pdfbox/preflight/font/container: FontContainer.java Type0Container.java Type1Container.java"
"Leleu Eric <eric.leleu.dev@gmail.com>","Sun, 2 Jun 2013 23:42:06 +0200","Re: svn commit: r1488722 - in /pdfbox/branches/1.8/preflight/src/main/java/org/apache/pdfbox/preflight/font/container: FontContainer.java Type0Container.java Type1Container.java"
"Andreas Lehmkuehler <andreas@lehmi.de>","Mon, 03 Jun 2013 08:25:50 +0200","Re: svn commit: r1488722 - in /pdfbox/branches/1.8/preflight/src/main/java/org/apache/pdfbox/preflight/font/container: FontContainer.java Type0Container.java Type1Container.java"
"=?utf-8?Q?Michael_Ku=C3=9F_=28JIRA=29?= <jira@apache.org>","Mon, 3 Jun 2013 09:20:22 +0000 (UTC)","[jira] [Commented] (PDFBOX-1618) Split PDF file to single page files, some files are inflated in size"
"=?utf-8?Q?Michael_Ku=C3=9F_=28JIRA=29?= <jira@apache.org>","Mon, 3 Jun 2013 09:22:20 +0000 (UTC)","[jira] [Comment Edited] (PDFBOX-1618) Split PDF file to single page files, some files are inflated in size"
"=?utf-8?Q?Michael_Ku=C3=9F_=28JIRA=29?= <jira@apache.org>","Mon, 3 Jun 2013 09:24:20 +0000 (UTC)","[jira] [Updated] (PDFBOX-1618) Split PDF file to single page files, some files are inflated in size"
"=?utf-8?Q?Michael_Ku=C3=9F_=28JIRA=29?= <jira@apache.org>","Mon, 3 Jun 2013 11:35:20 +0000 (UTC)","[jira] [Commented] (PDFBOX-1618) Split PDF file to single page files, some files are inflated in size"
"""Gilad Denneboom (JIRA)"" <jira@apache.org>","Mon, 3 Jun 2013 13:19:21 +0000 (UTC)","[jira] [Created] (PDFBOX-1621) Add setModifiedDate(Calendar c) to PDAnnotation"
"""deepak (JIRA)"" <jira@apache.org>","Mon, 3 Jun 2013 16:29:20 +0000 (UTC)","[jira] [Reopened] (PDFBOX-1502) Not Extracting Text from PDF Document"
"""deepak (JIRA)"" <jira@apache.org>","Mon, 3 Jun 2013 16:29:20 +0000 (UTC)","[jira] [Updated] (PDFBOX-1502) Not Extracting Text from PDF Document"
"""deepak (JIRA)"" <jira@apache.org>","Mon, 3 Jun 2013 16:31:20 +0000 (UTC)","[jira] [Updated] (PDFBOX-1502) Not Extracting Text from PDF Document"
"""deepak (JIRA)"" <jira@apache.org>","Mon, 3 Jun 2013 16:35:25 +0000 (UTC)","[jira] [Commented] (PDFBOX-1502) Not Extracting Text from PDF Document"
"""Maruan Sahyoun (JIRA)"" <jira@apache.org>","Mon, 3 Jun 2013 16:43:20 +0000 (UTC)","[jira] [Commented] (PDFBOX-1502) Not Extracting Text from PDF Document"
"""deepak (JIRA)"" <jira@apache.org>","Tue, 4 Jun 2013 10:05:20 +0000 (UTC)","[jira] [Commented] (PDFBOX-1502) Not Extracting Text from PDF Document"
"""William Fausser (JIRA)"" <jira@apache.org>","Tue, 4 Jun 2013 13:07:20 +0000 (UTC)","[jira] [Commented] (PDFBOX-1617) Null pointer exception"
"""Florent Guillaume (JIRA)"" <jira@apache.org>","Tue, 4 Jun 2013 17:13:20 +0000 (UTC)","[jira] [Created] (PDFBOX-1622) TextNormalize init not thread-safe, may lead to infinite loop"
"""Florent Guillaume (JIRA)"" <jira@apache.org>","Tue, 4 Jun 2013 17:13:21 +0000 (UTC)","[jira] [Updated] (PDFBOX-1622) TextNormalize init not thread-safe, may lead to infinite loop"
"Fred Hansen <zweibieren@yahoo.com>","Tue, 4 Jun 2013 17:01:06 -0700 (PDT)","PDType3Fonts and  PDPage.convertToImage"
"""james king (JIRA)"" <jira@apache.org>","Wed, 5 Jun 2013 09:05:22 +0000 (UTC)","[jira] [Created] (PDFBOX-1623) Can't detect hidden text on pdf page"
"""Kiran (JIRA)"" <jira@apache.org>","Wed, 5 Jun 2013 10:47:20 +0000 (UTC)","[jira] [Created] (PDFBOX-1624) Alphacomposite with Rule 6 not supported"
"""Tilman Hausherr (JIRA)"" <jira@apache.org>","Wed, 5 Jun 2013 11:00:20 +0000 (UTC)","[jira] [Commented] (PDFBOX-1296) Warnung: Changing font on < > from <AMAKEA+TimesNewRoman> to the default font"
"""Jens Kapitza (JIRA)"" <jira@apache.org>","Wed, 5 Jun 2013 11:37:22 +0000 (UTC)","[jira] [Created] (PDFBOX-1625) java.lang.IndexOutOfBoundsException"
"""Jens Kapitza (JIRA)"" <jira@apache.org>","Wed, 5 Jun 2013 11:41:19 +0000 (UTC)","[jira] [Updated] (PDFBOX-1625) java.lang.IndexOutOfBoundsException"
"""Jens Kapitza (JIRA)"" <jira@apache.org>","Wed, 5 Jun 2013 11:47:19 +0000 (UTC)","[jira] [Commented] (PDFBOX-1625) java.lang.IndexOutOfBoundsException"
"""Jens Kapitza (JIRA)"" <jira@apache.org>","Wed, 5 Jun 2013 11:47:21 +0000 (UTC)","[jira] [Updated] (PDFBOX-1625) java.lang.IndexOutOfBoundsException at writing PDF file"
"""Jens Kapitza (JIRA)"" <jira@apache.org>","Wed, 5 Jun 2013 11:53:19 +0000 (UTC)","[jira] [Created] (PDFBOX-1626) getNumberOfPages is zero"
"""Jens Kapitza (JIRA)"" <jira@apache.org>","Wed, 5 Jun 2013 11:59:19 +0000 (UTC)","[jira] [Commented] (PDFBOX-1625) java.lang.IndexOutOfBoundsException at writing PDF file"
"""Jens Kapitza (JIRA)"" <jira@apache.org>","Wed, 5 Jun 2013 11:59:20 +0000 (UTC)","[jira] [Updated] (PDFBOX-1625) java.lang.IndexOutOfBoundsException at writing PDF file"
"""Thomas Chojecki (JIRA)"" <jira@apache.org>","Wed, 5 Jun 2013 13:18:21 +0000 (UTC)","[jira] [Closed] (PDFBOX-1626) getNumberOfPages is zero"
"""William Fausser (JIRA)"" <jira@apache.org>","Wed, 5 Jun 2013 14:08:26 +0000 (UTC)","[jira] [Created] (PDFBOX-1627) Exception in thread ""main"" java.lang.NullPointerException"
"""William Fausser (JIRA)"" <jira@apache.org>","Wed, 5 Jun 2013 14:12:20 +0000 (UTC)","[jira] [Updated] (PDFBOX-1627) Exception in thread ""main"" java.lang.NullPointerException"
"""William Fausser (JIRA)"" <jira@apache.org>","Wed, 5 Jun 2013 14:12:20 +0000 (UTC)","[jira] [Updated] (PDFBOX-1627) Exception in thread ""main"" java.lang.NullPointerException"
"""William Fausser (JIRA)"" <jira@apache.org>","Wed, 5 Jun 2013 14:14:20 +0000 (UTC)","[jira] [Updated] (PDFBOX-1627) Exception in thread ""main"" java.lang.NullPointerException"
"""Fred Hansen (JIRA)"" <jira@apache.org>","Wed, 5 Jun 2013 17:12:20 +0000 (UTC)","[jira] [Created] (PDFBOX-1628) Type 3 Fonts are not processed by PDPage.createImage"
"""Fred Hansen (JIRA)"" <jira@apache.org>","Wed, 5 Jun 2013 17:20:22 +0000 (UTC)","[jira] [Updated] (PDFBOX-1628) Type 3 Fonts are not processed by PDPage.createImage"
"""Eric Leleu (JIRA)"" <jira@apache.org>","Wed, 5 Jun 2013 20:11:20 +0000 (UTC)","[jira] [Assigned] (PDFBOX-1627) Exception in thread ""main"" java.lang.NullPointerException"
"""Eric Leleu (JIRA)"" <jira@apache.org>","Wed, 5 Jun 2013 20:15:20 +0000 (UTC)","[jira] [Updated] (PDFBOX-1627) Exception in thread ""main"" java.lang.NullPointerException"
"""Eric Leleu (JIRA)"" <jira@apache.org>","Wed, 5 Jun 2013 20:17:20 +0000 (UTC)","[jira] [Resolved] (PDFBOX-1627) Exception in thread ""main"" java.lang.NullPointerException"
"""Thomas Chojecki (JIRA)"" <jira@apache.org>","Thu, 6 Jun 2013 06:42:20 +0000 (UTC)","[jira] [Commented] (PDFBOX-1614) Digitally sign PDFs without file system access"
"""William Fausser (JIRA)"" <jira@apache.org>","Thu, 6 Jun 2013 14:15:19 +0000 (UTC)","[jira] [Created] (PDFBOX-1629) Null PointerException"
"""William Fausser (JIRA)"" <jira@apache.org>","Thu, 6 Jun 2013 14:15:20 +0000 (UTC)","[jira] [Updated] (PDFBOX-1629) Null PointerException"
"""William Fausser (JIRA)"" <jira@apache.org>","Thu, 6 Jun 2013 14:17:20 +0000 (UTC)","[jira] [Commented] (PDFBOX-1629) Null PointerException"
"""Eric Leleu (JIRA)"" <jira@apache.org>","Thu, 6 Jun 2013 19:41:20 +0000 (UTC)","[jira] [Assigned] (PDFBOX-1629) Null PointerException"
"""Eric Leleu (JIRA)"" <jira@apache.org>","Thu, 6 Jun 2013 19:54:20 +0000 (UTC)","[jira] [Updated] (PDFBOX-1629) Null PointerException"
"""Eric Leleu (JIRA)"" <jira@apache.org>","Thu, 6 Jun 2013 19:54:21 +0000 (UTC)","[jira] [Updated] (PDFBOX-1629) Null PointerException"
"""Eric Leleu (JIRA)"" <jira@apache.org>","Thu, 6 Jun 2013 19:54:21 +0000 (UTC)","[jira] [Resolved] (PDFBOX-1629) Null PointerException"
"""Fred Hansen (JIRA)"" <jira@apache.org>","Thu, 6 Jun 2013 21:54:20 +0000 (UTC)","[jira] [Updated] (PDFBOX-1628) Type 3 Fonts are not processed by PDPage.createImage"
"Fred Hansen <zweibieren@yahoo.com>","Thu, 6 Jun 2013 14:59:53 -0700 (PDT)","Type3Fonts and PDPage.createImage"
"""William Fausser (JIRA)"" <jira@apache.org>","Fri, 7 Jun 2013 12:41:21 +0000 (UTC)","[jira] [Created] (PDFBOX-1630) An interesting Exception error"
"""William Fausser (JIRA)"" <jira@apache.org>","Fri, 7 Jun 2013 12:43:21 +0000 (UTC)","[jira] [Updated] (PDFBOX-1630) An interesting Exception error"
"""William Fausser (JIRA)"" <jira@apache.org>","Fri, 7 Jun 2013 12:55:20 +0000 (UTC)","[jira] [Created] (PDFBOX-1631) Group Exception"
"""William Fausser (JIRA)"" <jira@apache.org>","Fri, 7 Jun 2013 12:57:20 +0000 (UTC)","[jira] [Updated] (PDFBOX-1631) Group Exception"
"""William Fausser (JIRA)"" <jira@apache.org>","Fri, 7 Jun 2013 12:59:20 +0000 (UTC)","[jira] [Commented] (PDFBOX-1631) Group Exception"
"""William Fausser (JIRA)"" <jira@apache.org>","Fri, 7 Jun 2013 13:56:20 +0000 (UTC)","[jira] [Created] (PDFBOX-1632) Exception with validation"
"""William Fausser (JIRA)"" <jira@apache.org>","Fri, 7 Jun 2013 13:56:20 +0000 (UTC)","[jira] [Updated] (PDFBOX-1632) Exception with validation"
"""William Fausser (JIRA)"" <jira@apache.org>","Fri, 7 Jun 2013 13:56:22 +0000 (UTC)","[jira] [Commented] (PDFBOX-1632) Exception with validation"
"""Fred Hansen (JIRA)"" <jira@apache.org>","Sun, 9 Jun 2013 05:47:26 +0000 (UTC)","[jira] [Created] (PDFBOX-1633) DateConverter needs to work"
"""Fred Hansen (JIRA)"" <jira@apache.org>","Sun, 9 Jun 2013 05:49:19 +0000 (UTC)","[jira] [Updated] (PDFBOX-1633) DateConverter needs to work"
"=?utf-8?Q?Andreas_Lehmk=C3=BChler_=28JIRA=29?= <jira@apache.org>","Sun, 9 Jun 2013 10:02:21 +0000 (UTC)","[jira] [Assigned] (PDFBOX-1628) Type 3 Fonts are not processed by PDPage.createImage"
"""Fred Hansen (JIRA)"" <jira@apache.org>","Mon, 10 Jun 2013 03:50:20 +0000 (UTC)","[jira] [Updated] (PDFBOX-1633) DateConverter needs to work"
"""Fred Hansen (JIRA)"" <jira@apache.org>","Mon, 10 Jun 2013 03:53:19 +0000 (UTC)","[jira] [Commented] (PDFBOX-1633) DateConverter needs to work"
"""Andrew Dale (JIRA)"" <jira@apache.org>","Mon, 10 Jun 2013 11:16:20 +0000 (UTC)","[jira] [Commented] (PDFBOX-1586) IndexOutOfBoundsException when saving a document (at random)"
"=?utf-8?Q?Andreas_Lehmk=C3=BChler_=28JIRA=29?= <jira@apache.org>","Mon, 10 Jun 2013 13:58:20 +0000 (UTC)","[jira] [Commented] (PDFBOX-1624) Alphacomposite with Rule 6 not supported"
"""simon steiner (JIRA)"" <jira@apache.org>","Mon, 10 Jun 2013 15:37:22 +0000 (UTC)","[jira] [Created] (PDFBOX-1634) [PATCH] Adobe reader crash due to wrong length"
"""simon steiner (JIRA)"" <jira@apache.org>","Mon, 10 Jun 2013 15:37:22 +0000 (UTC)","[jira] [Updated] (PDFBOX-1634) [PATCH] Adobe reader crash due to wrong length"
"""simon steiner (JIRA)"" <jira@apache.org>","Mon, 10 Jun 2013 15:41:19 +0000 (UTC)","[jira] [Updated] (PDFBOX-1634) [PATCH] Adobe reader crash due to wrong length"
"""simon steiner (JIRA)"" <jira@apache.org>","Mon, 10 Jun 2013 15:45:20 +0000 (UTC)","[jira] [Updated] (PDFBOX-1634) [PATCH] Adobe reader crash due to wrong length"
"""Andrew Dale (JIRA)"" <jira@apache.org>","Tue, 11 Jun 2013 07:11:19 +0000 (UTC)","[jira] [Created] (PDFBOX-1635) Exception on saving document"
"""Kiran (JIRA)"" <jira@apache.org>","Tue, 11 Jun 2013 07:40:20 +0000 (UTC)","[jira] [Updated] (PDFBOX-1624) Alphacomposite with Rule 6 not supported"
"""Kiran (JIRA)"" <jira@apache.org>","Tue, 11 Jun 2013 07:40:21 +0000 (UTC)","[jira] [Updated] (PDFBOX-1624) Alphacomposite with Rule 6 not supported"
"""Kiran (JIRA)"" <jira@apache.org>","Tue, 11 Jun 2013 07:42:22 +0000 (UTC)","[jira] [Updated] (PDFBOX-1624) Alphacomposite with Rule 6 not supported"
"""Kiran (JIRA)"" <jira@apache.org>","Tue, 11 Jun 2013 07:42:22 +0000 (UTC)","[jira] [Updated] (PDFBOX-1624) Alphacomposite with Rule 6 not supported"
"""Kiran (JIRA)"" <jira@apache.org>","Tue, 11 Jun 2013 08:24:20 +0000 (UTC)","[jira] [Updated] (PDFBOX-1624) Alphacomposite with Rule 6 not supported"
"""Kiran (JIRA)"" <jira@apache.org>","Tue, 11 Jun 2013 08:26:21 +0000 (UTC)","[jira] [Updated] (PDFBOX-1624) Alphacomposite with Rule 6 not supported"
"""Kiran (JIRA)"" <jira@apache.org>","Tue, 11 Jun 2013 08:28:20 +0000 (UTC)","[jira] [Commented] (PDFBOX-1624) Alphacomposite with Rule 6 not supported"
"=?utf-8?Q?Andreas_Lehmk=C3=BChler_=28JIRA=29?= <jira@apache.org>","Tue, 11 Jun 2013 10:54:20 +0000 (UTC)","[jira] [Updated] (PDFBOX-1623) Can't detect hidden text on pdf page"
"""simon steiner (JIRA)"" <jira@apache.org>","Tue, 11 Jun 2013 11:06:24 +0000 (UTC)","[jira] [Commented] (PDFBOX-1601) java.lang.IllegalArgumentException: Width (4032) and height (-2880) cannot be <= 0"
"""simon steiner (JIRA)"" <jira@apache.org>","Tue, 11 Jun 2013 11:08:20 +0000 (UTC)","[jira] [Created] (PDFBOX-1636) [PATCH] PDF form is offset"
"""simon steiner (JIRA)"" <jira@apache.org>","Tue, 11 Jun 2013 11:08:20 +0000 (UTC)","[jira] [Closed] (PDFBOX-1636) [PATCH] PDF form is offset"
"""simon steiner (JIRA)"" <jira@apache.org>","Tue, 11 Jun 2013 11:08:20 +0000 (UTC)","[jira] [Commented] (PDFBOX-1636) [PATCH] PDF form is offset"
"=?utf-8?Q?Andreas_Lehmk=C3=BChler_=28JIRA=29?= <jira@apache.org>","Tue, 11 Jun 2013 11:14:20 +0000 (UTC)","[jira] [Commented] (PDFBOX-1601) java.lang.IllegalArgumentException: Width (4032) and height (-2880) cannot be <= 0"
"""simon steiner (JIRA)"" <jira@apache.org>","Tue, 11 Jun 2013 13:52:21 +0000 (UTC)","[jira] [Commented] (PDFBOX-1601) java.lang.IllegalArgumentException: Width (4032) and height (-2880) cannot be <= 0"
"=?utf-8?Q?Andreas_Lehmk=C3=BChler_=28JIRA=29?= <jira@apache.org>","Tue, 11 Jun 2013 17:10:24 +0000 (UTC)","[jira] [Commented] (PDFBOX-1601) java.lang.IllegalArgumentException: Width (4032) and height (-2880) cannot be <= 0"
"""Eric Leleu (JIRA)"" <jira@apache.org>","Tue, 11 Jun 2013 19:47:20 +0000 (UTC)","[jira] [Updated] (PDFBOX-1617) Null pointer exception"
"""Eric Leleu (JIRA)"" <jira@apache.org>","Tue, 11 Jun 2013 19:47:20 +0000 (UTC)","[jira] [Resolved] (PDFBOX-1617) Null pointer exception"
"""Eric Leleu (JIRA)"" <jira@apache.org>","Tue, 11 Jun 2013 20:51:20 +0000 (UTC)","[jira] [Assigned] (PDFBOX-1630) An interesting Exception error"
"""Eric Leleu (JIRA)"" <jira@apache.org>","Tue, 11 Jun 2013 21:00:21 +0000 (UTC)","[jira] [Commented] (PDFBOX-1630) An interesting Exception error"
"""Dominic Tubach (JIRA)"" <jira@apache.org>","Wed, 12 Jun 2013 09:32:21 +0000 (UTC)","[jira] [Created] (PDFBOX-1637) Faulty documentation of PDStream.getInputStreamAsString()"
"""Dominic Tubach (JIRA)"" <jira@apache.org>","Wed, 12 Jun 2013 10:10:19 +0000 (UTC)","[jira] [Created] (PDFBOX-1638) PDCcitt doesn't use color space"
"=?utf-8?Q?Andreas_Lehmk=C3=BChler_=28JIRA=29?= <jira@apache.org>","Wed, 12 Jun 2013 14:19:21 +0000 (UTC)","[jira] [Commented] (PDFBOX-1638) PDCcitt doesn't use color space"
"""Dominic Tubach (JIRA)"" <jira@apache.org>","Wed, 12 Jun 2013 14:35:22 +0000 (UTC)","[jira] [Updated] (PDFBOX-1638) PDCcitt doesn't use color space"
"=?utf-8?Q?Ole-Martin_M=C3=B8rk_=28JIRA=29?= <jira@apache.org>","Wed, 12 Jun 2013 15:00:25 +0000 (UTC)","[jira] [Updated] (PDFBOX-1616) NumberFormatException i CMapParser.parseNextToken()"
"""Eric Leleu (JIRA)"" <jira@apache.org>","Wed, 12 Jun 2013 22:02:21 +0000 (UTC)","[jira] [Created] (PDFBOX-1639) Infinite loop with PDFParser used by tika."
"Black Shmith <vkmss1986@gmail.com>","Thu, 13 Jun 2013 10:17:12 +0530","PDFBox jar"
"""Maruan Sahyoun (JIRA)"" <jira@apache.org>","Thu, 13 Jun 2013 06:26:20 +0000 (UTC)","[jira] [Commented] (PDFBOX-1639) Infinite loop with PDFParser used by tika."
"Maruan Sahyoun <sahyoun@fileaffairs.de>","Thu, 13 Jun 2013 08:29:52 +0200","Re: PDFBox jar"
"=?utf-8?Q?Andreas_Lehmk=C3=BChler_=28JIRA=29?= <jira@apache.org>","Thu, 13 Jun 2013 06:54:20 +0000 (UTC)","[jira] [Assigned] (PDFBOX-1638) PDCcitt doesn't use color space"
"""Eric Leleu (JIRA)"" <jira@apache.org>","Thu, 13 Jun 2013 07:20:21 +0000 (UTC)","[jira] [Commented] (PDFBOX-1639) Infinite loop with PDFParser used by tika."
"""Timo Boehme (JIRA)"" <jira@apache.org>","Thu, 13 Jun 2013 07:32:22 +0000 (UTC)","[jira] [Commented] (PDFBOX-1639) Infinite loop with PDFParser used by tika."
"""Maruan Sahyoun (JIRA)"" <jira@apache.org>","Thu, 13 Jun 2013 07:44:20 +0000 (UTC)","[jira] [Commented] (PDFBOX-1639) Infinite loop with PDFParser used by tika."
"scotty1024 <git@git.apache.org>","Thu, 13 Jun 2013 15:58:22 +0000 (UTC)","pdfbox pull request: getCharset don't reassign passed argument"
"scotty1024 <git@git.apache.org>","Thu, 13 Jun 2013 16:52:23 +0000 (UTC)","pdfbox pull request: Update PDFunction.java"
"scotty1024 <git@git.apache.org>","Thu, 13 Jun 2013 17:36:38 +0000 (UTC)","pdfbox pull request: Update DocumentEncryption.java"
"scotty1024 <git@git.apache.org>","Thu, 13 Jun 2013 19:22:42 +0000 (UTC)","pdfbox pull request: Update InstructionSequenceBuilder.java"
"""Eric Leleu (JIRA)"" <jira@apache.org>","Thu, 13 Jun 2013 21:29:20 +0000 (UTC)","[jira] [Updated] (PDFBOX-1639) Infinite loop with PDFParser used by tika."
"""Timo Boehme (JIRA)"" <jira@apache.org>","Fri, 14 Jun 2013 08:04:20 +0000 (UTC)","[jira] [Commented] (PDFBOX-1639) Infinite loop with PDFParser used by tika."
"=?utf-8?Q?Andreas_Lehmk=C3=BChler_=28JIRA=29?= <jira@apache.org>","Fri, 14 Jun 2013 16:32:20 +0000 (UTC)","[jira] [Updated] (PDFBOX-31) bug with the Type3 font"
"=?utf-8?Q?Andreas_Lehmk=C3=BChler_=28JIRA=29?= <jira@apache.org>","Fri, 14 Jun 2013 16:34:20 +0000 (UTC)","[jira] [Updated] (PDFBOX-1628) Type 3 Fonts are not processed by PDPage.createImage"
"""Guillaume Bailleul (JIRA)"" <jira@apache.org>","Fri, 14 Jun 2013 17:56:21 +0000 (UTC)","[jira] [Updated] (PDFBOX-1540) Add XML output option to preflight"
"=?utf-8?Q?Andreas_Lehmk=C3=BChler_=28JIRA=29?= <jira@apache.org>","Fri, 14 Jun 2013 18:24:20 +0000 (UTC)","[jira] [Assigned] (PDFBOX-1325) Converting page to png creates an empty image"
"""amit (JIRA)"" <jira@apache.org>","Sat, 15 Jun 2013 07:51:19 +0000 (UTC)","[jira] [Created] (PDFBOX-1640) space in pdf"
"=?utf-8?Q?Andreas_Lehmk=C3=BChler_=28JIRA=29?= <jira@apache.org>","Sat, 15 Jun 2013 09:11:20 +0000 (UTC)","[jira] [Updated] (PDFBOX-1640) space in pdf"
"=?utf-8?Q?Andreas_Lehmk=C3=BChler_=28JIRA=29?= <jira@apache.org>","Sat, 15 Jun 2013 09:11:20 +0000 (UTC)","[jira] [Commented] (PDFBOX-1640) space in pdf"
"=?utf-8?Q?Andreas_Lehmk=C3=BChler_=28JIRA=29?= <jira@apache.org>","Sat, 15 Jun 2013 11:21:20 +0000 (UTC)","[jira] [Commented] (PDFBOX-1502) Not Extracting Text from PDF Document"
"=?utf-8?Q?Andreas_Lehmk=C3=BChler_=28JIRA=29?= <jira@apache.org>","Sat, 15 Jun 2013 11:23:20 +0000 (UTC)","[jira] [Closed] (PDFBOX-1502) Not Extracting Text from PDF Document"
"=?utf-8?Q?Andreas_Lehmk=C3=BChler_=28JIRA=29?= <jira@apache.org>","Sat, 15 Jun 2013 12:33:20 +0000 (UTC)","[jira] [Commented] (PDFBOX-1616) NumberFormatException i CMapParser.parseNextToken()"
"=?utf-8?Q?Andreas_Lehmk=C3=BChler_=28JIRA=29?= <jira@apache.org>","Sat, 15 Jun 2013 12:41:20 +0000 (UTC)","[jira] [Closed] (PDFBOX-1624) Alphacomposite with Rule 6 not supported"
"=?utf-8?Q?Andreas_Lehmk=C3=BChler_=28JIRA=29?= <jira@apache.org>","Sat, 15 Jun 2013 12:49:20 +0000 (UTC)","[jira] [Commented] (PDFBOX-1622) TextNormalize init not thread-safe, may lead to infinite loop"
"=?utf-8?Q?Andreas_Lehmk=C3=BChler_=28JIRA=29?= <jira@apache.org>","Sat, 15 Jun 2013 12:49:21 +0000 (UTC)","[jira] [Assigned] (PDFBOX-1622) TextNormalize init not thread-safe, may lead to infinite loop"
"=?utf-8?Q?Andreas_Lehmk=C3=BChler_=28JIRA=29?= <jira@apache.org>","Sat, 15 Jun 2013 12:51:20 +0000 (UTC)","[jira] [Commented] (PDFBOX-1623) Can't detect hidden text on pdf page"
"=?utf-8?Q?Andreas_Lehmk=C3=BChler_=28JIRA=29?= <jira@apache.org>","Sat, 15 Jun 2013 12:57:20 +0000 (UTC)","[jira] [Closed] (PDFBOX-1157) A failure in building pdfbox from the source"
"""james king (JIRA)"" <jira@apache.org>","Sat, 15 Jun 2013 13:03:20 +0000 (UTC)","[jira] [Updated] (PDFBOX-1623) Can't detect hidden text on pdf page"
"""james king (JIRA)"" <jira@apache.org>","Sat, 15 Jun 2013 13:07:20 +0000 (UTC)","[jira] [Commented] (PDFBOX-1623) Can't detect hidden text on pdf page"
"""Thomas Fossum (JIRA)"" <jira@apache.org>","Sat, 15 Jun 2013 13:15:20 +0000 (UTC)","[jira] [Commented] (PDFBOX-1616) NumberFormatException i CMapParser.parseNextToken()"
"""Thomas Fossum (JIRA)"" <jira@apache.org>","Sat, 15 Jun 2013 13:41:19 +0000 (UTC)","[jira] [Issue Comment Deleted] (PDFBOX-1616) NumberFormatException i CMapParser.parseNextToken()"
"""amit (JIRA)"" <jira@apache.org>","Sat, 15 Jun 2013 14:17:20 +0000 (UTC)","[jira] [Updated] (PDFBOX-1640) space in pdf"
"=?utf-8?Q?Andreas_Lehmk=C3=BChler_=28JIRA=29?= <jira@apache.org>","Sat, 15 Jun 2013 16:15:21 +0000 (UTC)","[jira] [Updated] (PDFBOX-1640) space in pdf"
"=?utf-8?Q?Andreas_Lehmk=C3=BChler_=28JIRA=29?= <jira@apache.org>","Sat, 15 Jun 2013 16:17:20 +0000 (UTC)","[jira] [Commented] (PDFBOX-1640) space in pdf"
"=?utf-8?Q?Andreas_Lehmk=C3=BChler_=28JIRA=29?= <jira@apache.org>","Sat, 15 Jun 2013 16:21:20 +0000 (UTC)","[jira] [Commented] (PDFBOX-1623) Can't detect hidden text on pdf page"
"""amit (JIRA)"" <jira@apache.org>","Sat, 15 Jun 2013 16:33:20 +0000 (UTC)","[jira] [Commented] (PDFBOX-1640) space in pdf"
"""amit (JIRA)"" <jira@apache.org>","Sun, 16 Jun 2013 02:17:20 +0000 (UTC)","[jira] [Commented] (PDFBOX-1640) space in pdf"
"=?utf-8?Q?Andreas_Lehmk=C3=BChler_=28JIRA=29?= <jira@apache.org>","Sun, 16 Jun 2013 10:59:20 +0000 (UTC)","[jira] [Updated] (PDFBOX-1640) space in pdf"
"=?utf-8?Q?Andreas_Lehmk=C3=BChler_=28JIRA=29?= <jira@apache.org>","Sun, 16 Jun 2013 11:03:20 +0000 (UTC)","[jira] [Commented] (PDFBOX-1640) space in pdf"
"=?utf-8?Q?Andreas_Lehmk=C3=BChler_=28JIRA=29?= <jira@apache.org>","Sun, 16 Jun 2013 11:05:20 +0000 (UTC)","[jira] [Closed] (PDFBOX-1640) space in pdf"
"""Eric Leleu (JIRA)"" <jira@apache.org>","Sun, 16 Jun 2013 12:29:20 +0000 (UTC)","[jira] [Updated] (PDFBOX-1639) Infinite loop with PDFParser used by tika."
"""Eric Leleu (JIRA)"" <jira@apache.org>","Sun, 16 Jun 2013 12:29:21 +0000 (UTC)","[jira] [Resolved] (PDFBOX-1639) Infinite loop with PDFParser used by tika."
"""Eric Leleu (JIRA)"" <jira@apache.org>","Sun, 16 Jun 2013 12:29:22 +0000 (UTC)","[jira] [Updated] (PDFBOX-1639) Infinite loop with PDFParser used by tika."
"Apache Jenkins Server  <jenkins@builds.apache.org>","Sun, 16 Jun 2013 13:20:20 +0000 (UTC)","=?UTF-8?Q?Build_failed_in_Jenkins:_PDFBox-trunk_=C2=BB_Apache_PDFBox_#666?="
"Apache Jenkins Server  <jenkins@builds.apache.org>","Sun, 16 Jun 2013 13:20:38 +0000 (UTC)","Build failed in Jenkins: PDFBox-trunk #666"
"""amit (JIRA)"" <jira@apache.org>","Sun, 16 Jun 2013 14:25:20 +0000 (UTC)","[jira] [Commented] (PDFBOX-1640) space in pdf"
"""Niko Ojanen (JIRA)"" <jira@apache.org>","Mon, 17 Jun 2013 05:53:20 +0000 (UTC)","[jira] [Created] (PDFBOX-1641) Parsing of PDFs fails when no '<<' between directory objects"
"=?utf-8?Q?Andreas_Lehmk=C3=BChler_=28JIRA=29?= <jira@apache.org>","Mon, 17 Jun 2013 06:15:20 +0000 (UTC)","[jira] [Commented] (PDFBOX-1641) Parsing of PDFs fails when no '<<' between directory objects"
"=?utf-8?Q?Andreas_Lehmk=C3=BChler_=28JIRA=29?= <jira@apache.org>","Mon, 17 Jun 2013 06:17:22 +0000 (UTC)","[jira] [Updated] (PDFBOX-1578) The English Words are shown as Symbols and wrongly displayed"
"=?utf-8?Q?Andreas_Lehmk=C3=BChler_=28JIRA=29?= <jira@apache.org>","Mon, 17 Jun 2013 06:21:20 +0000 (UTC)","[jira] [Closed] (PDFBOX-1578) The English Words are shown as Symbols and wrongly displayed"
"""Niko Ojanen (JIRA)"" <jira@apache.org>","Mon, 17 Jun 2013 07:56:21 +0000 (UTC)","[jira] [Updated] (PDFBOX-1641) Parsing of PDFs fails when no '<<' between directory objects"
"""Niko Ojanen (JIRA)"" <jira@apache.org>","Mon, 17 Jun 2013 07:56:21 +0000 (UTC)","[jira] [Commented] (PDFBOX-1641) Parsing of PDFs fails when no '<<' between directory objects"
"=?utf-8?Q?Andreas_Lehmk=C3=BChler_=28JIRA=29?= <jira@apache.org>","Mon, 17 Jun 2013 09:01:26 +0000 (UTC)","[jira] [Closed] (PDFBOX-588) Problem extracting text in newline characters"
"Apache Jenkins Server  <jenkins@builds.apache.org>","Mon, 17 Jun 2013 10:19:16 +0000 (UTC)","=?UTF-8?Q?Build_failed_in_Jenkins:_PDFBox-trunk_=C2=BB_Apache_PDFBox_#667?="
"Apache Jenkins Server  <jenkins@builds.apache.org>","Mon, 17 Jun 2013 10:19:31 +0000 (UTC)","Build failed in Jenkins: PDFBox-trunk #667"
"""Petras (JIRA)"" <jira@apache.org>","Mon, 17 Jun 2013 12:00:22 +0000 (UTC)","[jira] [Created] (PDFBOX-1642) NPE when parsing XMP schema definition with ""closed Choice"" value type"
"=?utf-8?Q?Ole-Martin_M=C3=B8rk_=28JIRA=29?= <jira@apache.org>","Mon, 17 Jun 2013 12:00:23 +0000 (UTC)","[jira] [Commented] (PDFBOX-1616) NumberFormatException i CMapParser.parseNextToken()"
"=?utf-8?Q?Andreas_Lehmk=C3=BChler_=28JIRA=29?= <jira@apache.org>","Mon, 17 Jun 2013 12:05:24 +0000 (UTC)","[jira] [Commented] (PDFBOX-1616) NumberFormatException i CMapParser.parseNextToken()"
"=?utf-8?Q?Ole-Martin_M=C3=B8rk_=28JIRA=29?= <jira@apache.org>","Mon, 17 Jun 2013 13:41:20 +0000 (UTC)","[jira] [Commented] (PDFBOX-1616) NumberFormatException i CMapParser.parseNextToken()"
"=?utf-8?Q?Andreas_Lehmk=C3=BChler_=28JIRA=29?= <jira@apache.org>","Mon, 17 Jun 2013 14:39:20 +0000 (UTC)","[jira] [Commented] (PDFBOX-1616) NumberFormatException i CMapParser.parseNextToken()"
"""Petras (JIRA)"" <jira@apache.org>","Mon, 17 Jun 2013 15:30:20 +0000 (UTC)","[jira] [Created] (PDFBOX-1643) Check for missing validation processes does not work properly in Preflight"
"""Petras (JIRA)"" <jira@apache.org>","Mon, 17 Jun 2013 15:38:19 +0000 (UTC)","[jira] [Updated] (PDFBOX-1643) Check for missing validation processes does not work properly in Preflight"
"""Thierry Boschat (JIRA)"" <jira@apache.org>","Mon, 17 Jun 2013 16:16:19 +0000 (UTC)","[jira] [Commented] (PDFBOX-1614) Digitally sign PDFs without file system access"
"""Eric Leleu (JIRA)"" <jira@apache.org>","Mon, 17 Jun 2013 21:28:20 +0000 (UTC)","[jira] [Commented] (PDFBOX-1632) Exception with validation"
"""Eric Leleu (JIRA)"" <jira@apache.org>","Mon, 17 Jun 2013 21:28:22 +0000 (UTC)","[jira] [Comment Edited] (PDFBOX-1632) Exception with validation"
"""Adrian Nistor (JIRA)"" <jira@apache.org>","Mon, 17 Jun 2013 23:17:20 +0000 (UTC)","[jira] [Created] (PDFBOX-1644) Wasted work in XMPSchema.merge()"
"""Adrian Nistor (JIRA)"" <jira@apache.org>","Mon, 17 Jun 2013 23:17:20 +0000 (UTC)","[jira] [Updated] (PDFBOX-1644) Wasted work in XMPSchema.merge()"
"""Guillaume Bailleul (JIRA)"" <jira@apache.org>","Tue, 18 Jun 2013 05:51:20 +0000 (UTC)","[jira] [Assigned] (PDFBOX-1644) Wasted work in XMPSchema.merge()"
"""Guillaume Bailleul (JIRA)"" <jira@apache.org>","Tue, 18 Jun 2013 09:47:21 +0000 (UTC)","[jira] [Commented] (PDFBOX-1540) Add XML output option to preflight"
"""Guillaume Bailleul (JIRA)"" <jira@apache.org>","Tue, 18 Jun 2013 09:47:22 +0000 (UTC)","[jira] [Resolved] (PDFBOX-1540) Add XML output option to preflight"
"=?utf-8?Q?Andreas_Lehmk=C3=BChler_=28JIRA=29?= <jira@apache.org>","Tue, 18 Jun 2013 10:03:23 +0000 (UTC)","[jira] [Updated] (PDFBOX-1540) Add XML output option to preflight"
"""Florent Guillaume (JIRA)"" <jira@apache.org>","Tue, 18 Jun 2013 10:29:20 +0000 (UTC)","[jira] [Commented] (PDFBOX-1622) TextNormalize init not thread-safe, may lead to infinite loop"
"""Guillaume Bailleul (JIRA)"" <jira@apache.org>","Tue, 18 Jun 2013 11:02:21 +0000 (UTC)","[jira] [Resolved] (PDFBOX-1644) Wasted work in XMPSchema.merge()"
"""Guillaume Bailleul (JIRA)"" <jira@apache.org>","Tue, 18 Jun 2013 11:02:21 +0000 (UTC)","[jira] [Comment Edited] (PDFBOX-1644) Wasted work in XMPSchema.merge()"
"""Guillaume Bailleul (JIRA)"" <jira@apache.org>","Tue, 18 Jun 2013 11:04:20 +0000 (UTC)","[jira] [Comment Edited] (PDFBOX-1540) Add XML output option to preflight"
"Apache Jenkins Server  <jenkins@builds.apache.org>","Tue, 18 Jun 2013 11:10:01 +0000 (UTC)","=?UTF-8?Q?Jenkins_build_is_back_to_normal_:?= =?UTF-8?Q?_PDFBox-trunk_=C2=BB_Apache_PDFBox_#668?="
"""William Fausser (JIRA)"" <jira@apache.org>","Tue, 18 Jun 2013 11:13:21 +0000 (UTC)","[jira] [Commented] (PDFBOX-1632) Exception with validation"
"""Guillaume Bailleul (JIRA)"" <jira@apache.org>","Tue, 18 Jun 2013 11:44:20 +0000 (UTC)","[jira] [Assigned] (PDFBOX-1642) NPE when parsing XMP schema definition with ""closed Choice"" value type"
"Apache Jenkins Server  <jenkins@builds.apache.org>","Tue, 18 Jun 2013 11:48:15 +0000 (UTC)","=?UTF-8?Q?Build_failed_in_Jenkins:_PDFBox-t?= =?UTF-8?Q?runk_=C2=BB_Apache_PDFBox_for_Ant_#669?="
"Apache Jenkins Server  <jenkins@builds.apache.org>","Tue, 18 Jun 2013 11:48:28 +0000 (UTC)","Build failed in Jenkins: PDFBox-trunk #669"
"""Niko Ojanen (JIRA)"" <jira@apache.org>","Tue, 18 Jun 2013 12:51:20 +0000 (UTC)","[jira] [Updated] (PDFBOX-1641) Parsing of PDFs fails when no '<<' between directory objects"
"""Timo Boehme (JIRA)"" <jira@apache.org>","Tue, 18 Jun 2013 13:39:23 +0000 (UTC)","[jira] [Commented] (PDFBOX-1641) Parsing of PDFs fails when no '<<' between directory objects"
"Andreas Lehmkuehler <andreas@lehmi.de>","Tue, 18 Jun 2013 16:28:45 +0200","IMPORTANT: Major Confluence Upgrade Coming Soon. Please review test instance now."
"""Robert Meyer (JIRA)"" <jira@apache.org>","Wed, 19 Jun 2013 08:40:21 +0000 (UTC)","[jira] [Created] (PDFBOX-1645) Improved the accuracy of the bounding box for each rendered CFF glyph"
"""Robert Meyer (JIRA)"" <jira@apache.org>","Wed, 19 Jun 2013 08:42:26 +0000 (UTC)","[jira] [Updated] (PDFBOX-1645) Improved the accuracy of the bounding box for each rendered CFF glyph"
"""Robert Meyer (JIRA)"" <jira@apache.org>","Wed, 19 Jun 2013 08:44:22 +0000 (UTC)","[jira] [Updated] (PDFBOX-1645) [PATCH] Improved the accuracy of the bounding box for each rendered CFF glyph"
"""Robert Meyer (JIRA)"" <jira@apache.org>","Wed, 19 Jun 2013 09:16:19 +0000 (UTC)","[jira] [Commented] (PDFBOX-1645) [PATCH] Improved the accuracy of the bounding box for each rendered CFF glyph"
"=?utf-8?Q?Andreas_Lehmk=C3=BChler_=28JIRA=29?= <jira@apache.org>","Wed, 19 Jun 2013 09:32:20 +0000 (UTC)","[jira] [Commented] (PDFBOX-1645) [PATCH] Improved the accuracy of the bounding box for each rendered CFF glyph"
"""Robert Meyer (JIRA)"" <jira@apache.org>","Wed, 19 Jun 2013 09:48:20 +0000 (UTC)","[jira] [Created] (PDFBOX-1646) Added method for retrieving CFF bounding box from CFFFont class with slight refactoring and optimization."
"""Robert Meyer (JIRA)"" <jira@apache.org>","Wed, 19 Jun 2013 09:48:22 +0000 (UTC)","[jira] [Updated] (PDFBOX-1646) Added method for retrieving CFF bounding box from CFFFont class with slight refactoring and optimization."
"""Robert Meyer (JIRA)"" <jira@apache.org>","Wed, 19 Jun 2013 09:50:19 +0000 (UTC)","[jira] [Updated] (PDFBOX-1646) [PATCH] Add method for retrieving CFF bounding box from CFFFont class with slight refactoring and optimization."
"""Maruan Sahyoun (JIRA)"" <jira@apache.org>","Wed, 19 Jun 2013 10:02:20 +0000 (UTC)","[jira] [Commented] (PDFBOX-1645) [PATCH] Improved the accuracy of the bounding box for each rendered CFF glyph"
"""Niko Ojanen (JIRA)"" <jira@apache.org>","Wed, 19 Jun 2013 10:06:20 +0000 (UTC)","[jira] [Closed] (PDFBOX-1641) Parsing of PDFs fails when no '<<' between directory objects"
"""Niko Ojanen (JIRA)"" <jira@apache.org>","Wed, 19 Jun 2013 10:06:20 +0000 (UTC)","[jira] [Commented] (PDFBOX-1641) Parsing of PDFs fails when no '<<' between directory objects"
"""Robert Meyer (JIRA)"" <jira@apache.org>","Wed, 19 Jun 2013 10:47:20 +0000 (UTC)","[jira] [Commented] (PDFBOX-1645) [PATCH] Improved the accuracy of the bounding box for each rendered CFF glyph"
"""Maruan Sahyoun (JIRA)"" <jira@apache.org>","Wed, 19 Jun 2013 11:11:20 +0000 (UTC)","[jira] [Commented] (PDFBOX-1645) [PATCH] Improved the accuracy of the bounding box for each rendered CFF glyph"
"""Hannes Erven (JIRA)"" <jira@apache.org>","Thu, 20 Jun 2013 08:20:20 +0000 (UTC)","[jira] [Updated] (PDFBOX-1512) TextPositionComparator is not compatible with Java 7"
"""Thiyagarajan Selvaraj (JIRA)"" <jira@apache.org>","Thu, 20 Jun 2013 09:07:23 +0000 (UTC)","[jira] [Commented] (PDFBOX-1512) TextPositionComparator is not compatible with Java 7"
"""Rajiv Maity (JIRA)"" <jira@apache.org>","Thu, 20 Jun 2013 11:06:20 +0000 (UTC)","[jira] [Created] (PDFBOX-1647) Not able to parse PDF files using PHP and Linux"
"=?utf-8?Q?Andreas_Lehmk=C3=BChler_=28JIRA=29?= <jira@apache.org>","Thu, 20 Jun 2013 11:36:20 +0000 (UTC)","[jira] [Updated] (PDFBOX-1466) Rendering of pattern colorspace fails"
"=?utf-8?Q?Andreas_Lehmk=C3=BChler_=28JIRA=29?= <jira@apache.org>","Thu, 20 Jun 2013 11:40:20 +0000 (UTC)","[jira] [Updated] (PDFBOX-1442) bar chart converted from PDF is totally a black area."
"""Guillaume Bailleul (JIRA)"" <jira@apache.org>","Thu, 20 Jun 2013 15:31:20 +0000 (UTC)","[jira] [Commented] (PDFBOX-1642) NPE when parsing XMP schema definition with ""closed Choice"" value type"
"""Maruan Sahyoun (JIRA)"" <jira@apache.org>","Fri, 21 Jun 2013 06:37:20 +0000 (UTC)","[jira] [Commented] (PDFBOX-1647) Not able to parse PDF files using PHP and Linux"
"""james king (JIRA)"" <jira@apache.org>","Fri, 21 Jun 2013 09:59:20 +0000 (UTC)","[jira] [Commented] (PDFBOX-1623) Can't detect hidden text on pdf page"
"""Hannes Erven (JIRA)"" <jira@apache.org>","Fri, 21 Jun 2013 10:27:20 +0000 (UTC)","[jira] [Commented] (PDFBOX-1512) TextPositionComparator is not compatible with Java 7"
"Andreas Lehmkuehler <andreas@lehmi.de>","Sat, 22 Jun 2013 09:21:56 +0200","Re: [SECURITY] Frame injection vulnerability in published Javadoc"
"=?utf-8?Q?Andreas_Lehmk=C3=BChler_=28JIRA=29?= <jira@apache.org>","Sat, 22 Jun 2013 07:30:22 +0000 (UTC)","[jira] [Updated] (PDFBOX-1628) Type 3 Fonts are not processed by PDPage.createImage"
"=?utf-8?Q?Andreas_Lehmk=C3=BChler_=28JIRA=29?= <jira@apache.org>","Sat, 22 Jun 2013 07:52:20 +0000 (UTC)","[jira] [Commented] (PDFBOX-1619) Add old (1.2.1) API docs to new CMS based PDFBox site"
"""Maruan Sahyoun (JIRA)"" <jira@apache.org>","Sun, 23 Jun 2013 07:39:21 +0000 (UTC)","[jira] [Commented] (PDFBOX-1619) Add old (1.2.1) API docs to new CMS based PDFBox site"
"""Eric Leleu (JIRA)"" <jira@apache.org>","Sun, 23 Jun 2013 08:47:20 +0000 (UTC)","[jira] [Resolved] (PDFBOX-1632) Exception with validation"
"""Eric Leleu (JIRA)"" <jira@apache.org>","Sun, 23 Jun 2013 08:47:20 +0000 (UTC)","[jira] [Resolved] (PDFBOX-1631) Group Exception"
"""Eric Leleu (JIRA)"" <jira@apache.org>","Sun, 23 Jun 2013 08:47:20 +0000 (UTC)","[jira] [Updated] (PDFBOX-1632) Exception with validation"
"Apache Jenkins Server  <jenkins@builds.apache.org>","Sun, 23 Jun 2013 09:11:22 +0000 (UTC)","=?UTF-8?Q?Jenkins_build_is_back_to_normal_:_PDF?= =?UTF-8?Q?Box-trunk_=C2=BB_Apache_PDFBox_for_Ant_#670?="
"Apache Jenkins Server  <jenkins@builds.apache.org>","Sun, 23 Jun 2013 09:11:25 +0000 (UTC)","Jenkins build is back to normal : PDFBox-trunk #670"
"""Eric Leleu (JIRA)"" <jira@apache.org>","Sun, 23 Jun 2013 09:15:20 +0000 (UTC)","[jira] [Resolved] (PDFBOX-1643) Check for missing validation processes does not work properly in Preflight"
"=?utf-8?Q?Andreas_Lehmk=C3=BChler_=28JIRA=29?= <jira@apache.org>","Sun, 23 Jun 2013 10:18:21 +0000 (UTC)","[jira] [Commented] (PDFBOX-1619) Add old (1.2.1) API docs to new CMS based PDFBox site"
"""Edi Weissmann (JIRA)"" <jira@apache.org>","Sun, 23 Jun 2013 11:36:21 +0000 (UTC)","[jira] [Commented] (PDFBOX-1067) PDF Scan from Xerox WorkCentre 5030 renders as all black"
"=?utf-8?Q?Andreas_Lehmk=C3=BChler_=28JIRA=29?= <jira@apache.org>","Sun, 23 Jun 2013 11:57:22 +0000 (UTC)","[jira] [Comment Edited] (PDFBOX-1619) Add old (1.2.1) API docs to new CMS based PDFBox site"
"Stefan Bodewig <bodewig@apache.org>","Mon, 24 Jun 2013 15:20:47 +0200","Your Gump Build(s)"
"=?utf-8?Q?Andreas_Lehmk=C3=BChler_=28JIRA=29?= <jira@apache.org>","Mon, 24 Jun 2013 13:48:21 +0000 (UTC)","[jira] [Updated] (PDFBOX-457) PDF to Image doesn't show correctly the document"
"""Max Gilead (JIRA)"" <jira@apache.org>","Mon, 24 Jun 2013 14:08:21 +0000 (UTC)","[jira] [Created] (PDFBOX-1648) FontBox can't load CMaps with no spaces between tokens"
"""Max Gilead (JIRA)"" <jira@apache.org>","Mon, 24 Jun 2013 14:10:20 +0000 (UTC)","[jira] [Updated] (PDFBOX-1648) FontBox can't load CMaps with no spaces between tokens"
"""Max Gilead (JIRA)"" <jira@apache.org>","Mon, 24 Jun 2013 14:12:20 +0000 (UTC)","[jira] [Updated] (PDFBOX-1648) FontBox can't load CMaps with no spaces between tokens"
"""Max Gilead (JIRA)"" <jira@apache.org>","Mon, 24 Jun 2013 14:12:22 +0000 (UTC)","[jira] [Updated] (PDFBOX-1648) FontBox can't load CMaps with no spaces between tokens"
"""Max Gilead (JIRA)"" <jira@apache.org>","Mon, 24 Jun 2013 14:16:21 +0000 (UTC)","[jira] [Updated] (PDFBOX-1648) FontBox can't load CMaps with no spaces between tokens"
"""Max Gilead (JIRA)"" <jira@apache.org>","Mon, 24 Jun 2013 14:26:20 +0000 (UTC)","[jira] [Updated] (PDFBOX-1648) FontBox can't load CMaps with no spaces between tokens"
"=?utf-8?Q?Andreas_Lehmk=C3=BChler_=28JIRA=29?= <jira@apache.org>","Mon, 24 Jun 2013 14:28:20 +0000 (UTC)","[jira] [Assigned] (PDFBOX-677) Lines not showing in PrintPDF print-out (Table borders and SVG figures)"
"""Niels Beekman (JIRA)"" <jira@apache.org>","Mon, 24 Jun 2013 15:31:20 +0000 (UTC)","[jira] [Created] (PDFBOX-1649) PNG images with alpha channel displays thin grey lines"
"""Niels Beekman (JIRA)"" <jira@apache.org>","Mon, 24 Jun 2013 15:31:20 +0000 (UTC)","[jira] [Updated] (PDFBOX-1649) PNG images with alpha channel displays thin grey lines"
"""Gerhard Temper (JIRA)"" <jira@apache.org>","Tue, 25 Jun 2013 10:11:20 +0000 (UTC)","=?utf-8?Q?[jira]_[Created]_(PDFBOX-1650)_Merging_PDF_results?= =?utf-8?Q?_in_=E2=80=9Ejava.io.IOException:?= =?utf-8?Q?_expected=3D'>'_actual=3D'3'=E2=80=9D?="
"""Gerhard Temper (JIRA)"" <jira@apache.org>","Tue, 25 Jun 2013 10:13:19 +0000 (UTC)","=?utf-8?Q?[jira]_[Updated]_(PDFBOX-1650)_Merging_PDF_results?= =?utf-8?Q?_in_=E2=80=9Ejava.io.IOException:?= =?utf-8?Q?_expected=3D'>'_actual=3D'3'=E2=80=9D?="
"""Horst Reiterer (JIRA)"" <jira@apache.org>","Tue, 25 Jun 2013 15:28:22 +0000 (UTC)","[jira] [Commented] (PDFBOX-1342) Tags not fully preserved when merging PDFs."
"""kuchi bhargav (JIRA)"" <jira@apache.org>","Tue, 25 Jun 2013 15:32:20 +0000 (UTC)","[jira] [Created] (PDFBOX-1651) PDFBox doesn't read the permission bits correct. PDDocument.getCurrentAccessPermission().canPrint() is allways returning true irrespective of the document print permissions"
"""Petras (JIRA)"" <jira@apache.org>","Wed, 26 Jun 2013 15:55:21 +0000 (UTC)","[jira] [Commented] (PDFBOX-1632) Exception with validation"
"""William Fausser (JIRA)"" <jira@apache.org>","Wed, 26 Jun 2013 17:42:21 +0000 (UTC)","[jira] [Commented] (PDFBOX-1632) Exception with validation"
"=?utf-8?Q?Christian_Kohlsch=C3=BCtter_=28JIRA=29?= <jira@apache.org>","Wed, 26 Jun 2013 18:14:19 +0000 (UTC)","[jira] [Created] (PDFBOX-1652) TextPosition: Japanese alphabetic characters 30fc and 3005 treated as diacritics"
"=?utf-8?Q?Christian_Kohlsch=C3=BCtter_=28JIRA=29?= <jira@apache.org>","Wed, 26 Jun 2013 18:14:21 +0000 (UTC)","[jira] [Updated] (PDFBOX-1652) TextPosition: Japanese alphabetic characters 30fc and 3005 treated as diacritics"
"=?utf-8?Q?Andreas_Lehmk=C3=BChler_=28JIRA=29?= <jira@apache.org>","Thu, 27 Jun 2013 08:24:20 +0000 (UTC)","[jira] [Commented] (PDFBOX-1651) PDFBox doesn't read the permission bits correct. PDDocument.getCurrentAccessPermission().canPrint() is allways returning true irrespective of the document print permissions"
"""Eric Leleu (JIRA)"" <jira@apache.org>","Thu, 27 Jun 2013 19:18:20 +0000 (UTC)","[jira] [Commented] (PDFBOX-1632) Exception with validation"
"""Eric Leleu (JIRA)"" <jira@apache.org>","Thu, 27 Jun 2013 19:59:20 +0000 (UTC)","[jira] [Commented] (PDFBOX-1630) An interesting Exception error"
"""Eric Leleu (JIRA)"" <jira@apache.org>","Thu, 27 Jun 2013 19:59:21 +0000 (UTC)","[jira] [Updated] (PDFBOX-1630) An interesting Exception error"
"""Eric Leleu (JIRA)"" <jira@apache.org>","Thu, 27 Jun 2013 20:01:20 +0000 (UTC)","[jira] [Resolved] (PDFBOX-1630) An interesting Exception error"
"Apache Jenkins Server  <jenkins@builds.apache.org>","Thu, 27 Jun 2013 20:45:44 +0000 (UTC)","=?UTF-8?Q?Build_failed_in_Jenkins:_PDFBox-trunk_=C2=BB_Apache_PDFBox_#672?="
"Apache Jenkins Server  <jenkins@builds.apache.org>","Thu, 27 Jun 2013 20:46:45 +0000 (UTC)","Build failed in Jenkins: PDFBox-trunk #672"
"=?utf-8?Q?Christian_Kohlsch=C3=BCtter_=28JIRA=29?= <jira@apache.org>","Thu, 27 Jun 2013 22:51:20 +0000 (UTC)","[jira] [Created] (PDFBOX-1653) Fix pdfbox eating up big chunks of memory for identical mappings"
"=?utf-8?Q?Christian_Kohlsch=C3=BCtter_=28JIRA=29?= <jira@apache.org>","Thu, 27 Jun 2013 22:51:21 +0000 (UTC)","[jira] [Updated] (PDFBOX-1653) Fix pdfbox eating up big chunks of memory for identical mappings"
"=?utf-8?Q?Christian_Kohlsch=C3=BCtter_=28JIRA=29?= <jira@apache.org>","Thu, 27 Jun 2013 22:53:20 +0000 (UTC)","[jira] [Updated] (PDFBOX-1653) Fix pdfbox eating up big chunks of memory for identical mappings"
"=?utf-8?Q?Christian_Kohlsch=C3=BCtter_=28JIRA=29?= <jira@apache.org>","Thu, 27 Jun 2013 22:53:20 +0000 (UTC)","[jira] [Updated] (PDFBOX-1653) Fix pdfbox eating up big chunks of memory for identical mappings"
"=?utf-8?Q?Christian_Kohlsch=C3=BCtter_=28JIRA=29?= <jira@apache.org>","Thu, 27 Jun 2013 22:57:19 +0000 (UTC)","[jira] [Updated] (PDFBOX-1653) Fix pdfbox eating up big chunks of memory for identical CID mappings"
"""kuchi bhargav (JIRA)"" <jira@apache.org>","Fri, 28 Jun 2013 09:47:20 +0000 (UTC)","[jira] [Commented] (PDFBOX-1651) PDFBox doesn't read the permission bits correct. PDDocument.getCurrentAccessPermission().canPrint() is allways returning true irrespective of the document print permissions"
"=?utf-8?Q?Andreas_Lehmk=C3=BChler_=28JIRA=29?= <jira@apache.org>","Fri, 28 Jun 2013 09:59:22 +0000 (UTC)","[jira] [Commented] (PDFBOX-1651) PDFBox doesn't read the permission bits correct. PDDocument.getCurrentAccessPermission().canPrint() is allways returning true irrespective of the document print permissions"
"""Maruan Sahyoun (JIRA)"" <jira@apache.org>","Fri, 28 Jun 2013 13:05:21 +0000 (UTC)","[jira] [Commented] (PDFBOX-1619) Add old (1.2.1) API docs to new CMS based PDFBox site"
"""kuchi bhargav (JIRA)"" <jira@apache.org>","Fri, 28 Jun 2013 13:15:21 +0000 (UTC)","[jira] [Commented] (PDFBOX-1651) PDFBox doesn't read the permission bits correct. PDDocument.getCurrentAccessPermission().canPrint() is allways returning true irrespective of the document print permissions"
"=?utf-8?Q?Andreas_Lehmk=C3=BChler_=28JIRA=29?= <jira@apache.org>","Fri, 28 Jun 2013 15:37:20 +0000 (UTC)","[jira] [Commented] (PDFBOX-1619) Add old (1.2.1) API docs to new CMS based PDFBox site"
"=?utf-8?Q?Andreas_Lehmk=C3=BChler_=28JIRA=29?= <jira@apache.org>","Fri, 28 Jun 2013 15:41:20 +0000 (UTC)","[jira] [Commented] (PDFBOX-1651) PDFBox doesn't read the permission bits correct. PDDocument.getCurrentAccessPermission().canPrint() is allways returning true irrespective of the document print permissions"
"""Adrian Nistor (JIRA)"" <jira@apache.org>","Fri, 28 Jun 2013 22:13:19 +0000 (UTC)","[jira] [Created] (PDFBOX-1654) Wasted work in XMLUtil.getNodeValue"
"""Adrian Nistor (JIRA)"" <jira@apache.org>","Fri, 28 Jun 2013 22:13:20 +0000 (UTC)","[jira] [Updated] (PDFBOX-1654) Wasted work in XMLUtil.getNodeValue"
"""Adrian Nistor (JIRA)"" <jira@apache.org>","Fri, 28 Jun 2013 23:30:20 +0000 (UTC)","[jira] [Created] (PDFBOX-1655) Wasted work (or incorrect behavior) in PDCIDFontType2Font.readCIDToGIDMapping"
"""Adrian Nistor (JIRA)"" <jira@apache.org>","Fri, 28 Jun 2013 23:30:20 +0000 (UTC)","[jira] [Updated] (PDFBOX-1655) Wasted work (or incorrect behavior) in PDCIDFontType2Font.readCIDToGIDMapping"
"=?utf-8?Q?Andreas_Lehmk=C3=BChler_=28JIRA=29?= <jira@apache.org>","Sat, 29 Jun 2013 11:48:20 +0000 (UTC)","[jira] [Assigned] (PDFBOX-1655) Wasted work (or incorrect behavior) in PDCIDFontType2Font.readCIDToGIDMapping"
