"Developer","Date","Subject"
"""Mathias Bosch (JIRA)"" <jira@apache.org>","Mon, 1 Dec 2008 01:48:47 -0800 (PST)","[jira] Updated: (PDFBOX-390) org.pdfbox.filter.ASCIIHexFilter does not skip Whitespace"
"""Brian Carrier (JIRA)"" <jira@apache.org>","Wed, 3 Dec 2008 11:35:44 -0800 (PST)","[jira] Created: (PDFBOX-393) Maven files in jempbox do not work"
"Brian Carrier <carrier@digital-evidence.org>","Wed, 3 Dec 2008 14:38:45 -0500","Re: [jira] Commented: (PDFBOX-377) Incorrect direction of extracted Arabic Text"
"""Brian Carrier (JIRA)"" <jira@apache.org>","Wed, 3 Dec 2008 14:59:44 -0800 (PST)","[jira] Created: (PDFBOX-394) TestFDF junit test failing in testFDFFreedomExpressions()."
"""Brian Carrier (JIRA)"" <jira@apache.org>","Wed, 3 Dec 2008 15:03:44 -0800 (PST)","[jira] Updated: (PDFBOX-394) TestFDF junit test failing in testFDFFreedomExpressions()."
"Brian Carrier <carrier@digital-evidence.org>","Wed, 3 Dec 2008 18:07:10 -0500","Regression Tests"
"""Jukka Zitting (JIRA)"" <jira@apache.org>","Wed, 3 Dec 2008 17:35:44 -0800 (PST)","[jira] Commented: (PDFBOX-392) Remove or replace the ICC profiles"
"<Andreas.Lehmkuehler@rwe.com>","Thu, 4 Dec 2008 09:32:05 +0100","AW: Regression Tests"
"=?utf-8?Q?Andreas_Lehmk=C3=BChler_=28JIRA=29?= <jira@apache.org>","Thu, 4 Dec 2008 05:55:44 -0800 (PST)","[jira] Commented: (PDFBOX-392) Remove or replace the ICC profiles"
"""Jukka Zitting (JIRA)"" <jira@apache.org>","Thu, 4 Dec 2008 05:59:44 -0800 (PST)","[jira] Commented: (PDFBOX-392) Remove or replace the ICC profiles"
"=?utf-8?Q?Andreas_Lehmk=C3=BChler_=28JIRA=29?= <jira@apache.org>","Thu, 4 Dec 2008 06:07:44 -0800 (PST)","[jira] Commented: (PDFBOX-392) Remove or replace the ICC profiles"
"Ben Litchfield <ben@benlitchfield.com>","Thu, 04 Dec 2008 12:32:27 -0500","Re: AW: Regression Tests"
"""Jukka Zitting (JIRA)"" <jira@apache.org>","Thu, 4 Dec 2008 14:34:44 -0800 (PST)","[jira] Commented: (PDFBOX-391) Remove or replace troublesome test files"
"""Brian Carrier (JIRA)"" <jira@apache.org>","Thu, 4 Dec 2008 14:46:44 -0800 (PST)","[jira] Commented: (PDFBOX-377) Incorrect direction of extracted Arabic Text"
"""Brian Carrier (JIRA)"" <jira@apache.org>","Thu, 4 Dec 2008 14:48:44 -0800 (PST)","[jira] Updated: (PDFBOX-377) Incorrect direction of extracted Arabic Text"
"=?utf-8?Q?Andreas_Lehmk=C3=BChler_=28JIRA=29?= <jira@apache.org>","Thu, 4 Dec 2008 23:10:44 -0800 (PST)","[jira] Updated: (PDFBOX-392) Remove or replace the ICC profiles"
"""Jukka Zitting"" <jukka.zitting@gmail.com>","Mon, 8 Dec 2008 01:24:03 +0100","License review update"
"Brian Carrier <carrier@digital-evidence.org>","Mon, 8 Dec 2008 09:53:39 -0500","Re: License review update"
"<Andreas.Lehmkuehler@rwe.com>","Wed, 10 Dec 2008 13:47:18 +0100","AW: License review update"
"""Jukka Zitting"" <jukka.zitting@gmail.com>","Mon, 15 Dec 2008 14:51:07 +0100","New PDFBox committers"
"""Gitanjali Saroop"" <gitanjali.bhutani@gmail.com>","Thu, 18 Dec 2008 15:19:08 +0530","New developer in PDFBox"
"""Jukka Zitting"" <jukka.zitting@gmail.com>","Thu, 18 Dec 2008 14:46:39 +0100","Re: New developer in PDFBox"
"""Jukka Zitting (JIRA)"" <jira@apache.org>","Tue, 30 Dec 2008 05:24:44 -0800 (PST)","[jira] Resolved: (PDFBOX-392) Remove or replace the ICC profiles"
"""Jukka Zitting (JIRA)"" <jira@apache.org>","Tue, 30 Dec 2008 08:40:44 -0800 (PST)","[jira] Resolved: (PDFBOX-199) Tiff image problems"
"""Jukka Zitting (JIRA)"" <jira@apache.org>","Tue, 30 Dec 2008 08:46:44 -0800 (PST)","[jira] Created: (PDFBOX-395) NPE on public key encryption of an unencrypted document"
"""Jukka Zitting (JIRA)"" <jira@apache.org>","Tue, 30 Dec 2008 08:48:44 -0800 (PST)","[jira] Resolved: (PDFBOX-395) NPE on public key encryption of an unencrypted document"
"""Jukka Zitting (JIRA)"" <jira@apache.org>","Wed, 31 Dec 2008 02:24:44 -0800 (PST)","[jira] Created: (PDFBOX-396) Incorrect permissions after decryption"
"""Jukka Zitting (JIRA)"" <jira@apache.org>","Wed, 31 Dec 2008 02:26:44 -0800 (PST)","[jira] Resolved: (PDFBOX-396) Incorrect permissions after decryption"
