"Developer","Date","Subject"
"Andy_Bach@wiwb.uscourts.gov","Thu, 4 Sep 2008 14:26:42 -0500","svn checkout from incubator"
"Andy_Bach@wiwb.uscourts.gov","Thu, 4 Sep 2008 14:39:48 -0500","Re: svn checkout from incubator"
"""Jukka Zitting"" <jukka.zitting@gmail.com>","Sun, 14 Sep 2008 03:25:32 +0300","Re: Forrest-based website ready for deployment (missing permissions)"
"Jan Rehorik <jan@nozasearch.com>","Tue, 16 Sep 2008 11:56:26 -0700","=?iso-8859-1?Q?Feedback=C2=A0userguide/index.html?="
"""Brian Carrier (JIRA)"" <jira@apache.org>","Wed, 17 Sep 2008 13:23:44 -0700 (PDT)","[jira] Created: (PDFBOX-373) (null) printed when characters cannot be decoded during text extraction"
"""Brian Carrier (JIRA)"" <jira@apache.org>","Wed, 17 Sep 2008 14:05:44 -0700 (PDT)","[jira] Created: (PDFBOX-374) text areas not properly being sorted because of page rotation"
"""Brian Carrier (JIRA)"" <jira@apache.org>","Wed, 17 Sep 2008 14:07:44 -0700 (PDT)","[jira] Updated: (PDFBOX-374) text areas not properly being sorted because of page rotation"
"Brian Carrier <carrier@digital-evidence.org>","Wed, 17 Sep 2008 17:38:32 -0400","U+FDF2 Ligature and Font Problems"
"""Brian Carrier (JIRA)"" <jira@apache.org>","Wed, 17 Sep 2008 14:47:44 -0700 (PDT)","[jira] Updated: (PDFBOX-374) text areas not properly being sorted because of page rotation"
"""Sean Furrh (JIRA)"" <jira@apache.org>","Wed, 17 Sep 2008 14:57:44 -0700 (PDT)","[jira] Commented: (PDFBOX-343) java.lang.ClassCastException: org.pdfbox.cos.COSArray cannot"
"""Jukka Zitting (JIRA)"" <jira@apache.org>","Wed, 17 Sep 2008 16:01:44 -0700 (PDT)","[jira] Resolved: (PDFBOX-368) Use the Maven standard directory layout"
"""Jukka Zitting (JIRA)"" <jira@apache.org>","Wed, 17 Sep 2008 16:05:46 -0700 (PDT)","[jira] Created: (PDFBOX-375) Rename org.pdfbox pachages to org.apache.pdfbox"
"""Jukka Zitting (JIRA)"" <jira@apache.org>","Wed, 17 Sep 2008 17:01:44 -0700 (PDT)","[jira] Updated: (PDFBOX-375) Rename org.pdfbox packages to org.apache.pdfbox"
"""Jukka Zitting (JIRA)"" <jira@apache.org>","Wed, 17 Sep 2008 17:01:44 -0700 (PDT)","[jira] Resolved: (PDFBOX-375) Rename org.pdfbox pachages to org.apache.pdfbox"
"=?utf-8?Q?Andreas_Lehmk=C3=BChler_=28JIRA=29?= <jira@apache.org>","Thu, 18 Sep 2008 00:47:44 -0700 (PDT)","[jira] Commented: (PDFBOX-374) text areas not properly being sorted because of page rotation"
"=?utf-8?Q?Andreas_Lehmk=C3=BChler_=28JIRA=29?= <jira@apache.org>","Thu, 18 Sep 2008 02:57:44 -0700 (PDT)","[jira] Commented: (PDFBOX-363) Fixed Page rotation"
"""Brian Carrier (JIRA)"" <jira@apache.org>","Thu, 18 Sep 2008 06:49:44 -0700 (PDT)","[jira] Commented: (PDFBOX-374) text areas not properly being sorted because of page rotation"
"""Jukka Zitting"" <jukka.zitting@gmail.com>","Thu, 18 Sep 2008 18:53:13 +0200","org.apache.pdfbox"
"""Jukka Zitting"" <jukka.zitting@gmail.com>","Fri, 19 Sep 2008 00:36:13 +0200","License review in progress"
"""Jukka Zitting (JIRA)"" <jira@apache.org>","Thu, 18 Sep 2008 16:10:44 -0700 (PDT)","[jira] Created: (PDFBOX-376) Remove the js.jar file"
"""Jukka Zitting (JIRA)"" <jira@apache.org>","Thu, 18 Sep 2008 16:14:44 -0700 (PDT)","[jira] Updated: (PDFBOX-376) Remove the js.jar file"
"""Ben Litchfield (JIRA)"" <jira@apache.org>","Thu, 18 Sep 2008 20:50:44 -0700 (PDT)","[jira] Commented: (PDFBOX-376) Remove the js.jar file"
"""Brian Carrier (JIRA)"" <jira@apache.org>","Fri, 19 Sep 2008 08:46:44 -0700 (PDT)","[jira] Commented: (PDFBOX-363) Fixed Page rotation"
"""Brian Carrier (JIRA)"" <jira@apache.org>","Fri, 19 Sep 2008 13:04:44 -0700 (PDT)","[jira] Created: (PDFBOX-377) Incorrect direction of extracted Arabic Text"
"""Brian Carrier (JIRA)"" <jira@apache.org>","Fri, 19 Sep 2008 13:08:44 -0700 (PDT)","[jira] Updated: (PDFBOX-377) Incorrect direction of extracted Arabic Text"
"""Jukka Zitting"" <jukka.zitting@gmail.com>","Sat, 20 Sep 2008 23:15:21 +0200","=?ISO-8859-1?Q?Re:_Feedback=C2_userguide/index.html?="
"""Jukka Zitting"" <jukka.zitting@gmail.com>","Sat, 20 Sep 2008 23:41:50 +0200","Re: U+FDF2 Ligature and Font Problems"
"""Jukka Zitting (JIRA)"" <jira@apache.org>","Sun, 21 Sep 2008 09:01:44 -0700 (PDT)","[jira] Commented: (PDFBOX-366) License review"
"""Jukka Zitting"" <jukka.zitting@gmail.com>","Sun, 21 Sep 2008 18:53:48 +0200","Alternatives for Java Advanced Imaging (Was: License review in progress)"
"""Jukka Zitting (JIRA)"" <jira@apache.org>","Sun, 21 Sep 2008 13:55:44 -0700 (PDT)","[jira] Created: (PDFBOX-378) error occurred in PDFReader.java"
"""Jukka Zitting (JIRA)"" <jira@apache.org>","Sun, 21 Sep 2008 14:09:44 -0700 (PDT)","[jira] Commented: (PDFBOX-378) error occurred in PDFReader.java"
"""Jukka Zitting"" <jukka.zitting@gmail.com>","Sun, 21 Sep 2008 23:42:22 +0200","PDF test files (Was: License review in progress)"
"""Jukka Zitting"" <jukka.zitting@gmail.com>","Sun, 21 Sep 2008 23:59:40 +0200","Next PDFBox release"
"""Jukka Zitting (JIRA)"" <jira@apache.org>","Sun, 21 Sep 2008 15:39:44 -0700 (PDT)","[jira] Created: (PDFBOX-379) PDType1Font uses the Java 5 constant Font.TYPE1"
"Brian Carrier <carrier@digital-evidence.org>","Mon, 22 Sep 2008 17:04:52 -0400","Re: U+FDF2 Ligature and Font Problems"
"=?utf-8?Q?Andreas_Lehmk=C3=BChler_=28JIRA=29?= <jira@apache.org>","Tue, 23 Sep 2008 06:33:44 -0700 (PDT)","[jira] Created: (PDFBOX-380) Limited support for SC and SCN operator"
"""Takashi Komatsubara"" <takashi@sendmail.com>","Thu, 25 Sep 2008 14:40:05 +0900","Support Japanese"
"""Jukka Zitting"" <jukka.zitting@gmail.com>","Thu, 25 Sep 2008 10:36:36 +0200","Re: Support Japanese"
"""Jukka Zitting (JIRA)"" <jira@apache.org>","Tue, 30 Sep 2008 13:57:47 -0700 (PDT)","[jira] Created: (PDFBOX-381) Remove direct JAI dependency"
"""Jukka Zitting (JIRA)"" <jira@apache.org>","Tue, 30 Sep 2008 14:03:44 -0700 (PDT)","[jira] Updated: (PDFBOX-381) Remove direct JAI dependency"
"""Jukka Zitting"" <jukka.zitting@gmail.com>","Tue, 30 Sep 2008 23:19:50 +0200","Re: Alternatives for Java Advanced Imaging (Was: License review in progress)"
