"Developer","Date","Subject"
"""Bob Swanson (JIRA)"" <jira@apache.org>","Wed, 1 Aug 2012 04:57:36 +0000 (UTC)","[jira] [Commented] (PDFBOX-954) Embedded font: value for /Widths faulty (worked in PDFBox 1.3.0!)"
"""Bob Swanson (JIRA)"" <jira@apache.org>","Wed, 1 Aug 2012 04:59:34 +0000 (UTC)","[jira] [Commented] (PDFBOX-1355) Truetype font loaded in 1.6.0 (and previous), does not load in 1.7.0"
"""Bhandari, Priyank A"" <priyank.a.bhandari@jpmchase.com>","Wed, 1 Aug 2012 11:08:51 +0000","Need to know a start point"
"""William Fausser (JIRA)"" <jira@apache.org>","Wed, 1 Aug 2012 11:29:02 +0000 (UTC)","[jira] [Commented] (PDFBOX-1371)  MetaData : Trapped property"
"""wentao (JIRA)"" <jira@apache.org>","Wed, 1 Aug 2012 18:29:04 +0000 (UTC)","[jira] [Created] (PDFBOX-1372) NullPointerException with loadDescriptorDictionary"
"""wentao (JIRA)"" <jira@apache.org>","Wed, 1 Aug 2012 18:48:02 +0000 (UTC)","[jira] [Updated] (PDFBOX-1372) NullPointerException with loadDescriptorDictionary"
"""Lars Torunski (JIRA)"" <jira@apache.org>","Thu, 2 Aug 2012 08:42:07 +0000 (UTC)","[jira] [Commented] (PDFBOX-940) [pdmodel.font.PDFont] Error: Could not parse predefined CMAP  file for 'PDFXC-Indentity0-0'"
"""William Fausser (JIRA)"" <jira@apache.org>","Thu, 2 Aug 2012 11:11:02 +0000 (UTC)","[jira] [Created] (PDFBOX-1373) Body Syntax Error : Possible Encoding problem"
"""William Fausser (JIRA)"" <jira@apache.org>","Thu, 2 Aug 2012 11:13:02 +0000 (UTC)","[jira] [Updated] (PDFBOX-1373) Body Syntax Error : Possible Encoding problem"
"""William Fausser (JIRA)"" <jira@apache.org>","Thu, 2 Aug 2012 12:22:02 +0000 (UTC)","[jira] [Updated] (PDFBOX-1374) Error On MetaData: Title"
"""William Fausser (JIRA)"" <jira@apache.org>","Thu, 2 Aug 2012 12:22:02 +0000 (UTC)","[jira] [Created] (PDFBOX-1374) Error On MetaData: Title"
"""liubingjian (JIRA)"" <jira@apache.org>","Thu, 2 Aug 2012 16:20:02 +0000 (UTC)","[jira] [Created] (PDFBOX-1375) java.lang.StackOverflowError"
"""Guillaume Bailleul (JIRA)"" <jira@apache.org>","Thu, 2 Aug 2012 17:19:02 +0000 (UTC)","[jira] [Created] (PDFBOX-1376) xmpbox cannot parse structured types containing structured types"
"=?utf-8?Q?Andreas_Lehmk=C3=BChler_=28JIRA=29?= <jira@apache.org>","Thu, 2 Aug 2012 19:03:02 +0000 (UTC)","[jira] [Commented] (PDFBOX-1375) java.lang.StackOverflowError"
"""Guillaume Bailleul (JIRA)"" <jira@apache.org>","Thu, 2 Aug 2012 21:23:02 +0000 (UTC)","[jira] [Closed] (PDFBOX-1376) xmpbox cannot parse structured types containing structured types"
"""Guillaume Bailleul (JIRA)"" <jira@apache.org>","Thu, 2 Aug 2012 21:23:02 +0000 (UTC)","[jira] [Created] (PDFBOX-1377) Simplify PDF/A schema parsing"
"Andreas Lehmkuehler <andreas@lehmi.de>","Fri, 03 Aug 2012 08:05:57 +0200","Re: Need to know a start point"
"""Dominic Tubach (JIRA)"" <jira@apache.org>","Fri, 3 Aug 2012 11:35:02 +0000 (UTC)","[jira] [Created] (PDFBOX-1378) [PATCH] COSArray: Avoid NullPointerException in setString"
"""Dominic Tubach (JIRA)"" <jira@apache.org>","Fri, 3 Aug 2012 11:35:02 +0000 (UTC)","[jira] [Updated] (PDFBOX-1378) [PATCH] COSArray: Avoid NullPointerException in setString"
"""Dominic Tubach (JIRA)"" <jira@apache.org>","Fri, 3 Aug 2012 11:39:03 +0000 (UTC)","[jira] [Created] (PDFBOX-1379) [PATCH] COSDocument: setVersion"
"""Dominic Tubach (JIRA)"" <jira@apache.org>","Fri, 3 Aug 2012 11:39:03 +0000 (UTC)","[jira] [Updated] (PDFBOX-1379) [PATCH] COSDocument: setVersion"
"""Dominic Tubach (JIRA)"" <jira@apache.org>","Fri, 3 Aug 2012 11:47:02 +0000 (UTC)","[jira] [Created] (PDFBOX-1380) [PATCH] PDNameTreeNode"
"""Dominic Tubach (JIRA)"" <jira@apache.org>","Fri, 3 Aug 2012 11:49:02 +0000 (UTC)","[jira] [Updated] (PDFBOX-1380) [PATCH] PDNameTreeNode"
"""Dominic Tubach (JIRA)"" <jira@apache.org>","Fri, 3 Aug 2012 11:53:02 +0000 (UTC)","[jira] [Created] (PDFBOX-1381) [PATCH] PDNumberTreeNode"
"""Dominic Tubach (JIRA)"" <jira@apache.org>","Fri, 3 Aug 2012 11:55:02 +0000 (UTC)","[jira] [Updated] (PDFBOX-1381) [PATCH] PDNumberTreeNode"
"""Dominic Tubach (JIRA)"" <jira@apache.org>","Fri, 3 Aug 2012 12:25:03 +0000 (UTC)","[jira] [Updated] (PDFBOX-1381) [PATCH] PDNumberTreeNode"
"""Dominic Tubach (JIRA)"" <jira@apache.org>","Fri, 3 Aug 2012 12:31:02 +0000 (UTC)","[jira] [Updated] (PDFBOX-1382) [PATCH] PDObjectReference"
"""Dominic Tubach (JIRA)"" <jira@apache.org>","Fri, 3 Aug 2012 12:31:02 +0000 (UTC)","[jira] [Created] (PDFBOX-1382) [PATCH] PDObjectReference"
"=?utf-8?Q?Andreas_Lehmk=C3=BChler_=28JIRA=29?= <jira@apache.org>","Fri, 3 Aug 2012 16:36:04 +0000 (UTC)","[jira] [Resolved] (PDFBOX-1378) [PATCH] COSArray: Avoid NullPointerException in setString"
"Apache Jenkins Server  <jenkins@builds.apache.org>","Fri, 3 Aug 2012 17:04:42 +0000 (UTC)","Build failed in Jenkins: PDFBox-trunk #527"
"=?utf-8?Q?Andreas_Lehmk=C3=BChler_=28JIRA=29?= <jira@apache.org>","Sat, 4 Aug 2012 15:49:02 +0000 (UTC)","[jira] [Resolved] (PDFBOX-1379) [PATCH] COSDocument: setVersion"
"Apache Jenkins Server  <jenkins@builds.apache.org>","Sat, 4 Aug 2012 16:31:20 +0000 (UTC)","=?UTF-8?Q?Jenkins_build_is_back_to_normal_:_P?= =?UTF-8?Q?DFBox-trunk_=C2=BB_Apache_Preflight_#528?="
"Apache Jenkins Server  <jenkins@builds.apache.org>","Sat, 4 Aug 2012 16:31:23 +0000 (UTC)","Jenkins build is back to normal : PDFBox-trunk #528"
"""Dominic Tubach (JIRA)"" <jira@apache.org>","Mon, 6 Aug 2012 10:32:02 +0000 (UTC)","[jira] [Created] (PDFBOX-1383) Proposal for a new COSArrayList"
"""Dominic Tubach (JIRA)"" <jira@apache.org>","Mon, 6 Aug 2012 10:34:02 +0000 (UTC)","[jira] [Updated] (PDFBOX-1383) Proposal for a new COSArrayList"
"""Dominic Tubach (JIRA)"" <jira@apache.org>","Mon, 6 Aug 2012 10:49:02 +0000 (UTC)","[jira] [Created] (PDFBOX-1384) Proposals for a new PDNameTreeNode and PDNumberTreeNode"
"""Dominic Tubach (JIRA)"" <jira@apache.org>","Mon, 6 Aug 2012 10:51:02 +0000 (UTC)","[jira] [Updated] (PDFBOX-1384) Proposals for a new PDNameTreeNode and PDNumberTreeNode"
"""Dominic Tubach (JIRA)"" <jira@apache.org>","Mon, 6 Aug 2012 10:57:02 +0000 (UTC)","[jira] [Created] (PDFBOX-1385) Proposal for a PD tree that represents a tree based on arrays."
"""Dominic Tubach (JIRA)"" <jira@apache.org>","Mon, 6 Aug 2012 10:59:02 +0000 (UTC)","[jira] [Updated] (PDFBOX-1385) Proposal for a PD tree that represents a tree based on arrays."
"""Dominic Tubach (JIRA)"" <jira@apache.org>","Mon, 6 Aug 2012 11:03:02 +0000 (UTC)","[jira] [Created] (PDFBOX-1386) Proposal for classes to handle optional contents"
"""Dominic Tubach (JIRA)"" <jira@apache.org>","Mon, 6 Aug 2012 11:03:02 +0000 (UTC)","[jira] [Updated] (PDFBOX-1386) Proposal for classes to handle optional contents"
"""Dominic Tubach (JIRA)"" <jira@apache.org>","Mon, 6 Aug 2012 11:03:02 +0000 (UTC)","[jira] [Updated] (PDFBOX-1386) Proposal for classes to handle optional contents"
"""Dominic Tubach (JIRA)"" <jira@apache.org>","Mon, 6 Aug 2012 12:01:05 +0000 (UTC)","[jira] [Updated] (PDFBOX-1386) Proposal for classes to handle optional contents"
"""Dominic Tubach (JIRA)"" <jira@apache.org>","Mon, 6 Aug 2012 12:04:02 +0000 (UTC)","[jira] [Updated] (PDFBOX-1384) Proposals for a new PDNameTreeNode and PDNumberTreeNode"
"""Dominic Tubach (JIRA)"" <jira@apache.org>","Mon, 6 Aug 2012 12:04:03 +0000 (UTC)","[jira] [Updated] (PDFBOX-1384) Proposals for a new PDNameTreeNode and PDNumberTreeNode"
"""Eric Leleu (JIRA)"" <jira@apache.org>","Mon, 6 Aug 2012 19:46:03 +0000 (UTC)","[jira] [Resolved] (PDFBOX-1274) Another Invalid Color Space, DestOutputProfile , passes commercial validators"
"""Eric Leleu (JIRA)"" <jira@apache.org>","Mon, 6 Aug 2012 20:33:03 +0000 (UTC)","[jira] [Created] (PDFBOX-1387) Create NonSequentialParser with InputStream"
"""Eric Leleu (JIRA)"" <jira@apache.org>","Mon, 6 Aug 2012 20:33:03 +0000 (UTC)","[jira] [Updated] (PDFBOX-1387) Create NonSequentialParser with InputStream"
"""Eric Leleu (JIRA)"" <jira@apache.org>","Mon, 6 Aug 2012 21:07:02 +0000 (UTC)","[jira] [Commented] (PDFBOX-1312) Refactor the PdfA parser"
"""William Fausser (JIRA)"" <jira@apache.org>","Tue, 7 Aug 2012 11:10:08 +0000 (UTC)","[jira] [Commented] (PDFBOX-1312) Refactor the PdfA parser"
"""Guillaume Bailleul (JIRA)"" <jira@apache.org>","Tue, 7 Aug 2012 15:56:11 +0000 (UTC)","[jira] [Created] (PDFBOX-1388) Create a branch to refactor xmpbox"
"""Guillaume Bailleul (JIRA)"" <jira@apache.org>","Tue, 7 Aug 2012 16:44:09 +0000 (UTC)","[jira] [Commented] (PDFBOX-1388) Create a branch to refactor xmpbox"
"""Guillaume Bailleul (JIRA)"" <jira@apache.org>","Tue, 7 Aug 2012 16:50:10 +0000 (UTC)","[jira] [Commented] (PDFBOX-1368) Xmp validation KO if there are complex type in a seq element"
"""Guillaume Bailleul (JIRA)"" <jira@apache.org>","Tue, 7 Aug 2012 16:52:10 +0000 (UTC)","[jira] [Commented] (PDFBOX-1371)  MetaData : Trapped property"
"""Guillaume Bailleul (JIRA)"" <jira@apache.org>","Tue, 7 Aug 2012 16:54:11 +0000 (UTC)","[jira] [Comment Edited] (PDFBOX-1368) Xmp validation KO if there are complex type in a seq element"
"""William Fausser (JIRA)"" <jira@apache.org>","Tue, 7 Aug 2012 17:12:12 +0000 (UTC)","[jira] [Commented] (PDFBOX-1371)  MetaData : Trapped property"
"""Guillaume Bailleul (JIRA)"" <jira@apache.org>","Tue, 7 Aug 2012 19:51:10 +0000 (UTC)","[jira] [Commented] (PDFBOX-1371)  MetaData : Trapped property"
"""Guillaume Bailleul (JIRA)"" <jira@apache.org>","Tue, 7 Aug 2012 20:00:20 +0000 (UTC)","[jira] [Commented] (PDFBOX-1374) Error On MetaData: Title"
"""Eric Leleu (JIRA)"" <jira@apache.org>","Tue, 7 Aug 2012 20:02:10 +0000 (UTC)","[jira] [Commented] (PDFBOX-1373) Body Syntax Error : Possible Encoding problem"
"""Guillaume Bailleul (JIRA)"" <jira@apache.org>","Tue, 7 Aug 2012 20:02:10 +0000 (UTC)","[jira] [Comment Edited] (PDFBOX-1374) Error On MetaData: Title"
"""Guillaume Bailleul (JIRA)"" <jira@apache.org>","Wed, 8 Aug 2012 18:18:21 +0000 (UTC)","[jira] [Updated] (PDFBOX-1374) Error On MetaData: Title"
"""Guillaume Bailleul (JIRA)"" <jira@apache.org>","Wed, 8 Aug 2012 18:33:20 +0000 (UTC)","[jira] [Comment Edited] (PDFBOX-1374) Error On MetaData: Title"
"""Guillaume Bailleul (JIRA)"" <jira@apache.org>","Thu, 9 Aug 2012 22:03:19 +0000 (UTC)","[jira] [Commented] (PDFBOX-1374) Error On MetaData: Title"
"Will May <will.j.may@gmail.com>","Sun, 12 Aug 2012 17:10:25 +0100","Multiline text boxes"
"""Eric Leleu (JIRA)"" <jira@apache.org>","Thu, 16 Aug 2012 01:10:37 +1100 (NCT)","[jira] [Commented] (PDFBOX-1312) Refactor the PdfA parser"
"Apache Jenkins Server  <jenkins@builds.apache.org>","Wed, 15 Aug 2012 15:08:00 +0000 (UTC)","=?UTF-8?Q?Build_failed_in_Jenkins:_PDFBo?= =?UTF-8?Q?x-trunk_=C2=BB_Apache_Preflight_#531?="
"Apache Jenkins Server  <jenkins@builds.apache.org>","Wed, 15 Aug 2012 15:53:09 +0000 (UTC)","=?UTF-8?Q?Jenkins_build_is_back_to_normal_:_P?= =?UTF-8?Q?DFBox-trunk_=C2=BB_Apache_Preflight_#532?="
"""Rodrigo Ferrari (JIRA)"" <jira@apache.org>","Sat, 18 Aug 2012 01:27:38 +1100 (NCT)","[jira] [Created] (PDFBOX-1389) Multy thread access to pdf generate erros"
"""Aaron Stewart (JIRA)"" <jira@apache.org>","Sat, 18 Aug 2012 05:22:37 +1100 (NCT)","[jira] [Created] (PDFBOX-1390) Is COSNumber mutable or immutable?"
"=?utf-8?Q?Andreas_Lehmk=C3=BChler_=28JIRA=29?= <jira@apache.org>","Mon, 20 Aug 2012 01:36:38 +1100 (NCT)","[jira] [Assigned] (PDFBOX-1246) Allow resolution to be defined when calling ImageIOUtil.writeImage"
"=?utf-8?Q?Andreas_Lehmk=C3=BChler_=28JIRA=29?= <jira@apache.org>","Mon, 20 Aug 2012 17:15:38 +1100 (NCT)","[jira] [Resolved] (PDFBOX-1246) Allow resolution to be defined when calling ImageIOUtil.writeImage"
"""Juan Diaz (JIRA)"" <jira@apache.org>","Mon, 20 Aug 2012 22:16:38 +1100 (NCT)","[jira] [Created] (PDFBOX-1391) Document with ""embedded subset"" fonts is displayed incorrect"
"""Juan Diaz (JIRA)"" <jira@apache.org>","Mon, 20 Aug 2012 22:18:37 +1100 (NCT)","[jira] [Updated] (PDFBOX-1391) Document with ""embedded subset"" fonts is displayed incorrect"
"=?utf-8?Q?Andreas_Lehmk=C3=BChler_=28JIRA=29?= <jira@apache.org>","Tue, 21 Aug 2012 02:53:38 +1100 (NCT)","[jira] [Created] (PDFBOX-1392) Enable usage of compressionQuality when creating a PDJpeg"
"=?utf-8?Q?Andreas_Lehmk=C3=BChler_=28JIRA=29?= <jira@apache.org>","Tue, 21 Aug 2012 02:55:38 +1100 (NCT)","[jira] [Commented] (PDFBOX-1392) Enable usage of compressionQuality when creating a PDJpeg"
"=?utf-8?Q?Andreas_Lehmk=C3=BChler_=28JIRA=29?= <jira@apache.org>","Tue, 21 Aug 2012 02:55:38 +1100 (NCT)","[jira] [Resolved] (PDFBOX-1392) Enable usage of compressionQuality when creating a PDJpeg"
"""Sheila Morrissey (JIRA)"" <jira@apache.org>","Tue, 21 Aug 2012 05:45:37 +1100 (NCT)","[jira] [Created] (PDFBOX-1393) NonSequentialPDFParser is not parsing actual PDF header"
"""Chupacabras (JIRA)"" <jira@apache.org>","Wed, 22 Aug 2012 00:45:38 +1100 (NCT)","[jira] [Created] (PDFBOX-1394) Image streams are lost when adding new images to page"
"""Chupacabras (JIRA)"" <jira@apache.org>","Wed, 22 Aug 2012 00:47:38 +1100 (NCT)","[jira] [Updated] (PDFBOX-1394) Image streams are lost when adding new images to page"
"""Chupacabras (JIRA)"" <jira@apache.org>","Wed, 22 Aug 2012 00:47:38 +1100 (NCT)","[jira] [Updated] (PDFBOX-1394) Image streams are lost when adding new images to page"
"""Dave Botsch (JIRA)"" <jira@apache.org>","Wed, 22 Aug 2012 07:32:38 +1100 (NCT)","[jira] [Commented] (PDFBOX-1126) Form Fields missing values (values are NULL)"
"kamal gera <gera.kamal@gmail.com>","Wed, 22 Aug 2012 18:23:14 +0530","Not able to write chinese and other language character in PDF"
"""Eric Leleu (JIRA)"" <jira@apache.org>","Thu, 23 Aug 2012 06:18:42 +1100 (NCT)","[jira] [Created] (PDFBOX-1395) Transparency isn't checked in Page dictionary"
"""Eric Leleu (JIRA)"" <jira@apache.org>","Thu, 23 Aug 2012 06:20:42 +1100 (NCT)","[jira] [Resolved] (PDFBOX-1395) Transparency isn't checked in Page dictionary"
"Apache Jenkins Server  <jenkins@builds.apache.org>","Wed, 22 Aug 2012 20:02:15 +0000 (UTC)","Build failed in Jenkins: PDFBox-trunk #535"
"Apache Jenkins Server  <jenkins@builds.apache.org>","Wed, 22 Aug 2012 20:02:15 +0000 (UTC)","=?UTF-8?Q?Build_failed_in_Jenkins:_PDFBox-trunk_=C2=BB_PDFBox_parent_#535?="
"""Juraj Lonc (JIRA)"" <jira@apache.org>","Thu, 23 Aug 2012 21:05:43 +1100 (NCT)","[jira] [Commented] (PDFBOX-1394) Image streams are lost when adding new images to page"
"""Juraj Lonc (JIRA)"" <jira@apache.org>","Thu, 23 Aug 2012 21:11:42 +1100 (NCT)","[jira] [Updated] (PDFBOX-1394) Image streams are lost when adding new images to page"
"""Timo Boehme (JIRA)"" <jira@apache.org>","Thu, 23 Aug 2012 21:52:42 +1100 (NCT)","[jira] [Commented] (PDFBOX-1394) Image streams are lost when adding new images to page"
"""Juraj Lonc (JIRA)"" <jira@apache.org>","Thu, 23 Aug 2012 22:31:42 +1100 (NCT)","[jira] [Updated] (PDFBOX-1394) Image streams are lost when adding new images to page"
"""Juraj Lonc (JIRA)"" <jira@apache.org>","Thu, 23 Aug 2012 22:34:42 +1100 (NCT)","[jira] [Updated] (PDFBOX-1394) Image streams are lost when adding new images to page"
"""Juraj Lonc (JIRA)"" <jira@apache.org>","Thu, 23 Aug 2012 22:36:42 +1100 (NCT)","[jira] [Updated] (PDFBOX-1394) Image streams are lost when adding new images to page"
"""Juraj Lonc (JIRA)"" <jira@apache.org>","Fri, 24 Aug 2012 00:34:42 +1100 (NCT)","[jira] [Created] (PDFBOX-1396) The Length of stream should be written directly, not by reference"
"""Juraj Lonc (JIRA)"" <jira@apache.org>","Fri, 24 Aug 2012 00:40:42 +1100 (NCT)","[jira] [Updated] (PDFBOX-1396) The Length of stream should be written directly, not by reference"
"""Juraj Lonc (JIRA)"" <jira@apache.org>","Fri, 24 Aug 2012 00:40:42 +1100 (NCT)","[jira] [Updated] (PDFBOX-1396) The Length of stream should be written directly, not by reference"
"""Juraj Lonc (JIRA)"" <jira@apache.org>","Fri, 24 Aug 2012 00:40:42 +1100 (NCT)","[jira] [Updated] (PDFBOX-1396) The Length of stream should be written directly, not by reference"
"=?utf-8?Q?Andreas_Lehmk=C3=BChler_=28JIRA=29?= <jira@apache.org>","Fri, 24 Aug 2012 02:47:42 +1100 (NCT)","[jira] [Resolved] (PDFBOX-1394) Image streams are lost when adding new images to page"
"Apache Jenkins Server  <jenkins@builds.apache.org>","Thu, 23 Aug 2012 16:48:48 +0000 (UTC)","=?UTF-8?Q?Jenkins_build_is_back_to_normal_:?= =?UTF-8?Q?_PDFBox-trunk_=C2=BB_PDFBox_parent_#536?="
"Apache Jenkins Server  <jenkins@builds.apache.org>","Thu, 23 Aug 2012 16:49:23 +0000 (UTC)","Jenkins build is back to normal : PDFBox-trunk #536"
"=?utf-8?Q?Andreas_Lehmk=C3=BChler_=28JIRA=29?= <jira@apache.org>","Fri, 24 Aug 2012 04:21:42 +1100 (NCT)","[jira] [Closed] (PDFBOX-95) ClassCastException in FlateFilter"
"Apache Jenkins Server  <jenkins@builds.apache.org>","Sat, 25 Aug 2012 17:05:31 +0000 (UTC)","Build failed in Jenkins: PDFBox-trunk #537"
"=?utf-8?Q?Andreas_Lehmk=C3=BChler_=28JIRA=29?= <jira@apache.org>","Mon, 27 Aug 2012 16:52:08 +1100 (NCT)","[jira] [Closed] (PDFBOX-1391) Document with ""embedded subset"" fonts is displayed incorrect"
"""Juraj Lonc (JIRA)"" <jira@apache.org>","Mon, 27 Aug 2012 21:29:07 +1100 (NCT)","[jira] [Commented] (PDFBOX-1397) Some characters are displayed by default font (not by correct font)"
"""Juraj Lonc (JIRA)"" <jira@apache.org>","Tue, 28 Aug 2012 01:56:07 +1100 (NCT)","[jira] [Commented] (PDFBOX-490) Pdf Printing of text from embedded fonts"
"""Juraj Lonc (JIRA)"" <jira@apache.org>","Tue, 28 Aug 2012 06:42:12 +1100 (NCT)","[jira] [Commented] (PDFBOX-490) Pdf Printing of text from embedded fonts"
"=?utf-8?Q?Andreas_Lehmk=C3=BChler_=28JIRA=29?= <jira@apache.org>","Wed, 29 Aug 2012 17:08:09 +1100 (NCT)","[jira] [Commented] (PDFBOX-490) Pdf Printing of text from embedded fonts"
"""Juraj Lonc (JIRA)"" <jira@apache.org>","Wed, 29 Aug 2012 18:29:07 +1100 (NCT)","[jira] [Commented] (PDFBOX-1397) Some characters are displayed by default font (not by correct font)"
"""Juraj Lonc (JIRA)"" <jira@apache.org>","Wed, 29 Aug 2012 18:31:07 +1100 (NCT)","[jira] [Updated] (PDFBOX-1397) Some characters are displayed by default font (not by correct font)"
"""Juraj Lonc (JIRA)"" <jira@apache.org>","Wed, 29 Aug 2012 18:31:07 +1100 (NCT)","[jira] [Updated] (PDFBOX-1397) Some characters are displayed by default font (not by correct font)"
"""Juraj Lonc (JIRA)"" <jira@apache.org>","Wed, 29 Aug 2012 18:33:09 +1100 (NCT)","[jira] [Commented] (PDFBOX-490) Pdf Printing of text from embedded fonts"
"""Juraj Lonc (JIRA)"" <jira@apache.org>","Thu, 30 Aug 2012 03:46:08 +1100 (NCT)","[jira] [Created] (PDFBOX-1400) Polygon objects added to existing page are not shown in Adobe Reader"
"""Juraj Lonc (JIRA)"" <jira@apache.org>","Thu, 30 Aug 2012 03:46:09 +1100 (NCT)","[jira] [Updated] (PDFBOX-1400) Polygon objects added to existing page are not shown in Adobe Reader"
"""Juraj Lonc (JIRA)"" <jira@apache.org>","Thu, 30 Aug 2012 03:48:07 +1100 (NCT)","[jira] [Updated] (PDFBOX-1400) Polygon objects added to existing page are not shown in Adobe Reader"
"""Juraj Lonc (JIRA)"" <jira@apache.org>","Thu, 30 Aug 2012 03:48:09 +1100 (NCT)","[jira] [Updated] (PDFBOX-1400) Polygon objects added to existing page are not shown in Adobe Reader"
"""Juraj Lonc (JIRA)"" <jira@apache.org>","Thu, 30 Aug 2012 03:48:09 +1100 (NCT)","[jira] [Updated] (PDFBOX-1400) Polygon objects added to existing page are not shown in Adobe Reader"
"""Juraj Lonc (JIRA)"" <jira@apache.org>","Thu, 30 Aug 2012 04:00:07 +1100 (NCT)","[jira] [Commented] (PDFBOX-1400) Polygon objects added to existing page are not shown in Adobe Reader"
"=?utf-8?Q?Andreas_Lehmk=C3=BChler_=28JIRA=29?= <jira@apache.org>","Thu, 30 Aug 2012 04:50:08 +1100 (NCT)","[jira] [Assigned] (PDFBOX-1397) Some characters are displayed by default font (not by correct font)"
"=?utf-8?Q?Andreas_Lehmk=C3=BChler_=28JIRA=29?= <jira@apache.org>","Thu, 30 Aug 2012 04:52:07 +1100 (NCT)","[jira] [Commented] (PDFBOX-1397) Some characters are displayed by default font (not by correct font)"
"=?utf-8?Q?Andreas_Lehmk=C3=BChler_=28JIRA=29?= <jira@apache.org>","Thu, 30 Aug 2012 05:01:09 +1100 (NCT)","[jira] [Commented] (PDFBOX-1400) Polygon objects added to existing page are not shown in Adobe Reader"
"""Juraj Lonc (JIRA)"" <jira@apache.org>","Thu, 30 Aug 2012 05:38:08 +1100 (NCT)","[jira] [Commented] (PDFBOX-1400) Polygon objects added to existing page are not shown in Adobe Reader"
"""Juraj Lonc (JIRA)"" <jira@apache.org>","Thu, 30 Aug 2012 05:38:08 +1100 (NCT)","[jira] [Closed] (PDFBOX-1400) Polygon objects added to existing page are not shown in Adobe Reader"
"""Juraj Lonc (JIRA)"" <jira@apache.org>","Thu, 30 Aug 2012 07:25:07 +1100 (NCT)","[jira] [Created] (PDFBOX-1401) Processor for getting image positions"
"""Juraj Lonc (JIRA)"" <jira@apache.org>","Thu, 30 Aug 2012 07:27:08 +1100 (NCT)","[jira] [Commented] (PDFBOX-1401) Processor for getting image positions"
"""Will May (JIRA)"" <jira@apache.org>","Thu, 30 Aug 2012 08:14:07 +1100 (NCT)","[jira] [Created] (PDFBOX-1402) Improve handling of multiline text boxes"
"""Will May (JIRA)"" <jira@apache.org>","Thu, 30 Aug 2012 08:22:07 +1100 (NCT)","[jira] [Updated] (PDFBOX-1402) Improve handling of multiline text boxes"
"""Juraj Lonc (JIRA)"" <jira@apache.org>","Thu, 30 Aug 2012 17:00:07 +1100 (NCT)","[jira] [Updated] (PDFBOX-1401) Processor for getting image positions"
"""Juraj Lonc (JIRA)"" <jira@apache.org>","Thu, 30 Aug 2012 17:00:14 +1100 (NCT)","[jira] [Updated] (PDFBOX-1401) Processor for getting image positions"
"""Juraj Lonc (JIRA)"" <jira@apache.org>","Thu, 30 Aug 2012 18:57:07 +1100 (NCT)","[jira] [Created] (PDFBOX-1403) Retrieve FontDescription from descendant font"
"""Juraj Lonc (JIRA)"" <jira@apache.org>","Thu, 30 Aug 2012 18:59:07 +1100 (NCT)","[jira] [Updated] (PDFBOX-1403) Retrieve FontDescription from descendant font"
"""Juraj Lonc (JIRA)"" <jira@apache.org>","Thu, 30 Aug 2012 18:59:07 +1100 (NCT)","[jira] [Comment Edited] (PDFBOX-1403) Retrieve FontDescription from descendant font"
"""Juraj Lonc (JIRA)"" <jira@apache.org>","Thu, 30 Aug 2012 18:59:08 +1100 (NCT)","[jira] [Updated] (PDFBOX-1403) Retrieve FontDescription from descendant font"
"""Juraj Lonc (JIRA)"" <jira@apache.org>","Thu, 30 Aug 2012 20:16:07 +1100 (NCT)","[jira] [Created] (PDFBOX-1404) Add FontBoundingBox to extracted TextPosition"
"""Juraj Lonc (JIRA)"" <jira@apache.org>","Thu, 30 Aug 2012 20:21:07 +1100 (NCT)","[jira] [Updated] (PDFBOX-1404) Add FontBoundingBox to extracted TextPosition"
"""Juraj Lonc (JIRA)"" <jira@apache.org>","Thu, 30 Aug 2012 20:23:07 +1100 (NCT)","[jira] [Updated] (PDFBOX-1404) Add FontBoundingBox to extracted TextPosition"
"""Juraj Lonc (JIRA)"" <jira@apache.org>","Thu, 30 Aug 2012 20:23:07 +1100 (NCT)","[jira] [Commented] (PDFBOX-1404) Add FontBoundingBox to extracted TextPosition"
"""Will May (JIRA)"" <jira@apache.org>","Thu, 30 Aug 2012 22:03:07 +1100 (NCT)","[jira] [Updated] (PDFBOX-1402) Improve handling of multiline text boxes"
"""Juraj Lonc (JIRA)"" <jira@apache.org>","Sat, 1 Sep 2012 01:38:07 +1100 (NCT)","[jira] [Commented] (PDFBOX-1404) Add FontBoundingBox to extracted TextPosition"
"""Juraj Lonc (JIRA)"" <jira@apache.org>","Sat, 1 Sep 2012 01:38:07 +1100 (NCT)","[jira] [Closed] (PDFBOX-1404) Add FontBoundingBox to extracted TextPosition"
