"Developer","Date","Subject"
"""Jinder Aujla (JIRA)"" <jira@apache.org>","Mon, 1 Apr 2013 23:41:16 +0000 (UTC)","[jira] [Updated] (PDFBOX-1555) Javascript at the end of the PDF document fails parsing"
"""Timo Boehme (JIRA)"" <jira@apache.org>","Tue, 2 Apr 2013 08:25:15 +0000 (UTC)","[jira] [Commented] (PDFBOX-1555) Javascript at the end of the PDF document fails parsing"
"=?utf-8?Q?J=C3=B6rn_Horstmann_=28JIRA=29?= <jira@apache.org>","Tue, 2 Apr 2013 09:49:15 +0000 (UTC)","[jira] [Updated] (PDFBOX-1231) AcroForm appearance generator"
"=?utf-8?Q?J=C3=B6rn_Horstmann_=28JIRA=29?= <jira@apache.org>","Tue, 2 Apr 2013 09:53:15 +0000 (UTC)","[jira] [Comment Edited] (PDFBOX-1231) AcroForm appearance generator"
"=?utf-8?Q?J=C3=B6rn_Horstmann_=28JIRA=29?= <jira@apache.org>","Tue, 2 Apr 2013 10:07:15 +0000 (UTC)","[jira] [Created] (PDFBOX-1556) Saving a document containing a xfa form creates invalid pdf"
"=?utf-8?Q?J=C3=B6rn_Horstmann_=28JIRA=29?= <jira@apache.org>","Tue, 2 Apr 2013 10:09:15 +0000 (UTC)","[jira] [Updated] (PDFBOX-1556) Saving a document containing a xfa form creates invalid pdf"
"""Maruan Sahyoun (JIRA)"" <jira@apache.org>","Tue, 2 Apr 2013 10:39:16 +0000 (UTC)","[jira] [Updated] (PDFBOX-1556) Saving a document containing a xfa form creates invalid pdf"
"""Maruan Sahyoun (JIRA)"" <jira@apache.org>","Tue, 2 Apr 2013 10:45:39 +0000 (UTC)","[jira] [Commented] (PDFBOX-1556) Saving a document containing a xfa form creates invalid pdf"
"Maruan Sahyoun <sahyoun@fileaffairs.de>","Tue, 2 Apr 2013 17:22:33 +0200","Possible regression in pdfbox-1.8.1?"
"Maruan Sahyoun <sahyoun@fileaffairs.de>","Tue, 2 Apr 2013 17:36:07 +0200","Re: Possible regression in pdfbox-1.8.1?"
"Andreas Lehmkuehler <andreas@lehmi.de>","Tue, 02 Apr 2013 18:16:23 +0200","Re: Possible regression in pdfbox-1.8.1?"
"=?utf-8?Q?Andreas_Lehmk=C3=BChler_=28JIRA=29?= <jira@apache.org>","Tue, 2 Apr 2013 16:17:16 +0000 (UTC)","[jira] [Commented] (PDFBOX-1551) Merging PDFs with interactive forms results in a corrupt PDF"
"Maruan Sahyoun <sahyoun@fileaffairs.de>","Tue, 2 Apr 2013 18:28:05 +0200","Re: Possible regression in pdfbox-1.8.1?"
"""Jinder Aujla (JIRA)"" <jira@apache.org>","Wed, 3 Apr 2013 18:45:15 +0000 (UTC)","[jira] [Updated] (PDFBOX-1532) extra space added to rotated text"
"""Robert Bartlett-Schneider (JIRA)"" <jira@apache.org>","Wed, 3 Apr 2013 21:41:16 +0000 (UTC)","[jira] [Created] (PDFBOX-1557) NonSequentialPDFParser incorrectly parsing document info"
"""Robert Bartlett-Schneider (JIRA)"" <jira@apache.org>","Wed, 3 Apr 2013 21:43:15 +0000 (UTC)","[jira] [Updated] (PDFBOX-1557) NonSequentialPDFParser incorrectly parsing document info"
"Maruan Sahyoun <sahyoun@fileaffairs.de>","Thu, 4 Apr 2013 16:41:57 +0200","Re: Possible regression in pdfbox-1.8.1?"
"""Chuck Houpt (JIRA)"" <jira@apache.org>","Thu, 4 Apr 2013 14:47:18 +0000 (UTC)","[jira] [Created] (PDFBOX-1558) Unused PDSignature class should be removed"
"Andreas Lehmkuehler <andreas@lehmi.de>","Thu, 04 Apr 2013 18:45:06 +0200","Re: Possible regression in pdfbox-1.8.1?"
"Maruan Sahyoun <sahyoun@fileaffairs.de>","Thu, 4 Apr 2013 18:58:28 +0200","Re: Possible regression in pdfbox-1.8.1?"
"Andreas Lehmkuehler <andreas@lehmi.de>","Thu, 04 Apr 2013 19:26:08 +0200","Re: Possible regression in pdfbox-1.8.1?"
"Maruan Sahyoun <sahyoun@fileaffairs.de>","Thu, 4 Apr 2013 19:33:55 +0200","Re: Possible regression in pdfbox-1.8.1?"
"Thomas Chojecki <info@rayman2200.de>","Thu, 04 Apr 2013 19:51:29 +0200","Re: Possible regression in pdfbox-1.8.1?"
"Thomas Chojecki <info@rayman2200.de>","Thu, 04 Apr 2013 20:53:27 +0200","Re: Possible regression in pdfbox-1.8.1?"
"Maruan Sahyoun <sahyoun@fileaffairs.de>","Thu, 4 Apr 2013 21:35:56 +0200","Re: Possible regression in pdfbox-1.8.1?"
"Andreas Lehmkuehler <andreas@lehmi.de>","Fri, 05 Apr 2013 07:45:32 +0200","Re: Possible regression in pdfbox-1.8.1?"
"=?utf-8?Q?Andreas_Lehmk=C3=BChler_=28JIRA=29?= <jira@apache.org>","Fri, 5 Apr 2013 06:32:16 +0000 (UTC)","[jira] [Updated] (PDFBOX-1538) Content of annotation not visible in image (converted from pdf)"
"=?utf-8?Q?Andreas_Lehmk=C3=BChler_=28JIRA=29?= <jira@apache.org>","Fri, 5 Apr 2013 06:42:17 +0000 (UTC)","[jira] [Updated] (PDFBOX-1547) TextPosition.getX() and getY() do not work properly with CropBox"
"=?utf-8?Q?Andreas_Lehmk=C3=BChler_=28JIRA=29?= <jira@apache.org>","Fri, 5 Apr 2013 06:48:15 +0000 (UTC)","[jira] [Commented] (PDFBOX-1558) Unused PDSignature class should be removed"
"=?UTF-8?Q?=22Andreas_Lehmk=C3=BChler=22?= <andreas@lehmi.de>","Fri, 5 Apr 2013 08:50:53 +0200 (CEST)","PDFBox 1.8.1 added to JIRA"
"""Maruan Sahyoun (JIRA)"" <jira@apache.org>","Fri, 5 Apr 2013 06:52:16 +0000 (UTC)","[jira] [Updated] (PDFBOX-1556) Saving a document containing a xfa form creates invalid pdf"
"Thomas Chojecki <info@rayman2200.de>","Fri, 05 Apr 2013 10:31:24 +0200","Re: Possible regression in =?UTF-8?Q?pdfbox-=31=2E=38=2E=31=3F?="
"=?UTF-8?Q?=22Andreas_Lehmk=C3=BChler=22?= <andreas@lehmi.de>","Fri, 5 Apr 2013 11:10:09 +0200 (CEST)","Re: Possible regression in pdfbox-1.8.1?"
"Maruan Sahyoun <sahyoun@fileaffairs.de>","Fri, 5 Apr 2013 11:21:18 +0200","Re: Possible regression in pdfbox-1.8.1?"
"""Thomas Chojecki (JIRA)"" <jira@apache.org>","Fri, 5 Apr 2013 09:40:17 +0000 (UTC)","[jira] [Updated] (PDFBOX-1551) Merging PDFs with interactive forms results in a corrupt PDF"
"Maruan Sahyoun <sahyoun@fileaffairs.de>","Fri, 5 Apr 2013 12:16:15 +0200","Re: Overhaul PDFBox site"
"=?UTF-8?Q?=22Andreas_Lehmk=C3=BChler=22?= <andreas@lehmi.de>","Fri, 5 Apr 2013 12:26:10 +0200 (CEST)","Re: Overhaul PDFBox site"
"=?utf-8?Q?Andreas_Lehmk=C3=BChler_=28JIRA=29?= <jira@apache.org>","Fri, 5 Apr 2013 10:30:16 +0000 (UTC)","[jira] [Updated] (PDFBOX-1515) PDGraphicsState class receives null page argument leading to nullpointerexception"
"=?utf-8?Q?Andreas_Lehmk=C3=BChler_=28JIRA=29?= <jira@apache.org>","Fri, 5 Apr 2013 10:30:16 +0000 (UTC)","[jira] [Assigned] (PDFBOX-1515) PDGraphicsState class receives null page argument leading to nullpointerexception"
"=?utf-8?Q?Andreas_Lehmk=C3=BChler_=28JIRA=29?= <jira@apache.org>","Fri, 5 Apr 2013 10:44:24 +0000 (UTC)","[jira] [Closed] (PDFBOX-792) error in extracting some unicode characters"
"=?utf-8?Q?Andreas_Lehmk=C3=BChler_=28JIRA=29?= <jira@apache.org>","Fri, 5 Apr 2013 11:46:15 +0000 (UTC)","[jira] [Assigned] (PDFBOX-1549) TTFSubFont generates bug-prone TTF sub fonts screwing some printers"
"=?utf-8?Q?Andreas_Lehmk=C3=BChler_=28JIRA=29?= <jira@apache.org>","Fri, 5 Apr 2013 11:46:16 +0000 (UTC)","[jira] [Updated] (PDFBOX-1549) TTFSubFont generates bug-prone TTF sub fonts screwing some printers"
"Maruan Sahyoun <sahyoun@fileaffairs.de>","Fri, 5 Apr 2013 16:11:20 +0200","Enhancing the font tests"
"Andreas Lehmkuehler <andreas@lehmi.de>","Fri, 05 Apr 2013 20:02:41 +0200","Re: Enhancing the font tests"
"Maruan Sahyoun <sahyoun@fileaffairs.de>","Fri, 5 Apr 2013 20:04:39 +0200","Re: Enhancing the font tests"
"Andreas Lehmkuehler <andreas@lehmi.de>","Fri, 05 Apr 2013 22:14:41 +0200","Re: Enhancing the font tests"
"""Thomas Chojecki (JIRA)"" <jira@apache.org>","Sat, 6 Apr 2013 01:05:16 +0000 (UTC)","[jira] [Commented] (PDFBOX-1551) Merging PDFs with interactive forms results in a corrupt PDF"
"""Thomas Chojecki (JIRA)"" <jira@apache.org>","Sat, 6 Apr 2013 01:05:17 +0000 (UTC)","[jira] [Commented] (PDFBOX-1556) Saving a document containing a xfa form creates invalid pdf"
"""Thomas Chojecki (JIRA)"" <jira@apache.org>","Sat, 6 Apr 2013 01:07:15 +0000 (UTC)","[jira] [Updated] (PDFBOX-1556) Saving a document containing a xfa form creates invalid pdf"
"=?utf-8?Q?Andreas_Lehmk=C3=BChler_=28JIRA=29?= <jira@apache.org>","Sat, 6 Apr 2013 10:01:17 +0000 (UTC)","[jira] [Commented] (PDFBOX-1551) Merging PDFs with interactive forms results in a corrupt PDF"
"=?utf-8?Q?Andreas_Lehmk=C3=BChler_=28JIRA=29?= <jira@apache.org>","Sat, 6 Apr 2013 10:01:18 +0000 (UTC)","[jira] [Commented] (PDFBOX-1556) Saving a document containing a xfa form creates invalid pdf"
"=?utf-8?Q?Andreas_Lehmk=C3=BChler_=28JIRA=29?= <jira@apache.org>","Sat, 6 Apr 2013 10:13:16 +0000 (UTC)","[jira] [Resolved] (PDFBOX-1515) PDGraphicsState class receives null page argument leading to nullpointerexception"
"=?utf-8?Q?Andreas_Lehmk=C3=BChler_=28JIRA=29?= <jira@apache.org>","Sat, 6 Apr 2013 11:27:16 +0000 (UTC)","[jira] [Closed] (PDFBOX-747) can't extract text from the attached pdf file by pdfbox 1.1.0."
"=?utf-8?Q?Andreas_Lehmk=C3=BChler_=28JIRA=29?= <jira@apache.org>","Sat, 6 Apr 2013 11:31:16 +0000 (UTC)","[jira] [Closed] (PDFBOX-748) Unable to extract special characters from pdf"
"=?utf-8?Q?Andreas_Lehmk=C3=BChler_=28JIRA=29?= <jira@apache.org>","Sat, 6 Apr 2013 14:11:15 +0000 (UTC)","[jira] [Closed] (PDFBOX-776) Text extraction gibberish after ghostscript update"
"""Maruan Sahyoun (JIRA)"" <jira@apache.org>","Sat, 6 Apr 2013 14:39:15 +0000 (UTC)","[jira] [Closed] (PDFBOX-153) getEncoding exception of ""Built-in"""
"""Maruan Sahyoun (JIRA)"" <jira@apache.org>","Sat, 6 Apr 2013 14:43:15 +0000 (UTC)","[jira] [Closed] (PDFBOX-154) Exception while extracting image"
"""Maruan Sahyoun (JIRA)"" <jira@apache.org>","Sat, 6 Apr 2013 14:45:16 +0000 (UTC)","[jira] [Closed] (PDFBOX-155) sf issue Barcode is not printed"
"=?utf-8?Q?Andreas_Lehmk=C3=BChler_=28JIRA=29?= <jira@apache.org>","Sat, 6 Apr 2013 14:47:16 +0000 (UTC)","[jira] [Updated] (PDFBOX-862) PDPage.ConvertToImage destroys RTL text"
"=?utf-8?Q?Andreas_Lehmk=C3=BChler_=28JIRA=29?= <jira@apache.org>","Sat, 6 Apr 2013 14:47:16 +0000 (UTC)","[jira] [Updated] (PDFBOX-862) PDPage.ConvertToImage destroys RTL text"
"=?utf-8?Q?Andreas_Lehmk=C3=BChler_=28JIRA=29?= <jira@apache.org>","Sat, 6 Apr 2013 14:49:16 +0000 (UTC)","[jira] [Closed] (PDFBOX-862) PDPage.ConvertToImage destroys RTL text"
"=?utf-8?Q?Andreas_Lehmk=C3=BChler_=28JIRA=29?= <jira@apache.org>","Sat, 6 Apr 2013 14:57:16 +0000 (UTC)","[jira] [Closed] (PDFBOX-890) Can't extract text from PDF"
"""Maruan Sahyoun (JIRA)"" <jira@apache.org>","Sat, 6 Apr 2013 14:59:15 +0000 (UTC)","[jira] [Closed] (PDFBOX-177) getAnnotations throws ClassCastException"
"""Juan Carlos Castilla (JIRA)"" <jira@apache.org>","Sat, 6 Apr 2013 15:03:15 +0000 (UTC)","[jira] [Created] (PDFBOX-1559) Error when using monospaced Fonts"
"""Maruan Sahyoun (JIRA)"" <jira@apache.org>","Sat, 6 Apr 2013 15:07:15 +0000 (UTC)","[jira] [Commented] (PDFBOX-1559) Error when using monospaced Fonts"
"""Maruan Sahyoun (JIRA)"" <jira@apache.org>","Sat, 6 Apr 2013 15:11:15 +0000 (UTC)","[jira] [Closed] (PDFBOX-184) java.io.IOException: Unexpected encoding type:org.pdfbox.cos"
"""Maruan Sahyoun (JIRA)"" <jira@apache.org>","Sat, 6 Apr 2013 15:15:15 +0000 (UTC)","[jira] [Closed] (PDFBOX-186) NullPointerException in getAllKids with corrupted pdf"
"""Maruan Sahyoun (JIRA)"" <jira@apache.org>","Sat, 6 Apr 2013 15:17:15 +0000 (UTC)","[jira] [Closed] (PDFBOX-200) PDF does not print properly"
"""Maruan Sahyoun (JIRA)"" <jira@apache.org>","Sat, 6 Apr 2013 15:25:15 +0000 (UTC)","[jira] [Closed] (PDFBOX-204) NPE on damaged file"
"""Maruan Sahyoun (JIRA)"" <jira@apache.org>","Sat, 6 Apr 2013 15:33:16 +0000 (UTC)","[jira] [Closed] (PDFBOX-220) print problem"
"""Maruan Sahyoun (JIRA)"" <jira@apache.org>","Sat, 6 Apr 2013 15:35:15 +0000 (UTC)","[jira] [Closed] (PDFBOX-230) NullPointerException when extracting text"
"""Maruan Sahyoun (JIRA)"" <jira@apache.org>","Sat, 6 Apr 2013 15:37:15 +0000 (UTC)","[jira] [Commented] (PDFBOX-239) PDFToImage prints every word at the start of the line"
"""Maruan Sahyoun (JIRA)"" <jira@apache.org>","Sat, 6 Apr 2013 15:41:15 +0000 (UTC)","[jira] [Closed] (PDFBOX-237) overlapping of text in image"
"""Maruan Sahyoun (JIRA)"" <jira@apache.org>","Sat, 6 Apr 2013 15:43:15 +0000 (UTC)","[jira] [Closed] (PDFBOX-279) Exception while parsing a input stream using 'PDFParser'"
"""Maruan Sahyoun (JIRA)"" <jira@apache.org>","Sat, 6 Apr 2013 15:45:15 +0000 (UTC)","[jira] [Closed] (PDFBOX-282) Exception while silent printing a PDF file"
"""Maruan Sahyoun (JIRA)"" <jira@apache.org>","Sat, 6 Apr 2013 15:53:15 +0000 (UTC)","[jira] [Closed] (PDFBOX-294) Text extraction gives incorrect results for attached PDF"
"=?utf-8?Q?Andreas_Lehmk=C3=BChler_=28JIRA=29?= <jira@apache.org>","Sat, 6 Apr 2013 15:57:15 +0000 (UTC)","[jira] [Assigned] (PDFBOX-1559) Error when using monospaced Fonts"
"""Maruan Sahyoun (JIRA)"" <jira@apache.org>","Sat, 6 Apr 2013 16:01:15 +0000 (UTC)","[jira] [Closed] (PDFBOX-301) IOException when parsing 1.3 PDF"
"=?utf-8?Q?Andreas_Lehmk=C3=BChler_=28JIRA=29?= <jira@apache.org>","Sat, 6 Apr 2013 16:03:16 +0000 (UTC)","[jira] [Resolved] (PDFBOX-1559) Error when using monospaced Fonts"
"""Maruan Sahyoun (JIRA)"" <jira@apache.org>","Sat, 6 Apr 2013 16:11:17 +0000 (UTC)","[jira] [Resolved] (PDFBOX-951) Text extraction has issues on some pdfs"
"Andreas Lehmkuehler <andreas@lehmi.de>","Sat, 06 Apr 2013 18:17:07 +0200","Apache PDFBox April 2013 board report due"
"""Plimmer  Keen (JIRA)"" <jira@apache.org>","Sat, 6 Apr 2013 16:29:15 +0000 (UTC)","[jira] [Updated] (PDFBOX-1452) Greek Text Printing Error"
"Maruan Sahyoun <sahyoun@fileaffairs.de>","Sat, 6 Apr 2013 18:32:57 +0200","Re: Apache PDFBox April 2013 board report due"
"""Plimmer  Keen (JIRA)"" <jira@apache.org>","Sat, 6 Apr 2013 16:37:15 +0000 (UTC)","[jira] [Commented] (PDFBOX-1452) Greek Text Printing Error"
"""Eric Leleu (JIRA)"" <jira@apache.org>","Sat, 6 Apr 2013 18:35:16 +0000 (UTC)","[jira] [Updated] (PDFBOX-1557) NonSequentialPDFParser incorrectly parsing document info"
"""Plimmer  Keen (JIRA)"" <jira@apache.org>","Sat, 6 Apr 2013 20:31:16 +0000 (UTC)","[jira] [Updated] (PDFBOX-1452) Greek Text Printing Error"
"""Plimmer  Keen (JIRA)"" <jira@apache.org>","Sat, 6 Apr 2013 20:33:15 +0000 (UTC)","[jira] [Comment Edited] (PDFBOX-1452) Greek Text Printing Error"
"""Plimmer  Keen (JIRA)"" <jira@apache.org>","Sat, 6 Apr 2013 20:41:15 +0000 (UTC)","[jira] [Updated] (PDFBOX-1452) Greek Pdf Printing Problem"
"""Plimmer  Keen (JIRA)"" <jira@apache.org>","Sat, 6 Apr 2013 20:41:15 +0000 (UTC)","[jira] [Updated] (PDFBOX-1452) Greek Pdf Printing Error"
"""Plimmer  Keen (JIRA)"" <jira@apache.org>","Sat, 6 Apr 2013 20:43:16 +0000 (UTC)","[jira] [Updated] (PDFBOX-1452) Greek Pdfs print out wrong characters"
"Andreas Lehmkuehler <andreas@lehmi.de>","Sun, 07 Apr 2013 11:39:01 +0200","Re: Apache PDFBox April 2013 board report due"
"=?utf-8?Q?Andreas_Lehmk=C3=BChler_=28JIRA=29?= <jira@apache.org>","Sun, 7 Apr 2013 10:19:16 +0000 (UTC)","[jira] [Commented] (PDFBOX-1557) NonSequentialPDFParser incorrectly parsing document info"
"Andreas Lehmkuehler <andreas@lehmi.de>","Sun, 07 Apr 2013 12:23:30 +0200","New PDFBox 1.8.1 release"
"Maruan Sahyoun <sahyoun@fileaffairs.de>","Sun, 7 Apr 2013 12:25:41 +0200","Re: New PDFBox 1.8.1 release"
"Thomas Chojecki <info@rayman2200.de>","Sun, 07 Apr 2013 12:28:33 +0200","Re: New PDFBox 1.8.1 release"
"=?utf-8?Q?Andreas_Lehmk=C3=BChler_=28JIRA=29?= <jira@apache.org>","Sun, 7 Apr 2013 10:33:17 +0000 (UTC)","[jira] [Resolved] (PDFBOX-1549) TTFSubFont generates bug-prone TTF sub fonts screwing some printers"
"=?utf-8?Q?Andreas_Lehmk=C3=BChler_=28JIRA=29?= <jira@apache.org>","Sun, 7 Apr 2013 10:55:16 +0000 (UTC)","[jira] [Resolved] (PDFBOX-1558) Unused PDSignature class should be removed"
"=?utf-8?Q?Andreas_Lehmk=C3=BChler_=28JIRA=29?= <jira@apache.org>","Sun, 7 Apr 2013 10:55:17 +0000 (UTC)","[jira] [Resolved] (PDFBOX-1551) Merging PDFs with interactive forms results in a corrupt PDF"
"=?utf-8?Q?Andreas_Lehmk=C3=BChler_=28JIRA=29?= <jira@apache.org>","Sun, 7 Apr 2013 10:55:18 +0000 (UTC)","[jira] [Resolved] (PDFBOX-1556) Saving a document containing a xfa form creates invalid pdf"
"=?utf-8?Q?Andreas_Lehmk=C3=BChler_=28JIRA=29?= <jira@apache.org>","Sun, 7 Apr 2013 11:19:16 +0000 (UTC)","[jira] [Resolved] (PDFBOX-1557) NonSequentialPDFParser incorrectly parsing document info"
"Andreas Lehmkuehler <andreas@lehmi.de>","Sun, 07 Apr 2013 16:46:48 +0200","[VOTE] Release Apache PDFBox 1.8.1"
"""Maruan Sahyoun (JIRA)"" <jira@apache.org>","Sun, 7 Apr 2013 15:47:15 +0000 (UTC)","[jira] [Created] (PDFBOX-1560) Migrate the PDFBox website to the ASF CMS"
"""Maruan Sahyoun (JIRA)"" <jira@apache.org>","Sun, 7 Apr 2013 15:47:16 +0000 (UTC)","[jira] [Updated] (PDFBOX-1560) Migrate the PDFBox website to the ASF CMS"
"""Maruan Sahyoun (JIRA)"" <jira@apache.org>","Sun, 7 Apr 2013 15:51:15 +0000 (UTC)","[jira] [Commented] (PDFBOX-1560) Migrate the PDFBox website to the ASF CMS"
"Maruan Sahyoun <sahyoun@fileaffairs.de>","Sun, 7 Apr 2013 17:55:20 +0200","Re: [VOTE] Release Apache PDFBox 1.8.1"
"Dave Meikle <loompa@gmail.com>","Sun, 7 Apr 2013 19:36:20 +0100","Re: [VOTE] Release Apache PDFBox 1.8.1"
"Timo Boehme <timo.boehme@ontochem.com>","Mon, 08 Apr 2013 10:01:24 +0200","Re: [VOTE] Release Apache PDFBox 1.8.1"
"Maruan Sahyoun <sahyoun@fileaffairs.de>","Mon, 8 Apr 2013 10:16:06 +0200","Re: [VOTE] Release Apache PDFBox 1.8.1"
"=?utf-8?Q?J=C3=B6rn_Horstmann_=28JIRA=29?= <jira@apache.org>","Mon, 8 Apr 2013 11:39:16 +0000 (UTC)","[jira] [Commented] (PDFBOX-1556) Saving a document containing a xfa form creates invalid pdf"
"""Markus Griesser (JIRA)"" <jira@apache.org>","Mon, 8 Apr 2013 11:55:16 +0000 (UTC)","[jira] [Created] (PDFBOX-1561) PDFBox throws exception with PDFTextStripper.getText"
"""Markus Griesser (JIRA)"" <jira@apache.org>","Mon, 8 Apr 2013 11:55:16 +0000 (UTC)","[jira] [Updated] (PDFBOX-1561) PDFBox throws exception with PDFTextStripper.getText"
"Thomas Chojecki <info@rayman2200.de>","Mon, 08 Apr 2013 13:58:14 +0200","Re: [VOTE] Release Apache PDFBox 1.8.1"
"""Plimmer  Keen (JIRA)"" <jira@apache.org>","Mon, 8 Apr 2013 22:02:15 +0000 (UTC)","[jira] [Comment Edited] (PDFBOX-1452) Greek Pdfs print out wrong characters"
"""Maruan Sahyoun (JIRA)"" <jira@apache.org>","Tue, 9 Apr 2013 06:04:17 +0000 (UTC)","[jira] [Updated] (PDFBOX-1560) Migrate the PDFBox website to the ASF CMS"
"""Maruan Sahyoun (JIRA)"" <jira@apache.org>","Tue, 9 Apr 2013 06:08:16 +0000 (UTC)","[jira] [Commented] (PDFBOX-1560) Migrate the PDFBox website to the ASF CMS"
"""Maruan Sahyoun (JIRA)"" <jira@apache.org>","Tue, 9 Apr 2013 06:18:17 +0000 (UTC)","[jira] [Commented] (PDFBOX-1452) Greek Pdfs print out wrong characters"
"=?utf-8?Q?Andreas_Lehmk=C3=BChler_=28JIRA=29?= <jira@apache.org>","Tue, 9 Apr 2013 06:18:17 +0000 (UTC)","[jira] [Commented] (PDFBOX-1560) Migrate the PDFBox website to the ASF CMS"
"""Jens Kapitza (JIRA)"" <jira@apache.org>","Tue, 9 Apr 2013 06:58:19 +0000 (UTC)","[jira] [Commented] (PDFBOX-1560) Migrate the PDFBox website to the ASF CMS"
"""Maruan Sahyoun (JIRA)"" <jira@apache.org>","Tue, 9 Apr 2013 07:20:16 +0000 (UTC)","[jira] [Commented] (PDFBOX-1560) Migrate the PDFBox website to the ASF CMS"
"""Timo Boehme (JIRA)"" <jira@apache.org>","Tue, 9 Apr 2013 07:46:16 +0000 (UTC)","[jira] [Commented] (PDFBOX-1560) Migrate the PDFBox website to the ASF CMS"
"""Thomas Chojecki (JIRA)"" <jira@apache.org>","Tue, 9 Apr 2013 08:00:20 +0000 (UTC)","[jira] [Commented] (PDFBOX-1560) Migrate the PDFBox website to the ASF CMS"
"=?utf-8?Q?Andreas_Lehmk=C3=BChler_=28JIRA=29?= <jira@apache.org>","Tue, 9 Apr 2013 08:02:16 +0000 (UTC)","[jira] [Commented] (PDFBOX-1560) Migrate the PDFBox website to the ASF CMS"
"""Maruan Sahyoun (JIRA)"" <jira@apache.org>","Tue, 9 Apr 2013 08:20:18 +0000 (UTC)","[jira] [Commented] (PDFBOX-1560) Migrate the PDFBox website to the ASF CMS"
"""Maruan Sahyoun (JIRA)"" <jira@apache.org>","Tue, 9 Apr 2013 08:52:15 +0000 (UTC)","[jira] [Commented] (PDFBOX-1560) Migrate the PDFBox website to the ASF CMS"
"=?utf-8?Q?Andreas_Lehmk=C3=BChler_=28JIRA=29?= <jira@apache.org>","Tue, 9 Apr 2013 10:56:16 +0000 (UTC)","[jira] [Commented] (PDFBOX-1560) Migrate the PDFBox website to the ASF CMS"
"""Plimmer  Keen (JIRA)"" <jira@apache.org>","Tue, 9 Apr 2013 15:42:15 +0000 (UTC)","[jira] [Commented] (PDFBOX-1452) Greek Pdfs print out wrong characters"
"Leleu Eric <eric.leleu.dev@gmail.com>","Tue, 9 Apr 2013 18:14:13 +0200","Re: [VOTE] Release Apache PDFBox 1.8.1"
"""Maruan Sahyoun (JIRA)"" <jira@apache.org>","Tue, 9 Apr 2013 16:40:16 +0000 (UTC)","[jira] [Commented] (PDFBOX-1560) Migrate the PDFBox website to the ASF CMS"
"=?utf-8?Q?Andreas_Lehmk=C3=BChler_=28JIRA=29?= <jira@apache.org>","Tue, 9 Apr 2013 17:42:17 +0000 (UTC)","[jira] [Commented] (PDFBOX-1560) Migrate the PDFBox website to the ASF CMS"
"""Christian Connert (JIRA)"" <jira@apache.org>","Wed, 10 Apr 2013 06:50:16 +0000 (UTC)","[jira] [Commented] (PDFBOX-1533) When merging certain PDF's several odd looking empty pages occure in the result"
"""Maruan Sahyoun (JIRA)"" <jira@apache.org>","Wed, 10 Apr 2013 07:02:16 +0000 (UTC)","[jira] [Commented] (PDFBOX-1533) When merging certain PDF's several odd looking empty pages occure in the result"
"""Christian Connert (JIRA)"" <jira@apache.org>","Wed, 10 Apr 2013 07:20:17 +0000 (UTC)","[jira] [Commented] (PDFBOX-1533) When merging certain PDF's several odd looking empty pages occure in the result"
"""Maruan Sahyoun (JIRA)"" <jira@apache.org>","Wed, 10 Apr 2013 07:24:16 +0000 (UTC)","[jira] [Commented] (PDFBOX-1533) When merging certain PDF's several odd looking empty pages occure in the result"
"Andreas Lehmkuehler <andreas@lehmi.de>","Wed, 10 Apr 2013 17:40:11 +0200","[RESULT][VOTE] Release Apache PDFBox 1.8.1"
"=?utf-8?Q?Andreas_Lehmk=C3=BChler_=28JIRA=29?= <jira@apache.org>","Wed, 10 Apr 2013 17:12:16 +0000 (UTC)","[jira] [Closed] (PDFBOX-1559) Error when using monospaced Fonts"
"=?utf-8?Q?Andreas_Lehmk=C3=BChler_=28JIRA=29?= <jira@apache.org>","Wed, 10 Apr 2013 17:12:16 +0000 (UTC)","[jira] [Closed] (PDFBOX-1557) NonSequentialPDFParser incorrectly parsing document info"
"=?utf-8?Q?Andreas_Lehmk=C3=BChler_=28JIRA=29?= <jira@apache.org>","Wed, 10 Apr 2013 17:12:16 +0000 (UTC)","[jira] [Closed] (PDFBOX-1515) PDGraphicsState class receives null page argument leading to nullpointerexception"
"=?utf-8?Q?Andreas_Lehmk=C3=BChler_=28JIRA=29?= <jira@apache.org>","Wed, 10 Apr 2013 17:12:17 +0000 (UTC)","[jira] [Closed] (PDFBOX-1551) Merging PDFs with interactive forms results in a corrupt PDF"
"=?utf-8?Q?Andreas_Lehmk=C3=BChler_=28JIRA=29?= <jira@apache.org>","Wed, 10 Apr 2013 17:12:17 +0000 (UTC)","[jira] [Closed] (PDFBOX-1538) Content of annotation not visible in image (converted from pdf)"
"=?utf-8?Q?Andreas_Lehmk=C3=BChler_=28JIRA=29?= <jira@apache.org>","Wed, 10 Apr 2013 17:12:17 +0000 (UTC)","[jira] [Closed] (PDFBOX-1556) Saving a document containing a xfa form creates invalid pdf"
"=?utf-8?Q?Andreas_Lehmk=C3=BChler_=28JIRA=29?= <jira@apache.org>","Wed, 10 Apr 2013 17:12:18 +0000 (UTC)","[jira] [Closed] (PDFBOX-1549) TTFSubFont generates bug-prone TTF sub fonts screwing some printers"
"=?utf-8?Q?Andreas_Lehmk=C3=BChler_=28JIRA=29?= <jira@apache.org>","Wed, 10 Apr 2013 17:12:18 +0000 (UTC)","[jira] [Closed] (PDFBOX-1558) Unused PDSignature class should be removed"
"=?utf-8?Q?Andreas_Lehmk=C3=BChler_=28JIRA=29?= <jira@apache.org>","Wed, 10 Apr 2013 17:12:18 +0000 (UTC)","[jira] [Closed] (PDFBOX-1547) TextPosition.getX() and getY() do not work properly with CropBox"
"=?utf-8?Q?Andreas_Lehmk=C3=BChler_=28JIRA=29?= <jira@apache.org>","Wed, 10 Apr 2013 17:18:16 +0000 (UTC)","[jira] [Updated] (PDFBOX-951) Text extraction has issues on some pdfs"
"=?utf-8?Q?Andreas_Lehmk=C3=BChler_=28JIRA=29?= <jira@apache.org>","Wed, 10 Apr 2013 17:20:16 +0000 (UTC)","[jira] [Updated] (PDFBOX-1200)  Invalid Color space, Invalid Color space, DestOutputProfile is missing"
"=?utf-8?Q?Andreas_Lehmk=C3=BChler_=28JIRA=29?= <jira@apache.org>","Wed, 10 Apr 2013 17:20:16 +0000 (UTC)","[jira] [Updated] (PDFBOX-1110) Check rules for ColorSpace validation"
"=?utf-8?Q?Andreas_Lehmk=C3=BChler_=28JIRA=29?= <jira@apache.org>","Wed, 10 Apr 2013 17:22:16 +0000 (UTC)","=?utf-8?Q?[jira]_[Updated]_(PDFBOX-1102)_Attributes_managmen?= =?utf-8?Q?t_:_Detect_XMP_properties_d=C3=A9fined_as_XMP_attributes?="
"=?utf-8?Q?Andreas_Lehmk=C3=BChler_=28JIRA=29?= <jira@apache.org>","Wed, 10 Apr 2013 17:22:16 +0000 (UTC)","[jira] [Updated] (PDFBOX-1204) OCR generated PDF/A  has problems with preflight validation"
"=?utf-8?Q?Andreas_Lehmk=C3=BChler_=28JIRA=29?= <jira@apache.org>","Wed, 10 Apr 2013 17:22:17 +0000 (UTC)","[jira] [Updated] (PDFBOX-1208) Color Space Problem- Invalid Color Space"
"=?utf-8?Q?Andreas_Lehmk=C3=BChler_=28JIRA=29?= <jira@apache.org>","Wed, 10 Apr 2013 17:22:17 +0000 (UTC)","[jira] [Updated] (PDFBOX-1251) Error with MetaData on Scanned PDF converted to PDF/A by Adobe preflight"
"=?utf-8?Q?Andreas_Lehmk=C3=BChler_=28JIRA=29?= <jira@apache.org>","Wed, 10 Apr 2013 17:24:16 +0000 (UTC)","[jira] [Updated] (PDFBOX-1236) Glyph Error in PDF/A that passes comercial validators"
"=?utf-8?Q?Andreas_Lehmk=C3=BChler_=28JIRA=29?= <jira@apache.org>","Wed, 10 Apr 2013 17:24:16 +0000 (UTC)","[jira] [Updated] (PDFBOX-1245) blahPDFA.pdf returns Invalid Font definition and others, validates with commercial converters"
"=?utf-8?Q?Andreas_Lehmk=C3=BChler_=28JIRA=29?= <jira@apache.org>","Wed, 10 Apr 2013 17:24:16 +0000 (UTC)","[jira] [Updated] (PDFBOX-1258) 2.4.9 Invalid color space..ok with commercial validators"
"=?utf-8?Q?Andreas_Lehmk=C3=BChler_=28JIRA=29?= <jira@apache.org>","Wed, 10 Apr 2013 17:26:16 +0000 (UTC)","[jira] [Updated] (PDFBOX-1110) Check rules for ColorSpace validation"
"=?utf-8?Q?Andreas_Lehmk=C3=BChler_=28JIRA=29?= <jira@apache.org>","Wed, 10 Apr 2013 17:28:16 +0000 (UTC)","[jira] [Updated] (PDFBOX-1260) parser.XmpUnexpectedElementException...Commercial validators verify as a valid PDF/A"
"""George Sexton (JIRA)"" <jira@apache.org>","Wed, 10 Apr 2013 20:25:15 +0000 (UTC)","[jira] [Created] (PDFBOX-1562) Thumbnail of PDF is missing image"
"""George Sexton (JIRA)"" <jira@apache.org>","Wed, 10 Apr 2013 20:27:17 +0000 (UTC)","[jira] [Updated] (PDFBOX-1562) Thumbnail of PDF is missing image"
"""George Sexton (JIRA)"" <jira@apache.org>","Wed, 10 Apr 2013 20:27:17 +0000 (UTC)","[jira] [Commented] (PDFBOX-1562) Thumbnail of PDF is missing image"
"""Jens Kapitza (JIRA)"" <jira@apache.org>","Thu, 11 Apr 2013 00:07:16 +0000 (UTC)","[jira] [Commented] (PDFBOX-1562) Thumbnail of PDF is missing image"
"Andreas Lehmkuehler <lehmi@apache.org>","Thu, 11 Apr 2013 07:01:44 +0200","[ANNOUNCE] Apache PDFBox 1.8.1 released"
"""huangchangan (JIRA)"" <jira@apache.org>","Thu, 11 Apr 2013 09:01:21 +0000 (UTC)","[jira] [Created] (PDFBOX-1563) Could not parse predefined CMAP file for 'Adobe-WinCharSetFFFF-UCS2'"
"""huangchangan (JIRA)"" <jira@apache.org>","Thu, 11 Apr 2013 09:03:16 +0000 (UTC)","[jira] [Updated] (PDFBOX-1563) Could not parse predefined CMAP file for 'Adobe-WinCharSetFFFF-UCS2'"
"""huangchangan (JIRA)"" <jira@apache.org>","Thu, 11 Apr 2013 09:11:16 +0000 (UTC)","[jira] [Commented] (PDFBOX-1563) Could not parse predefined CMAP file for 'Adobe-WinCharSetFFFF-UCS2'"
"""Maruan Sahyoun (JIRA)"" <jira@apache.org>","Thu, 11 Apr 2013 10:03:17 +0000 (UTC)","[jira] [Updated] (PDFBOX-1560) Migrate the PDFBox website to the ASF CMS"
"""Maruan Sahyoun (JIRA)"" <jira@apache.org>","Thu, 11 Apr 2013 10:09:17 +0000 (UTC)","[jira] [Commented] (PDFBOX-1560) Migrate the PDFBox website to the ASF CMS"
"""Jens Kapitza (JIRA)"" <jira@apache.org>","Thu, 11 Apr 2013 10:23:16 +0000 (UTC)","[jira] [Commented] (PDFBOX-1560) Migrate the PDFBox website to the ASF CMS"
"""Timo Boehme (JIRA)"" <jira@apache.org>","Thu, 11 Apr 2013 11:09:17 +0000 (UTC)","[jira] [Commented] (PDFBOX-1560) Migrate the PDFBox website to the ASF CMS"
"=?utf-8?Q?Andreas_Lehmk=C3=BChler_=28JIRA=29?= <jira@apache.org>","Thu, 11 Apr 2013 11:23:16 +0000 (UTC)","[jira] [Commented] (PDFBOX-1560) Migrate the PDFBox website to the ASF CMS"
"""Jeremias Maerki (JIRA)"" <jira@apache.org>","Thu, 11 Apr 2013 13:27:19 +0000 (UTC)","[jira] [Updated] (PDFBOX-1560) Migrate the PDFBox website to the ASF CMS"
"""Maruan Sahyoun (JIRA)"" <jira@apache.org>","Thu, 11 Apr 2013 13:53:19 +0000 (UTC)","[jira] [Updated] (PDFBOX-1560) Migrate the PDFBox website to the ASF CMS"
"""Maruan Sahyoun (JIRA)"" <jira@apache.org>","Thu, 11 Apr 2013 14:01:16 +0000 (UTC)","[jira] [Commented] (PDFBOX-1560) Migrate the PDFBox website to the ASF CMS"
"""Jens Kapitza (JIRA)"" <jira@apache.org>","Thu, 11 Apr 2013 14:27:16 +0000 (UTC)","[jira] [Commented] (PDFBOX-1560) Migrate the PDFBox website to the ASF CMS"
"""Timo Boehme (JIRA)"" <jira@apache.org>","Thu, 11 Apr 2013 14:39:16 +0000 (UTC)","[jira] [Commented] (PDFBOX-1560) Migrate the PDFBox website to the ASF CMS"
"Elyes Lehtihet <elyes.lehtihet@gmail.com>","Fri, 12 Apr 2013 10:41:20 +0200","Extending COSName to produce PDF/A with correct OutputIntents"
"Timo Boehme <timo.boehme@ontochem.com>","Fri, 12 Apr 2013 11:30:37 +0200","Re: Extending COSName to produce PDF/A with correct OutputIntents"
"""Elyes Lehtihet (JIRA)"" <jira@apache.org>","Fri, 12 Apr 2013 10:04:15 +0000 (UTC)","[jira] [Created] (PDFBOX-1564) Extending COSName to produce PDF/A with correct OutputIntents"
"""Elyes Lehtihet (JIRA)"" <jira@apache.org>","Fri, 12 Apr 2013 10:04:16 +0000 (UTC)","[jira] [Updated] (PDFBOX-1564) Extending COSName to produce PDF/A with correct OutputIntents"
"Guillaume Bailleul <gbm.bailleul@gmail.com>","Fri, 12 Apr 2013 16:46:27 +0200","Re: Extending COSName to produce PDF/A with correct OutputIntents"
"""Guillaume Bailleul (JIRA)"" <jira@apache.org>","Fri, 12 Apr 2013 17:22:16 +0000 (UTC)","[jira] [Updated] (PDFBOX-1540) Add XML output option to preflight"
"""Guillaume Bailleul (JIRA)"" <jira@apache.org>","Fri, 12 Apr 2013 17:28:16 +0000 (UTC)","[jira] [Commented] (PDFBOX-1560) Migrate the PDFBox website to the ASF CMS"
"""Guillaume Bailleul (JIRA)"" <jira@apache.org>","Fri, 12 Apr 2013 17:46:15 +0000 (UTC)","[jira] [Commented] (PDFBOX-1564) Extending COSName to produce PDF/A with correct OutputIntents"
"""Guillaume Bailleul (JIRA)"" <jira@apache.org>","Fri, 12 Apr 2013 18:34:16 +0000 (UTC)","[jira] [Updated] (PDFBOX-1564) Extending COSName to produce PDF/A with correct OutputIntents"
"""Guillaume Bailleul (JIRA)"" <jira@apache.org>","Fri, 12 Apr 2013 18:34:17 +0000 (UTC)","[jira] [Comment Edited] (PDFBOX-1564) Extending COSName to produce PDF/A with correct OutputIntents"
"""Elyes Lehtihet (JIRA)"" <jira@apache.org>","Fri, 12 Apr 2013 19:00:17 +0000 (UTC)","[jira] [Commented] (PDFBOX-1564) Extending COSName to produce PDF/A with correct OutputIntents"
"=?utf-8?Q?Andreas_Lehmk=C3=BChler_=28JIRA=29?= <jira@apache.org>","Fri, 12 Apr 2013 20:18:17 +0000 (UTC)","[jira] [Commented] (PDFBOX-1564) Extending COSName to produce PDF/A with correct OutputIntents"
"=?utf-8?Q?Andreas_Lehmk=C3=BChler_=28JIRA=29?= <jira@apache.org>","Sat, 13 Apr 2013 10:54:16 +0000 (UTC)","[jira] [Commented] (PDFBOX-1562) Thumbnail of PDF is missing image"
"=?utf-8?Q?Andreas_Lehmk=C3=BChler_=28JIRA=29?= <jira@apache.org>","Sat, 13 Apr 2013 10:58:15 +0000 (UTC)","[jira] [Commented] (PDFBOX-1560) Migrate the PDFBox website to the ASF CMS"
"Andreas Lehmkuehler <andreas@lehmi.de>","Sat, 13 Apr 2013 13:10:56 +0200","Re: Enhancing the font tests"
"=?utf-8?Q?Andreas_Lehmk=C3=BChler_=28JIRA=29?= <jira@apache.org>","Sat, 13 Apr 2013 12:08:16 +0000 (UTC)","[jira] [Closed] (PDFBOX-1563) Could not parse predefined CMAP file for 'Adobe-WinCharSetFFFF-UCS2'"
"=?utf-8?Q?Andreas_Lehmk=C3=BChler_=28JIRA=29?= <jira@apache.org>","Sat, 13 Apr 2013 12:14:16 +0000 (UTC)","[jira] [Commented] (PDFBOX-1548) PDJpeg gots drawn in wrong colors when resized -> Adobe Reader -> Windows XP & 7"
"""Marco Metting (JIRA)"" <jira@apache.org>","Sat, 13 Apr 2013 13:12:15 +0000 (UTC)","[jira] [Commented] (PDFBOX-1548) PDJpeg gots drawn in wrong colors when resized -> Adobe Reader -> Windows XP & 7"
"""Marco Metting (JIRA)"" <jira@apache.org>","Sat, 13 Apr 2013 13:14:16 +0000 (UTC)","[jira] [Closed] (PDFBOX-1548) PDJpeg gots drawn in wrong colors when resized -> Adobe Reader -> Windows XP & 7"
"=?utf-8?Q?Andreas_Lehmk=C3=BChler_=28JIRA=29?= <jira@apache.org>","Sat, 13 Apr 2013 14:10:15 +0000 (UTC)","[jira] [Created] (PDFBOX-1565) Add support for Lab color spaces"
"=?utf-8?Q?Andreas_Lehmk=C3=BChler_=28JIRA=29?= <jira@apache.org>","Sat, 13 Apr 2013 14:18:16 +0000 (UTC)","[jira] [Resolved] (PDFBOX-1565) Add support for Lab color spaces"
"""Guillaume Bailleul (JIRA)"" <jira@apache.org>","Sun, 14 Apr 2013 14:52:15 +0000 (UTC)","[jira] [Updated] (PDFBOX-1564) Extending COSName to produce PDF/A with correct OutputIntents"
"=?utf-8?Q?Andreas_Lehmk=C3=BChler_=28JIRA=29?= <jira@apache.org>","Sun, 14 Apr 2013 17:06:15 +0000 (UTC)","[jira] [Commented] (PDFBOX-1564) Extending COSName to produce PDF/A with correct OutputIntents"
"""Eric Leleu (JIRA)"" <jira@apache.org>","Sun, 14 Apr 2013 17:24:15 +0000 (UTC)","[jira] [Commented] (PDFBOX-1546) The document's page tree contains an invalid node"
"""Luis Bernardo (JIRA)"" <jira@apache.org>","Sun, 14 Apr 2013 22:20:15 +0000 (UTC)","[jira] [Commented] (PDFBOX-833) Wrong encoding with Type1C font when specific encoding is defined"
"""Luis Bernardo (JIRA)"" <jira@apache.org>","Sun, 14 Apr 2013 22:22:15 +0000 (UTC)","[jira] [Updated] (PDFBOX-833) Wrong encoding with Type1C font when specific encoding is defined"
"""Ken White (JIRA)"" <jira@apache.org>","Mon, 15 Apr 2013 02:32:15 +0000 (UTC)","[jira] [Commented] (PDFBOX-1546) The document's page tree contains an invalid node"
"""Jens Kapitza (JIRA)"" <jira@apache.org>","Mon, 15 Apr 2013 09:46:17 +0000 (UTC)","[jira] [Created] (PDFBOX-1566) reduce duplicavted code and add caching to pdpagenode"
"""Jens Kapitza (JIRA)"" <jira@apache.org>","Mon, 15 Apr 2013 09:46:19 +0000 (UTC)","[jira] [Updated] (PDFBOX-1566) reduce duplicavted code and add caching to pdpagenode"
"""Jens Kapitza (JIRA)"" <jira@apache.org>","Mon, 15 Apr 2013 09:48:15 +0000 (UTC)","[jira] [Commented] (PDFBOX-1566) reduce duplicavted code and add caching to pdpagenode"
"""Harippriya Parameswaran (JIRA)"" <jira@apache.org>","Mon, 15 Apr 2013 13:40:16 +0000 (UTC)","[jira] [Created] (PDFBOX-1567)  Error Opening PDF in Adobe Reader - The font 'HoneyScript-Light' contains bad /Widths."
"""Harippriya Parameswaran (JIRA)"" <jira@apache.org>","Mon, 15 Apr 2013 13:48:15 +0000 (UTC)","[jira] [Created] (PDFBOX-1568)  Summary : Null Pointer Exception while loading few TrueTypeFont."
"""Maruan Sahyoun (JIRA)"" <jira@apache.org>","Mon, 15 Apr 2013 14:10:17 +0000 (UTC)","[jira] [Commented] (PDFBOX-1568)  Summary : Null Pointer Exception while loading few TrueTypeFont."
"""Guillaume Bailleul (JIRA)"" <jira@apache.org>","Mon, 15 Apr 2013 19:02:16 +0000 (UTC)","[jira] [Commented] (PDFBOX-1564) Extending COSName to produce PDF/A with correct OutputIntents"
"""Guillaume Bailleul (JIRA)"" <jira@apache.org>","Mon, 15 Apr 2013 19:26:16 +0000 (UTC)","[jira] [Commented] (PDFBOX-1564) Extending COSName to produce PDF/A with correct OutputIntents"
"""Maruan Sahyoun (JIRA)"" <jira@apache.org>","Tue, 16 Apr 2013 06:01:21 +0000 (UTC)","[jira] [Commented] (PDFBOX-1564) Extending COSName to produce PDF/A with correct OutputIntents"
"""Jinder Aujla (JIRA)"" <jira@apache.org>","Tue, 16 Apr 2013 23:49:16 +0000 (UTC)","[jira] [Updated] (PDFBOX-1532) extra space added to rotated text"
"""Harippriya Parameswaran (JIRA)"" <jira@apache.org>","Wed, 17 Apr 2013 07:37:15 +0000 (UTC)","[jira] [Created] (PDFBOX-1569) Chinese, Korean - MultiByte Character displayed incorrectly"
"""Harippriya Parameswaran (JIRA)"" <jira@apache.org>","Wed, 17 Apr 2013 07:41:15 +0000 (UTC)","[jira] [Updated] (PDFBOX-1569) Chinese, Korean - MultiByte Character displayed incorrectly"
"""Harippriya Parameswaran (JIRA)"" <jira@apache.org>","Wed, 17 Apr 2013 07:41:15 +0000 (UTC)","[jira] [Updated] (PDFBOX-1569) Chinese, Korean - MultiByte Character displayed incorrectly"
"""Florian Over (JIRA)"" <jira@apache.org>","Wed, 17 Apr 2013 15:15:15 +0000 (UTC)","[jira] [Created] (PDFBOX-1570) PDFImageWriter creates black boxes for some images in the pdf"
"""Florian Over (JIRA)"" <jira@apache.org>","Wed, 17 Apr 2013 15:17:15 +0000 (UTC)","[jira] [Updated] (PDFBOX-1570) PDFImageWriter creates black boxes for some images in the pdf"
"""Harippriya Parameswaran (JIRA)"" <jira@apache.org>","Wed, 17 Apr 2013 15:19:16 +0000 (UTC)","[jira] [Created] (PDFBOX-1571) Images Look Fuzzy"
"""Florian Over (JIRA)"" <jira@apache.org>","Wed, 17 Apr 2013 15:19:17 +0000 (UTC)","[jira] [Updated] (PDFBOX-1570) PDFImageWriter creates black boxes for some images in the pdf"
"=?utf-8?Q?Andreas_Lehmk=C3=BChler_=28JIRA=29?= <jira@apache.org>","Wed, 17 Apr 2013 18:31:16 +0000 (UTC)","[jira] [Updated] (PDFBOX-1568)  Summary : Null Pointer Exception while loading few TrueTypeFont."
"=?utf-8?Q?Andreas_Lehmk=C3=BChler_=28JIRA=29?= <jira@apache.org>","Wed, 17 Apr 2013 18:45:16 +0000 (UTC)","[jira] [Closed] (PDFBOX-1567)  Error Opening PDF in Adobe Reader - The font 'HoneyScript-Light' contains bad /Widths."
"=?utf-8?Q?Andreas_Lehmk=C3=BChler_=28JIRA=29?= <jira@apache.org>","Wed, 17 Apr 2013 19:49:17 +0000 (UTC)","[jira] [Resolved] (PDFBOX-833) Wrong encoding with Type1C font when specific encoding is defined"
"""Jon Wu (JIRA)"" <jira@apache.org>","Wed, 17 Apr 2013 20:55:16 +0000 (UTC)","[jira] [Commented] (PDFBOX-678) Support missing Text Rendering Modes when rendering a PDF"
"""Dustin Spicuzza (JIRA)"" <jira@apache.org>","Wed, 17 Apr 2013 23:35:16 +0000 (UTC)","[jira] [Commented] (PDFBOX-1521) Text extraction: Introduce PDFTextstripper.handleLine exposing all text positions to a subclass when a line of text is written"
"""Alexander Stepanov (JIRA)"" <jira@apache.org>","Thu, 18 Apr 2013 01:09:15 +0000 (UTC)","[jira] [Commented] (PDFBOX-1506) Incorrect visualization of PDF document via PageDrawer"
"=?utf-8?Q?Andreas_Lehmk=C3=BChler_=28JIRA=29?= <jira@apache.org>","Thu, 18 Apr 2013 05:47:16 +0000 (UTC)","[jira] [Resolved] (PDFBOX-1506) Incorrect visualization of PDF document via PageDrawer"
"""znerol (JIRA)"" <jira@apache.org>","Thu, 18 Apr 2013 07:45:25 +0000 (UTC)","[jira] [Updated] (PDFBOX-1521) Text extraction: Introduce PDFTextstripper.handleLine exposing all text positions to a subclass when a line of text is written"
"""znerol (JIRA)"" <jira@apache.org>","Thu, 18 Apr 2013 07:47:16 +0000 (UTC)","[jira] [Commented] (PDFBOX-1521) Text extraction: Introduce PDFTextstripper.handleLine exposing all text positions to a subclass when a line of text is written"
"Andreas Lehmkuehler <andreas@lehmi.de>","Thu, 18 Apr 2013 21:11:12 +0200","How to proceed?"
"=?utf-8?Q?Andreas_Lehmk=C3=BChler_=28JIRA=29?= <jira@apache.org>","Thu, 18 Apr 2013 19:28:15 +0000 (UTC)","[jira] [Closed] (PDFBOX-1569) Chinese, Korean - MultiByte Character displayed incorrectly"
"Maruan Sahyoun <sahyoun@fileaffairs.de>","Thu, 18 Apr 2013 22:15:02 +0200","Re: How to proceed?"
"=?utf-8?Q?Andreas_Lehmk=C3=BChler_=28JIRA=29?= <jira@apache.org>","Thu, 18 Apr 2013 20:50:13 +0000 (UTC)","[jira] [Resolved] (PDFBOX-1561) PDFBox throws exception with PDFTextStripper.getText"
"Thomas Chojecki <info@rayman2200.de>","Thu, 18 Apr 2013 23:04:28 +0200","Re: How to proceed?"
"Andreas Lehmkuehler <andreas@lehmi.de>","Thu, 18 Apr 2013 23:32:14 +0200","Re: How to proceed?"
"Maruan Sahyoun <sahyoun@fileaffairs.de>","Thu, 18 Apr 2013 23:37:35 +0200","Re: How to proceed?"
"Maruan Sahyoun <sahyoun@fileaffairs.de>","Fri, 19 Apr 2013 00:50:04 +0200","Re: How to proceed?"
"Timo Boehme <timo.boehme@ontochem.com>","Fri, 19 Apr 2013 09:47:49 +0200","Re: How to proceed?"
"Maruan Sahyoun <sahyoun@fileaffairs.de>","Fri, 19 Apr 2013 10:16:08 +0200","Re: How to proceed?"
"""Daniel Tizon (JIRA)"" <jira@apache.org>","Fri, 19 Apr 2013 09:27:17 +0000 (UTC)","=?utf-8?Q?[jira]_[Created]_(PDFBOX-1572)_PD?= =?utf-8?Q?FBox_ExtracText_problems_with_""=C2=AA""?="
"""Florian Over (JIRA)"" <jira@apache.org>","Fri, 19 Apr 2013 09:57:16 +0000 (UTC)","[jira] [Commented] (PDFBOX-1570) PDFImageWriter creates black boxes for some images in the pdf"
"""Timo Boehme (JIRA)"" <jira@apache.org>","Fri, 19 Apr 2013 10:03:16 +0000 (UTC)","=?utf-8?Q?[jira]_[Commented]_(PDFBOX-1572)_P?= =?utf-8?Q?DFBox_ExtracText_problems_with_""=C2=AA""?="
"""Arun (JIRA)"" <jira@apache.org>","Fri, 19 Apr 2013 10:33:17 +0000 (UTC)","[jira] [Created] (PDFBOX-1573) pdf text highlighting"
"""Daniel Tizon (JIRA)"" <jira@apache.org>","Fri, 19 Apr 2013 10:41:16 +0000 (UTC)","=?utf-8?Q?[jira]_[Commented]_(PDFBOX-1572)_P?= =?utf-8?Q?DFBox_ExtracText_problems_with_""=C2=AA""?="
"""Timo Boehme (JIRA)"" <jira@apache.org>","Fri, 19 Apr 2013 10:53:15 +0000 (UTC)","=?utf-8?Q?[jira]_[Commented]_(PDFBOX-1572)_P?= =?utf-8?Q?DFBox_ExtracText_problems_with_""=C2=AA""?="
"""Timo Boehme (JIRA)"" <jira@apache.org>","Fri, 19 Apr 2013 11:17:15 +0000 (UTC)","=?utf-8?Q?[jira]_[Closed]_(PDFBOX-1572)_PD?= =?utf-8?Q?FBox_ExtracText_problems_with_""=C2=AA""?="
"""Martinez, Mel - 1004 - MITLL"" <m.martinez@ll.mit.edu>","Fri, 19 Apr 2013 09:46:52 -0400","Re: How to proceed?"
"=?utf-8?Q?Andreas_Lehmk=C3=BChler_=28JIRA=29?= <jira@apache.org>","Fri, 19 Apr 2013 15:37:16 +0000 (UTC)","[jira] [Commented] (PDFBOX-1570) PDFImageWriter creates black boxes for some images in the pdf"
"=?utf-8?Q?Andreas_Lehmk=C3=BChler_=28JIRA=29?= <jira@apache.org>","Fri, 19 Apr 2013 15:37:18 +0000 (UTC)","[jira] [Comment Edited] (PDFBOX-1570) PDFImageWriter creates black boxes for some images in the pdf"
"Andreas Lehmkuehler <andreas@lehmi.de>","Fri, 19 Apr 2013 17:47:58 +0200","Re: How to proceed?"
"Andreas Lehmkuehler <andreas@lehmi.de>","Fri, 19 Apr 2013 17:50:05 +0200","Re: How to proceed?"
"Andreas Lehmkuehler <andreas@lehmi.de>","Fri, 19 Apr 2013 18:02:57 +0200","Re: How to proceed?"
"=?utf-8?Q?Andreas_Lehmk=C3=BChler_=28JIRA=29?= <jira@apache.org>","Fri, 19 Apr 2013 16:07:16 +0000 (UTC)","[jira] [Closed] (PDFBOX-1546) The document's page tree contains an invalid node"
"=?utf-8?Q?Andreas_Lehmk=C3=BChler_=28JIRA=29?= <jira@apache.org>","Fri, 19 Apr 2013 18:03:16 +0000 (UTC)","[jira] [Assigned] (PDFBOX-1451) Error in converting a pdf to image using convertToImage"
"=?utf-8?Q?Andreas_Lehmk=C3=BChler_=28JIRA=29?= <jira@apache.org>","Fri, 19 Apr 2013 18:03:16 +0000 (UTC)","[jira] [Commented] (PDFBOX-1451) Error in converting a pdf to image using convertToImage"
"Guillaume Bailleul <gbm.bailleul@gmail.com>","Fri, 19 Apr 2013 20:53:02 +0200","Re: How to proceed?"
"""Guillaume Bailleul (JIRA)"" <jira@apache.org>","Fri, 19 Apr 2013 18:59:16 +0000 (UTC)","[jira] [Commented] (PDFBOX-1564) Extending COSName to produce PDF/A with correct OutputIntents"
"Apache Jenkins Server  <jenkins@builds.apache.org>","Fri, 19 Apr 2013 22:21:01 +0000 (UTC)","=?UTF-8?Q?Build_failed_in_Jenkins:_PDFBo?= =?UTF-8?Q?x-trunk_=C2=BB_Apache_Preflight_#635?="
"Apache Jenkins Server  <jenkins@builds.apache.org>","Fri, 19 Apr 2013 22:21:05 +0000 (UTC)","Build failed in Jenkins: PDFBox-trunk #635"
"Timo Boehme <timo.boehme@ontochem.com>","Sat, 20 Apr 2013 02:00:40 +0200","Re: How to proceed?"
"Apache Jenkins Server  <jenkins@builds.apache.org>","Sat, 20 Apr 2013 06:19:53 +0000 (UTC)","=?UTF-8?Q?Build_failed_in_Jenkins:_PDFBo?= =?UTF-8?Q?x-trunk_=C2=BB_Apache_Preflight_#636?="
"Apache Jenkins Server  <jenkins@builds.apache.org>","Sat, 20 Apr 2013 06:19:58 +0000 (UTC)","Build failed in Jenkins: PDFBox-trunk #636"
"Maruan Sahyoun <sahyoun@fileaffairs.de>","Sat, 20 Apr 2013 08:22:32 +0200","Re: How to proceed?"
"Andreas Lehmkuehler <andreas@lehmi.de>","Sat, 20 Apr 2013 14:43:48 +0200","Re: svn commit: r1469999 - in /pdfbox/trunk/preflight/src/main/java/org/apache/pdfbox/preflight: ValidationResult.java Validator_A1b.java parser/XmlResultParser.java"
"Apache Jenkins Server  <jenkins@builds.apache.org>","Sat, 20 Apr 2013 22:47:55 +0000 (UTC)","=?UTF-8?Q?Jenkins_build_is_back_to_normal_:_P?= =?UTF-8?Q?DFBox-trunk_=C2=BB_Apache_Preflight_#637?="
"Apache Jenkins Server  <jenkins@builds.apache.org>","Sat, 20 Apr 2013 22:47:59 +0000 (UTC)","Jenkins build is back to normal : PDFBox-trunk #637"
"""Gilad Denneboom (JIRA)"" <jira@apache.org>","Sun, 21 Apr 2013 22:13:15 +0000 (UTC)","[jira] [Created] (PDFBOX-1574) ImportFDF fails to do anything"
"""Gilad Denneboom (JIRA)"" <jira@apache.org>","Sun, 21 Apr 2013 22:13:16 +0000 (UTC)","[jira] [Updated] (PDFBOX-1574) ImportFDF fails to do anything"
"""Maruan Sahyoun (JIRA)"" <jira@apache.org>","Mon, 22 Apr 2013 08:01:19 +0000 (UTC)","[jira] [Updated] (PDFBOX-1574) ImportFDF fails to do anything"
"""Maruan Sahyoun (JIRA)"" <jira@apache.org>","Mon, 22 Apr 2013 08:05:17 +0000 (UTC)","[jira] [Commented] (PDFBOX-1574) ImportFDF fails to do anything"
"""Vitalie Bureanu (JIRA)"" <jira@apache.org>","Mon, 22 Apr 2013 08:51:16 +0000 (UTC)","[jira] [Created] (PDFBOX-1575) PDFTextStripper sometimes adds spaces after a detached one word"
"""Vitalie Bureanu (JIRA)"" <jira@apache.org>","Mon, 22 Apr 2013 08:53:15 +0000 (UTC)","[jira] [Updated] (PDFBOX-1575) PDFTextStripper sometimes adds spaces after a detached one word"
"""Vitalie Bureanu (JIRA)"" <jira@apache.org>","Mon, 22 Apr 2013 08:55:17 +0000 (UTC)","[jira] [Updated] (PDFBOX-1575) PDFTextStripper sometimes adds spaces after a detached words"
"""Swati Swoboda (JIRA)"" <jira@apache.org>","Mon, 22 Apr 2013 20:23:15 +0000 (UTC)","[jira] [Created] (PDFBOX-1576) StackOverflowError [COSDictionary.toString(COSDictionary.java:1418)]"
"""Swati Swoboda (JIRA)"" <jira@apache.org>","Mon, 22 Apr 2013 20:25:16 +0000 (UTC)","[jira] [Updated] (PDFBOX-1576) StackOverflowError [COSDictionary.toString(COSDictionary.java:1418)]"
"""Swati Swoboda (JIRA)"" <jira@apache.org>","Mon, 22 Apr 2013 20:25:17 +0000 (UTC)","[jira] [Updated] (PDFBOX-1576) StackOverflowError [COSDictionary.toString(COSDictionary.java:1418)]"
"""Swati Swoboda (JIRA)"" <jira@apache.org>","Mon, 22 Apr 2013 20:27:16 +0000 (UTC)","[jira] [Updated] (PDFBOX-1576) StackOverflowError [COSDictionary.toString(COSDictionary.java:1418)]"
"""Maruan Sahyoun (JIRA)"" <jira@apache.org>","Tue, 23 Apr 2013 06:57:16 +0000 (UTC)","[jira] [Updated] (PDFBOX-1560) Migrate the PDFBox website to the ASF CMS"
"""Maruan Sahyoun (JIRA)"" <jira@apache.org>","Tue, 23 Apr 2013 07:01:19 +0000 (UTC)","[jira] [Commented] (PDFBOX-1560) Migrate the PDFBox website to the ASF CMS"
"""Maruan Sahyoun (JIRA)"" <jira@apache.org>","Tue, 23 Apr 2013 07:05:15 +0000 (UTC)","[jira] [Closed] (PDFBOX-661) Enhance the documentation for PDFBox"
"""Thomas Chojecki (JIRA)"" <jira@apache.org>","Tue, 23 Apr 2013 07:53:16 +0000 (UTC)","[jira] [Commented] (PDFBOX-1560) Migrate the PDFBox website to the ASF CMS"
"""Maruan Sahyoun (JIRA)"" <jira@apache.org>","Tue, 23 Apr 2013 08:05:16 +0000 (UTC)","[jira] [Commented] (PDFBOX-1560) Migrate the PDFBox website to the ASF CMS"
"""Harippriya Parameswaran (JIRA)"" <jira@apache.org>","Tue, 23 Apr 2013 08:37:15 +0000 (UTC)","[jira] [Updated] (PDFBOX-1571) Images Look Fuzzy"
"""Harippriya Parameswaran (JIRA)"" <jira@apache.org>","Tue, 23 Apr 2013 08:39:16 +0000 (UTC)","[jira] [Commented] (PDFBOX-1568)  Summary : Null Pointer Exception while loading few TrueTypeFont."
"""Harippriya Parameswaran (JIRA)"" <jira@apache.org>","Tue, 23 Apr 2013 08:39:16 +0000 (UTC)","[jira] [Resolved] (PDFBOX-1568)  Summary : Null Pointer Exception while loading few TrueTypeFont."
"""Vitalie Bureanu (JIRA)"" <jira@apache.org>","Tue, 23 Apr 2013 13:53:15 +0000 (UTC)","[jira] [Commented] (PDFBOX-1575) PDFTextStripper sometimes adds spaces after a detached words"
"""Vitalie Bureanu (JIRA)"" <jira@apache.org>","Tue, 23 Apr 2013 15:17:16 +0000 (UTC)","[jira] [Updated] (PDFBOX-1575) PDFTextStripper adds spaces after a detached words"
"=?utf-8?Q?Andreas_Lehmk=C3=BChler_=28JIRA=29?= <jira@apache.org>","Wed, 24 Apr 2013 05:21:18 +0000 (UTC)","[jira] [Commented] (PDFBOX-1560) Migrate the PDFBox website to the ASF CMS"
"""Thomas Weinstein (JIRA)"" <jira@apache.org>","Wed, 24 Apr 2013 13:49:16 +0000 (UTC)","[jira] [Created] (PDFBOX-1577) Transparency and Shadow Effects"
"""Thomas Weinstein (JIRA)"" <jira@apache.org>","Wed, 24 Apr 2013 13:51:15 +0000 (UTC)","[jira] [Updated] (PDFBOX-1577) Transparency and Shadow Effects"
"""Thomas Weinstein (JIRA)"" <jira@apache.org>","Wed, 24 Apr 2013 13:53:16 +0000 (UTC)","[jira] [Updated] (PDFBOX-1577) Transparency and Shadow Effects"
"""Harippriya Parameswaran (JIRA)"" <jira@apache.org>","Wed, 24 Apr 2013 14:51:15 +0000 (UTC)","[jira] [Created] (PDFBOX-1578) The English Words are shown as Symbols and wrongly displayed"
"""Harippriya Parameswaran (JIRA)"" <jira@apache.org>","Wed, 24 Apr 2013 14:53:18 +0000 (UTC)","[jira] [Updated] (PDFBOX-1578) The English Words are shown as Symbols and wrongly displayed"
"=?utf-8?Q?Andreas_Lehmk=C3=BChler_=28JIRA=29?= <jira@apache.org>","Wed, 24 Apr 2013 17:17:17 +0000 (UTC)","[jira] [Closed] (PDFBOX-1578) The English Words are shown as Symbols and wrongly displayed"
"""Harippriya Parameswaran (JIRA)"" <jira@apache.org>","Thu, 25 Apr 2013 05:44:16 +0000 (UTC)","[jira] [Reopened] (PDFBOX-1578) The English Words are shown as Symbols and wrongly displayed"
"Maruan Sahyoun <sahyoun@fileaffairs.de>","Thu, 25 Apr 2013 07:46:39 +0200","[DISCUSS] Moving to git?"
"""Maruan Sahyoun (JIRA)"" <jira@apache.org>","Thu, 25 Apr 2013 05:50:17 +0000 (UTC)","[jira] [Commented] (PDFBOX-1578) The English Words are shown as Symbols and wrongly displayed"
"Thomas Chojecki <info@rayman2200.de>","Thu, 25 Apr 2013 07:58:49 +0200","Re: [DISCUSS] Moving to git?"
"""Harippriya Parameswaran (JIRA)"" <jira@apache.org>","Thu, 25 Apr 2013 06:12:16 +0000 (UTC)","[jira] [Updated] (PDFBOX-1578) The English Words are shown as Symbols and wrongly displayed"
"Jukka Zitting <jukka.zitting@gmail.com>","Thu, 25 Apr 2013 09:25:50 +0300","Re: [DISCUSS] Moving to git?"
"""Harippriya Parameswaran (JIRA)"" <jira@apache.org>","Thu, 25 Apr 2013 06:54:15 +0000 (UTC)","[jira] [Updated] (PDFBOX-1571) Images Look Fuzzy"
"Thomas Chojecki <info@rayman2200.de>","Thu, 25 Apr 2013 08:59:40 +0200","Re: [DISCUSS] Moving to git?"
"""Harippriya Parameswaran (JIRA)"" <jira@apache.org>","Thu, 25 Apr 2013 12:36:16 +0000 (UTC)","[jira] [Commented] (PDFBOX-1578) The English Words are shown as Symbols and wrongly displayed"
"""Harippriya Parameswaran (JIRA)"" <jira@apache.org>","Thu, 25 Apr 2013 12:38:16 +0000 (UTC)","[jira] [Updated] (PDFBOX-1578) The English Words are shown as Symbols and wrongly displayed"
"=?utf-8?Q?Andreas_Lehmk=C3=BChler_=28JIRA=29?= <jira@apache.org>","Fri, 26 Apr 2013 05:20:15 +0000 (UTC)","[jira] [Commented] (PDFBOX-1578) The English Words are shown as Symbols and wrongly displayed"
"=?ISO-8859-15?Q?Andreas_Lehmk=FChler?= <andreas@lehmi.de>","Fri, 26 Apr 2013 07:36:44 +0200","Re: How to proceed?"
"=?ISO-8859-1?Q?Andreas_Lehmk=FChler?= <andreas@lehmi.de>","Fri, 26 Apr 2013 07:42:33 +0200","Re: [DISCUSS] Moving to git?"
"Maruan Sahyoun <sahyoun@fileaffairs.de>","Fri, 26 Apr 2013 07:48:58 +0200","Re: How to proceed?"
"Leleu Eric <eric.leleu.dev@gmail.com>","Fri, 26 Apr 2013 09:10:03 +0200","Re: How to proceed?"
"=?UTF-8?Q?=22Andreas_Lehmk=C3=BChler=22?= <andreas@lehmi.de>","Fri, 26 Apr 2013 09:11:46 +0200 (CEST)","Re: [DISCUSS] Moving to git?"
"Timo Boehme <timo.boehme@ontochem.com>","Fri, 26 Apr 2013 09:14:35 +0200","Re: How to proceed?"
"Thomas Chojecki <info@rayman2200.de>","Fri, 26 Apr 2013 09:23:28 +0200","Re: How to =?UTF-8?Q?proceed=3F?="
"Jukka Zitting <jukka.zitting@gmail.com>","Fri, 26 Apr 2013 10:25:57 +0300","Re: [DISCUSS] Moving to git?"
"=?UTF-8?Q?=22Andreas_Lehmk=C3=BChler=22?= <andreas@lehmi.de>","Fri, 26 Apr 2013 09:41:44 +0200 (CEST)","Re: [DISCUSS] Moving to git?"
"Guillaume Bailleul <gbm.bailleul@gmail.com>","Fri, 26 Apr 2013 11:17:39 +0200","Re: How to proceed?"
"""Jay Meyer (JIRA)"" <jira@apache.org>","Fri, 26 Apr 2013 14:18:15 +0000 (UTC)","[jira] [Commented] (PDFBOX-1407) ClassCastException: COSObject cannot be cast to COSName"
"""Jay Meyer (JIRA)"" <jira@apache.org>","Fri, 26 Apr 2013 14:22:15 +0000 (UTC)","[jira] [Commented] (PDFBOX-1407) ClassCastException: COSObject cannot be cast to COSName"
"""Luis Bernardo (JIRA)"" <jira@apache.org>","Fri, 26 Apr 2013 14:26:18 +0000 (UTC)","[jira] [Created] (PDFBOX-1579) add logging if /FontFile2 entry is missing and a system font is used instead"
"""Maruan Sahyoun (JIRA)"" <jira@apache.org>","Fri, 26 Apr 2013 14:28:16 +0000 (UTC)","[jira] [Commented] (PDFBOX-1407) ClassCastException: COSObject cannot be cast to COSName"
"""Luis Bernardo (JIRA)"" <jira@apache.org>","Fri, 26 Apr 2013 14:28:17 +0000 (UTC)","[jira] [Updated] (PDFBOX-1579) add logging if /FontFile2 entry is missing and a system font is used instead"
"""Jay Meyer (JIRA)"" <jira@apache.org>","Fri, 26 Apr 2013 14:50:17 +0000 (UTC)","[jira] [Commented] (PDFBOX-1407) ClassCastException: COSObject cannot be cast to COSName"
"=?utf-8?Q?Christian_Kohlsch=C3=BCtter_=28JIRA=29?= <jira@apache.org>","Fri, 26 Apr 2013 15:00:23 +0000 (UTC)","[jira] [Created] (PDFBOX-1580) Oracle JVM crashes because of embedded fonts."
"=?utf-8?Q?Christian_Kohlsch=C3=BCtter_=28JIRA=29?= <jira@apache.org>","Fri, 26 Apr 2013 15:02:16 +0000 (UTC)","[jira] [Updated] (PDFBOX-1580) Oracle JVM crashes because of embedded fonts."
"=?utf-8?Q?Christian_Kohlsch=C3=BCtter_=28JIRA=29?= <jira@apache.org>","Fri, 26 Apr 2013 15:04:15 +0000 (UTC)","[jira] [Updated] (PDFBOX-1580) Oracle JVM crashes because of embedded fonts."
"""Jay Meyer (JIRA)"" <jira@apache.org>","Fri, 26 Apr 2013 15:08:16 +0000 (UTC)","[jira] [Commented] (PDFBOX-1407) ClassCastException: COSObject cannot be cast to COSName"
"""Maruan Sahyoun (JIRA)"" <jira@apache.org>","Fri, 26 Apr 2013 15:10:16 +0000 (UTC)","[jira] [Commented] (PDFBOX-1407) ClassCastException: COSObject cannot be cast to COSName"
"""Jay Meyer (JIRA)"" <jira@apache.org>","Fri, 26 Apr 2013 15:38:16 +0000 (UTC)","[jira] [Commented] (PDFBOX-1407) ClassCastException: COSObject cannot be cast to COSName"
"""Maruan Sahyoun (JIRA)"" <jira@apache.org>","Fri, 26 Apr 2013 15:58:16 +0000 (UTC)","[jira] [Commented] (PDFBOX-1407) ClassCastException: COSObject cannot be cast to COSName"
"""Maruan Sahyoun (JIRA)"" <jira@apache.org>","Fri, 26 Apr 2013 16:36:17 +0000 (UTC)","[jira] [Commented] (PDFBOX-1560) Migrate the PDFBox website to the ASF CMS"
"""Maruan Sahyoun (JIRA)"" <jira@apache.org>","Fri, 26 Apr 2013 16:46:16 +0000 (UTC)","[jira] [Commented] (PDFBOX-1560) Migrate the PDFBox website to the ASF CMS"
"=?utf-8?Q?Andreas_Lehmk=C3=BChler_=28JIRA=29?= <jira@apache.org>","Fri, 26 Apr 2013 18:06:16 +0000 (UTC)","[jira] [Commented] (PDFBOX-1560) Migrate the PDFBox website to the ASF CMS"
"=?utf-8?Q?Andreas_Lehmk=C3=BChler_=28JIRA=29?= <jira@apache.org>","Sat, 27 Apr 2013 09:34:18 +0000 (UTC)","[jira] [Commented] (PDFBOX-1576) StackOverflowError [COSDictionary.toString(COSDictionary.java:1418)]"
"""Fredrik Kjellberg (JIRA)"" <jira@apache.org>","Sat, 27 Apr 2013 12:58:15 +0000 (UTC)","[jira] [Created] (PDFBOX-1581) Add PDDocument.save(File) and PDDocument.loadNonSeq(InputStream, ...)"
"""Fredrik Kjellberg (JIRA)"" <jira@apache.org>","Sat, 27 Apr 2013 13:00:19 +0000 (UTC)","[jira] [Updated] (PDFBOX-1581) Add PDDocument.save(File) and PDDocument.loadNonSeq(InputStream, ...)"
"=?utf-8?Q?Christian_Kohlsch=C3=BCtter_=28JIRA=29?= <jira@apache.org>","Sun, 28 Apr 2013 14:06:17 +0000 (UTC)","[jira] [Commented] (PDFBOX-1426) JVM crashes when trying to process the attached pdf's"
"=?utf-8?Q?Christian_Kohlsch=C3=BCtter_=28JIRA=29?= <jira@apache.org>","Sun, 28 Apr 2013 14:08:16 +0000 (UTC)","[jira] [Comment Edited] (PDFBOX-1336) JVM Crashes on Linux OS + Sun JVM + PDFBox"
"=?utf-8?Q?Christian_Kohlsch=C3=BCtter_=28JIRA=29?= <jira@apache.org>","Sun, 28 Apr 2013 14:08:16 +0000 (UTC)","[jira] [Commented] (PDFBOX-1336) JVM Crashes on Linux OS + Sun JVM + PDFBox"
"""Fredrik Kjellberg (JIRA)"" <jira@apache.org>","Sun, 28 Apr 2013 14:32:16 +0000 (UTC)","[jira] [Created] (PDFBOX-1582) Issues with available() and skip() on RandomAccessFileInputStream"
"""Fredrik Kjellberg (JIRA)"" <jira@apache.org>","Sun, 28 Apr 2013 14:34:15 +0000 (UTC)","[jira] [Updated] (PDFBOX-1582) Issues with available() and skip() on RandomAccessFileInputStream"
"""Adrian Nistor (JIRA)"" <jira@apache.org>","Sun, 28 Apr 2013 16:30:15 +0000 (UTC)","[jira] [Updated] (PDFBOX-1583) wasted work in PDDocument.addSignature(...)"
"""Adrian Nistor (JIRA)"" <jira@apache.org>","Sun, 28 Apr 2013 16:30:15 +0000 (UTC)","[jira] [Created] (PDFBOX-1583) wasted work in PDDocument.addSignature(...)"
"=?utf-8?Q?Andreas_Lehmk=C3=BChler_=28JIRA=29?= <jira@apache.org>","Sun, 28 Apr 2013 16:52:16 +0000 (UTC)","[jira] [Resolved] (PDFBOX-1583) wasted work in PDDocument.addSignature(...)"
"Andreas Lehmkuehler <andreas@lehmi.de>","Sun, 28 Apr 2013 19:04:47 +0200","Trunk is now 2.0.0-SNAPSHOT"
"""Fredrik Kjellberg (JIRA)"" <jira@apache.org>","Sun, 28 Apr 2013 17:28:15 +0000 (UTC)","[jira] [Created] (PDFBOX-1584) Add unit test for RandomAccessFileOutputStream"
"""Fredrik Kjellberg (JIRA)"" <jira@apache.org>","Sun, 28 Apr 2013 17:30:17 +0000 (UTC)","[jira] [Updated] (PDFBOX-1584) Add unit test for RandomAccessFileOutputStream"
"Andreas Lehmkuehler <andreas@lehmi.de>","Sun, 28 Apr 2013 19:35:31 +0200","[DISCUSS] Switch to java 1.6"
"Alin Mazilu <impeto75@gmail.com>","Sun, 28 Apr 2013 16:11:17 -0400","Re: [DISCUSS] Switch to java 1.6"
"Andreas Lehmkuehler <andreas@lehmi.de>","Mon, 29 Apr 2013 07:47:27 +0200","Re: [DISCUSS] Switch to java 1.6"
"Maruan Sahyoun <sahyoun@fileaffairs.de>","Mon, 29 Apr 2013 08:10:16 +0200","Re: [DISCUSS] Switch to java 1.6"
"Leleu Eric <Eric.Leleu@atos.net>","Mon, 29 Apr 2013 09:16:45 +0200","RE: [DISCUSS] Switch to java 1.6"
"""Sascha Szott (JIRA)"" <jira@apache.org>","Mon, 29 Apr 2013 09:42:21 +0000 (UTC)","[jira] [Created] (PDFBOX-1585) org.apache.pdfbox.util.PDFTextStripper.getText() causes thread to block indefinitely"
"""Sascha Szott (JIRA)"" <jira@apache.org>","Mon, 29 Apr 2013 09:46:16 +0000 (UTC)","[jira] [Updated] (PDFBOX-1585) org.apache.pdfbox.util.PDFTextStripper.getText() causes thread to block indefinitely"
"""Sascha Szott (JIRA)"" <jira@apache.org>","Mon, 29 Apr 2013 09:46:16 +0000 (UTC)","[jira] [Updated] (PDFBOX-1585) org.apache.pdfbox.util.PDFTextStripper.getText() causes thread to block indefinitely"
"""Sascha Szott (JIRA)"" <jira@apache.org>","Mon, 29 Apr 2013 11:44:16 +0000 (UTC)","[jira] [Commented] (PDFBOX-1585) org.apache.pdfbox.util.PDFTextStripper.getText() causes thread to block indefinitely"
"Rayman2200 <git@git.apache.org>","Mon, 29 Apr 2013 13:23:41 +0000 (UTC)","pdfbox pull request: PDFBOX-1513"
"=?utf-8?Q?Andreas_Lehmk=C3=BChler_=28JIRA=29?= <jira@apache.org>","Mon, 29 Apr 2013 15:50:16 +0000 (UTC)","[jira] [Commented] (PDFBOX-1585) org.apache.pdfbox.util.PDFTextStripper.getText() causes thread to block indefinitely"
"""Sascha Szott (JIRA)"" <jira@apache.org>","Mon, 29 Apr 2013 17:34:16 +0000 (UTC)","[jira] [Commented] (PDFBOX-1585) org.apache.pdfbox.util.PDFTextStripper.getText() causes thread to block indefinitely"
"""James Green (JIRA)"" <jira@apache.org>","Tue, 30 Apr 2013 08:54:15 +0000 (UTC)","[jira] [Created] (PDFBOX-1586) IndexOutOfBoundsException when saving a document (at random)"
"=?utf-8?Q?Andreas_Lehmk=C3=BChler_=28JIRA=29?= <jira@apache.org>","Tue, 30 Apr 2013 10:16:15 +0000 (UTC)","[jira] [Commented] (PDFBOX-1586) IndexOutOfBoundsException when saving a document (at random)"
"""James Green (JIRA)"" <jira@apache.org>","Tue, 30 Apr 2013 10:42:16 +0000 (UTC)","[jira] [Commented] (PDFBOX-1586) IndexOutOfBoundsException when saving a document (at random)"
"=?utf-8?Q?Andreas_Lehmk=C3=BChler_=28JIRA=29?= <jira@apache.org>","Tue, 30 Apr 2013 10:50:26 +0000 (UTC)","[jira] [Commented] (PDFBOX-1586) IndexOutOfBoundsException when saving a document (at random)"
"""James Green (JIRA)"" <jira@apache.org>","Tue, 30 Apr 2013 11:02:16 +0000 (UTC)","[jira] [Commented] (PDFBOX-1586) IndexOutOfBoundsException when saving a document (at random)"
"""Emmanuel Bourg (JIRA)"" <jira@apache.org>","Tue, 30 Apr 2013 14:06:16 +0000 (UTC)","[jira] [Created] (PDFBOX-1587)  Update the dependency on Bouncy Castle to 1.48"
"""Emmanuel Bourg (JIRA)"" <jira@apache.org>","Tue, 30 Apr 2013 14:10:17 +0000 (UTC)","[jira] [Updated] (PDFBOX-1587)  Update the dependency on Bouncy Castle to 1.48"
"""Thomas Chojecki (JIRA)"" <jira@apache.org>","Tue, 30 Apr 2013 16:52:15 +0000 (UTC)","[jira] [Commented] (PDFBOX-1587)  Update the dependency on Bouncy Castle to 1.48"
"""Thomas Chojecki (JIRA)"" <jira@apache.org>","Tue, 30 Apr 2013 16:54:16 +0000 (UTC)","[jira] [Updated] (PDFBOX-1587)  Update the dependency on Bouncy Castle to 1.48"
"Thomas Chojecki <info@rayman2200.de>","Tue, 30 Apr 2013 19:03:39 +0200","Re: [DISCUSS] Switch to java 1.6"
"Alin Mazilu <impeto75@gmail.com>","Tue, 30 Apr 2013 13:18:01 -0400","Re: [DISCUSS] Switch to java 1.6"
"""Emmanuel Bourg (JIRA)"" <jira@apache.org>","Tue, 30 Apr 2013 17:38:18 +0000 (UTC)","[jira] [Commented] (PDFBOX-1587)  Update the dependency on Bouncy Castle to 1.48"
"""Emmanuel Bourg (JIRA)"" <jira@apache.org>","Tue, 30 Apr 2013 17:44:16 +0000 (UTC)","[jira] [Comment Edited] (PDFBOX-1587)  Update the dependency on Bouncy Castle to 1.48"
"""Thomas Chojecki (JIRA)"" <jira@apache.org>","Tue, 30 Apr 2013 17:48:16 +0000 (UTC)","[jira] [Commented] (PDFBOX-1587)  Update the dependency on Bouncy Castle to 1.48"
"Thomas Chojecki <info@rayman2200.de>","Tue, 30 Apr 2013 20:23:44 +0200","Re: How to proceed?"
"""Mirko Sertic (JIRA)"" <jira@apache.org>","Tue, 30 Apr 2013 18:44:16 +0000 (UTC)","[jira] [Created] (PDFBOX-1588) Performance problem with ResourceLoader while running in WebStart environment"
"""Thomas Chojecki (JIRA)"" <jira@apache.org>","Tue, 30 Apr 2013 18:58:16 +0000 (UTC)","[jira] [Resolved] (PDFBOX-1587)  Update the dependency on Bouncy Castle to 1.48"
"Apache Jenkins Server  <jenkins@builds.apache.org>","Tue, 30 Apr 2013 19:02:24 +0000 (UTC)","Build failed in Jenkins: PDFBox-ant #921"
"""Thomas Chojecki (JIRA)"" <jira@apache.org>","Tue, 30 Apr 2013 19:10:16 +0000 (UTC)","[jira] [Commented] (PDFBOX-1580) Oracle JVM crashes because of embedded fonts."
"=?utf-8?Q?Christian_Kohlsch=C3=BCtter_=28JIRA=29?= <jira@apache.org>","Tue, 30 Apr 2013 19:18:16 +0000 (UTC)","[jira] [Commented] (PDFBOX-1580) Oracle JVM crashes because of embedded fonts."
"""Emmanuel Bourg (JIRA)"" <jira@apache.org>","Tue, 30 Apr 2013 19:20:16 +0000 (UTC)","[jira] [Commented] (PDFBOX-1587)  Update the dependency on Bouncy Castle to 1.48"
"""Thomas Chojecki (JIRA)"" <jira@apache.org>","Tue, 30 Apr 2013 20:16:16 +0000 (UTC)","[jira] [Resolved] (PDFBOX-1580) Oracle JVM crashes because of embedded fonts."
"Thomas Chojecki <info@rayman2200.de>","Tue, 30 Apr 2013 22:23:58 +0200","Re: Build failed in Jenkins: PDFBox-ant #921"
"Andreas Lehmkuehler <andreas@lehmi.de>","Tue, 30 Apr 2013 22:49:01 +0200","Re: Build failed in Jenkins: PDFBox-ant #921"
"Apache Jenkins Server  <jenkins@builds.apache.org>","Tue, 30 Apr 2013 21:02:37 +0000 (UTC)","Build failed in Jenkins: PDFBox-trunk #640"
"Apache Jenkins Server  <jenkins@builds.apache.org>","Tue, 30 Apr 2013 21:03:01 +0000 (UTC)","Build failed in Jenkins: PDFBox-ant #922"
"Thomas Chojecki <info@rayman2200.de>","Tue, 30 Apr 2013 23:04:54 +0200","Re: Build failed in Jenkins: PDFBox-ant #921"
"""Thomas Chojecki (JIRA)"" <jira@apache.org>","Tue, 30 Apr 2013 21:26:16 +0000 (UTC)","[jira] [Commented] (PDFBOX-1426) JVM crashes when trying to process the attached pdf's"
"""Thomas Chojecki (JIRA)"" <jira@apache.org>","Tue, 30 Apr 2013 21:26:16 +0000 (UTC)","[jira] [Commented] (PDFBOX-1336) JVM Crashes on Linux OS + Sun JVM + PDFBox"
"Apache Jenkins Server  <jenkins@builds.apache.org>","Tue, 30 Apr 2013 22:05:13 +0000 (UTC)","Build failed in Jenkins: PDFBox-ant #923"
"Apache Jenkins Server  <jenkins@builds.apache.org>","Tue, 30 Apr 2013 22:06:25 +0000 (UTC)","Build failed in Jenkins: PDFBox-trunk #641"
"Apache Jenkins Server  <jenkins@builds.apache.org>","Tue, 30 Apr 2013 23:03:17 +0000 (UTC)","Build failed in Jenkins: PDFBox-ant #924"
"Thomas Chojecki <info@rayman2200.de>","Wed, 01 May 2013 01:18:20 +0200","Re: Build failed in Jenkins: PDFBox-ant #924"
"Apache Jenkins Server  <jenkins@builds.apache.org>","Tue, 30 Apr 2013 23:53:52 +0000 (UTC)","=?UTF-8?Q?Jenkins_build_is_back_to_normal_:_?= =?UTF-8?Q?PDFBox-trunk_=C2=BB_PDFBox_reactor_#642?="
"Apache Jenkins Server  <jenkins@builds.apache.org>","Tue, 30 Apr 2013 23:53:52 +0000 (UTC)","=?UTF-8?Q?Jenkins_build_is_back_to_normal_:_PDFBo?= =?UTF-8?Q?x-trunk_=C2=BB_Apache_PDFBox_for_Lucene_#642?="
"Apache Jenkins Server  <jenkins@builds.apache.org>","Tue, 30 Apr 2013 23:53:52 +0000 (UTC)","=?UTF-8?Q?Jenkins_build_is_back_to_normal_:?= =?UTF-8?Q?_PDFBox-trunk_=C2=BB_Apache_PDFBox_#642?="
"Apache Jenkins Server  <jenkins@builds.apache.org>","Tue, 30 Apr 2013 23:53:52 +0000 (UTC)","=?UTF-8?Q?Jenkins_build_is_back_to_normal_:_PDFB?= =?UTF-8?Q?ox-trunk_=C2=BB_Apache_PDFBox_examples_#642?="
"Apache Jenkins Server  <jenkins@builds.apache.org>","Tue, 30 Apr 2013 23:53:52 +0000 (UTC)","=?UTF-8?Q?Jenkins_build_is_back_to_normal_:?= =?UTF-8?Q?_PDFBox-trunk_=C2=BB_Apache_XmpBox_#642?="
"Apache Jenkins Server  <jenkins@builds.apache.org>","Tue, 30 Apr 2013 23:53:52 +0000 (UTC)","=?UTF-8?Q?Jenkins_build_is_back_to_normal_:_PDF?= =?UTF-8?Q?Box-trunk_=C2=BB_Apache_PDFBox_webapp_#642?="
"Apache Jenkins Server  <jenkins@builds.apache.org>","Tue, 30 Apr 2013 23:53:52 +0000 (UTC)","=?UTF-8?Q?Jenkins_build_is_back_to_normal_:?= =?UTF-8?Q?_PDFBox-trunk_=C2=BB_PDFBox_parent_#642?="
"Apache Jenkins Server  <jenkins@builds.apache.org>","Tue, 30 Apr 2013 23:53:52 +0000 (UTC)","=?UTF-8?Q?Jenkins_build_is_back_to_normal_:_?= =?UTF-8?Q?PDFBox-trunk_=C2=BB_Apache_JempBox_#642?="
"Apache Jenkins Server  <jenkins@builds.apache.org>","Tue, 30 Apr 2013 23:53:52 +0000 (UTC)","=?UTF-8?Q?Jenkins_build_is_back_to_normal_:_PDF?= =?UTF-8?Q?Box-trunk_=C2=BB_Apache_PDFBox_for_Ant_#642?="
"Apache Jenkins Server  <jenkins@builds.apache.org>","Tue, 30 Apr 2013 23:53:52 +0000 (UTC)","=?UTF-8?Q?Jenkins_build_is_back_to_normal_:_PDFBox-?= =?UTF-8?Q?trunk_=C2=BB_Apache_Preflight_application_#642?="
"Apache Jenkins Server  <jenkins@builds.apache.org>","Tue, 30 Apr 2013 23:53:52 +0000 (UTC)","=?UTF-8?Q?Jenkins_build_is_back_to_normal_:_P?= =?UTF-8?Q?DFBox-trunk_=C2=BB_Apache_Preflight_#642?="
"Apache Jenkins Server  <jenkins@builds.apache.org>","Tue, 30 Apr 2013 23:53:52 +0000 (UTC)","=?UTF-8?Q?Jenkins_build_is_back_to_normal_:_PDFBo?= =?UTF-8?Q?x-trunk_=C2=BB_Apache_PDFBox_application_#642?="
"Apache Jenkins Server  <jenkins@builds.apache.org>","Tue, 30 Apr 2013 23:53:52 +0000 (UTC)","=?UTF-8?Q?Jenkins_build_is_back_to_normal_:_?= =?UTF-8?Q?PDFBox-trunk_=C2=BB_Apache_FontBox_#642?="
"Apache Jenkins Server  <jenkins@builds.apache.org>","Tue, 30 Apr 2013 23:53:57 +0000 (UTC)","Jenkins build is back to normal : PDFBox-trunk #642"
