"Developer","Date","Subject"
"""Igor Babkin (JIRA)"" <jira@apache.org>","Tue, 1 Feb 2011 08:49:29 +0000 (UTC)","[jira] Created: (HADOOP-7128) How to speed up of Map/Reduce job?"
"""Todd Lipcon (JIRA)"" <jira@apache.org>","Tue, 1 Feb 2011 15:38:29 +0000 (UTC)","[jira] Resolved: (HADOOP-7128) How to speed up of Map/Reduce job?"
"Mohit <mohitsikri@huawei.com>","Wed, 02 Feb 2011 12:43:38 +0530","Query on Hadoop-1849 with respect to latest working trunk."
"""Devaraj K (JIRA)"" <jira@apache.org>","Thu, 3 Feb 2011 15:52:29 +0000 (UTC)","[jira] Created: (HADOOP-7130) Map Reduce Tasks are continously failing, when one among the several harddisks available on the TaskTracker fails."
"""Uma Maheswara Rao G (JIRA)"" <jira@apache.org>","Thu, 3 Feb 2011 16:18:28 +0000 (UTC)","[jira] Created: (HADOOP-7131) set() and toString Methods of the org.apache.hadoop.io.Text class does not include the root exception, in the wrapping RuntimeException."
"Mohit <mohitsikri@huawei.com>","Fri, 04 Feb 2011 10:23:19 +0530","RE: Query on Hadoop-1849 with respect to latest working trunk."
"Aaron Kimball <akimball83@gmail.com>","Fri, 4 Feb 2011 14:19:15 -0800","Re: Query on Hadoop-1849 with respect to latest working trunk."
"Niels Basjes <Niels@basjes.nl>","Sun, 6 Feb 2011 23:36:42 +0100","Bug in the Hudson QA?"
"""Todd Lipcon (JIRA)"" <jira@apache.org>","Mon, 7 Feb 2011 19:30:57 +0000 (UTC)","[jira] Created: (HADOOP-7132) IPC Reader threads should be named"
"Apache Hudson Server <hudson@hudson.apache.org>","Wed, 9 Feb 2011 01:43:02 +0000 (UTC)","Hadoop-Common-trunk-Commit - Build # 496 - Failure"
"""Matt Foley (JIRA)"" <jira@apache.org>","Wed, 9 Feb 2011 18:48:57 +0000 (UTC)","[jira] Created: (HADOOP-7133) CLONE to COMMON - HDFS-1445 Batch the calls in DataStorage to FileUtil.createHardLink(), so we call it once per directory instead of once per file"
"""Roman Shaposhnik (JIRA)"" <jira@apache.org>","Wed, 9 Feb 2011 23:04:57 +0000 (UTC)","[jira] Created: (HADOOP-7134) configure files that are generated as part of the released tarball need to have executable bit set"
"Shivani Rao <sgrao@purdue.edu>","Thu, 10 Feb 2011 00:10:09 -0500 (EST)","Problem with running the job, no default queue"
"""Jeffrey Gerard (JIRA)"" <jira@apache.org>","Thu, 10 Feb 2011 18:00:57 +0000 (UTC)","[jira] Created: (HADOOP-7135) Commit 949660 broke FileUtil.copyMerge"
"Todd Lipcon <todd@cloudera.com>","Thu, 10 Feb 2011 19:45:25 -0800","Add Guava as a dependency?"
"Konstantin Boudnik <cos@apache.org>","Thu, 10 Feb 2011 22:04:00 -0800","Re: Add Guava as a dependency?"
"Jakob Homan <jghoman@gmail.com>","Thu, 10 Feb 2011 22:25:36 -0800","Re: Add Guava as a dependency?"
"Apache Hudson Server <hudson@hudson.apache.org>","Fri, 11 Feb 2011 06:45:49 +0000 (UTC)","Test from Apache hudson to common-dev@"
"Luke Lu <llu@vicaya.com>","Fri, 11 Feb 2011 04:09:53 -0800","Re: Add Guava as a dependency?"
"Todd Lipcon <todd@cloudera.com>","Fri, 11 Feb 2011 10:01:37 -0800","Re: Add Guava as a dependency?"
"Owen O'Malley <omalley@apache.org>","Fri, 11 Feb 2011 11:46:11 -0800","Re: Add Guava as a dependency?"
"Arun C Murthy <acm@yahoo-inc.com>","Fri, 11 Feb 2011 11:51:54 -0800","Re: Add Guava as a dependency?"
"Mathias Herberts <mathias.herberts@gmail.com>","Fri, 11 Feb 2011 20:58:58 +0100","Re: Add Guava as a dependency?"
"""Nigel Daley (JIRA)"" <jira@apache.org>","Sat, 12 Feb 2011 01:50:57 +0000 (UTC)","[jira] Created: (HADOOP-7136) Remove failmon contrib"
"Apache Hudson Server <hudson@hudson.apache.org>","Sat, 12 Feb 2011 02:03:05 +0000 (UTC)","Hadoop-Common-trunk-Commit - Build # 499 - Failure"
"""Nigel Daley (JIRA)"" <jira@apache.org>","Sat, 12 Feb 2011 02:09:57 +0000 (UTC)","[jira] Resolved: (HADOOP-7136) Remove failmon contrib"
"""Nigel Daley (JIRA)"" <jira@apache.org>","Sat, 12 Feb 2011 02:21:57 +0000 (UTC)","[jira] Created: (HADOOP-7137) Remove hod contrib"
"""Nigel Daley (JIRA)"" <jira@apache.org>","Sat, 12 Feb 2011 02:29:57 +0000 (UTC)","[jira] Created: (HADOOP-7138) Remove contrib build and test support"
"""Stephen Rose (JIRA)"" <jira@apache.org>","Sun, 13 Feb 2011 23:11:58 +0000 (UTC)","[jira] Created: (HADOOP-7139) Allow appending to existing SequenceFile and MapFile and allow configuration of blocksize"
"""Stephen Rose (JIRA)"" <jira@apache.org>","Sun, 13 Feb 2011 23:39:57 +0000 (UTC)","[jira] Reopened: (HADOOP-7139) Allow appending to existing SequenceFile and MapFile and allow configuration of blocksize"
"""Todd Lipcon (JIRA)"" <jira@apache.org>","Mon, 14 Feb 2011 03:18:57 +0000 (UTC)","[jira] Created: (HADOOP-7140) IPC Reader threads do not stop when server stops"
"""Jay Hacker (JIRA)"" <jira@apache.org>","Mon, 14 Feb 2011 16:38:58 +0000 (UTC)","[jira] Created: (HADOOP-7141) hadoop fs -put and -copyFromLocal do not support globs in the source path"
"Koji Noguchi <knoguchi@yahoo-inc.com>","Mon, 14 Feb 2011 10:12:49 -0800","Re: Problem with running the job, no default queue"
"""Chase Bradford (JIRA)"" <jira@apache.org>","Tue, 15 Feb 2011 00:45:57 +0000 (UTC)","[jira] Created: (HADOOP-7142) FsShell.TextRecordReader doesn't work if a SequenceFile has non-Writable objects"
"""Joep Rottinghuis (JIRA)"" <jira@apache.org>","Tue, 15 Feb 2011 01:12:58 +0000 (UTC)","[jira] Created: (HADOOP-7143) Hive Hadoop20SShims depends on removed HadoopArchives"
"""Luke Lu (JIRA)"" <jira@apache.org>","Tue, 15 Feb 2011 03:09:57 +0000 (UTC)","[jira] Created: (HADOOP-7144) Expose JMX with something like JMXProxyServlet"
"Apache Hudson Server <hudson@hudson.apache.org>","Tue, 15 Feb 2011 19:31:45 +0000 (UTC)","Hadoop-Common-trunk-Commit - Build # 504 - Failure"
"""Todd Lipcon (JIRA)"" <jira@apache.org>","Tue, 15 Feb 2011 19:42:57 +0000 (UTC)","[jira] Created: (HADOOP-7145) Configuration.getLocalPath should trim whitespace from the provided directories"
"""Todd Lipcon (JIRA)"" <jira@apache.org>","Tue, 15 Feb 2011 20:15:01 +0000 (UTC)","[jira] Resolved: (HADOOP-7132) IPC Reader threads should be named"
"Apache Hudson Server <hudson@hudson.apache.org>","Tue, 15 Feb 2011 20:21:48 +0000 (UTC)","Hadoop-Common-trunk-Commit - Build # 505 - Still Failing"
"""Todd Lipcon (JIRA)"" <jira@apache.org>","Tue, 15 Feb 2011 21:10:57 +0000 (UTC)","[jira] Created: (HADOOP-7146) RPC server leaks file descriptors"
"Apache Hudson Server <hudson@hudson.apache.org>","Tue, 15 Feb 2011 21:31:46 +0000 (UTC)","Hadoop-Common-22-branch - Build # 26 - Failure"
"""springring"" <springring@126.com>","Wed, 16 Feb 2011 14:15:19 +0800","question about CDH3"
"Weishung Chung <weishung@gmail.com>","Wed, 16 Feb 2011 10:43:26 -0600","org.apache.hadoop.io.AbstractMapWritable"
"Apache Hudson Server <hudson@hudson.apache.org>","Wed, 16 Feb 2011 21:43:20 +0000 (UTC)","Hadoop-Common-22-branch - Build # 28 - Failure"
"""Todd Lipcon (JIRA)"" <jira@apache.org>","Thu, 17 Feb 2011 06:47:24 +0000 (UTC)","[jira] Created: (HADOOP-7147) Native code does not build on BSD/OSX"
"""Dave Syer (JIRA)"" <jira@apache.org>","Thu, 17 Feb 2011 12:19:24 +0000 (UTC)","[jira] Created: (HADOOP-7148) Spelling errors in log messages (MapTask)"
"""Todd Lipcon (JIRA)"" <jira@apache.org>","Thu, 17 Feb 2011 18:55:24 +0000 (UTC)","[jira] Created: (HADOOP-7149) Topology script should have some kind of timeout"
"""Owen O'Malley (JIRA)"" <jira@apache.org>","Thu, 17 Feb 2011 23:41:12 +0000 (UTC)","[jira] Created: (HADOOP-7150) Create a module system for adding extensions to Hadoop"
"Rajat Sharma <sh.rajat7@gmail.com>","Fri, 18 Feb 2011 13:32:20 -0500","Hdfs over RDMA"
"""Dmitriy V. Ryaboy (JIRA)"" <jira@apache.org>","Sat, 19 Feb 2011 04:51:38 +0000 (UTC)","[jira] Created: (HADOOP-7151) Document need for stable hashCode() in WritableComparable"
"""Benson Margulies (JIRA)"" <jira@apache.org>","Sat, 19 Feb 2011 22:52:38 +0000 (UTC)","[jira] Resolved: (HADOOP-6463) Uninformative error message for some sort of file permission problem from the hadoop command"
"""Jakob Homan (JIRA)"" <jira@apache.org>","Sun, 20 Feb 2011 03:42:38 +0000 (UTC)","[jira] Resolved: (HADOOP-6463) Uninformative error message for some sort of file permission problem from the hadoop command"
"""Jakob Homan (JIRA)"" <jira@apache.org>","Sun, 20 Feb 2011 03:42:38 +0000 (UTC)","[jira] Reopened: (HADOOP-6463) Uninformative error message for some sort of file permission problem from the hadoop command"
"Shivani Rao <sgrao@purdue.edu>","Sun, 20 Feb 2011 18:32:35 -0500 (EST)","Re: Problem with running the job, no default queue"
"Shivani Rao <sgrao@purdue.edu>","Sun, 20 Feb 2011 18:40:06 -0500 (EST)","Specify queue name for a hadoop job"
"Harsh J <qwertymaniac@gmail.com>","Mon, 21 Feb 2011 08:03:58 +0530","Re: Specify queue name for a hadoop job"
"""Ranjit Mathew (JIRA)"" <jira@apache.org>","Mon, 21 Feb 2011 04:08:38 +0000 (UTC)","[jira] Created: (HADOOP-7152) ""patch"" command not found on Hudson slave machines"
"Christopher Smith <cbsmith@gmail.com>","Mon, 21 Feb 2011 21:15:13 -0800","Re: Hdfs over RDMA"
"bbockelm@cse.unl.edu","Tue, 22 Feb 2011 07:34:17 -0600","Re: Hdfs over RDMA"
"bikash sharma <sharmabiks.07@gmail.com>","Tue, 22 Feb 2011 10:35:55 -0500","measure the resource usage of each map/reduce task"
"Weishung Chung <weishung@gmail.com>","Tue, 22 Feb 2011 09:59:41 -0600","org.apache.hadoop.hdfs.protocol.Block, which class actually holds the data bytes in it?"
"Nikhil Panpalia <nikhil@cs.utexas.edu>","Tue, 22 Feb 2011 11:28:39 -0600","class project on Hadoop"
"Eric Yang <eyang@yahoo-inc.com>","Tue, 22 Feb 2011 11:00:58 -0800","Re: class project on Hadoop"
"Viraj Bhat <viraj@YAHOO-INC.COM>","Tue, 22 Feb 2011 13:35:58 -0800","RE: Specify queue name for a hadoop job"
"""Nicholas Telford (JIRA)"" <jira@apache.org>","Wed, 23 Feb 2011 11:00:38 +0000 (UTC)","[jira] Created: (HADOOP-7153) MapWritable violates contract of Map interface for equals() and hashCode()"
"Apache Hudson Server <hudson@hudson.apache.org>","Thu, 24 Feb 2011 06:48:47 +0000 (UTC)","Hadoop-Common-trunk-Commit - Build # 509 - Failure"
"smjain <jain.sm@gmail.com>","Wed, 23 Feb 2011 23:43:27 -0800 (PST)","using Hadoop as an integration platform"
"Christopher Smith <cbsmith@gmail.com>","Thu, 24 Feb 2011 01:32:08 -0800","Re: using Hadoop as an integration platform"
"""Todd Lipcon (JIRA)"" <jira@apache.org>","Fri, 25 Feb 2011 00:49:43 +0000 (UTC)","[jira] Created: (HADOOP-7154) Should set MALLOC_ARENA_MAX in hadoop-env.sh"
"=?GBK?B?1uzoug==?= <ryanzhutao@163.com>","Fri, 25 Feb 2011 09:41:13 +0800 (CST)","Problem with compiling and deploying customed hadoop"
"Apache Hudson Server <hudson@hudson.apache.org>","Fri, 25 Feb 2011 02:19:39 +0000 (UTC)","Hadoop-Common-trunk-Commit - Build # 510 - Still Failing"
"""Konstantin Shvachko (JIRA)"" <jira@apache.org>","Fri, 25 Feb 2011 07:38:38 +0000 (UTC)","[jira] Created: (HADOOP-7155) Move ipc.Server#CURRENT_VERSION constant to VersionedProtocol."
"""Todd Lipcon (JIRA)"" <jira@apache.org>","Fri, 25 Feb 2011 09:23:38 +0000 (UTC)","[jira] Created: (HADOOP-7156) getpwuid_r is not thread-safe on RHEL6"
"bikash sharma <sharmabiks.07@gmail.com>","Fri, 25 Feb 2011 08:52:53 -0500","definition of slots in Hadoop scheduling"
"""Giridharan Kesavan (JIRA)"" <jira@apache.org>","Fri, 25 Feb 2011 21:33:21 +0000 (UTC)","[jira] Resolved: (HADOOP-7152) ""patch"" command not found on Hudson slave machines"
"Shivani Rao <sgrao@purdue.edu>","Fri, 25 Feb 2011 17:37:33 -0500","a hadoop input format question"
"bikash sharma <sharmabiks.07@gmail.com>","Sat, 26 Feb 2011 10:25:53 -0500","TaskTracker not starting on all nodes"
"""Konstantin Boudnik (JIRA)"" <jira@apache.org>","Sun, 27 Feb 2011 00:14:58 +0000 (UTC)","[jira] Created: (HADOOP-7157) Create build hosts configuratoins to prevent degradation of patch validation and snapshot build environment"
"Matthew John <tmatthewjohn1988@gmail.com>","Sun, 27 Feb 2011 08:20:29 +0530","Re:"
"Matthew John <tmatthewjohn1988@gmail.com>","Sun, 27 Feb 2011 09:16:06 +0530","Re:"
"""Matt Foley (JIRA)"" <jira@apache.org>","Mon, 28 Feb 2011 09:23:37 +0000 (UTC)","[jira] Created: (HADOOP-7158) Reduce RPC packet size for homogeneous arrays, such as the array responses to listStatus() and getBlockLocations()"
