"Developer","Date","Subject"
"""Alejandro Abdelnur (Created) (JIRA)"" <jira@apache.org>","Thu, 1 Dec 2011 00:17:40 +0000 (UTC)","[jira] [Created] (HADOOP-7874) native libs should be under lib/native/ dir"
"""Matt Foley (Reopened) (JIRA)"" <jira@apache.org>","Thu, 1 Dec 2011 02:25:40 +0000 (UTC)","[jira] [Reopened] (HADOOP-7827) jsp pages missing DOCTYPE"
"""Matt Foley (Resolved) (JIRA)"" <jira@apache.org>","Thu, 1 Dec 2011 02:45:39 +0000 (UTC)","[jira] [Resolved] (HADOOP-7869) HADOOP_HOME warning happens all of the time"
"mohmmadanis moulavi <anis_moulavi@yahoo.co.in>","Thu, 1 Dec 2011 10:40:01 +0530 (IST)","How Jobtrakcer stores Tasktrackers Information"
"Praveen Sripati <praveensripati@gmail.com>","Thu, 1 Dec 2011 12:00:31 +0530","Avoiding javadoc generation during MRv2 build"
"mohmmadanis moulavi <anis_moulavi@yahoo.co.in>","Thu, 1 Dec 2011 12:07:39 +0530 (IST)"," How Jobtrakcer stores Tasktrackers Information"
"Mingxi Wu <Mingxi.Wu@turn.com>","Thu, 1 Dec 2011 07:07:54 +0000","RE: Hadoop - non disk based sorting?"
"Praveen Sripati <praveensripati@gmail.com>","Thu, 1 Dec 2011 12:40:13 +0530","Re: how to check which scheduler is currently running on hadoop"
"Mahadev Konar <mahadev@hortonworks.com>","Wed, 30 Nov 2011 23:13:01 -0800","Re: Avoiding javadoc generation during MRv2 build"
"""Suresh Srinivas (Created) (JIRA)"" <jira@apache.org>","Thu, 1 Dec 2011 08:19:40 +0000 (UTC)","[jira] [Created] (HADOOP-7875) Add helper class to unwrap RemoteException from ServiceException thrown on protobuf based RPC"
"Niels Basjes <Niels@basjes.nl>","Thu, 1 Dec 2011 09:45:13 +0100","Re: Which branch for my patch?"
"""Suresh Srinivas (Created) (JIRA)"" <jira@apache.org>","Thu, 1 Dec 2011 09:05:40 +0000 (UTC)","[jira] [Created] (HADOOP-7876) Allow access to BlockKey/DelegationKey endoded key for RPC over protobuf"
"Ravi teja ch n v <raviteja.chnv@huawei.com>","Thu, 01 Dec 2011 09:14:25 +0000","RE: Hadoop - non disk based sorting?"
"Apache Jenkins Server <jenkins@builds.apache.org>","Thu, 1 Dec 2011 09:16:15 +0000 (UTC)","Build failed in Jenkins: Hadoop-Common-0.23-Build #82"
"Ravi teja ch n v <raviteja.chnv@huawei.com>","Thu, 01 Dec 2011 10:12:40 +0000","RE: Hadoop - non disk based sorting?"
"shivam tiwari <shivam.tiwari2009@gmail.com>","Thu, 1 Dec 2011 07:03:30 -0500","Re: how to check which scheduler is currently running on hadoop"
"Harsh J <harsh@cloudera.com>","Thu, 1 Dec 2011 17:40:43 +0530","Re: how to check which scheduler is currently running on hadoop"
"Steve Loughran <stevel@apache.org>","Thu, 01 Dec 2011 13:08:09 +0000","Re: how to check which scheduler is currently running on hadoop"
"Robert Evans <evans@yahoo-inc.com>","Thu, 1 Dec 2011 08:14:50 -0800","Re: Hadoop - non disk based sorting?"
"Todd Lipcon <todd@cloudera.com>","Thu, 1 Dec 2011 10:31:24 -0800","Re: Hadoop - non disk based sorting?"
"""Tsz Wo (Nicholas), SZE (Resolved) (JIRA)"" <jira@apache.org>","Thu, 1 Dec 2011 21:24:40 +0000 (UTC)","[jira] [Resolved] (HADOOP-7877) Federation: update Balancer documentation"
"Arun Murthy <acm@hortonworks.com>","Thu, 1 Dec 2011 17:34:08 -0600","Re: how to check which scheduler is currently running on hadoop"
"Ronald Petty <ronald.petty@gmail.com>","Thu, 1 Dec 2011 18:55:07 -0500","Snow Leopard Compilation Help"
"Alejandro Abdelnur <tucu@cloudera.com>","Thu, 1 Dec 2011 16:23:42 -0800","Re: Snow Leopard Compilation Help"
"Ronald Petty <ronald.petty@gmail.com>","Thu, 1 Dec 2011 20:31:01 -0500","Re: Snow Leopard Compilation Help"
"<Milind.Bhandarkar@emc.com>","Thu, 1 Dec 2011 20:55:56 -0500","Re: Snow Leopard Compilation Help"
"Ravi teja ch n v <raviteja.chnv@huawei.com>","Fri, 02 Dec 2011 05:47:12 +0000","RE: Hadoop - non disk based sorting?"
"Apache Jenkins Server <jenkins@builds.apache.org>","Fri, 2 Dec 2011 09:01:07 +0000 (UTC)","Build failed in Jenkins: Hadoop-Common-0.23-Build #83"
"Apache Jenkins Server <jenkins@builds.apache.org>","Fri, 2 Dec 2011 09:01:50 +0000 (UTC)","Build failed in Jenkins: Hadoop-Common-trunk #246"
"Chandraprakash Bhagtani <cpbhagtani@gmail.com>","Fri, 2 Dec 2011 19:25:37 +0530","Re: Hadoop - non disk based sorting?"
"""Steve Loughran (Created) (JIRA)"" <jira@apache.org>","Fri, 2 Dec 2011 15:07:39 +0000 (UTC)","[jira] [Created] (HADOOP-7878) Regression HADOOP-7777 switch changes too clever for the StaticMapping"
"""Jonathan Hsieh (Created) (JIRA)"" <jira@apache.org>","Sat, 3 Dec 2011 01:11:40 +0000 (UTC)","[jira] [Created] (HADOOP-7879) DistributedFileSystem#createNonRecursive should also incrementWriteOps statistics."
"""Eli Collins (Created) (JIRA)"" <jira@apache.org>","Sat, 3 Dec 2011 02:15:39 +0000 (UTC)","[jira] [Created] (HADOOP-7880) The Single Node and Cluster Setup docs don't cover HDFS"
"Tim Broberg <tbroberg@yahoo.com>","Sat, 3 Dec 2011 00:18:42 -0800 (PST)","Compressor setInput input permanence"
"Apache Jenkins Server <jenkins@builds.apache.org>","Sat, 3 Dec 2011 09:15:25 +0000 (UTC)","Build failed in Jenkins: Hadoop-Common-0.23-Build #84"
"Apache Jenkins Server <jenkins@builds.apache.org>","Sat, 3 Dec 2011 09:28:19 +0000 (UTC)","Jenkins build is back to normal : Hadoop-Common-trunk #247"
"Apache Jenkins Server <jenkins@builds.apache.org>","Sun, 4 Dec 2011 09:15:31 +0000 (UTC)","Build failed in Jenkins: Hadoop-Common-0.23-Build #85"
"Apache Jenkins Server <jenkins@builds.apache.org>","Sun, 4 Dec 2011 09:38:57 +0000 (UTC)","Build failed in Jenkins: Hadoop-Common-trunk #248"
"Sandeep Baldawa <sandeepbaldawa@gmail.com>","Sun, 4 Dec 2011 14:01:21 -0800","Hadoop for running tests in parallel"
"Niels Basjes <Niels@basjes.nl>","Mon, 5 Dec 2011 00:30:51 +0100","Re: Which branch for my patch?"
"Eli Collins <eli@cloudera.com>","Sun, 4 Dec 2011 15:48:27 -0800","Re: Which branch for my patch?"
"""Eli Collins (Created) (JIRA)"" <jira@apache.org>","Mon, 5 Dec 2011 01:02:00 +0000 (UTC)","[jira] [Created] (HADOOP-7881) Fix javadoc warnings in AuthenticationToken"
"=?GBK?B?ufmz5Q==?= <guochonghenu@126.com>","Mon, 5 Dec 2011 09:27:53 +0800 (CST)","Re:How Jobtrakcer stores Tasktrackers Information"
"Todd Lipcon <todd@cloudera.com>","Sun, 4 Dec 2011 22:51:21 -0800","Re: Compressor setInput input permanence"
"Apache Jenkins Server <jenkins@builds.apache.org>","Mon, 5 Dec 2011 09:13:20 +0000 (UTC)","Build failed in Jenkins: Hadoop-Common-0.23-Build #86"
"Apache Jenkins Server <jenkins@builds.apache.org>","Mon, 5 Dec 2011 09:35:12 +0000 (UTC)","Jenkins build is back to normal : Hadoop-Common-trunk #249"
"""Subroto Sanyal (Created) (JIRA)"" <jira@apache.org>","Mon, 5 Dec 2011 11:25:39 +0000 (UTC)","[jira] [Created] (HADOOP-7882) ""webapps"" directory is available in ""HADOOP_HOME"" as well as in ""hadoop-core.jar"""
"Niels Basjes <Niels@basjes.nl>","Mon, 5 Dec 2011 15:09:25 +0100","Re: Which branch for my patch?"
"Praveen Sripati <praveensripati@gmail.com>","Mon, 5 Dec 2011 22:14:43 +0530","Automatically Documenting Apache Hadoop Configuration"
"Tim Broberg <Tim.Broberg@exar.com>","Mon, 5 Dec 2011 09:35:35 -0800","RE: Compressor setInput input permanence"
"Harsh J <harsh@cloudera.com>","Mon, 5 Dec 2011 23:24:44 +0530","Re: Automatically Documenting Apache Hadoop Configuration"
"Eli Collins <eli@cloudera.com>","Mon, 5 Dec 2011 09:54:44 -0800","Re: Which branch for my patch?"
"""Tom White (Created) (JIRA)"" <jira@apache.org>","Mon, 5 Dec 2011 18:52:40 +0000 (UTC)","[jira] [Created] (HADOOP-7883) Upgrade to Avro 1.5.4"
"Robert Evans <evans@yahoo-inc.com>","Mon, 5 Dec 2011 11:14:44 -0800","Re: Automatically Documenting Apache Hadoop Configuration"
"Harsh J <harsh@cloudera.com>","Tue, 6 Dec 2011 00:52:21 +0530","Re: Automatically Documenting Apache Hadoop Configuration"
"Apache Jenkins Server <jenkins@builds.apache.org>","Mon, 5 Dec 2011 19:29:00 +0000 (UTC)","Build failed in Jenkins: Hadoop-Common-0.23-Build #87"
"Apache Jenkins Server <jenkins@builds.apache.org>","Mon, 5 Dec 2011 20:02:50 +0000 (UTC)","Build failed in Jenkins: Hadoop-Common-0.23-Build #88"
"Apache Jenkins Server <jenkins@builds.apache.org>","Mon, 5 Dec 2011 20:15:08 +0000 (UTC)","Build failed in Jenkins: Hadoop-Common-0.23-Build #89"
"Apache Jenkins Server <jenkins@builds.apache.org>","Mon, 5 Dec 2011 20:26:52 +0000 (UTC)","Jenkins build is back to normal : Hadoop-Common-0.23-Build #90"
"Niels Basjes <Niels@basjes.nl>","Tue, 6 Dec 2011 00:17:56 +0100","Re: Which branch for my patch?"
"""Alejandro Abdelnur (Created) (JIRA)"" <jira@apache.org>","Tue, 6 Dec 2011 00:39:40 +0000 (UTC)","[jira] [Created] (HADOOP-7884) test-patch seems to fail when a patch goes across projects (common/hdfs/mapreduce) or touches hadoop-assemblies/hadoop-dist."
"""Giridharan Kesavan (Created) (JIRA)"" <jira@apache.org>","Tue, 6 Dec 2011 01:04:39 +0000 (UTC)","[jira] [Created] (HADOOP-7885) fix datanode dir permission in hadoop-conf-setup.sh"
"#NGUYEN HA DUY# <Y080015@e.ntu.edu.sg>","Tue, 6 Dec 2011 05:23:55 +0000","How to test/run Hadoop after build the code"
"Praveen Sripati <praveensripati@gmail.com>","Tue, 6 Dec 2011 13:49:32 +0530","Re: Automatically Documenting Apache Hadoop Configuration"
"Ulhas Shringare <shringareulhas09@gmail.com>","Tue, 6 Dec 2011 13:50:19 +0530","Need to know steps of installation of Hadoop 0.23"
"Praveen Sripati <praveensripati@gmail.com>","Tue, 6 Dec 2011 15:51:44 +0530","Re: How to test/run Hadoop after build the code"
"Steve Loughran <stevel@apache.org>","Tue, 06 Dec 2011 17:36:24 +0000","Re: Hadoop for running tests in parallel"
"Roman Shaposhnik <rvs@apache.org>","Tue, 6 Dec 2011 11:51:33 -0800","Re: Need to know steps of installation of Hadoop 0.23"
"Niels Basjes <Niels@basjes.nl>","Tue, 6 Dec 2011 22:54:44 +0100","Re: Which branch for my patch?"
"Eli Collins <eli@cloudera.com>","Tue, 6 Dec 2011 14:49:03 -0800","Re: Which branch for my patch?"
"Mikhail Bautin <bautin.mailing.lists@gmail.com>","Tue, 6 Dec 2011 17:07:50 -0800","strange SIGPIPE from ""bin/ls -ld"" in Shell.runCommand seen when running HBase tests"
"""Alejandro Abdelnur (Created) (JIRA)"" <jira@apache.org>","Wed, 7 Dec 2011 01:32:40 +0000 (UTC)","[jira] [Created] (HADOOP-7887) KerberosAuthenticatorHandler is not setting KerberosName name rules from configuration"
"""Jason Lowe (Created) (JIRA)"" <jira@apache.org>","Wed, 7 Dec 2011 01:54:41 +0000 (UTC)","[jira] [Created] (HADOOP-7888) TestFailoverProxy fails intermittently on trunk"
"=?GBK?B?ufmz5Q==?= <guochonghenu@126.com>","Wed, 7 Dec 2011 11:06:06 +0800 (CST)","how to select  the position of a block"
"Harsh J <harsh@cloudera.com>","Wed, 7 Dec 2011 10:31:26 +0530","Re: how to select  the position of a block"
"=?GBK?B?ufmz5Q==?= <guochonghenu@126.com>","Wed, 7 Dec 2011 14:37:58 +0800 (CST)","Re:Re: how to select  the position of a block"
"Praveen Sripati <praveensripati@gmail.com>","Wed, 7 Dec 2011 19:23:55 +0530","Re: Need to know steps of installation of Hadoop 0.23"
"Jonathan Eagles <jeagles@gmail.com>","Wed, 7 Dec 2011 09:25:13 -0600","Re: Need to know steps of installation of Hadoop 0.23"
"Praveen Sripati <praveensripati@gmail.com>","Wed, 7 Dec 2011 22:28:57 +0530","Re: Re: how to select the position of a block"
"Uma Maheswara Rao G <maheswara@huawei.com>","Wed, 07 Dec 2011 17:11:18 +0000","RE: Re: how to select the position of a block"
"""Dave Carlson (Created) (JIRA)"" <jira@apache.org>","Wed, 7 Dec 2011 19:30:39 +0000 (UTC)","[jira] [Created] (HADOOP-7889) Change Record serialization *Vector, *Map, methods to collection interfaces"
"Mikhail Bautin <bautin.mailing.lists@gmail.com>","Wed, 7 Dec 2011 11:52:16 -0800","Re: strange SIGPIPE from ""bin/ls -ld"" in Shell.runCommand seen when running HBase tests"
"Harsh J <harsh@cloudera.com>","Thu, 8 Dec 2011 01:38:12 +0530","Re: Re: how to select the position of a block"
"""Eli Collins (Resolved) (JIRA)"" <jira@apache.org>","Wed, 7 Dec 2011 20:22:40 +0000 (UTC)","[jira] [Resolved] (HADOOP-7873) Forward port auto-parent-dir file creation (non-recursive file create) from 0.20.20x/1.0.0 branches"
"""Koji Noguchi (Created) (JIRA)"" <jira@apache.org>","Wed, 7 Dec 2011 22:34:41 +0000 (UTC)","[jira] [Created] (HADOOP-7890) Redirect hadoop script's deprecation message to stderr"
"""Alejandro Abdelnur (Created) (JIRA)"" <jira@apache.org>","Wed, 7 Dec 2011 23:38:47 +0000 (UTC)","[jira] [Created] (HADOOP-7891) KerberosName method typo and log warning when rules are set"
"""Todd Lipcon (Created) (JIRA)"" <jira@apache.org>","Wed, 7 Dec 2011 23:58:41 +0000 (UTC)","[jira] [Created] (HADOOP-7892) IPC logs too verbose after ""RpcKind"" introduction"
"""Eli Collins (Created) (JIRA)"" <jira@apache.org>","Thu, 8 Dec 2011 03:37:40 +0000 (UTC)","[jira] [Created] (HADOOP-7893) Sort out tarball conf directories"
"""Eli Collins (Created) (JIRA)"" <jira@apache.org>","Thu, 8 Dec 2011 04:31:39 +0000 (UTC)","[jira] [Created] (HADOOP-7894) bin and sbin commands don't use  JAVA_HOME when run from the tarball"
"""Eli Collins (Created) (JIRA)"" <jira@apache.org>","Thu, 8 Dec 2011 04:35:40 +0000 (UTC)","[jira] [Created] (HADOOP-7895) HADOOP_LOG_DIR has to be set explicitly when running from the tarball"
"""Todd Lipcon (Created) (JIRA)"" <jira@apache.org>","Thu, 8 Dec 2011 05:51:39 +0000 (UTC)","[jira] [Created] (HADOOP-7896) HA: if both NNs are in Standby mode, client needs to try failing back and forth several times with sleeps"
"""Suresh Srinivas (Created) (JIRA)"" <jira@apache.org>","Thu, 8 Dec 2011 06:21:39 +0000 (UTC)","[jira] [Created] (HADOOP-7897) ProtobufRPCEngine client side exception mechanism is not consistent with WritableRpcEngine"
"""Suresh Srinivas (Created) (JIRA)"" <jira@apache.org>","Thu, 8 Dec 2011 17:47:40 +0000 (UTC)","[jira] [Created] (HADOOP-7898) Fix javadoc warnings in AuthenticationToken.java"
"""Eli Collins (Resolved) (JIRA)"" <jira@apache.org>","Thu, 8 Dec 2011 17:53:42 +0000 (UTC)","[jira] [Resolved] (HADOOP-7881) Fix javadoc warnings in AuthenticationToken"
"Matt Foley <mattf@apache.org>","Thu, 8 Dec 2011 11:57:49 -0800","[VOTE] Hadoop-1.0.0 release candidate 2"
"""Alejandro Abdelnur (Created) (JIRA)"" <jira@apache.org>","Thu, 8 Dec 2011 22:03:40 +0000 (UTC)","[jira] [Created] (HADOOP-7899) Generate proto java files as part of the build"
"Arun C Murthy <acm@hortonworks.com>","Thu, 8 Dec 2011 23:13:31 -0800","Re: Need to know steps of installation of Hadoop 0.23"
"""Ravi Gummadi (Created) (JIRA)"" <jira@apache.org>","Fri, 9 Dec 2011 17:03:39 +0000 (UTC)","[jira] [Created] (HADOOP-7900) LocalDirAllocator confChanged() accesses conf.get() twice"
"""Robert Joseph Evans (Created) (JIRA)"" <jira@apache.org>","Fri, 9 Dec 2011 17:21:39 +0000 (UTC)","[jira] [Created] (HADOOP-7901) Have Configuration use Read/Write Locks"
"mohmmadanis moulavi <anis_moulavi@yahoo.co.in>","Sat, 10 Dec 2011 00:14:15 +0530 (IST)","I AM FREE NOW"
"""Arpit Gupta (Created) (JIRA)"" <jira@apache.org>","Fri, 9 Dec 2011 19:06:40 +0000 (UTC)","[jira] [Created] (HADOOP-7903) hadoop artifacts do not contain 64 bit libhdfs native lib"
"""Alejandro Abdelnur (Created) (JIRA)"" <jira@apache.org>","Fri, 9 Dec 2011 20:14:43 +0000 (UTC)","[jira] [Created] (HADOOP-7904) check that protoc is avail and it is the right version in hadoop-main POM"
"""Eli Collins (Created) (JIRA)"" <jira@apache.org>","Fri, 9 Dec 2011 21:59:39 +0000 (UTC)","[jira] [Created] (HADOOP-7905) Port FileContext symlinks to FileSystem"
"Roman Shaposhnik <rvs@apache.org>","Fri, 9 Dec 2011 14:47:28 -0800","Re: [VOTE] Hadoop-1.0.0 release candidate 2"
"Matt Foley <mfoley@hortonworks.com>","Fri, 9 Dec 2011 15:26:31 -0800","Re: [VOTE] Hadoop-1.0.0 release candidate 2"
"Roman Shaposhnik <rvs@apache.org>","Fri, 9 Dec 2011 15:57:02 -0800","Re: [VOTE] Hadoop-1.0.0 release candidate 2"
"=?utf-8?Q?Bruno_Mah=C3=A9_=28Created=29_=28JIRA=29?= <jira@apache.org>","Sat, 10 Dec 2011 00:08:39 +0000 (UTC)","[jira] [Created] (HADOOP-7906) haoop-daemon.sh unconditionnally try to chown its log directory"
"Matt Foley <mfoley@hortonworks.com>","Fri, 9 Dec 2011 16:30:06 -0800","Re: [VOTE] Hadoop-1.0.0 release candidate 2"
"Roman Shaposhnik <rvs@apache.org>","Fri, 9 Dec 2011 16:39:47 -0800","Re: [VOTE] Hadoop-1.0.0 release candidate 2"
"Roman Shaposhnik <rvs@apache.org>","Fri, 9 Dec 2011 18:21:48 -0800","Re: [VOTE] Hadoop-1.0.0 release candidate 2"
"Ashutosh Chauhan <hashutosh@apache.org>","Fri, 9 Dec 2011 18:29:32 -0800","Re: [VOTE] Hadoop-1.0.0 release candidate 2"
"Roman Shaposhnik <rvs@apache.org>","Fri, 9 Dec 2011 19:52:38 -0800","Re: [VOTE] Hadoop-1.0.0 release candidate 2"
"Roman Shaposhnik <rvs@apache.org>","Fri, 9 Dec 2011 22:46:28 -0800","Re: [VOTE] Hadoop-1.0.0 release candidate 2"
"""Eli Collins (Created) (JIRA)"" <jira@apache.org>","Sat, 10 Dec 2011 18:31:40 +0000 (UTC)","[jira] [Created] (HADOOP-7908) Fix three javadoc warnings on branch-1"
"""Eli Collins (Resolved) (JIRA)"" <jira@apache.org>","Sat, 10 Dec 2011 18:33:40 +0000 (UTC)","[jira] [Resolved] (HADOOP-7908) Fix three javadoc warnings on branch-1"
"""Tim Broberg (Created) (JIRA)"" <jira@apache.org>","Sat, 10 Dec 2011 18:59:40 +0000 (UTC)","[jira] [Created] (HADOOP-7909) Implement Splittable Gzip based on a signature in a gzip header field"
"Roman Shaposhnik <rvs@apache.org>","Sat, 10 Dec 2011 11:23:42 -0800","Re: [VOTE] Hadoop-1.0.0 release candidate 2"
"Matt Foley <mfoley@hortonworks.com>","Sat, 10 Dec 2011 12:24:22 -0800","Re: [VOTE] Hadoop-1.0.0 release candidate 2"
"""Sho Shimauchi (Created) (JIRA)"" <jira@apache.org>","Sun, 11 Dec 2011 00:12:39 +0000 (UTC)","[jira] [Created] (HADOOP-7910) add configuration methods to handle human readable size values"
"mohmmadanis moulavi <anis_moulavi@yahoo.co.in>","Mon, 12 Dec 2011 09:32:43 +0530 (IST)","RE: FW: I DID IT!."
"""Arvind Das (Created) (JIRA)"" <jira@apache.org>","Mon, 12 Dec 2011 08:06:30 +0000 (UTC)","[jira] [Created] (HADOOP-7911) Exception while connecting grails app to hadoop!"
"""Robert Joseph Evans (Created) (JIRA)"" <jira@apache.org>","Mon, 12 Dec 2011 15:16:31 +0000 (UTC)","[jira] [Created] (HADOOP-7912) test-patch should run eclipse:eclipse to verify that it does not break again"
"""Todd Lipcon (Resolved) (JIRA)"" <jira@apache.org>","Mon, 12 Dec 2011 18:55:30 +0000 (UTC)","[jira] [Resolved] (HADOOP-7911) Exception while connecting grails app to hadoop!"
"Konstantin Shvachko <shv.hadoop@gmail.com>","Mon, 12 Dec 2011 12:33:58 -0800","[ANNOUNCEMENT] Apache Hadoop 0.22.0 release"
"Jie Li <jieli@cs.duke.edu>","Mon, 12 Dec 2011 20:42:42 -0500","Re: [ANNOUNCEMENT] Apache Hadoop 0.22.0 release"
"Sandeep Baldawa <sandeepbaldawa@gmail.com>","Mon, 12 Dec 2011 19:51:50 -0800","Re: Hadoop for running tests in parallel"
"Roman Shaposhnik <rvs@apache.org>","Mon, 12 Dec 2011 20:20:39 -0800","Re: [VOTE] Hadoop-1.0.0 release candidate 2"
"Matt Foley <mfoley@hortonworks.com>","Mon, 12 Dec 2011 22:59:35 -0800","Re: [VOTE] Hadoop-1.0.0 release candidate 2"
"""Sanjay Radia (Created) (JIRA)"" <jira@apache.org>","Tue, 13 Dec 2011 07:05:31 +0000 (UTC)","[jira] [Created] (HADOOP-7913) Fix bug in ProtoBufRpcEngine -"
"""Tsz Wo (Nicholas), SZE (Created) (JIRA)"" <jira@apache.org>","Tue, 13 Dec 2011 08:15:30 +0000 (UTC)","[jira] [Created] (HADOOP-7914) duplicate declaration of hadoop-hdfs test-jar"
"hadoop anis <hadoop.anis@gmail.com>","Tue, 13 Dec 2011 14:32:17 +0530","How Jobtracler stores tasktracker's information"
"""kavita sharma (Created) (JIRA)"" <jira@apache.org>","Tue, 13 Dec 2011 13:33:30 +0000 (UTC)","[jira] [Created] (HADOOP-7915) possible Case for NullPointerException"
"""Uma Maheswara Rao G (Created) (JIRA)"" <jira@apache.org>","Tue, 13 Dec 2011 14:57:30 +0000 (UTC)","[jira] [Created] (HADOOP-7916) IPC Listener thread dead when OutOfMemoryError occured."
"Robert Evans <evans@yahoo-inc.com>","Tue, 13 Dec 2011 07:23:39 -0800","Re: How Jobtracler stores tasktracker's information"
"""Alejandro Abdelnur (Created) (JIRA)"" <jira@apache.org>","Tue, 13 Dec 2011 16:33:31 +0000 (UTC)","[jira] [Created] (HADOOP-7917) compilation of protobuf files fails in windows/cygwin"
"Tim Broberg <Tim.Broberg@exar.com>","Tue, 13 Dec 2011 09:57:26 -0800","Compression configuration peculiarities"
"""Ivan Kelly (Created) (JIRA)"" <jira@apache.org>","Tue, 13 Dec 2011 18:22:30 +0000 (UTC)","[jira] [Created] (HADOOP-7918) hadoop-config.sh doesn't add hadoop-common jars to classpath"
"""Ivan Kelly (Resolved) (JIRA)"" <jira@apache.org>","Tue, 13 Dec 2011 18:34:31 +0000 (UTC)","[jira] [Resolved] (HADOOP-7918) hadoop-config.sh doesn't add hadoop-common jars to classpath"
"""Alejandro Abdelnur (Resolved) (JIRA)"" <jira@apache.org>","Tue, 13 Dec 2011 20:30:31 +0000 (UTC)","[jira] [Resolved] (HADOOP-7810) move hadoop archive to core from tools"
"""Harsh J (Created) (JIRA)"" <jira@apache.org>","Tue, 13 Dec 2011 20:35:30 +0000 (UTC)","[jira] [Created] (HADOOP-7919) [Doc] Remove hadoop.logfile.* properties."
"Chris K Wensel <chris@wensel.net>","Tue, 13 Dec 2011 13:02:12 -0800","Re: [VOTE] Hadoop-1.0.0 release candidate 2"
"""Suresh Srinivas (Created) (JIRA)"" <jira@apache.org>","Wed, 14 Dec 2011 00:50:30 +0000 (UTC)","[jira] [Created] (HADOOP-7920) Remove Avro RPC"
"Matt Foley <mfoley@hortonworks.com>","Tue, 13 Dec 2011 18:17:39 -0800","Re: [VOTE] Hadoop-1.0.0 release candidate 2"
"""Todd Lipcon (Created) (JIRA)"" <jira@apache.org>","Wed, 14 Dec 2011 02:46:31 +0000 (UTC)","[jira] [Created] (HADOOP-7921) StandbyException should extend IOException"
"""Todd Lipcon (Created) (JIRA)"" <jira@apache.org>","Wed, 14 Dec 2011 03:04:36 +0000 (UTC)","[jira] [Created] (HADOOP-7922) HA: Improve some logging for client IPC failovers and StandbyExceptions"
"""Aaron T. Myers (Resolved) (JIRA)"" <jira@apache.org>","Wed, 14 Dec 2011 07:26:31 +0000 (UTC)","[jira] [Resolved] (HADOOP-7896) HA: if both NNs are in Standby mode, client needs to try failing back and forth several times with sleeps"
"Konstantin Shvachko <shv.hadoop@gmail.com>","Tue, 13 Dec 2011 23:28:38 -0800","Re: [ANNOUNCEMENT] Apache Hadoop 0.22.0 release"
"""Todd Lipcon (Resolved) (JIRA)"" <jira@apache.org>","Wed, 14 Dec 2011 07:52:59 +0000 (UTC)","[jira] [Resolved] (HADOOP-7922) HA: Improve some logging for client IPC failovers and StandbyExceptions"
"""Todd Lipcon (Resolved) (JIRA)"" <jira@apache.org>","Wed, 14 Dec 2011 08:12:30 +0000 (UTC)","[jira] [Resolved] (HADOOP-7921) StandbyException should extend IOException"
"""Eli Collins (Created) (JIRA)"" <jira@apache.org>","Wed, 14 Dec 2011 09:40:31 +0000 (UTC)","=?utf-8?Q?[jira]_[Created]_(HADOOP-7924)_=E2=80=A9Failover?= =?utf-8?Q?Controller_for_client-based_configuration?="
"Marco =?utf-8?b?WsO8aGxrZQ==?= <mzuehlke@gmail.com>","Wed, 14 Dec 2011 13:06:23 +0000 (UTC)","Re: [VOTE] Hadoop-1.0.0 release candidate 2"
"=?GBK?B?ufmz5Q==?= <guochonghenu@126.com>","Wed, 14 Dec 2011 21:13:10 +0800 (CST)","the size of heartbeat info"
"Mark Holderbaugh <holder@yahoo-inc.com>","Wed, 14 Dec 2011 05:34:41 -0800","Re: [VOTE] Hadoop-1.0.0 release candidate 2"
"Thomas Graves <tgraves@yahoo-inc.com>","Wed, 14 Dec 2011 07:15:25 -0800","Re: [ANNOUNCEMENT] Apache Hadoop 0.22.0 release"
"""Doug Cutting (Reopened) (JIRA)"" <jira@apache.org>","Wed, 14 Dec 2011 18:11:31 +0000 (UTC)","[jira] [Reopened] (HADOOP-7920) Remove Avro RPC"
"""Giridharan Kesavan (Resolved) (JIRA)"" <jira@apache.org>","Wed, 14 Dec 2011 19:19:31 +0000 (UTC)","[jira] [Resolved] (HADOOP-7461) Jackson Dependency Not Declared in Hadoop POM"
"""Eli Collins (Created) (JIRA)"" <jira@apache.org>","Wed, 14 Dec 2011 21:05:30 +0000 (UTC)","[jira] [Created] (HADOOP-7925) Add interface and update CLI to query current state to HAServiceProtocol"
"=?GBK?B?ufmz5Q==?= <guochonghenu@126.com>","Thu, 15 Dec 2011 09:45:22 +0800 (CST)","hadoop heartbeat interval"
"Konstantin Shvachko <shv.hadoop@gmail.com>","Wed, 14 Dec 2011 22:54:26 -0800","Re: [ANNOUNCEMENT] Apache Hadoop 0.22.0 release"
"""Ravi Teja Ch N V (Created) (JIRA)"" <jira@apache.org>","Thu, 15 Dec 2011 07:03:30 +0000 (UTC)","[jira] [Created] (HADOOP-7926) Test-patch should have maven.test.failure.ignore,maven.test.error.ignore to run all the tests even in case of failure/error."
"""Jakob Homan (Created) (JIRA)"" <jira@apache.org>","Thu, 15 Dec 2011 21:57:31 +0000 (UTC)","[jira] [Created] (HADOOP-7927) Can't build packages 205+ on OSX"
"""Todd Lipcon (Created) (JIRA)"" <jira@apache.org>","Fri, 16 Dec 2011 00:03:32 +0000 (UTC)","[jira] [Created] (HADOOP-7928) HA: Client failover policy is incorrectly trying to fail over all IOExceptions"
"""Andrew Purtell (Created) (JIRA)"" <jira@apache.org>","Fri, 16 Dec 2011 00:25:30 +0000 (UTC)","[jira] [Created] (HADOOP-7929) Port HADOOP-7070 to branch-1"
"""Alejandro Abdelnur (Created) (JIRA)"" <jira@apache.org>","Fri, 16 Dec 2011 00:41:30 +0000 (UTC)","[jira] [Created] (HADOOP-7930) Kerberos relogin interval in UserGroupInformation should be configurable"
"""Aaron T. Myers (Resolved) (JIRA)"" <jira@apache.org>","Fri, 16 Dec 2011 01:55:30 +0000 (UTC)","[jira] [Resolved] (HADOOP-7928) HA: Client failover policy is incorrectly trying to fail over all IOExceptions"
"Matt Foley <mfoley@hortonworks.com>","Fri, 16 Dec 2011 00:32:00 -0800","Re: [VOTE] Hadoop-1.0.0 release candidate 2"
"Apache Jenkins Server <jenkins@builds.apache.org>","Fri, 16 Dec 2011 09:18:07 +0000 (UTC)","Build failed in Jenkins: Hadoop-Common-0.23-Build #101"
"Stack <stack@duboce.net>","Fri, 16 Dec 2011 09:56:06 -0800","Re: [VOTE] Hadoop-1.0.0 release candidate 2"
"""Andrew Purtell (Resolved) (JIRA)"" <jira@apache.org>","Fri, 16 Dec 2011 18:52:30 +0000 (UTC)","[jira] [Resolved] (HADOOP-7929) Port HADOOP-7070 to branch-1"
"""Aaron T. Myers (Created) (JIRA)"" <jira@apache.org>","Fri, 16 Dec 2011 19:46:30 +0000 (UTC)","[jira] [Created] (HADOOP-7931) o.a.h.ipc.WritableRpcEngine should have a way to force initialization"
"Matt Foley <mfoley@hortonworks.com>","Fri, 16 Dec 2011 12:10:22 -0800","[VOTE] Hadoop-1.0.0 release candidate 3"
"Andrew Purtell <apurtell@apache.org>","Fri, 16 Dec 2011 12:14:05 -0800 (PST)","Re: [VOTE] Hadoop-1.0.0 release candidate 2"
"Brian Bloniarz <bbloniarz@trulia.com>","Fri, 16 Dec 2011 15:26:27 -0800","Patch for HADOOP-6795"
"Todd Lipcon <todd@cloudera.com>","Fri, 16 Dec 2011 16:18:17 -0800","Precommit builds broken?"
"""Matt Foley (Resolved) (JIRA)"" <jira@apache.org>","Sat, 17 Dec 2011 00:28:31 +0000 (UTC)","[jira] [Resolved] (HADOOP-7903) hadoop artifacts do not contain 64 bit libhdfs native lib"
"Konstantin Boudnik <cos@apache.org>","Fri, 16 Dec 2011 18:14:19 -0800","Re: [VOTE] Hadoop-1.0.0 release candidate 3"
"Tim Broberg <Tim.Broberg@exar.com>","Fri, 16 Dec 2011 18:44:49 -0800","Re: [VOTE] Hadoop-1.0.0 release candidate 3"
"Apache Jenkins Server <jenkins@builds.apache.org>","Sat, 17 Dec 2011 09:20:33 +0000 (UTC)","Jenkins build is back to normal : Hadoop-Common-0.23-Build #102"
"Hao Yang <hao.yang0614@gmail.com>","Sat, 17 Dec 2011 23:59:13 -0800","TestDFSIO job failure when probabilistically injecting faults in checksum file"
"Carl Frendo <frecarl92@gmail.com>","Sun, 18 Dec 2011 13:41:12 +0100","developer subscription"
"""Todd Lipcon (Resolved) (JIRA)"" <jira@apache.org>","Mon, 19 Dec 2011 05:26:31 +0000 (UTC)","[jira] [Resolved] (HADOOP-7925) Add interface and update CLI to query current state to HAServiceProtocol"
"Matt Foley <mattf@apache.org>","Sun, 18 Dec 2011 23:18:32 -0800","Re: [VOTE] Hadoop-1.0.0 release candidate 3"
"Louisia Famalda <louisia.famadla@gmail.com>","Mon, 19 Dec 2011 00:40:01 -0800","SequenceFile append"
"""Uma Maheswara Rao G (Created) (JIRA)"" <jira@apache.org>","Mon, 19 Dec 2011 19:39:30 +0000 (UTC)","[jira] [Created] (HADOOP-7932) HA : Make client connection retries on socket time outs configurable."
"""Todd Lipcon (Resolved) (JIRA)"" <jira@apache.org>","Mon, 19 Dec 2011 21:33:31 +0000 (UTC)","[jira] [Resolved] (HADOOP-7932) HA : Make client connection retries on socket time outs configurable."
"nan yuan <yuantiantai@gmail.com>","Tue, 20 Dec 2011 06:41:06 +0800","unsubscribe Hadoop dev maillist"
"Roman Shaposhnik <rvs@apache.org>","Tue, 20 Dec 2011 09:50:12 -0800","Re: [VOTE] Hadoop-1.0.0 release candidate 3"
"Chris K Wensel <chris@wensel.net>","Tue, 20 Dec 2011 11:05:47 -0800","Re: [VOTE] Hadoop-1.0.0 release candidate 3"
"Roman Shaposhnik <rvs@apache.org>","Tue, 20 Dec 2011 12:09:06 -0800","Re: [VOTE] Hadoop-1.0.0 release candidate 3"
"Matt Foley <mfoley@hortonworks.com>","Tue, 20 Dec 2011 13:57:25 -0800","Re: [VOTE] Hadoop-1.0.0 release candidate 3"
"He Chen <airbots@gmail.com>","Tue, 20 Dec 2011 17:05:42 -0600","build Hadoop-1.0 error"
"Arpit Gupta <arpit@hortonworks.com>","Tue, 20 Dec 2011 18:39:30 -0800","Re: [VOTE] Hadoop-1.0.0 release candidate 3"
"""Alejandro Abdelnur (Created) (JIRA)"" <jira@apache.org>","Wed, 21 Dec 2011 18:09:31 +0000 (UTC)","[jira] [Created] (HADOOP-7934) Normalize dependencys versions accros all modules"
"""Alejandro Abdelnur (Created) (JIRA)"" <jira@apache.org>","Wed, 21 Dec 2011 18:15:30 +0000 (UTC)","[jira] [Created] (HADOOP-7935) Fix the scope the dependencies across subprojects"
"""Eli Collins (Created) (JIRA)"" <jira@apache.org>","Wed, 21 Dec 2011 19:35:33 +0000 (UTC)","[jira] [Created] (HADOOP-7936) There's a Hoop README in the root dir of the tarball"
"""Eli Collins (Created) (JIRA)"" <jira@apache.org>","Thu, 22 Dec 2011 02:29:30 +0000 (UTC)","[jira] [Created] (HADOOP-7937) Forward port SequenceFile#syncFs and friends from Hadoop 1.x"
"""Eli Collins (Created) (JIRA)"" <jira@apache.org>","Thu, 22 Dec 2011 02:35:30 +0000 (UTC)","[jira] [Created] (HADOOP-7938) HA: the FailoverController should optionally fence the active during failover"
"Thomas Lindemann <lindemann@catidesign.de>","Thu, 22 Dec 2011 13:06:36 +0100","Hadoop Wiki powered by"
"Arun C Murthy <acm@hortonworks.com>","Thu, 22 Dec 2011 10:23:51 -0800","Re: [VOTE] Hadoop-1.0.0 release candidate 3"
"""Roman Shaposhnik (Created) (JIRA)"" <jira@apache.org>","Thu, 22 Dec 2011 18:39:31 +0000 (UTC)","[jira] [Created] (HADOOP-7939) Improve Hadoop subcomponent integration in Hadoop 0.23"
"Mahadev Konar <mahadev@hortonworks.com>","Thu, 22 Dec 2011 11:02:21 -0800","Re: [VOTE] Hadoop-1.0.0 release candidate 3"
"Tom White <tom@cloudera.com>","Thu, 22 Dec 2011 14:57:28 -0800","Re: [VOTE] Hadoop-1.0.0 release candidate 3"
"Praveen Sripati <praveensripati@gmail.com>","Fri, 23 Dec 2011 22:14:39 +0530","Mapping between the JIRA and files changed"
"Uma Maheswara Rao G <maheswara@huawei.com>","Fri, 23 Dec 2011 16:55:56 +0000","RE: Mapping between the JIRA and files changed"
"Chris K Wensel <chris@wensel.net>","Fri, 23 Dec 2011 10:28:17 -0800","Re: [VOTE] Hadoop-1.0.0 release candidate 3"
"""J. Rottinghuis"" <jrottinghuis@gmail.com>","Fri, 23 Dec 2011 12:19:33 -0800","Re: Mapping between the JIRA and files changed"
"Matt Foley <mfoley@hortonworks.com>","Fri, 23 Dec 2011 13:50:42 -0800","Re: [VOTE] Hadoop-1.0.0 release candidate 3"
"Luke Lu <llu@vicaya.com>","Fri, 23 Dec 2011 14:03:59 -0800","Re: [VOTE] Hadoop-1.0.0 release candidate 3"
"Matt Foley <mattf@apache.org>","Fri, 23 Dec 2011 14:08:13 -0800","Re: [VOTE] Hadoop-1.0.0 release candidate 3"
"Chris K Wensel <chris@wensel.net>","Fri, 23 Dec 2011 16:53:44 -0800","Re: [VOTE] Hadoop-1.0.0 release candidate 3"
"Chris K Wensel <chris@wensel.net>","Fri, 23 Dec 2011 16:57:00 -0800","Re: [VOTE] Hadoop-1.0.0 release candidate 3"
"Niels Basjes <Niels@basjes.nl>","Sat, 24 Dec 2011 15:23:33 +0100","Gzip progress during map phase."
"""Aaron, (Created) (JIRA)"" <jira@apache.org>","Sat, 24 Dec 2011 14:50:30 +0000 (UTC)","[jira] [Created] (HADOOP-7940) method clear() in org.apache.hadoop.io.Text does not work"
"Anthony Urso <anthonyu@cs.ucla.edu>","Sun, 25 Dec 2011 22:56:34 -0800","Re: Gzip progress during map phase."
"27g <tiangangzhu@gmail.com>","Mon, 26 Dec 2011 01:56:42 -0800 (PST)","mapreduce combiner"
"Ronald Petty <ronald.petty@gmail.com>","Mon, 26 Dec 2011 15:09:47 -0500","Building Hadoop"
"Bhavesh Shah <bhavesh25shah@gmail.com>","Tue, 27 Dec 2011 15:29:21 +0530","Writing output in multiple files in Hadoop"
"Niels Basjes <Niels@basjes.nl>","Tue, 27 Dec 2011 11:00:28 +0100","Re: Gzip progress during map phase."
"Koji Noguchi <knoguchi@yahoo-inc.com>","Tue, 27 Dec 2011 03:07:53 -0800","Re: Gzip progress during map phase."
"Niels Basjes <Niels@basjes.nl>","Tue, 27 Dec 2011 12:42:08 +0100","Re: Gzip progress during map phase."
"Harsh J <harsh@cloudera.com>","Tue, 27 Dec 2011 23:40:06 +0530","Re: Writing output in multiple files in Hadoop"
"Devaraj K <devaraj.k@huawei.com>","Wed, 28 Dec 2011 07:14:37 +0530","RE: Writing output in multiple files in Hadoop"
"""Ramya Sunil (Created) (JIRA)"" <jira@apache.org>","Wed, 28 Dec 2011 20:30:30 +0000 (UTC)","[jira] [Created] (HADOOP-7941) NoClassDefFoundError while running distcp/archive"
"""Harsh J (Resolved) (JIRA)"" <jira@apache.org>","Wed, 28 Dec 2011 23:13:32 +0000 (UTC)","[jira] [Resolved] (HADOOP-2580) Ability to apply user specified filters on the task logs"
"""Harsh J (Resolved) (JIRA)"" <jira@apache.org>","Wed, 28 Dec 2011 23:17:31 +0000 (UTC)","[jira] [Resolved] (HADOOP-2628) the combiner output counter is really counting number of input keys to the combiner"
"""Harsh J (Resolved) (JIRA)"" <jira@apache.org>","Wed, 28 Dec 2011 23:25:32 +0000 (UTC)","[jira] [Resolved] (HADOOP-2644) Remove the warning for attempting to override a final parameter"
"""Giridharan Kesavan (Created) (JIRA)"" <jira@apache.org>","Wed, 28 Dec 2011 23:29:30 +0000 (UTC)","[jira] [Created] (HADOOP-7942) enabling clover coverage reports fails hadoop unit test compilation"
"""Harsh J (Resolved) (JIRA)"" <jira@apache.org>","Thu, 29 Dec 2011 04:46:30 +0000 (UTC)","[jira] [Resolved] (HADOOP-2426) TestLocalFileSystemPermission fails in mac"
"""Harsh J (Resolved) (JIRA)"" <jira@apache.org>","Thu, 29 Dec 2011 04:48:31 +0000 (UTC)","[jira] [Resolved] (HADOOP-2900) distributedcache:  Can we create symlink without mapred.create.symlink = yes?"
"""Harsh J (Resolved) (JIRA)"" <jira@apache.org>","Thu, 29 Dec 2011 04:54:31 +0000 (UTC)","[jira] [Resolved] (HADOOP-2837) JobTracker got stuck"
"""Harsh J (Resolved) (JIRA)"" <jira@apache.org>","Thu, 29 Dec 2011 04:54:32 +0000 (UTC)","[jira] [Resolved] (HADOOP-2837) JobTracker got stuck"
"""Harsh J (Reopened) (JIRA)"" <jira@apache.org>","Thu, 29 Dec 2011 04:54:32 +0000 (UTC)","[jira] [Reopened] (HADOOP-2837) JobTracker got stuck"
"""Harsh J (Resolved) (JIRA)"" <jira@apache.org>","Thu, 29 Dec 2011 04:56:30 +0000 (UTC)","[jira] [Resolved] (HADOOP-2893) checksum exceptions on trunk"
"""Harsh J (Resolved) (JIRA)"" <jira@apache.org>","Thu, 29 Dec 2011 05:06:31 +0000 (UTC)","[jira] [Resolved] (HADOOP-1860) I'd like a log4j appender that can write to a Hadoop FileSystem"
"""Harsh J (Resolved) (JIRA)"" <jira@apache.org>","Thu, 29 Dec 2011 05:50:30 +0000 (UTC)","[jira] [Resolved] (HADOOP-3211) Utility to enforce current replication policy on already exitsting blocks"
"""Harsh J (Resolved) (JIRA)"" <jira@apache.org>","Thu, 29 Dec 2011 06:04:30 +0000 (UTC)","[jira] [Resolved] (HADOOP-3218) getRecordWriter need not to check the existence of the output directory"
"""Harsh J (Resolved) (JIRA)"" <jira@apache.org>","Thu, 29 Dec 2011 06:26:30 +0000 (UTC)","[jira] [Resolved] (HADOOP-3669) Aggregate Framework should allow usage of MultipleOutputFormat"
"""Harsh J (Resolved) (JIRA)"" <jira@apache.org>","Thu, 29 Dec 2011 06:36:31 +0000 (UTC)","[jira] [Resolved] (HADOOP-1078) Improve logging"
"""Harsh J (Resolved) (JIRA)"" <jira@apache.org>","Thu, 29 Dec 2011 06:42:31 +0000 (UTC)","[jira] [Resolved] (HADOOP-3608) Make the JobTracker reentrant"
"""Harsh J (Resolved) (JIRA)"" <jira@apache.org>","Thu, 29 Dec 2011 06:46:31 +0000 (UTC)","[jira] [Resolved] (HADOOP-3579) Support property groups in Hadoop configuration"
"Bhavesh Shah <bhavesh25shah@gmail.com>","Thu, 29 Dec 2011 12:24:12 +0530","Regarding MultipleInputs.addInputPath"
"""Harsh J (Resolved) (JIRA)"" <jira@apache.org>","Thu, 29 Dec 2011 06:56:32 +0000 (UTC)","[jira] [Resolved] (HADOOP-3386) the job directory of a failed task may stay forever on a tasktracker node"
"Harsh J <harsh@cloudera.com>","Thu, 29 Dec 2011 12:28:32 +0530","Re: Regarding MultipleInputs.addInputPath"
"""Harsh J (Resolved) (JIRA)"" <jira@apache.org>","Thu, 29 Dec 2011 07:08:30 +0000 (UTC)","[jira] [Resolved] (HADOOP-5693) The distcp command is working slower in trunk when compared to hadoop-0.18.3"
"""Harsh J (Resolved) (JIRA)"" <jira@apache.org>","Thu, 29 Dec 2011 07:10:31 +0000 (UTC)","[jira] [Resolved] (HADOOP-4416) class names in Configuration are not resolved if the configuration value has a white space"
"""Harsh J (Resolved) (JIRA)"" <jira@apache.org>","Thu, 29 Dec 2011 07:14:31 +0000 (UTC)","[jira] [Resolved] (HADOOP-4131) Allow use of hadoop scripts on EC2"
"""Harsh J (Resolved) (JIRA)"" <jira@apache.org>","Thu, 29 Dec 2011 07:14:31 +0000 (UTC)","[jira] [Resolved] (HADOOP-3252) Reduce the number of public FileSystem.create() methods"
"Prashant Sharma <prashant.s@imaginea.com>","Thu, 29 Dec 2011 12:46:23 +0530","Hadoop Ctl script."
"Apache Jenkins Server <jenkins@builds.apache.org>","Thu, 29 Dec 2011 09:22:42 +0000 (UTC)","Jenkins build is back to normal : Hadoop-Common-0.23-Build #117"
"""Harsh J (Resolved) (JIRA)"" <jira@apache.org>","Thu, 29 Dec 2011 14:29:31 +0000 (UTC)","[jira] [Resolved] (HADOOP-3900) TestInjectionForSimulatedStorage only works on a clean directory structure"
"""Harsh J (Resolved) (JIRA)"" <jira@apache.org>","Thu, 29 Dec 2011 14:29:31 +0000 (UTC)","[jira] [Resolved] (HADOOP-4168) TestInjectionForSimulatedStorage job is failing on linux"
"Jabir Ahmed <jabirahmed@gmail.com>","Fri, 30 Dec 2011 00:30:14 +0530","reading active tasktracker metrics"
"""Ben West (Created) (JIRA)"" <jira@apache.org>","Thu, 29 Dec 2011 21:10:31 +0000 (UTC)","[jira] [Created] (HADOOP-7943) DFS shell get/copy gives weird errors when permissions are wrong with directories"
"""Harsh J (Resolved) (JIRA)"" <jira@apache.org>","Fri, 30 Dec 2011 05:31:31 +0000 (UTC)","[jira] [Resolved] (HADOOP-839) Improvements to GenericWritable"
"""Harsh J (Resolved) (JIRA)"" <jira@apache.org>","Fri, 30 Dec 2011 07:37:31 +0000 (UTC)","[jira] [Resolved] (HADOOP-5527) Ignore Eclipse helpers in Subversion and Git"
"""Harsh J (Resolved) (JIRA)"" <jira@apache.org>","Fri, 30 Dec 2011 07:50:34 +0000 (UTC)","[jira] [Resolved] (HADOOP-7677) ant eclipse fails with stock release"
"""Harsh J (Resolved) (JIRA)"" <jira@apache.org>","Fri, 30 Dec 2011 08:01:32 +0000 (UTC)","[jira] [Resolved] (HADOOP-1303) copyToLocal cast exception for S3 filesystem"
"""Harsh J (Resolved) (JIRA)"" <jira@apache.org>","Fri, 30 Dec 2011 08:19:30 +0000 (UTC)","[jira] [Resolved] (HADOOP-1993) Incorrect code in Java stubs created by Record I/O compiler for vector<vector> type"
"""Harsh J (Resolved) (JIRA)"" <jira@apache.org>","Fri, 30 Dec 2011 08:27:31 +0000 (UTC)","[jira] [Resolved] (HADOOP-2454) Run Hadoop inside or from the Eclipse plug-in"
"Bing Jiang <bing.hadoop@gmail.com>","Fri, 30 Dec 2011 17:16:22 +0800","Exception from launching container due to fail to create appattempt local dir in NM"
"""Mark Pollack (Created) (JIRA)"" <jira@apache.org>","Fri, 30 Dec 2011 15:27:30 +0000 (UTC)","[jira] [Created] (HADOOP-7944) Would like to update development getting started pages on hadoop wiki but don't have permission"
"Ralph Castain <rhc@open-mpi.org>","Fri, 30 Dec 2011 09:02:22 -0700","RM & AM for Hadoop"
"Michel Segel <michael_segel@hotmail.com>","Fri, 30 Dec 2011 12:19:47 -0600","New InfoQ article on HBase and Lucene"
"Ronald Petty <ronald.petty@gmail.com>","Fri, 30 Dec 2011 20:16:30 -0500","SVN Repo Question"
"Harsh J <harsh@cloudera.com>","Sat, 31 Dec 2011 08:21:51 +0530","Re: SVN Repo Question"
"Ronald Petty <ronald.petty@gmail.com>","Fri, 30 Dec 2011 22:01:12 -0500","Re: SVN Repo Question"
"Harsh J <harsh@cloudera.com>","Sat, 31 Dec 2011 08:55:18 +0530","Re: SVN Repo Question"
"Harsh J <harsh@cloudera.com>","Sat, 31 Dec 2011 08:58:16 +0530","Re: SVN Repo Question"
"Ronald Petty <ronald.petty@gmail.com>","Fri, 30 Dec 2011 22:31:19 -0500","Re: SVN Repo Question"
"Ted Dunning <tdunning@maprtech.com>","Sat, 31 Dec 2011 03:13:17 -0800","Re: New InfoQ article on HBase and Lucene"
"""Allen Wittenauer (Resolved) (JIRA)"" <jira@apache.org>","Sat, 31 Dec 2011 17:46:31 +0000 (UTC)","[jira] [Resolved] (HADOOP-5064) Hadoop 1.0"
"""Allen Wittenauer (Resolved) (JIRA)"" <jira@apache.org>","Sat, 31 Dec 2011 17:46:31 +0000 (UTC)","[jira] [Resolved] (HADOOP-5071) Hadoop 1.0 Compatibility Requirements"
