"Developer","Date","Subject"
"""Tsz Wo (Nicholas), SZE (JIRA)"" <jira@apache.org>","Tue, 31 Aug 2010 22:09:54 -0400 (EDT)","[jira] Created: (HADOOP-6935) IPC Server readAndProcess threw NullPointerException"
"""Rodrigo Schmidt (JIRA)"" <jira@apache.org>","Tue, 31 Aug 2010 22:28:56 -0400 (EDT)","[jira] Resolved: (HADOOP-6796) FileStatus allows null srcPath but crashes if that's done"
"""Rodrigo Schmidt (JIRA)"" <jira@apache.org>","Tue, 31 Aug 2010 22:32:54 -0400 (EDT)","[jira] Resolved: (HADOOP-6827) Extend the API of NetworkTopology"
"Lief van der Baan <ieaeaa@gmail.com>","Wed, 1 Sep 2010 19:50:40 +0100","Re: [jira] Resolved: (HADOOP-6827) Extend the API of NetworkTopology"
"""Eugene Koontz (JIRA)"" <jira@apache.org>","Wed, 1 Sep 2010 15:39:55 -0400 (EDT)","[jira] Created: (HADOOP-6936) broken links in http://wiki.apache.org/hadoop/FAQ#A12//s"
"""Ranjit Mathew (JIRA)"" <jira@apache.org>","Thu, 2 Sep 2010 06:19:53 -0400 (EDT)","[jira] Created: (HADOOP-6937) Invalid Entry for JSP JARs in Hadoop CLASSPATH"
"""Kan Zhang (JIRA)"" <jira@apache.org>","Thu, 2 Sep 2010 19:06:34 -0400 (EDT)","[jira] Created: (HADOOP-6938) ConnectiionId.getConnectionId() should check if security is enabled"
"""Al Thompson (JIRA)"" <jira@apache.org>","Thu, 2 Sep 2010 23:08:33 -0400 (EDT)","[jira] Reopened: (HADOOP-6927) Herriot NN and DN clients should vend statistics"
"""Todd Lipcon (JIRA)"" <jira@apache.org>","Fri, 3 Sep 2010 18:48:33 -0400 (EDT)","[jira] Created: (HADOOP-6939) Inconsistent lock ordering in AbstractDelegationTokenSecretManager"
"Saikat Kanjilal <sxk1969@hotmail.com>","Sat, 4 Sep 2010 22:27:53 -0700","FW: [jira] Moved: (MAPREDUCE-2008) write Junit test cases that run the Hadoop examples"
"Eli Collins <eli@cloudera.com>","Sun, 5 Sep 2010 13:55:18 -0700","Re: FW: [jira] Moved: (MAPREDUCE-2008) write Junit test cases that run the Hadoop examples"
"Saikat Kanjilal <sxk1969@hotmail.com>","Sun, 5 Sep 2010 14:12:06 -0700","Re: [jira] Moved: (MAPREDUCE-2008) write Junit test cases that run the Hadoop examples"
"Eli Collins <eli@cloudera.com>","Sun, 5 Sep 2010 14:27:29 -0700","Re: [jira] Moved: (MAPREDUCE-2008) write Junit test cases that run the Hadoop examples"
"Saikat Kanjilal <sxk1969@hotmail.com>","Sun, 5 Sep 2010 14:52:02 -0700","Re: [jira] Moved: (MAPREDUCE-2008) write Junit test cases that run the Hadoop examples"
"Gianmarco <gianmarco.dfm@gmail.com>","Mon, 6 Sep 2010 00:48:16 +0200","HADOOP 6758 - Re-submitting patch"
"Mahadev Konar <mahadev@yahoo-inc.com>","Sun, 5 Sep 2010 17:10:50 -0700","Re: HADOOP 6758 - Re-submitting patch"
"Matthew John <tmatthewjohn1988@gmail.com>","Tue, 7 Sep 2010 15:31:56 +0530","Sort with custom input/output format !!"
"Matthew John <tmatthewjohn1988@gmail.com>","Tue, 7 Sep 2010 15:41:08 +0530","How to rebuild Hadoop ??"
"""Tom White (JIRA)"" <jira@apache.org>","Tue, 7 Sep 2010 08:32:33 -0400 (EDT)","[jira] Created: (HADOOP-6940) RawLocalFileSystem's markSupported method misnamed markSupport"
"""Stephen Watt (JIRA)"" <jira@apache.org>","Tue, 7 Sep 2010 18:16:34 -0400 (EDT)","[jira] Created: (HADOOP-6941) Hadoop 0.21 will not work on non-SUN JREs due to use of com.sun.security in org/apache/hadoop/security/UserGroupInformation.java"
"""Krishna Ramachandran (JIRA)"" <jira@apache.org>","Tue, 7 Sep 2010 19:01:33 -0400 (EDT)","[jira] Created: (HADOOP-6942) Ability for having user's classes take precedence over the system classes for tasks' classpath"
"""Aaron T. Myers (JIRA)"" <jira@apache.org>","Tue, 7 Sep 2010 19:27:33 -0400 (EDT)","[jira] Created: (HADOOP-6943) The GroupMappingServiceProvider interface should be public"
"""Vinay Kumar Thota (JIRA)"" <jira@apache.org>","Wed, 8 Sep 2010 08:14:33 -0400 (EDT)","[jira] Created: (HADOOP-6944) [Herriot] Implement a functionality for getting the poxyusers path."
"""Greg Wittel (JIRA)"" <jira@apache.org>","Wed, 8 Sep 2010 11:41:33 -0400 (EDT)","[jira] Created: (HADOOP-6945) Inclusion of Old Jackson-JSON Breaks tasks using Avro (or any task depending on Jackson JSON)"
"""Eli Collins (JIRA)"" <jira@apache.org>","Wed, 8 Sep 2010 19:50:36 -0400 (EDT)","[jira] Resolved: (HADOOP-6940) RawLocalFileSystem's markSupported method misnamed markSupport"
"""Todd Lipcon (JIRA)"" <jira@apache.org>","Wed, 8 Sep 2010 23:47:33 -0400 (EDT)","[jira] Created: (HADOOP-6946) SecurityUtils' TGT fetching does not fall back to ""login"" user"
"""Todd Lipcon (JIRA)"" <jira@apache.org>","Thu, 9 Sep 2010 00:43:33 -0400 (EDT)","[jira] Created: (HADOOP-6947) Kerberos relogin should set refreshKrb5Config to true"
"Saikat Kanjilal <sxk1969@hotmail.com>","Wed, 8 Sep 2010 21:58:58 -0700","RE: [jira] Moved: (MAPREDUCE-2008) write Junit test cases that run the Hadoop examples"
"radheshyam nanduri <radheshyam.nanduri@gmail.com>","Thu, 9 Sep 2010 11:30:58 +0530","Launching Tasks From JobTracker"
"""Mike Baranczak (JIRA)"" <jira@apache.org>","Thu, 9 Sep 2010 21:00:33 -0400 (EDT)","[jira] Created: (HADOOP-6948) There's no way to remove a property from a Configuration"
"""Navis (JIRA)"" <jira@apache.org>","Fri, 10 Sep 2010 04:50:33 -0400 (EDT)","[jira] Created: (HADOOP-6949) Reduces RPC packet size for primitive arrays, especially long[], which is used at block reporting"
"Hemanth Yamijala <yhemanth@gmail.com>","Fri, 10 Sep 2010 18:46:55 +0530","Re: Launching Tasks From JobTracker"
"""Philip Zeyliger (JIRA)"" <jira@apache.org>","Fri, 10 Sep 2010 15:16:39 -0400 (EDT)","[jira] Created: (HADOOP-6950) Suggest that HADOOP_CLASSPATH should be preserved in hadoop-env.sh.template"
"""Aaron T. Myers (JIRA)"" <jira@apache.org>","Mon, 13 Sep 2010 14:57:34 -0400 (EDT)","[jira] Created: (HADOOP-6951) Distinct minicluster services (e.g. NN and JT) overwrite each other's service policies"
"""Tsz Wo (Nicholas), SZE (JIRA)"" <jira@apache.org>","Tue, 14 Sep 2010 14:25:34 -0400 (EDT)","[jira] Resolved: (HADOOP-6857) FsShell should report raw disk usage including replication factor"
"""Koji Noguchi (JIRA)"" <jira@apache.org>","Tue, 14 Sep 2010 19:18:34 -0400 (EDT)","[jira] Reopened: (HADOOP-6857) FsShell should report raw disk usage including replication factor"
"""dhruba borthakur (JIRA)"" <jira@apache.org>","Wed, 15 Sep 2010 01:14:34 -0400 (EDT)","[jira] Created: (HADOOP-6952) Support sending priority RPC"
"Farhan Husain <farhan.husain@csebuet.org>","Wed, 15 Sep 2010 00:40:44 -0500","Re: [ANNOUNCE] Apache Hadoop 0.21.0 released"
"""Tom White (JIRA)"" <jira@apache.org>","Wed, 15 Sep 2010 18:38:34 -0400 (EDT)","[jira] Created: (HADOOP-6953) start-{dfs,mapred}.sh scripts fail if HADOOP_HOME is not set"
"""Tom White (JIRA)"" <jira@apache.org>","Wed, 15 Sep 2010 20:11:33 -0400 (EDT)","[jira] Created: (HADOOP-6954) Sources JARs are not correctly published to the Maven repository"
"""Eli Collins (JIRA)"" <jira@apache.org>","Wed, 15 Sep 2010 22:35:34 -0400 (EDT)","[jira] Resolved: (HADOOP-6950) Suggest that HADOOP_CLASSPATH should be preserved in hadoop-env.sh.template"
"Vivek Mishra <vivek.mishra@yahoo.com>","Thu, 16 Sep 2010 05:12:51 +0000 (UTC)","Re: hadoop ANT build ERROR HELP!!!!"
"""Vivek Mishra (JIRA)"" <jira@apache.org>","Thu, 16 Sep 2010 06:19:34 -0400 (EDT)","[jira] Created: (HADOOP-6955) ant-eclipse-download"
"Luke <vicaya@gmail.com>","Thu, 16 Sep 2010 12:02:10 -0700","Paths of evolution for Hadoop metrics"
"""Youjie Zhou"" <youjiezhou@gmail.com>","Thu, 16 Sep 2010 17:14:05 -0400","user defined RecordReader or Writer using pipes"
"""Navis (JIRA)"" <jira@apache.org>","Fri, 17 Sep 2010 01:41:33 -0400 (EDT)","[jira] Resolved: (HADOOP-6949) Reduces RPC packet size for primitive arrays, especially long[], which is used at block reporting"
"""Vivek Mishra (JIRA)"" <jira@apache.org>","Fri, 17 Sep 2010 01:57:33 -0400 (EDT)","[jira] Resolved: (HADOOP-6955) ant-eclipse-download"
"""Vivek Mishra (JIRA)"" <jira@apache.org>","Fri, 17 Sep 2010 02:04:33 -0400 (EDT)","[jira] Created: (HADOOP-6956) compile-core-test"
"=?gb2312?B?zfXKwMmt?= <wangshisen@oraro.net>","Fri, 17 Sep 2010 14:42:31 +0800","how to view the result of kmeans"
"radheshyam nanduri <radheshyam.nanduri@gmail.com>","Fri, 17 Sep 2010 14:00:58 +0530","Re: Launching Tasks From JobTracker"
"Eli Collins <eli@cloudera.com>","Fri, 17 Sep 2010 11:26:40 -0700","Re: FW: [jira] Moved: (MAPREDUCE-2008) write Junit test cases that run the Hadoop examples"
"Doug Cutting <cutting@apache.org>","Fri, 17 Sep 2010 13:08:03 -0700","Re: Page BayAreaHadoopUserGroup deleted from Hadoop Wiki"
"Owen O'Malley <omalley@apache.org>","Fri, 17 Sep 2010 13:51:12 -0700","Re: Page BayAreaHadoopUserGroup deleted from Hadoop Wiki"
"Gary Helmling <ghelmling@gmail.com>","Fri, 17 Sep 2010 15:37:22 -0700","Re: Paths of evolution for Hadoop metrics"
"Saikat Kanjilal <sxk1969@hotmail.com>","Fri, 17 Sep 2010 15:59:28 -0700","RE: [jira] Moved: (MAPREDUCE-2008) write Junit test cases that run the Hadoop examples"
"""Jeff Zhang (JIRA)"" <jira@apache.org>","Sat, 18 Sep 2010 08:34:33 -0400 (EDT)","[jira] Created: (HADOOP-6957) Return bindAdrress directly rather than get it from ServerSocketChannel in Listener's getAddress() method"
"""mazhiyong (JIRA)"" <jira@apache.org>","Sat, 18 Sep 2010 23:19:34 -0400 (EDT)","[jira] Created: (HADOOP-6958) org.apache.hadoop.util.DiskChecker$DiskErrorException: Could not find taskTracker/jobcache"
"steven zhuang <steven.zhuang.1984@gmail.com>","Mon, 20 Sep 2010 10:57:23 +0800","why DFSClient.BlockReader doesnot support seek(long) can I use skip() instead?"
"""Saikat Kanjilal (JIRA)"" <jira@apache.org>","Sun, 19 Sep 2010 23:41:33 -0400 (EDT)","[jira] Created: (HADOOP-6959) Provisioning of long running Services via HOD"
"""Saikat Kanjilal (JIRA)"" <jira@apache.org>","Sun, 19 Sep 2010 23:43:34 -0400 (EDT)","[jira] Created: (HADOOP-6960) Hadoop Security Design"
"""Saikat Kanjilal (JIRA)"" <jira@apache.org>","Sun, 19 Sep 2010 23:45:33 -0400 (EDT)","[jira] Created: (HADOOP-6961) Integration of Virtualization (such as Xen) with Hadoop tools"
"""Owen O'Malley (JIRA)"" <jira@apache.org>","Mon, 20 Sep 2010 00:14:34 -0400 (EDT)","[jira] Resolved: (HADOOP-6960) Hadoop Security Design"
"""Owen O'Malley (JIRA)"" <jira@apache.org>","Mon, 20 Sep 2010 03:19:33 -0400 (EDT)","[jira] Created: (HADOOP-6962) FileSystem.mkdirs(Path, FSPermission) should use the permission for all of the created directories"
"""Owen O'Malley (JIRA)"" <jira@apache.org>","Mon, 20 Sep 2010 03:28:33 -0400 (EDT)","[jira] Created: (HADOOP-6963) FileUtil.getDU should not include the size of the directory"
"""Owen O'Malley (JIRA)"" <jira@apache.org>","Mon, 20 Sep 2010 03:51:33 -0400 (EDT)","[jira] Created: (HADOOP-6964) Allow compact property description in xml"
"""Vivek Mishra (JIRA)"" <jira@apache.org>","Mon, 20 Sep 2010 06:39:34 -0400 (EDT)","[jira] Resolved: (HADOOP-6956) compile-core-test"
"Allen Wittenauer <awittenauer@linkedin.com>","Mon, 20 Sep 2010 17:10:13 +0000","Re: why DFSClient.BlockReader doesnot support seek(long) can I use skip() instead?"
"""Jitendra Nath Pandey (JIRA)"" <jira@apache.org>","Mon, 20 Sep 2010 17:49:35 -0400 (EDT)","[jira] Created: (HADOOP-6965) Method in UGI to get Kerberos ticket."
"""Greg Roelofs (JIRA)"" <jira@apache.org>","Mon, 20 Sep 2010 21:19:34 -0400 (EDT)","[jira] Created: (HADOOP-6966) missing bzip2 bounds checks, other stream-corruption checks"
"steven zhuang <steven.zhuang.1984@gmail.com>","Tue, 21 Sep 2010 10:08:32 +0800","Re: why DFSClient.BlockReader doesnot support seek(long) can I use skip() instead?"
"""Boris Shkolnik (JIRA)"" <jira@apache.org>","Tue, 21 Sep 2010 18:59:33 -0400 (EDT)","[jira] Created: (HADOOP-6967) docs update for -format command for namenode for Federation ( HDFS-1394 )"
"""Konstantin Boudnik (JIRA)"" <jira@apache.org>","Tue, 21 Sep 2010 21:24:33 -0400 (EDT)","[jira] Created: (HADOOP-6968) Split Herriot related classes into a separate jar"
"Santosh Patil <santosh.a.patil@gmail.com>","Tue, 21 Sep 2010 20:08:38 -0700 (PDT)","hdfs with PHP with/without thrift"
"""Konstantin Shvachko (JIRA)"" <jira@apache.org>","Thu, 23 Sep 2010 15:18:33 -0400 (EDT)","[jira] Created: (HADOOP-6969) CHANGES.txt does not reflect the release of version 0.21.0."
"""Konstantin Shvachko (JIRA)"" <jira@apache.org>","Thu, 23 Sep 2010 15:26:33 -0400 (EDT)","[jira] Created: (HADOOP-6970) SecurityAuth.audit should be generated under /build"
"Dave Shine <Dave.Shine@channelintelligence.com>","Thu, 23 Sep 2010 16:27:18 -0400","FileSystem.moveToLocalFile getting chmod: ... Operation not permitted"
"Farhan Husain <farhan.husain@csebuet.org>","Thu, 23 Sep 2010 15:41:36 -0500","Relation between number of map tasks and input splits"
"Owen O'Malley <omalley@apache.org>","Thu, 23 Sep 2010 22:12:30 -0700","Slides for tomorrow's keysigning party"
"Owen O'Malley <omalley@apache.org>","Thu, 23 Sep 2010 22:48:09 -0700","Re: Slides for tomorrow's keysigning party"
"""Konstantin Boudnik (JIRA)"" <jira@apache.org>","Fri, 24 Sep 2010 15:11:32 -0400 (EDT)","[jira] Created: (HADOOP-6971) Clover build doesn't generate per-test coverage"
"""Konstantin Boudnik (JIRA)"" <jira@apache.org>","Fri, 24 Sep 2010 15:14:34 -0400 (EDT)","[jira] Created: (HADOOP-6972) CLONE -Clover build doesn't generate per-test coverage"
"""Konstantin Boudnik (JIRA)"" <jira@apache.org>","Fri, 24 Sep 2010 15:14:37 -0400 (EDT)","[jira] Created: (HADOOP-6973) CLONE -Clover build doesn't generate per-test coverage"
"""Paul Butler (JIRA)"" <jira@apache.org>","Fri, 24 Sep 2010 21:02:34 -0400 (EDT)","[jira] Created: (HADOOP-6974) Configurable header buffer size for Hadoop HTTP server"
"""Tom White (JIRA)"" <jira@apache.org>","Fri, 24 Sep 2010 22:45:33 -0400 (EDT)","[jira] Reopened: (HADOOP-6951) Distinct minicluster services (e.g. NN and JT) overwrite each other's service policies"
"Nan Zhu <zhunansjtu@gmail.com>","Mon, 27 Sep 2010 13:35:59 +0800","Available of Intermediate data generated by mappers"
"""Patrick Kling (JIRA)"" <jira@apache.org>","Mon, 27 Sep 2010 14:45:34 -0400 (EDT)","[jira] Created: (HADOOP-6975) integer overflow in S3InputStream for blocks > 2GB"
"""Todd Lipcon (JIRA)"" <jira@apache.org>","Mon, 27 Sep 2010 14:47:33 -0400 (EDT)","[jira] Created: (HADOOP-6976) UGI should not try to renew non-renewable kerberos tickets"
"""Todd Lipcon (JIRA)"" <jira@apache.org>","Tue, 28 Sep 2010 16:09:34 -0400 (EDT)","[jira] Created: (HADOOP-6978) Add JNI support for secure IO operations"
"""Konstantin Boudnik (JIRA)"" <jira@apache.org>","Wed, 29 Sep 2010 12:08:34 -0400 (EDT)","[jira] Created: (HADOOP-6979) System test framework needs to black list unresponsive cluster nodes after a timeout"
"""Konstantin Boudnik (JIRA)"" <jira@apache.org>","Wed, 29 Sep 2010 12:16:34 -0400 (EDT)","[jira] Created: (HADOOP-6980) Add abstraction layer to isolate cluster deployment mechanisms"
"""Konstantin Boudnik (JIRA)"" <jira@apache.org>","Wed, 29 Sep 2010 12:22:33 -0400 (EDT)","[jira] Created: (HADOOP-6981) Provide a way to run system tests outside of source tree and Ant build environment"
"""Todd Lipcon (JIRA)"" <jira@apache.org>","Wed, 29 Sep 2010 13:25:34 -0400 (EDT)","[jira] Created: (HADOOP-6982) RPC ""relogin"" behavior should not be limited to global ""login user"""
"""Tom White (JIRA)"" <jira@apache.org>","Wed, 29 Sep 2010 20:14:33 -0400 (EDT)","[jira] Resolved: (HADOOP-6951) Distinct minicluster services (e.g. NN and JT) overwrite each other's service policies"
"""Owen O'Malley (JIRA)"" <jira@apache.org>","Wed, 29 Sep 2010 23:01:45 -0400 (EDT)","[jira] Resolved: (HADOOP-6856) SequenceFile and MapFile need cleanup to remove redundant constructors"
"""Dmytro Molkov (JIRA)"" <jira@apache.org>","Thu, 30 Sep 2010 18:58:33 -0400 (EDT)","[jira] Created: (HADOOP-6983) Update balancer docs"
