"Developer","Date","Subject"
"Chris Douglas <chris.douglas@gmail.com>","Fri, 30 Sep 2016 18:15:41 -0700","Re: [VOTE] Release Apache Hadoop 2.6.5 (RC0)"
"John Zhuge <jzhuge@cloudera.com>","Fri, 30 Sep 2016 19:54:23 -0700","Re: [VOTE] Release Apache Hadoop 2.6.5 (RC0)"
"John Zhuge <jzhuge@cloudera.com>","Fri, 30 Sep 2016 20:10:49 -0700","Re: [VOTE] Release Apache Hadoop 2.6.5 (RC0)"
"Brahma Reddy Battula <brahmareddy.battula@hotmail.com>","Sat, 1 Oct 2016 04:25:23 +0000","Re: [VOTE] Release Apache Hadoop 2.6.5 (RC0)"
"""Steve Loughran (JIRA)"" <jira@apache.org>","Sat, 1 Oct 2016 13:13:21 +0000 (UTC)","[jira] [Resolved] (HADOOP-13566) NPE in S3AFastOutputStream.write"
"Apache Jenkins Server <jenkins@builds.apache.org>","Sat, 1 Oct 2016 14:45:14 +0000 (UTC)","Apache Hadoop qbt Report: trunk+JDK8 on Linux/x86"
"Wangda Tan <wheeleast@gmail.com>","Sat, 1 Oct 2016 09:37:31 -0700","Maven build: YARN timeline service downloading maven-metadata from personal repository?"
"Apache Jenkins Server <jenkins@builds.apache.org>","Sat, 1 Oct 2016 18:56:24 +0000 (UTC)","Apache Hadoop qbt Report: trunk+JDK8 on Linux/ppc64le"
"Sangjin Lee <sjlee@apache.org>","Sat, 1 Oct 2016 12:46:04 -0700","Re: [VOTE] Release Apache Hadoop 2.6.5 (RC0)"
"Sangjin Lee <sjlee@apache.org>","Sat, 1 Oct 2016 13:37:07 -0700","Re: Maven build: YARN timeline service downloading maven-metadata from personal repository?"
"Ted Yu <yuzhihong@gmail.com>","Sat, 1 Oct 2016 14:19:38 -0700","Re: Maven build: YARN timeline service downloading maven-metadata from personal repository?"
"Sangjin Lee <sjlee@apache.org>","Sat, 1 Oct 2016 17:40:16 -0700","Re: [VOTE] Release Apache Hadoop 2.6.5 (RC0)"
"""Zheng, Kai"" <kai.zheng@intel.com>","Sun, 2 Oct 2016 03:38:22 +0000","RE: [VOTE] HADOOP-12756 - Aliyun OSS Support branch merge"
"Brahma Reddy Battula <brahmareddy.battula@hotmail.com>","Sun, 2 Oct 2016 04:13:39 +0000","Re: [VOTE] Release Apache Hadoop 2.6.5 (RC0)"
"Akira Ajisaka <aajisaka@apache.org>","Sun, 2 Oct 2016 18:58:46 +0900","Re: [VOTE] Release Apache Hadoop 2.6.5 (RC0)"
"Apache Jenkins Server <jenkins@builds.apache.org>","Sun, 2 Oct 2016 14:35:11 +0000 (UTC)","Apache Hadoop qbt Report: trunk+JDK8 on Linux/x86"
"Apache Jenkins Server <jenkins@builds.apache.org>","Sun, 2 Oct 2016 19:10:46 +0000 (UTC)","Apache Hadoop qbt Report: trunk+JDK8 on Linux/ppc64le"
"Sangjin Lee <sjlee@apache.org>","Sun, 2 Oct 2016 15:31:57 -0700","Re: [VOTE] Release Apache Hadoop 2.6.5 (RC0)"
"Sangjin Lee <sjlee@apache.org>","Sun, 2 Oct 2016 17:12:44 -0700","[VOTE] Release Apache Hadoop 2.6.5 (RC1)"
"""Xiao Chen (JIRA)"" <jira@apache.org>","Mon, 3 Oct 2016 04:44:20 +0000 (UTC)","[jira] [Resolved] (HADOOP-13318) Allow configurable connection timeouts for KMSClientProvider"
"""Ishan Chattopadhyaya (JIRA)"" <jira@apache.org>","Mon, 3 Oct 2016 07:35:20 +0000 (UTC)","[jira] [Created] (HADOOP-13672) Extract out jackson calls into an overrideable method in DelegationTokenAuthenticationHandler"
"Steve Loughran <stevel@hortonworks.com>","Mon, 3 Oct 2016 11:43:02 +0000","Re: Maven build: YARN timeline service downloading maven-metadata from personal repository?"
"Apache Jenkins Server <jenkins@builds.apache.org>","Mon, 3 Oct 2016 14:34:45 +0000 (UTC)","Apache Hadoop qbt Report: trunk+JDK8 on Linux/x86"
"Wangda Tan <wheeleast@gmail.com>","Mon, 3 Oct 2016 10:18:47 -0700","Re: Maven build: YARN timeline service downloading maven-metadata from personal repository?"
"Wangda Tan <wheeleast@gmail.com>","Mon, 3 Oct 2016 10:25:08 -0700","Re: Maven build: YARN timeline service downloading maven-metadata from personal repository?"
"""Allen Wittenauer (JIRA)"" <jira@apache.org>","Mon, 3 Oct 2016 17:49:20 +0000 (UTC)","[jira] [Created] (HADOOP-13673) Update sbin/start-* and sbin/stop-* to be smarter"
"Apache Jenkins Server <jenkins@builds.apache.org>","Mon, 3 Oct 2016 18:56:38 +0000 (UTC)","Apache Hadoop qbt Report: trunk+JDK8 on Linux/ppc64le"
"""Chris Nauroth (JIRA)"" <jira@apache.org>","Mon, 3 Oct 2016 20:41:20 +0000 (UTC)","[jira] [Created] (HADOOP-13674) S3A can provide a more detailed error message when accessing a bucket through an incorrect S3 endpoint."
"""Dushyanth (JIRA)"" <jira@apache.org>","Tue, 4 Oct 2016 00:14:20 +0000 (UTC)","[jira] [Created] (HADOOP-13675) Bug in return value for delete() calls in WASB"
"""Akira Ajisaka (JIRA)"" <jira@apache.org>","Tue, 4 Oct 2016 06:47:20 +0000 (UTC)","[jira] [Created] (HADOOP-13676) Update jackson from 1.9.13 to 2.x in hadoop-mapreduce"
"""Akira Ajisaka (JIRA)"" <jira@apache.org>","Tue, 4 Oct 2016 08:36:20 +0000 (UTC)","[jira] [Created] (HADOOP-13677) Update jackson from 1.9.13 to 2.x in hadoop-yarn"
"""Akira Ajisaka (JIRA)"" <jira@apache.org>","Tue, 4 Oct 2016 12:46:20 +0000 (UTC)","[jira] [Created] (HADOOP-13678) Update jackson from 1.9.13 to 2.x in hadoop-tools"
"""Daniel Barclay (JIRA)"" <jira@apache.org>","Tue, 4 Oct 2016 13:24:20 +0000 (UTC)","[jira] [Created] (HADOOP-13679) org.apache.hadoop.fs.Path doesn't specify mentioned differences from URIs"
"Apache Jenkins Server <jenkins@builds.apache.org>","Tue, 4 Oct 2016 14:13:14 +0000 (UTC)","Apache Hadoop qbt Report: trunk+JDK8 on Linux/x86"
"""Steve Loughran (JIRA)"" <jira@apache.org>","Tue, 4 Oct 2016 14:19:20 +0000 (UTC)","[jira] [Created] (HADOOP-13680) fs.s3a.readahead.range to use getLongBytes"
"""Grant Henke (JIRA)"" <jira@apache.org>","Tue, 4 Oct 2016 15:30:20 +0000 (UTC)","[jira] [Created] (HADOOP-13681) Reduce Kafka dependencies in hadoop-kafka module"
"""Wei-Chiu Chuang (JIRA)"" <jira@apache.org>","Tue, 4 Oct 2016 17:18:20 +0000 (UTC)","[jira] [Created] (HADOOP-13682) Log missing stacktrace in catch block"
"Apache Jenkins Server <jenkins@builds.apache.org>","Tue, 4 Oct 2016 18:51:38 +0000 (UTC)","Apache Hadoop qbt Report: trunk+JDK8 on Linux/ppc64le"
"""Akira Ajisaka (JIRA)"" <jira@apache.org>","Tue, 4 Oct 2016 19:38:20 +0000 (UTC)","[jira] [Created] (HADOOP-13683) Update jackson from 1.9.13 to 2.x in hadoop-hdfs"
"""Wei-Chiu Chuang (JIRA)"" <jira@apache.org>","Tue, 4 Oct 2016 20:54:20 +0000 (UTC)","[jira] [Created] (HADOOP-13684) Snappy may complain Hadoop is built without snappy if libhadoop is not found."
"""Xiaoyu Yao (JIRA)"" <jira@apache.org>","Tue, 4 Oct 2016 21:12:21 +0000 (UTC)","[jira] [Created] (HADOOP-13685) Document -safely option to rm command."
"Sangjin Lee <sjlee0@gmail.com>","Tue, 4 Oct 2016 18:50:01 -0700","Re: Maven build: YARN timeline service downloading maven-metadata from personal repository?"
"Brahma Reddy Battula <brahmareddy.battula@hotmail.com>","Wed, 5 Oct 2016 11:44:30 +0000","Re: Updation of Change.txt in branch-2.7"
"""Zheng, Kai"" <kai.zheng@intel.com>","Wed, 5 Oct 2016 13:37:27 +0000","RE: [VOTE] HADOOP-12756 - Aliyun OSS Support branch merge"
"Apache Jenkins Server <jenkins@builds.apache.org>","Wed, 5 Oct 2016 14:27:29 +0000 (UTC)","Apache Hadoop qbt Report: trunk+JDK8 on Linux/x86"
"""Gangumalla, Uma"" <uma.gangumalla@intel.com>","Wed, 5 Oct 2016 17:01:53 +0000","Re: [VOTE] HADOOP-12756 - Aliyun OSS Support branch merge"
"""Xiaoyu Yao (JIRA)"" <jira@apache.org>","Wed, 5 Oct 2016 17:16:21 +0000 (UTC)","[jira] [Created] (HADOOP-13686) Adding additional unit test for Trash (I)"
"Chris Trezzo <ctrezzo@gmail.com>","Wed, 5 Oct 2016 11:08:09 -0700","Re: [VOTE] Release Apache Hadoop 2.6.5 (RC1)"
"""Andrew Wang (JIRA)"" <jira@apache.org>","Wed, 5 Oct 2016 18:37:20 +0000 (UTC)","[jira] [Resolved] (HADOOP-12010) Inter-operable between Java RS erasure coder and native RS erasure coder"
"Apache Jenkins Server <jenkins@builds.apache.org>","Wed, 5 Oct 2016 18:43:16 +0000 (UTC)","Apache Hadoop qbt Report: trunk+JDK8 on Linux/ppc64le"
"""Chris Nauroth (JIRA)"" <jira@apache.org>","Wed, 5 Oct 2016 20:09:20 +0000 (UTC)","[jira] [Created] (HADOOP-13687) Provide a unified dependency artifact that transitively includes all Hadoop-compatible file systems."
"""Andrew Wang (JIRA)"" <jira@apache.org>","Wed, 5 Oct 2016 22:13:20 +0000 (UTC)","[jira] [Created] (HADOOP-13688) Stop bundling HTML source code in javadoc JARs"
"Brahma Reddy Battula <brahma@apache.org>","Thu, 6 Oct 2016 09:58:49 +0530","Re: [VOTE] Release Apache Hadoop 2.6.5 (RC1)"
"Akira Ajisaka <ajisakaa@oss.nttdata.co.jp>","Thu, 6 Oct 2016 14:35:08 +0900","Re: [VOTE] Release Apache Hadoop 2.6.5 (RC1)"
"""Andrew Wang (JIRA)"" <jira@apache.org>","Thu, 6 Oct 2016 06:23:20 +0000 (UTC)","[jira] [Created] (HADOOP-13689) Do not attach javadoc and sources jars during non-dist build"
"""Yiqun Lin (JIRA)"" <jira@apache.org>","Thu, 6 Oct 2016 09:20:20 +0000 (UTC)","[jira] [Created] (HADOOP-13690) Fix typos in core-default.xml"
"Apache Jenkins Server <jenkins@builds.apache.org>","Thu, 6 Oct 2016 14:35:48 +0000 (UTC)","Apache Hadoop qbt Report: trunk+JDK8 on Linux/x86"
"Allen Wittenauer <aw@effectivemachines.com>","Thu, 6 Oct 2016 11:04:02 -0700","Re: [VOTE] Release Apache Hadoop 2.6.5 (RC1)"
"Rohith Sharma K S <ksrohithsharma@gmail.com>","Fri, 7 Oct 2016 00:25:45 +0530","Re: [VOTE] Release Apache Hadoop 2.6.5 (RC1)"
"Apache Jenkins Server <jenkins@builds.apache.org>","Thu, 6 Oct 2016 19:15:01 +0000 (UTC)","Apache Hadoop qbt Report: trunk+JDK8 on Linux/ppc64le"
"""Mingliang Liu (JIRA)"" <jira@apache.org>","Thu, 6 Oct 2016 20:36:20 +0000 (UTC)","[jira] [Resolved] (HADOOP-11513) Artifact errors with Maven build"
"Akira Ajisaka <ajisakaa@oss.nttdata.co.jp>","Fri, 7 Oct 2016 05:39:58 +0900","Re: [VOTE] Release Apache Hadoop 2.6.5 (RC1)"
"""Robert Kanter (JIRA)"" <jira@apache.org>","Thu, 6 Oct 2016 20:41:21 +0000 (UTC)","[jira] [Resolved] (HADOOP-9244) Upgrade servlet-api dependency from version 2.5 to 3.0."
"Sangjin Lee <sjlee@apache.org>","Thu, 6 Oct 2016 15:09:03 -0700","Re: [VOTE] Release Apache Hadoop 2.6.5 (RC1)"
"Andrew Wang <andrew.wang@cloudera.com>","Thu, 6 Oct 2016 15:13:46 -0700","Re: [VOTE] Release Apache Hadoop 2.6.5 (RC1)"
"Sangjin Lee <sjlee@apache.org>","Thu, 6 Oct 2016 16:08:40 -0700","Re: [VOTE] Release Apache Hadoop 2.6.5 (RC1)"
"""Sangjin Lee (JIRA)"" <jira@apache.org>","Thu, 6 Oct 2016 23:12:20 +0000 (UTC)","[jira] [Created] (HADOOP-13691) remove build person and date from various hadoop UI"
"""Chris Nauroth (JIRA)"" <jira@apache.org>","Thu, 6 Oct 2016 23:33:20 +0000 (UTC)","[jira] [Created] (HADOOP-13692) hadoop-aws should declare explicit dependency on Jackson 2 jars to prevent classpath conflicts."
"""Xiao Chen (JIRA)"" <jira@apache.org>","Fri, 7 Oct 2016 00:14:20 +0000 (UTC)","[jira] [Created] (HADOOP-13693) Make the SPNEGO initialization OPTIONS message in kms audit log more admin-friendly"
"Allen Wittenauer <aw@effectivemachines.com>","Thu, 6 Oct 2016 23:04:18 -0700","Re: [VOTE] Release Apache Hadoop 2.6.5 (RC1)"
"Masatake Iwasaki <iwasakims@oss.nttdata.co.jp>","Fri, 7 Oct 2016 22:45:15 +0900","Re: [VOTE] Release Apache Hadoop 2.6.5 (RC1)"
"Apache Jenkins Server <jenkins@builds.apache.org>","Fri, 7 Oct 2016 14:30:07 +0000 (UTC)","Apache Hadoop qbt Report: trunk+JDK8 on Linux/x86"
"""Steve Loughran (JIRA)"" <jira@apache.org>","Fri, 7 Oct 2016 14:52:20 +0000 (UTC)","[jira] [Resolved] (HADOOP-13516) Listing an empty s3a NON root directory throws FileNotFound."
"""Steve Loughran (JIRA)"" <jira@apache.org>","Fri, 7 Oct 2016 14:58:20 +0000 (UTC)","[jira] [Resolved] (HADOOP-13231) Isolate test path used by a few S3A tests for more reliable parallel execution."
"""Steve Loughran (JIRA)"" <jira@apache.org>","Fri, 7 Oct 2016 15:10:21 +0000 (UTC)","[jira] [Created] (HADOOP-13695) S3A to use a thread pool for async path operations"
"Sangjin Lee <sjlee@apache.org>","Fri, 7 Oct 2016 08:16:52 -0700","Re: [VOTE] Release Apache Hadoop 2.6.5 (RC1)"
"""Steve Loughran (JIRA)"" <jira@apache.org>","Fri, 7 Oct 2016 15:46:20 +0000 (UTC)","[jira] [Created] (HADOOP-13696) change hadoop-common dependency scope of jsch to provided."
"Zhihai Xu <zhihaixu2012@gmail.com>","Fri, 7 Oct 2016 10:33:38 -0700","Re: [VOTE] Release Apache Hadoop 2.6.5 (RC1)"
"""Mingliang Liu (JIRA)"" <jira@apache.org>","Fri, 7 Oct 2016 18:52:20 +0000 (UTC)","[jira] [Created] (HADOOP-13697) LogLevel#main throws exception if no arguments provided"
"Apache Jenkins Server <jenkins@builds.apache.org>","Fri, 7 Oct 2016 18:52:54 +0000 (UTC)","Apache Hadoop qbt Report: trunk+JDK8 on Linux/ppc64le"
"""Xiao Chen (JIRA)"" <jira@apache.org>","Fri, 7 Oct 2016 19:41:20 +0000 (UTC)","[jira] [Created] (HADOOP-13698) Document caveat for KeyShell when underlying KeyProvider does not delete a key"
"Wangda Tan <wheeleast@gmail.com>","Fri, 7 Oct 2016 14:50:39 -0700","Re: [VOTE] Release Apache Hadoop 2.6.5 (RC1)"
"Andrew Wang <andrew.wang@cloudera.com>","Fri, 7 Oct 2016 15:12:30 -0700","Re: [VOTE] Release Apache Hadoop 2.6.5 (RC1)"
"Lawrence Rosen <dweller@dwellersoul.com>","Sat, 8 Oct 2016 01:51:43 +0300","=?utf-8?B?c3VycHJpc2luZw==?="
"""Andrew Wang (JIRA)"" <jira@apache.org>","Fri, 7 Oct 2016 23:07:20 +0000 (UTC)","[jira] [Created] (HADOOP-13699) Configuration does not substitute multiple references to the same var"
"Sangjin Lee <sjlee@apache.org>","Fri, 7 Oct 2016 17:08:50 -0700","Re: [VOTE] Release Apache Hadoop 2.6.5 (RC1)"
"""Haibo Chen (JIRA)"" <jira@apache.org>","Sat, 8 Oct 2016 00:26:21 +0000 (UTC)","[jira] [Created] (HADOOP-13700) Incompatible changes in TrashPolicy"
"Yongjun Zhang <yzhang@cloudera.com>","Fri, 7 Oct 2016 18:01:15 -0700","Re: [VOTE] Release Apache Hadoop 2.6.5 (RC1)"
"Karthik Kambatla <kasha@cloudera.com>","Fri, 7 Oct 2016 19:35:28 -0700","Re: [VOTE] Release Apache Hadoop 2.6.5 (RC1)"
"larry mccay <lmccay@apache.org>","Fri, 7 Oct 2016 22:43:56 -0400","Re: [VOTE] Release Apache Hadoop 2.6.5 (RC1)"
"Junping Du <jdu@hortonworks.com>","Sat, 8 Oct 2016 04:03:57 +0000","Re: [VOTE] Release Apache Hadoop 2.6.5 (RC1)"
"John Zhuge <jzhuge@cloudera.com>","Fri, 7 Oct 2016 21:11:52 -0700","Re: [VOTE] Release Apache Hadoop 2.6.5 (RC1)"
"""Genmao Yu (JIRA)"" <jira@apache.org>","Sat, 8 Oct 2016 07:13:20 +0000 (UTC)","[jira] [Created] (HADOOP-13701) rebase trunk and fix unit test failure in ""AbstractContractRootDirectoryTest"""
"Naganarasimha Garla <naganarasimha_gr@apache.org>","Sat, 8 Oct 2016 07:09:47 -0400","Re: [VOTE] Release Apache Hadoop 2.6.5 (RC1)"
"""Zheng, Kai"" <kai.zheng@intel.com>","Sat, 8 Oct 2016 11:51:13 +0000","RE: [VOTE] HADOOP-12756 - Aliyun OSS Support branch merge"
"Apache Jenkins Server <jenkins@builds.apache.org>","Sat, 8 Oct 2016 14:13:07 +0000 (UTC)","Apache Hadoop qbt Report: trunk+JDK8 on Linux/x86"
"Apache Jenkins Server <jenkins@builds.apache.org>","Sat, 8 Oct 2016 18:47:08 +0000 (UTC)","Apache Hadoop qbt Report: trunk+JDK8 on Linux/ppc64le"
"Apache Jenkins Server <jenkins@builds.apache.org>","Sun, 9 Oct 2016 14:07:44 +0000 (UTC)","Apache Hadoop qbt Report: trunk+JDK8 on Linux/x86"
"Apache Jenkins Server <jenkins@builds.apache.org>","Sun, 9 Oct 2016 18:53:14 +0000 (UTC)","Apache Hadoop qbt Report: trunk+JDK8 on Linux/ppc64le"
"""Steve Loughran (JIRA)"" <jira@apache.org>","Mon, 10 Oct 2016 12:09:20 +0000 (UTC)","[jira] [Resolved] (HADOOP-12387) Improve S3AFastOutputStream memory management"
"""Steve Loughran (JIRA)"" <jira@apache.org>","Mon, 10 Oct 2016 12:11:20 +0000 (UTC)","[jira] [Created] (HADOOP-13703) S3ABlockOutputStream to pass Yetus & Jenkins"
"Jason Lowe <jlowe@yahoo-inc.com.INVALID>","Mon, 10 Oct 2016 13:38:03 +0000 (UTC)","Re: [VOTE] Release Apache Hadoop 2.6.5 (RC1)"
"Apache Jenkins Server <jenkins@builds.apache.org>","Mon, 10 Oct 2016 14:05:50 +0000 (UTC)","Apache Hadoop qbt Report: trunk+JDK8 on Linux/x86"
"""Steve Loughran (JIRA)"" <jira@apache.org>","Mon, 10 Oct 2016 16:44:20 +0000 (UTC)","[jira] [Created] (HADOOP-13704) S3A getContentSummary() to move to listFiles(recursive) to count children; instrument use"
"Apache Jenkins Server <jenkins@builds.apache.org>","Mon, 10 Oct 2016 19:00:14 +0000 (UTC)","Apache Hadoop qbt Report: trunk+JDK8 on Linux/ppc64le"
"""Andrew Wang (JIRA)"" <jira@apache.org>","Mon, 10 Oct 2016 19:20:21 +0000 (UTC)","[jira] [Resolved] (HADOOP-13699) Configuration does not substitute multiple references to the same var"
"""Kai Zheng (JIRA)"" <jira@apache.org>","Mon, 10 Oct 2016 21:39:20 +0000 (UTC)","[jira] [Resolved] (HADOOP-13584) hadoop-aliyun: merge HADOOP-12756 branch back"
"""Andrew Wang (JIRA)"" <jira@apache.org>","Tue, 11 Oct 2016 00:06:20 +0000 (UTC)","[jira] [Created] (HADOOP-13705) Revert HADOOP-13534 Remove unused TrashPolicy#getInstance and initialize code"
"Sangjin Lee <sjlee@apache.org>","Mon, 10 Oct 2016 18:04:58 -0700","Re: [VOTE] Release Apache Hadoop 2.6.5 (RC1)"
"Akira Ajisaka <ajisakaa@oss.nttdata.co.jp>","Tue, 11 Oct 2016 16:19:18 +0900","Re: [VOTE] Release Apache Hadoop 2.6.5 (RC1)"
"""Akira Ajisaka (JIRA)"" <jira@apache.org>","Tue, 11 Oct 2016 08:41:20 +0000 (UTC)","[jira] [Created] (HADOOP-13706) Update jackson from 1.9.13 to 2.x in hadoop-common-project"
"""Yuanbo Liu (JIRA)"" <jira@apache.org>","Tue, 11 Oct 2016 10:06:21 +0000 (UTC)","[jira] [Created] (HADOOP-13707) If kerberos is enabled while HTTP SPNEGO is not configured, some links cannot be accessed"
"Apache Jenkins Server <jenkins@builds.apache.org>","Tue, 11 Oct 2016 14:29:04 +0000 (UTC)","Apache Hadoop qbt Report: trunk+JDK8 on Linux/x86"
"""Ding Fei (JIRA)"" <jira@apache.org>","Tue, 11 Oct 2016 17:36:20 +0000 (UTC)","[jira] [Created] (HADOOP-13708) Fix a few typos in site *.md documents"
"""Eric Badger (JIRA)"" <jira@apache.org>","Tue, 11 Oct 2016 18:26:20 +0000 (UTC)","[jira] [Created] (HADOOP-13709) Clean up subprocesses spawned by Shell.java:runCommand when the shell process exits"
"Apache Jenkins Server <jenkins@builds.apache.org>","Tue, 11 Oct 2016 18:55:51 +0000 (UTC)","Apache Hadoop qbt Report: trunk+JDK8 on Linux/ppc64le"
"""Wei-Chiu Chuang (JIRA)"" <jira@apache.org>","Tue, 11 Oct 2016 19:45:20 +0000 (UTC)","[jira] [Created] (HADOOP-13711) Supress CachingGetSpaceUsed from logging interrupted exception stacktrace"
"""Wei-Chiu Chuang (JIRA)"" <jira@apache.org>","Tue, 11 Oct 2016 19:45:20 +0000 (UTC)","[jira] [Created] (HADOOP-13710) Supress CachingGetSpaceUsed from logging interrupted exception stacktrace"
"""Wei-Chiu Chuang (JIRA)"" <jira@apache.org>","Tue, 11 Oct 2016 19:53:20 +0000 (UTC)","[jira] [Resolved] (HADOOP-13711) Supress CachingGetSpaceUsed from logging interrupted exception stacktrace"
"""Steve Loughran (JIRA)"" <jira@apache.org>","Wed, 12 Oct 2016 09:21:21 +0000 (UTC)","[jira] [Resolved] (HADOOP-11946) Update jets3t jar to 0.9.4 in order to fix leading '/' problem with S3 calls."
"""Steve Loughran (JIRA)"" <jira@apache.org>","Wed, 12 Oct 2016 10:12:20 +0000 (UTC)","[jira] [Created] (HADOOP-13712) S3A open to avoid needless HEAD on the successful execution path"
"Apache Jenkins Server <jenkins@builds.apache.org>","Wed, 12 Oct 2016 14:11:55 +0000 (UTC)","Apache Hadoop qbt Report: trunk+JDK8 on Linux/x86"
"""Steve Loughran (JIRA)"" <jira@apache.org>","Wed, 12 Oct 2016 14:25:21 +0000 (UTC)","[jira] [Created] (HADOOP-13713) ITestS3AContractRootDir.testRmEmptyRootDirNonRecursive failing intermittently"
"""Allen Wittenauer (JIRA)"" <jira@apache.org>","Wed, 12 Oct 2016 16:49:21 +0000 (UTC)","[jira] [Reopened] (HADOOP-13669) KMS Server should log exceptions before throwing"
"""Karthik Kambatla (JIRA)"" <jira@apache.org>","Wed, 12 Oct 2016 17:54:20 +0000 (UTC)","[jira] [Created] (HADOOP-13714) Tighten up our compatibility guidelines for Hadoop 3"
"""Wei-Chiu Chuang (JIRA)"" <jira@apache.org>","Wed, 12 Oct 2016 18:27:21 +0000 (UTC)","[jira] [Created] (HADOOP-13715) Add isErasureCoded() API to FileStatus class"
"Apache Jenkins Server <jenkins@builds.apache.org>","Wed, 12 Oct 2016 18:45:28 +0000 (UTC)","Apache Hadoop qbt Report: trunk+JDK8 on Linux/ppc64le"
"""Steve Loughran (JIRA)"" <jira@apache.org>","Wed, 12 Oct 2016 19:49:20 +0000 (UTC)","[jira] [Created] (HADOOP-13716) Add an Eventually class to await eventual completion of lambda expressions"
"""Andrew Wang (JIRA)"" <jira@apache.org>","Wed, 12 Oct 2016 22:16:20 +0000 (UTC)","[jira] [Created] (HADOOP-13717) Shell scripts call hadoop_verify_logdir even when command is not started as daemon"
"""Shi Wang (JIRA)"" <jira@apache.org>","Wed, 12 Oct 2016 22:54:20 +0000 (UTC)","[jira] [Created] (HADOOP-13718) There is no filterInitializer for initializing DelegationTokenFilter in Hadoop common"
"""Yuanbo Liu (JIRA)"" <jira@apache.org>","Thu, 13 Oct 2016 01:13:21 +0000 (UTC)","[jira] [Resolved] (HADOOP-13718) There is no filterInitializer for initializing DelegationTokenAuthenticationFilter in Hadoop common"
"Levi Nie <levinie001@gmail.com>","Thu, 13 Oct 2016 11:21:13 +0800","not found metrics about mapreduce in docs"
"Apache Jenkins Server <jenkins@builds.apache.org>","Thu, 13 Oct 2016 14:12:59 +0000 (UTC)","Apache Hadoop qbt Report: trunk+JDK8 on Linux/x86"
"""Akira Ajisaka (JIRA)"" <jira@apache.org>","Thu, 13 Oct 2016 16:42:20 +0000 (UTC)","[jira] [Created] (HADOOP-13719) Update ASF logo in the web site"
"Apache Jenkins Server <jenkins@builds.apache.org>","Thu, 13 Oct 2016 18:41:32 +0000 (UTC)","Apache Hadoop qbt Report: trunk+JDK8 on Linux/ppc64le"
"""Yongjun Zhang (JIRA)"" <jira@apache.org>","Thu, 13 Oct 2016 21:35:20 +0000 (UTC)","[jira] [Created] (HADOOP-13720) Add more info to ""token ... is expired"" message"
"""Manoj Govindassamy (JIRA)"" <jira@apache.org>","Thu, 13 Oct 2016 21:45:21 +0000 (UTC)","[jira] [Created] (HADOOP-13721) Remove stale method ViewFileSystem#getTrashCanLocation"
"""Manoj Govindassamy (JIRA)"" <jira@apache.org>","Thu, 13 Oct 2016 21:51:21 +0000 (UTC)","[jira] [Created] (HADOOP-13722) Code cleanup -- ViewFileSystem and InodeTree"
"Apache Jenkins Server <jenkins@builds.apache.org>","Fri, 14 Oct 2016 14:12:21 +0000 (UTC)","Apache Hadoop qbt Report: trunk+JDK8 on Linux/x86"
"Apache Jenkins Server <jenkins@builds.apache.org>","Fri, 14 Oct 2016 19:00:14 +0000 (UTC)","Apache Hadoop qbt Report: trunk+JDK8 on Linux/ppc64le"
"""Andrew Wang (JIRA)"" <jira@apache.org>","Fri, 14 Oct 2016 21:46:20 +0000 (UTC)","[jira] [Created] (HADOOP-13724) Fix a few typos in site markdown documents"
"Apache Jenkins Server <jenkins@builds.apache.org>","Sat, 15 Oct 2016 14:13:01 +0000 (UTC)","Apache Hadoop qbt Report: trunk+JDK8 on Linux/x86"
"""Brahma Reddy Battula (JIRA)"" <jira@apache.org>","Sat, 15 Oct 2016 16:54:20 +0000 (UTC)","[jira] [Reopened] (HADOOP-13707) If kerberos is enabled while HTTP SPNEGO is not configured, some links cannot be accessed"
"Apache Jenkins Server <jenkins@builds.apache.org>","Sat, 15 Oct 2016 19:01:40 +0000 (UTC)","Apache Hadoop qbt Report: trunk+JDK8 on Linux/ppc64le"
"Apache Jenkins Server <jenkins@builds.apache.org>","Sun, 16 Oct 2016 14:12:28 +0000 (UTC)","Apache Hadoop qbt Report: trunk+JDK8 on Linux/x86"
"Apache Jenkins Server <jenkins@builds.apache.org>","Sun, 16 Oct 2016 18:46:45 +0000 (UTC)","Apache Hadoop qbt Report: trunk+JDK8 on Linux/ppc64le"
"""VITALIY SAVCHENKO (JIRA)"" <jira@apache.org>","Mon, 17 Oct 2016 11:18:58 +0000 (UTC)","[jira] [Created] (HADOOP-13725) Open MapFile for append"
"""Steve Loughran (JIRA)"" <jira@apache.org>","Mon, 17 Oct 2016 12:44:58 +0000 (UTC)","[jira] [Resolved] (HADOOP-13310) S3A reporting of file group as empty is harmful to compatibility for the shell."
"Apache Jenkins Server <jenkins@builds.apache.org>","Mon, 17 Oct 2016 14:14:59 +0000 (UTC)","Apache Hadoop qbt Report: trunk+JDK8 on Linux/x86"
"Apache Jenkins Server <jenkins@builds.apache.org>","Mon, 17 Oct 2016 19:00:08 +0000 (UTC)","Apache Hadoop qbt Report: trunk+JDK8 on Linux/ppc64le"
"Andrew Wang <andrew.wang@cloudera.com>","Mon, 17 Oct 2016 13:57:45 -0700","Planning for 3.0.0-alpha2"
"""Chris Nauroth (JIRA)"" <jira@apache.org>","Mon, 17 Oct 2016 22:27:00 +0000 (UTC)","[jira] [Created] (HADOOP-13726) Enforce that FileSystem initializes only a single instance of the requested FileSystem."
"""Chris Nauroth (JIRA)"" <jira@apache.org>","Mon, 17 Oct 2016 22:28:58 +0000 (UTC)","[jira] [Created] (HADOOP-13727) S3A: Reduce high number of connections to EC2 Instance Metadata Service caused by InstanceProfileCredentialsProvider."
"""Chris Nauroth (JIRA)"" <jira@apache.org>","Mon, 17 Oct 2016 22:49:58 +0000 (UTC)","[jira] [Created] (HADOOP-13728) S3A can support short user-friendly aliases for configuration of credential providers."
"""Andrew Wang (JIRA)"" <jira@apache.org>","Mon, 17 Oct 2016 23:53:58 +0000 (UTC)","[jira] [Resolved] (HADOOP-8190) Eclipse plugin fails to access remote cluster"
"""Andrew Wang (JIRA)"" <jira@apache.org>","Tue, 18 Oct 2016 00:44:58 +0000 (UTC)","[jira] [Resolved] (HADOOP-9280) HADOOP-7101 was never merged from 0.23.x to the 1.x branch"
"Karthik Kambatla <kasha@cloudera.com>","Mon, 17 Oct 2016 18:46:17 -0700","Chrome extension to collapse JIRA comments"
"Brahma Reddy Battula <brahmareddy.battula@huawei.com>","Tue, 18 Oct 2016 01:47:58 +0000","RE: Updated 2.8.0-SNAPSHOT artifact"
"Karthik Kambatla <kasha@cloudera.com>","Mon, 17 Oct 2016 18:48:43 -0700","Re: Chrome extension to collapse JIRA comments"
"""Steve Loughran (JIRA)"" <jira@apache.org>","Tue, 18 Oct 2016 11:23:59 +0000 (UTC)","[jira] [Created] (HADOOP-13729) switch to Configuration.getLongBytes for byte options"
"Apache Jenkins Server <jenkins@builds.apache.org>","Tue, 18 Oct 2016 14:56:28 +0000 (UTC)","Apache Hadoop qbt Report: trunk+JDK8 on Linux/x86"
"""Sean Young (JIRA)"" <jira@apache.org>","Tue, 18 Oct 2016 16:14:58 +0000 (UTC)","[jira] [Created] (HADOOP-13730) After 5 connection failures, yarn stops sending metrics graphite until restarted"
"""Anant Sharma (JIRA)"" <jira@apache.org>","Tue, 18 Oct 2016 17:10:58 +0000 (UTC)","[jira] [Created] (HADOOP-13731) Cant compile Hadoop 2.7.2 on Ubuntu Xenial (16.04) with JDK 7/8"
"""Mike Yoder (JIRA)"" <jira@apache.org>","Tue, 18 Oct 2016 18:47:58 +0000 (UTC)","[jira] [Created] (HADOOP-13732) Upgrade OWASP dependency-check plugin version"
"Apache Jenkins Server <jenkins@builds.apache.org>","Tue, 18 Oct 2016 18:51:37 +0000 (UTC)","Apache Hadoop qbt Report: trunk+JDK8 on Linux/ppc64le"
"""Chris Nauroth (JIRA)"" <jira@apache.org>","Tue, 18 Oct 2016 19:55:59 +0000 (UTC)","[jira] [Created] (HADOOP-13733) Support WASB connections through an HTTP proxy server."
"""Kevin Huang (JIRA)"" <jira@apache.org>","Wed, 19 Oct 2016 11:10:58 +0000 (UTC)","[jira] [Created] (HADOOP-13734) ListStatus Returns Incorrect Result for Blank File"
"""Steve Loughran (JIRA)"" <jira@apache.org>","Wed, 19 Oct 2016 11:42:58 +0000 (UTC)","[jira] [Resolved] (HADOOP-13731) Cant compile Hadoop 2.7.2 on Ubuntu Xenial (16.04) with JDK 7/8"
"""Steve Loughran (JIRA)"" <jira@apache.org>","Wed, 19 Oct 2016 13:14:58 +0000 (UTC)","[jira] [Created] (HADOOP-13735) ITestS3AFileContextStatistics.testStatistics()"
"Shane Kumpf <shane.kumpf.apache@gmail.com>","Wed, 19 Oct 2016 07:52:54 -0600","[DISCUSS] HADOOP-13603 - Remove package line length checkstyle rule"
"Apache Jenkins Server <jenkins@builds.apache.org>","Wed, 19 Oct 2016 14:59:24 +0000 (UTC)","Apache Hadoop qbt Report: trunk+JDK8 on Linux/x86"
"Apache Jenkins Server <jenkins@builds.apache.org>","Wed, 19 Oct 2016 18:45:50 +0000 (UTC)","Apache Hadoop qbt Report: trunk+JDK8 on Linux/ppc64le"
"""Lei (Eddy) Xu (JIRA)"" <jira@apache.org>","Wed, 19 Oct 2016 21:28:58 +0000 (UTC)","[jira] [Created] (HADOOP-13736) Change PathMetadata to hold S3AFileStatus instead of FileStatus."
"""Arpit Agarwal (JIRA)"" <jira@apache.org>","Wed, 19 Oct 2016 23:33:58 +0000 (UTC)","[jira] [Created] (HADOOP-13737) Cleanup DiskChecker interface"
"""Arpit Agarwal (JIRA)"" <jira@apache.org>","Wed, 19 Oct 2016 23:37:58 +0000 (UTC)","[jira] [Created] (HADOOP-13738) DiskChecker should perform some file IO"
"""Arpit Agarwal (JIRA)"" <jira@apache.org>","Thu, 20 Oct 2016 00:26:59 +0000 (UTC)","[jira] [Reopened] (HADOOP-13737) Cleanup DiskChecker interface"
"""VITALIY SAVCHENKO (JIRA)"" <jira@apache.org>","Thu, 20 Oct 2016 04:11:58 +0000 (UTC)","[jira] [Created] (HADOOP-13739) Add the ability to check - is a file opened for writing"
"""VITALIY SAVCHENKO (JIRA)"" <jira@apache.org>","Thu, 20 Oct 2016 04:15:59 +0000 (UTC)","[jira] [Created] (HADOOP-13740) Add to MapFile.Merger Options for target file"
"""Yulei Li (JIRA)"" <jira@apache.org>","Thu, 20 Oct 2016 07:11:58 +0000 (UTC)","[jira] [Created] (HADOOP-13741) The shell scripts output error if the directory of hadoop contains space character"
"""Yulei Li (JIRA)"" <jira@apache.org>","Thu, 20 Oct 2016 07:17:58 +0000 (UTC)","[jira] [Resolved] (HADOOP-13364) Variable HADOOP_LIBEXEC_DIR must be quoted in bin/hadoop line 26"
"Steve Loughran <stevel@hortonworks.com>","Thu, 20 Oct 2016 10:22:17 +0000","Re: [DISCUSS] HADOOP-13603 - Remove package line length checkstyle rule"
"""Brahma Reddy Battula (JIRA)"" <jira@apache.org>","Thu, 20 Oct 2016 13:16:58 +0000 (UTC)","[jira] [Created] (HADOOP-13742) Expose ""NumOpenConnectionsPerUser"" as a metric"
"""Allen Wittenauer (JIRA)"" <jira@apache.org>","Thu, 20 Oct 2016 13:24:59 +0000 (UTC)","[jira] [Resolved] (HADOOP-13741) The shell scripts output error if the directory of hadoop contains space character"
"Apache Jenkins Server <jenkins@builds.apache.org>","Thu, 20 Oct 2016 14:16:48 +0000 (UTC)","Apache Hadoop qbt Report: trunk+JDK8 on Linux/x86"
"John Zhuge <jzhuge@cloudera.com>","Thu, 20 Oct 2016 07:46:55 -0700","Re: [DISCUSS] HADOOP-13603 - Remove package line length checkstyle rule"
"""Steve Loughran (JIRA)"" <jira@apache.org>","Thu, 20 Oct 2016 18:45:59 +0000 (UTC)","[jira] [Reopened] (HADOOP-13236) truncate will fail when we use viewfilesystem"
"Apache Jenkins Server <jenkins@builds.apache.org>","Thu, 20 Oct 2016 18:46:42 +0000 (UTC)","Apache Hadoop qbt Report: trunk+JDK8 on Linux/ppc64le"
"""Steve Loughran (JIRA)"" <jira@apache.org>","Thu, 20 Oct 2016 20:27:58 +0000 (UTC)","[jira] [Created] (HADOOP-13743) error message in AzureNativeFileSystemStore.connectUsingAnonymousCredentials has too many spaces"
"""Steve Loughran (JIRA)"" <jira@apache.org>","Thu, 20 Oct 2016 21:47:58 +0000 (UTC)","[jira] [Reopened] (HADOOP-13716) Add LambdaTestUtils class for tests; fix eventual consistency problem in contract test setup"
"""Sean Po (JIRA)"" <jira@apache.org>","Thu, 20 Oct 2016 21:54:59 +0000 (UTC)","[jira] [Created] (HADOOP-13744) Yarn HttpListener takes upwards of 3 minutes to start on failover"
"""Sean Po (JIRA)"" <jira@apache.org>","Thu, 20 Oct 2016 21:55:59 +0000 (UTC)","[jira] [Created] (HADOOP-13745) Yarn HttpListener takes upwards of 3 minutes to start on failover"
"""Sean Po (JIRA)"" <jira@apache.org>","Thu, 20 Oct 2016 21:59:58 +0000 (UTC)","[jira] [Resolved] (HADOOP-13745) Yarn HttpListener takes upwards of 3 minutes to start on failover"
"""Sean Po (JIRA)"" <jira@apache.org>","Thu, 20 Oct 2016 21:59:58 +0000 (UTC)","[jira] [Resolved] (HADOOP-13744) Yarn HttpListener takes upwards of 3 minutes to start on failover"
"Andrew Wang <andrew.wang@cloudera.com>","Thu, 20 Oct 2016 15:12:23 -0700","Re: [DISCUSS] HADOOP-13603 - Remove package line length checkstyle rule"
"Akira Ajisaka <aajisaka@apache.org>","Fri, 21 Oct 2016 18:02:59 +0900","Re: [DISCUSS] HADOOP-13603 - Remove package line length checkstyle rule"
"Apache Jenkins Server <jenkins@builds.apache.org>","Fri, 21 Oct 2016 14:12:45 +0000 (UTC)","Apache Hadoop qbt Report: trunk+JDK8 on Linux/x86"
"""VITALIY SAVCHENKO (JIRA)"" <jira@apache.org>","Fri, 21 Oct 2016 17:23:59 +0000 (UTC)","[jira] [Created] (HADOOP-13746) BTree MapFile"
"""Zhe Zhang (JIRA)"" <jira@apache.org>","Fri, 21 Oct 2016 17:32:59 +0000 (UTC)","[jira] [Created] (HADOOP-13747) Use LongAdder for more efficient metrics tracking"
"""Andrew Wang (JIRA)"" <jira@apache.org>","Fri, 21 Oct 2016 18:27:58 +0000 (UTC)","[jira] [Resolved] (HADOOP-13615) Convert uses of AtomicLong for counter metrics to LongAdder"
"Apache Jenkins Server <jenkins@builds.apache.org>","Fri, 21 Oct 2016 18:39:29 +0000 (UTC)","Apache Hadoop qbt Report: trunk+JDK8 on Linux/ppc64le"
"Andrew Wang <andrew.wang@cloudera.com>","Fri, 21 Oct 2016 11:49:06 -0700","Re: [DISCUSS] HADOOP-13603 - Remove package line length checkstyle rule"
"Apache Jenkins Server <jenkins@builds.apache.org>","Sat, 22 Oct 2016 14:27:50 +0000 (UTC)","Apache Hadoop qbt Report: trunk+JDK8 on Linux/x86"
"Apache Jenkins Server <jenkins@builds.apache.org>","Sat, 22 Oct 2016 18:56:13 +0000 (UTC)","Apache Hadoop qbt Report: trunk+JDK8 on Linux/ppc64le"
"""John Zhuge (JIRA)"" <jira@apache.org>","Sun, 23 Oct 2016 07:04:58 +0000 (UTC)","[jira] [Created] (HADOOP-13748) TestKMS fails in testProxyUserSimple and testDelegationTokensOpsSimple"
"Apache Jenkins Server <jenkins@builds.apache.org>","Sun, 23 Oct 2016 14:52:12 +0000 (UTC)","Apache Hadoop qbt Report: trunk+JDK8 on Linux/x86"
"Apache Jenkins Server <jenkins@builds.apache.org>","Sun, 23 Oct 2016 18:44:47 +0000 (UTC)","Apache Hadoop qbt Report: trunk+JDK8 on Linux/ppc64le"
"""John Zhuge (JIRA)"" <jira@apache.org>","Sun, 23 Oct 2016 22:36:58 +0000 (UTC)","[jira] [Created] (HADOOP-13750) TestKMS#testKMSProvider is flaky"
"""Xiao Chen (JIRA)"" <jira@apache.org>","Mon, 24 Oct 2016 05:26:58 +0000 (UTC)","[jira] [Reopened] (HADOOP-13669) KMS Server should log exceptions before throwing"
"""John Zhuge (JIRA)"" <jira@apache.org>","Mon, 24 Oct 2016 14:20:58 +0000 (UTC)","[jira] [Created] (HADOOP-13751) Contract test for FS shell commands"
"""Steve Loughran (JIRA)"" <jira@apache.org>","Mon, 24 Oct 2016 14:46:58 +0000 (UTC)","[jira] [Created] (HADOOP-13752) Clarify semantics of getFileBlockLocations(Path), add contract test"
"Apache Jenkins Server <jenkins@builds.apache.org>","Mon, 24 Oct 2016 14:57:54 +0000 (UTC)","Apache Hadoop qbt Report: trunk+JDK8 on Linux/x86"
"""Sumit Dubey (JIRA)"" <jira@apache.org>","Mon, 24 Oct 2016 15:41:58 +0000 (UTC)","[jira] [Created] (HADOOP-13754) Hadoop-Azure Update WASB URI format to support SAS token in it."
"""Sumit Dubey (JIRA)"" <jira@apache.org>","Mon, 24 Oct 2016 15:41:58 +0000 (UTC)","[jira] [Created] (HADOOP-13753) Hadoop-Azure Update WASB URI format to support SAS token in it."
"Lars Francke <lars.francke@gmail.com>","Mon, 24 Oct 2016 18:00:33 +0200","Git tags"
"Sean Busbey <busbey@cloudera.com>","Mon, 24 Oct 2016 09:49:03 -0700","Re: Git tags"
"""Steve Loughran (JIRA)"" <jira@apache.org>","Mon, 24 Oct 2016 17:08:59 +0000 (UTC)","[jira] [Created] (HADOOP-13755) Purge superfluous/obsolete S3A FS"
"""Steve Loughran (JIRA)"" <jira@apache.org>","Mon, 24 Oct 2016 17:18:58 +0000 (UTC)","[jira] [Resolved] (HADOOP-13716) Add LambdaTestUtils class for tests; fix eventual consistency problem in contract test setup"
"""Allen Wittenauer (JIRA)"" <jira@apache.org>","Mon, 24 Oct 2016 17:34:59 +0000 (UTC)","[jira] [Resolved] (HADOOP-13248) Pre-Commit Docker Image build failures"
"Steve Loughran <stevel@hortonworks.com>","Mon, 24 Oct 2016 17:36:41 +0000","LambdaTestUtils: test-side fun, especially in Java8+"
"Apache Jenkins Server <jenkins@builds.apache.org>","Mon, 24 Oct 2016 18:47:09 +0000 (UTC)","Apache Hadoop qbt Report: trunk+JDK8 on Linux/ppc64le"
"Lars Francke <lars.francke@gmail.com>","Mon, 24 Oct 2016 21:34:35 +0200","Re: Git tags"
"""Steve Loughran (JIRA)"" <jira@apache.org>","Mon, 24 Oct 2016 19:46:58 +0000 (UTC)","[jira] [Resolved] (HADOOP-13753) Hadoop-Azure Update WASB URI format to support SAS token in it."
"Sean Busbey <busbey@cloudera.com>","Mon, 24 Oct 2016 12:58:30 -0700","Re: Git tags"
"Lars Francke <lars.francke@gmail.com>","Mon, 24 Oct 2016 22:43:14 +0200","Re: Git tags"
"""Lei (Eddy) Xu (JIRA)"" <jira@apache.org>","Tue, 25 Oct 2016 00:02:09 +0000 (UTC)","[jira] [Created] (HADOOP-13756) LocalMetadataStore#put(DirListingMetadata) should also put file metadata into fileHash."
"""Rajesh Balamohan (JIRA)"" <jira@apache.org>","Tue, 25 Oct 2016 00:52:58 +0000 (UTC)","[jira] [Created] (HADOOP-13757) Remove verifyBuckets overhead in S3AFileSystem::initialize()"
"Akira Ajisaka <ajisakaa@oss.nttdata.co.jp>","Tue, 25 Oct 2016 16:20:26 +0900","Re: Updated 2.8.0-SNAPSHOT artifact"
"Apache Jenkins Server <jenkins@builds.apache.org>","Tue, 25 Oct 2016 14:51:39 +0000 (UTC)","Apache Hadoop qbt Report: trunk+JDK8 on Linux/x86"
"Apache Jenkins Server <jenkins@builds.apache.org>","Tue, 25 Oct 2016 18:53:52 +0000 (UTC)","Apache Hadoop qbt Report: trunk+JDK8 on Linux/ppc64le"
"""Chris Nauroth (JIRA)"" <jira@apache.org>","Tue, 25 Oct 2016 18:56:58 +0000 (UTC)","[jira] [Created] (HADOOP-13758) HADOOP-13614 pre-commit testing JIRA"
"""Andrew Wang (JIRA)"" <jira@apache.org>","Tue, 25 Oct 2016 20:45:58 +0000 (UTC)","[jira] [Created] (HADOOP-13759) Split SFTP FileSystem into its own artifact"
"""Andrew Wang (JIRA)"" <jira@apache.org>","Tue, 25 Oct 2016 20:46:58 +0000 (UTC)","[jira] [Resolved] (HADOOP-13696) change hadoop-common dependency scope of jsch to provided."
"""Andrew Wang (JIRA)"" <jira@apache.org>","Tue, 25 Oct 2016 20:46:58 +0000 (UTC)","[jira] [Reopened] (HADOOP-13696) change hadoop-common dependency scope of jsch to provided."
"Karthik Kambatla <kasha@cloudera.com>","Tue, 25 Oct 2016 15:30:37 -0700","Re: Updated 2.8.0-SNAPSHOT artifact"
"Wei-Chiu Chuang <weichiu@cloudera.com>","Tue, 25 Oct 2016 16:49:34 -0700","Re: Apache Hadoop qbt Report: trunk+JDK8 on Linux/ppc64le"
"""Zhe Zhang (JIRA)"" <jira@apache.org>","Wed, 26 Oct 2016 00:04:58 +0000 (UTC)","[jira] [Reopened] (HADOOP-12325) RPC Metrics : Add the ability track and log slow RPCs"
"""Aaron Fabbri (JIRA)"" <jira@apache.org>","Wed, 26 Oct 2016 03:36:58 +0000 (UTC)","[jira] [Created] (HADOOP-13760) S3Guard: add delete tracking"
"""Aaron Fabbri (JIRA)"" <jira@apache.org>","Wed, 26 Oct 2016 03:47:58 +0000 (UTC)","[jira] [Created] (HADOOP-13761) S3Guard: implement retries"
"""Akira Ajisaka (JIRA)"" <jira@apache.org>","Wed, 26 Oct 2016 04:54:58 +0000 (UTC)","[jira] [Reopened] (HADOOP-13514) Upgrade maven surefire plugin to 2.19.1"
"""Harsh J (JIRA)"" <jira@apache.org>","Wed, 26 Oct 2016 07:15:58 +0000 (UTC)","[jira] [Resolved] (HADOOP-8863) Eclipse plugin may not be working on Juno due to changes in it"
"""Harsh J (JIRA)"" <jira@apache.org>","Wed, 26 Oct 2016 07:17:58 +0000 (UTC)","[jira] [Resolved] (HADOOP-8579) Websites for HDFS and MapReduce both send users to video training resource which is non-public"
"""Harsh J (JIRA)"" <jira@apache.org>","Wed, 26 Oct 2016 07:19:58 +0000 (UTC)","[jira] [Resolved] (HADOOP-7505) EOFException in RPC stack should have a nicer error message"
"Apache Jenkins Server <jenkins@builds.apache.org>","Wed, 26 Oct 2016 14:35:21 +0000 (UTC)","Apache Hadoop qbt Report: trunk+JDK8 on Linux/x86"
"""Harsh J (JIRA)"" <jira@apache.org>","Wed, 26 Oct 2016 14:46:58 +0000 (UTC)","[jira] [Resolved] (HADOOP-8134) DNS claims to return a hostname but returns a PTR record in some cases"
"""Chris Nauroth (JIRA)"" <jira@apache.org>","Wed, 26 Oct 2016 15:40:58 +0000 (UTC)","[jira] [Resolved] (HADOOP-13614) Purge some superfluous/obsolete S3 FS tests that are slowing test runs down"
"""Chris Nauroth (JIRA)"" <jira@apache.org>","Wed, 26 Oct 2016 18:05:58 +0000 (UTC)","[jira] [Created] (HADOOP-13762) S3A: Set thread names with more specific information about the call."
"Apache Jenkins Server <jenkins@builds.apache.org>","Wed, 26 Oct 2016 19:05:15 +0000 (UTC)","Apache Hadoop qbt Report: trunk+JDK8 on Linux/ppc64le"
"""Jeffrey E  Rodriguez (JIRA)"" <jira@apache.org>","Wed, 26 Oct 2016 19:20:58 +0000 (UTC)","[jira] [Created] (HADOOP-13763) KMS REST API Documentation"
"""Chris Nauroth (JIRA)"" <jira@apache.org>","Wed, 26 Oct 2016 21:31:58 +0000 (UTC)","[jira] [Created] (HADOOP-13764) WASB test runs leak storage containers."
"""Bibin A Chundatt (JIRA)"" <jira@apache.org>","Thu, 27 Oct 2016 04:02:58 +0000 (UTC)","[jira] [Resolved] (HADOOP-12216) Parse 'LogLevel' commandline using cli Options."
"""Yuhao Bi (JIRA)"" <jira@apache.org>","Thu, 27 Oct 2016 08:14:58 +0000 (UTC)","[jira] [Created] (HADOOP-13765) Return HomeDirectory if possible in SFTPFileSystem"
"""Steve Loughran (JIRA)"" <jira@apache.org>","Thu, 27 Oct 2016 13:26:58 +0000 (UTC)","[jira] [Reopened] (HADOOP-13514) Upgrade maven surefire plugin to 2.19.1"
"Shane Kumpf <shane.kumpf.apache@gmail.com>","Thu, 27 Oct 2016 07:27:21 -0600","Re: [DISCUSS] HADOOP-13603 - Remove package line length checkstyle rule"
"Apache Jenkins Server <jenkins@builds.apache.org>","Thu, 27 Oct 2016 14:45:49 +0000 (UTC)","Apache Hadoop qbt Report: trunk+JDK8 on Linux/x86"
"""Ethan Li (JIRA)"" <jira@apache.org>","Thu, 27 Oct 2016 17:54:59 +0000 (UTC)","[jira] [Created] (HADOOP-13766) Fix a typo in the comments of RPC.getProtocolVersion"
"Apache Jenkins Server <jenkins@builds.apache.org>","Thu, 27 Oct 2016 19:02:39 +0000 (UTC)","Apache Hadoop qbt Report: trunk+JDK8 on Linux/ppc64le"
"Brahma Reddy Battula <brahmareddy.battula@huawei.com>","Fri, 28 Oct 2016 03:20:07 +0000","[DISCUSS] Pre-commit build in Windows platform"
"""Robert Kanter (JIRA)"" <jira@apache.org>","Fri, 28 Oct 2016 05:04:59 +0000 (UTC)","[jira] [Reopened] (HADOOP-10075) Update jetty dependency to version 9"
"""Genmao Yu (JIRA)"" <jira@apache.org>","Fri, 28 Oct 2016 07:46:58 +0000 (UTC)","[jira] [Created] (HADOOP-13767) Connection broken when idle then 1 minutes or build than 3 hours"
"""Genmao Yu (JIRA)"" <jira@apache.org>","Fri, 28 Oct 2016 08:27:58 +0000 (UTC)","[jira] [Created] (HADOOP-13768) DeleteObjectsRequest has 1000 objects limit"
"""Genmao Yu (JIRA)"" <jira@apache.org>","Fri, 28 Oct 2016 08:49:58 +0000 (UTC)","[jira] [Created] (HADOOP-13769) update oss sdk version to fix some internal bugs."
"Steve Loughran <stevel@hortonworks.com>","Fri, 28 Oct 2016 11:44:23 +0000","Re: [DISCUSS] Pre-commit build in Windows platform"
"Apache Jenkins Server <jenkins@builds.apache.org>","Fri, 28 Oct 2016 14:47:53 +0000 (UTC)","Apache Hadoop qbt Report: trunk+JDK8 on Linux/x86"
"Allen Wittenauer <aw@effectivemachines.com>","Fri, 28 Oct 2016 08:16:25 -0700","Re: [DISCUSS] Pre-commit build in Windows platform"
"Ravi Prakash <ravihadoop@gmail.com>","Fri, 28 Oct 2016 10:37:06 -0700","Re: [DISCUSS] Pre-commit build in Windows platform"
"Sangjin Lee <sjlee@apache.org>","Fri, 28 Oct 2016 10:55:50 -0700","Re: [DISCUSS] Release cadence and EOL"
"Apache Jenkins Server <jenkins@builds.apache.org>","Fri, 28 Oct 2016 20:11:20 +0000 (UTC)","Apache Hadoop qbt Report: trunk+JDK8 on Linux/ppc64le"
"""Xiaoyu Yao (JIRA)"" <jira@apache.org>","Fri, 28 Oct 2016 22:24:58 +0000 (UTC)","[jira] [Created] (HADOOP-13771) Adding group mapping lookup utility without dependency on HDFS namenode"
"""Zhe Zhang (JIRA)"" <jira@apache.org>","Sat, 29 Oct 2016 00:49:59 +0000 (UTC)","[jira] [Reopened] (HADOOP-10597) RPC Server signals backoff to clients when all request queues are full"
"Apache Jenkins Server <jenkins@builds.apache.org>","Sat, 29 Oct 2016 14:51:12 +0000 (UTC)","Apache Hadoop qbt Report: trunk+JDK8 on Linux/x86"
"Apache Jenkins Server <jenkins@builds.apache.org>","Sat, 29 Oct 2016 19:08:56 +0000 (UTC)","Apache Hadoop qbt Report: trunk+JDK8 on Linux/ppc64le"
"Apache Jenkins Server <jenkins@builds.apache.org>","Sun, 30 Oct 2016 14:37:00 +0000 (UTC)","Apache Hadoop qbt Report: trunk+JDK8 on Linux/x86"
"Apache Jenkins Server <jenkins@builds.apache.org>","Sun, 30 Oct 2016 18:55:35 +0000 (UTC)","Apache Hadoop qbt Report: trunk+JDK8 on Linux/ppc64le"
"Mingliang Liu <liuml07@gmail.com>","Sun, 30 Oct 2016 12:49:16 -0700","Re: [DISCUSS] Pre-commit build in Windows platform"
"Akira Ajisaka <ajisakaa@oss.nttdata.co.jp>","Mon, 31 Oct 2016 15:06:01 +0900","Re: Updated 2.8.0-SNAPSHOT artifact"
"Brahma Reddy Battula <brahmareddy.battula@huawei.com>","Mon, 31 Oct 2016 08:14:07 +0000","RE: Updated 2.8.0-SNAPSHOT artifact"
"""Steve Loughran (JIRA)"" <jira@apache.org>","Mon, 31 Oct 2016 14:18:58 +0000 (UTC)","[jira] [Created] (HADOOP-13772) ITestS3AContractRootDir still playing up, bug in eventually() retry logic?"
"""Fei Hui (JIRA)"" <jira@apache.org>","Mon, 31 Oct 2016 14:36:58 +0000 (UTC)","[jira] [Created] (HADOOP-13773) wrong HADOOP_CLIENT_OPTS in hadoop-env  on branch-2"
"Apache Jenkins Server <jenkins@builds.apache.org>","Mon, 31 Oct 2016 14:40:10 +0000 (UTC)","Apache Hadoop qbt Report: trunk+JDK8 on Linux/x86"
"""Steve Loughran (JIRA)"" <jira@apache.org>","Mon, 31 Oct 2016 16:57:58 +0000 (UTC)","[jira] [Resolved] (HADOOP-13772) ITestS3AContractRootDir still playing up, bug in eventually() retry logic?"
"""Sangjin Lee (JIRA)"" <jira@apache.org>","Mon, 31 Oct 2016 17:07:58 +0000 (UTC)","[jira] [Reopened] (HADOOP-9424) The ""hadoop jar"" invocation should include the passed jar on the classpath as a whole"
"Apache Jenkins Server <jenkins@builds.apache.org>","Mon, 31 Oct 2016 19:19:21 +0000 (UTC)","Apache Hadoop qbt Report: trunk+JDK8 on Linux/ppc64le"
"""Zhe Zhang (JIRA)"" <jira@apache.org>","Mon, 31 Oct 2016 20:30:59 +0000 (UTC)","[jira] [Reopened] (HADOOP-10300) Allowed deferred sending of call responses"
"""Omar Bouras (JIRA)"" <jira@apache.org>","Mon, 31 Oct 2016 21:06:58 +0000 (UTC)","[jira] [Created] (HADOOP-13774) Rest Loaded App fails"
"""Xiao Chen (JIRA)"" <jira@apache.org>","Mon, 31 Oct 2016 21:09:59 +0000 (UTC)","[jira] [Created] (HADOOP-13775) KMS Client does not encode key names in the URL path correctly"
"""Sangjin Lee (JIRA)"" <jira@apache.org>","Mon, 31 Oct 2016 22:28:59 +0000 (UTC)","[jira] [Created] (HADOOP-13776) remove redundant classpath entries in RunJar"
