"Developer","Date","Subject"
"""Aaron T. Myers"" <atm@apache.org>","Tue, 1 Oct 2013 02:57:24 +0200","Re: Coverity Scan (MAPREDUCE-5032)"
"Arun C Murthy <acm@hortonworks.com>","Mon, 30 Sep 2013 18:17:10 -0700","Re: [VOTE] Release Apache Hadoop 2.1.1-beta"
"Apache Jenkins Server  <jenkins@builds.apache.org>","Tue, 1 Oct 2013 09:25:24 +0000 (UTC)","Build failed in Jenkins: Hadoop-Common-trunk #908"
"""Steve Loughran (JIRA)"" <jira@apache.org>","Tue, 1 Oct 2013 15:00:32 +0000 (UTC)","[jira] [Resolved] (HADOOP-7838) sbin/start-balancer doesnt"
"""Arpit Gupta (JIRA)"" <jira@apache.org>","Tue, 1 Oct 2013 20:03:25 +0000 (UTC)","[jira] [Created] (HADOOP-10012) Secure Oozie jobs with delegation token renewal exception in HA setup"
"Arun C Murthy <acm@hortonworks.com>","Tue, 1 Oct 2013 16:15:08 -0700","2.1.2 (Was: Re: [VOTE] Release Apache Hadoop 2.1.1-beta)"
"Alejandro Abdelnur <tucu@cloudera.com>","Tue, 1 Oct 2013 16:53:25 -0700","Re: 2.1.2 (Was: Re: [VOTE] Release Apache Hadoop 2.1.1-beta)"
"Suresh Srinivas <suresh@hortonworks.com>","Tue, 1 Oct 2013 16:55:30 -0700","Re: 2.1.2 (Was: Re: [VOTE] Release Apache Hadoop 2.1.1-beta)"
"Vinod Kumar Vavilapalli <vinodkv@hortonworks.com>","Tue, 1 Oct 2013 17:15:39 -0700","Re: 2.1.2 (Was: Re: [VOTE] Release Apache Hadoop 2.1.1-beta)"
"sanjay Radia <sanjay@hortonworks.com>","Tue, 1 Oct 2013 17:16:55 -0700","Re: 2.1.2 (Was: Re: [VOTE] Release Apache Hadoop 2.1.1-beta)"
"Jagane Sundar <jagane@sundar.org>","Tue, 1 Oct 2013 20:18:41 -0400","RE: 2.1.2 (Was: Re: [VOTE] Release Apache Hadoop 2.1.1-beta)"
"Andrew Wang <andrew.wang@cloudera.com>","Tue, 1 Oct 2013 18:26:51 -0700","Re: 2.1.2 (Was: Re: [VOTE] Release Apache Hadoop 2.1.1-beta)"
"Sriram Rao <sriramsrao@gmail.com>","Tue, 1 Oct 2013 19:16:41 -0700","SoCC'13 Best paper award: YARN"
"""Mattmann, Chris A (398J)"" <chris.a.mattmann@jpl.nasa.gov>","Wed, 2 Oct 2013 03:04:45 +0000","Re: SoCC'13 Best paper award: YARN"
"Alejandro Abdelnur <tucu@cloudera.com>","Tue, 1 Oct 2013 20:16:11 -0700","Re: SoCC'13 Best paper award: YARN"
"Arun C Murthy <acm@hortonworks.com>","Tue, 1 Oct 2013 20:59:04 -0700","Re: 2.1.2 (Was: Re: [VOTE] Release Apache Hadoop 2.1.1-beta)"
"Arun C Murthy <acm@hortonworks.com>","Tue, 1 Oct 2013 21:00:30 -0700","Re: Coverity Scan (MAPREDUCE-5032)"
"Apache Jenkins Server  <jenkins@builds.apache.org>","Wed, 2 Oct 2013 09:26:26 +0000 (UTC)","Build failed in Jenkins: Hadoop-Common-trunk #909"
"Colin McCabe <cmccabe@alumni.cmu.edu>","Wed, 2 Oct 2013 10:07:37 -0700","Re: 2.1.2 (Was: Re: [VOTE] Release Apache Hadoop 2.1.1-beta)"
"Roman Shaposhnik <rvs@apache.org>","Wed, 2 Oct 2013 14:56:08 -0700","Re: 2.1.2 (Was: Re: [VOTE] Release Apache Hadoop 2.1.1-beta)"
"Andrew Wang <andrew.wang@cloudera.com>","Wed, 2 Oct 2013 18:01:05 -0700","Re: 2.1.2 (Was: Re: [VOTE] Release Apache Hadoop 2.1.1-beta)"
"Colin McCabe <cmccabe@alumni.cmu.edu>","Wed, 2 Oct 2013 19:10:29 -0700","Re: 2.1.2 (Was: Re: [VOTE] Release Apache Hadoop 2.1.1-beta)"
"Apache Jenkins Server  <jenkins@builds.apache.org>","Thu, 3 Oct 2013 09:26:02 +0000 (UTC)","Build failed in Jenkins: Hadoop-Common-trunk #910"
"""Daryn Sharp (JIRA)"" <jira@apache.org>","Thu, 3 Oct 2013 15:40:43 +0000 (UTC)","[jira] [Created] (HADOOP-10013) FileSystem checkPath accepts invalid paths with an authority but no scheme"
"""Daryn Sharp (JIRA)"" <jira@apache.org>","Thu, 3 Oct 2013 16:52:42 +0000 (UTC)","[jira] [Created] (HADOOP-10014) Symlink resolution is fundamentally broken for multi-layered filesystems"
"""Haohui Mai (JIRA)"" <jira@apache.org>","Thu, 3 Oct 2013 18:28:42 +0000 (UTC)","[jira] [Created] (HADOOP-10015) UserGroupInformation prints out excessive ERROR warnings"
"sanjay Radia <sanjay@hortonworks.com>","Thu, 3 Oct 2013 11:39:33 -0700","Re: symlink support in Hadoop 2 GA"
"Daryn Sharp <daryn@yahoo-inc.com>","Thu, 3 Oct 2013 21:08:57 +0000","Re: symlink support in Hadoop 2 GA"
"""Haohui Mai (JIRA)"" <jira@apache.org>","Fri, 4 Oct 2013 00:13:43 +0000 (UTC)","[jira] [Created] (HADOOP-10016) Distcp should support copy from secure to insecure cluster for migration"
"""Jing Zhao (JIRA)"" <jira@apache.org>","Fri, 4 Oct 2013 00:55:42 +0000 (UTC)","[jira] [Created] (HADOOP-10017) Fix NPE in DFSClient#getDelegationToken when doing Distcp from a secured cluster to an insecured cluster"
"""Haohui Mai (JIRA)"" <jira@apache.org>","Fri, 4 Oct 2013 01:29:41 +0000 (UTC)","[jira] [Created] (HADOOP-10018) TestUserGroupInformation throws NPE when HADOOP_HOME is not set"
"""Colin Patrick McCabe (JIRA)"" <jira@apache.org>","Fri, 4 Oct 2013 02:02:42 +0000 (UTC)","[jira] [Created] (HADOOP-10020) disable symlinks temporarily"
"""Colin Patrick McCabe (JIRA)"" <jira@apache.org>","Fri, 4 Oct 2013 02:12:47 +0000 (UTC)","[jira] [Resolved] (HADOOP-9877) Fix listing of snapshot directories in globStatus"
"""Colin Patrick McCabe (JIRA)"" <jira@apache.org>","Fri, 4 Oct 2013 02:16:43 +0000 (UTC)","[jira] [Created] (HADOOP-10021) distCp support for symlinks"
"Amir Sanjar <v1sanjar@us.ibm.com>","Fri, 4 Oct 2013 10:40:34 -0500","Hadoop 2.1.x questions?"
"""Haohui Mai (JIRA)"" <jira@apache.org>","Fri, 4 Oct 2013 17:53:47 +0000 (UTC)","[jira] [Reopened] (HADOOP-8828) Support distcp from secure to insecure clusters"
"Andrew Wang <andrew.wang@cloudera.com>","Fri, 4 Oct 2013 10:58:14 -0700","Re: symlink support in Hadoop 2 GA"
"""Jing Zhao (JIRA)"" <jira@apache.org>","Fri, 4 Oct 2013 18:56:42 +0000 (UTC)","[jira] [Resolved] (HADOOP-10009) Backport HADOOP-7808 to branch-1"
"""Suresh Srinivas (JIRA)"" <jira@apache.org>","Fri, 4 Oct 2013 23:02:42 +0000 (UTC)","[jira] [Created] (HADOOP-10022) Add support for per project https support"
"""Suresh Srinivas (JIRA)"" <jira@apache.org>","Sat, 5 Oct 2013 00:04:42 +0000 (UTC)","[jira] [Created] (HADOOP-10023) Add https support in HDFS"
"""Haohui Mai (JIRA)"" <jira@apache.org>","Sat, 5 Oct 2013 02:29:43 +0000 (UTC)","[jira] [Created] (HADOOP-10025) Replace HttpConfig#getSchemePrefix with implicit scheme in YARN/MR"
"Apache Jenkins Server  <jenkins@builds.apache.org>","Sat, 5 Oct 2013 09:27:16 +0000 (UTC)","Build failed in Jenkins: Hadoop-Common-trunk #912"
"""Ben McCann (JIRA)"" <jira@apache.org>","Sat, 5 Oct 2013 21:21:43 +0000 (UTC)","[jira] [Created] (HADOOP-10026) Upgrade to Jackson 2"
"Apache Jenkins Server  <jenkins@builds.apache.org>","Sun, 6 Oct 2013 09:27:09 +0000 (UTC)","Build failed in Jenkins: Hadoop-Common-trunk #913"
"""Arun C Murthy (JIRA)"" <jira@apache.org>","Sun, 6 Oct 2013 19:07:43 +0000 (UTC)","[jira] [Resolved] (HADOOP-10022) Add support for per project https support"
"""Suresh Srinivas (JIRA)"" <jira@apache.org>","Sun, 6 Oct 2013 23:23:42 +0000 (UTC)","[jira] [Resolved] (HADOOP-10020) disable symlinks temporarily"
"Arun C Murthy <acm@hortonworks.com>","Sun, 6 Oct 2013 21:26:08 -0700","Re: 2.1.2 (Was: Re: [VOTE] Release Apache Hadoop 2.1.1-beta)"
"Smriti Agarwal <smriti3008@gmail.com>","Sun, 6 Oct 2013 23:16:16 -0700","Error while running mvn install Windows 8"
"Arun C Murthy <acm@hortonworks.com>","Mon, 7 Oct 2013 00:00:52 -0700","[VOTE] Release Apache Hadoop 2.2.0"
"=?ISO-8859-1?Q?Jean-Baptiste_Onofr=E9?= <jb@nanthrax.net>","Mon, 07 Oct 2013 09:02:32 +0200","Re: [VOTE] Release Apache Hadoop 2.2.0"
"Apache Jenkins Server  <jenkins@builds.apache.org>","Mon, 7 Oct 2013 09:48:14 +0000 (UTC)","Build failed in Jenkins: Hadoop-Common-trunk #914"
"Bobby Evans <evans@yahoo-inc.com>","Mon, 7 Oct 2013 15:20:18 +0000","Re: [VOTE] Release Apache Hadoop 2.2.0"
"""Eric Abbott (JIRA)"" <jira@apache.org>","Mon, 7 Oct 2013 15:28:42 +0000 (UTC)","[jira] [Created] (HADOOP-10027) *Compressor_deflateBytesDirect passes instance instead of jclass to GetStaticObjectField"
"Daryn Sharp <daryn@yahoo-inc.com>","Mon, 7 Oct 2013 15:28:57 +0000","Re: [VOTE] Release Apache Hadoop 2.2.0"
"""Jason Lowe (JIRA)"" <jira@apache.org>","Mon, 7 Oct 2013 15:44:55 +0000 (UTC)","[jira] [Resolved] (HADOOP-9912) globStatus of a symlink to a directory does not report symlink as a directory"
"Steve Loughran <stevel@hortonworks.com>","Mon, 7 Oct 2013 18:03:11 +0100","Re: [VOTE] Release Apache Hadoop 2.2.0"
"Karthik Kambatla <kasha@cloudera.com>","Mon, 7 Oct 2013 11:22:42 -0700","Re: [VOTE] Release Apache Hadoop 2.2.0"
"Roman Shaposhnik <shaposhnik@gmail.com>","Mon, 7 Oct 2013 11:42:06 -0700","Re: [VOTE] Release Apache Hadoop 2.2.0"
"Chris Nauroth <cnauroth@hortonworks.com>","Mon, 7 Oct 2013 11:47:13 -0700","Re: Error while running mvn install Windows 8"
"Tassapol Athiapinya <tathiapinya@hortonworks.com>","Mon, 7 Oct 2013 12:07:49 -0700","Re: [VOTE] Release Apache Hadoop 2.2.0"
"Alejandro Abdelnur <tucu@cloudera.com>","Mon, 7 Oct 2013 12:21:36 -0700","Re: [VOTE] Release Apache Hadoop 2.2.0"
"""Jing Zhao (JIRA)"" <jira@apache.org>","Mon, 7 Oct 2013 21:02:42 +0000 (UTC)","[jira] [Created] (HADOOP-10028) Malformed ssl-server.xml.example"
"Ramya Sunil <ramya@hortonworks.com>","Mon, 7 Oct 2013 14:42:09 -0700","Re: [VOTE] Release Apache Hadoop 2.2.0"
"Yesha Vora <yvora@hortonworks.com>","Mon, 7 Oct 2013 15:13:50 -0700","Re: [VOTE] Release Apache Hadoop 2.2.0"
"""Suresh Srinivas (JIRA)"" <jira@apache.org>","Mon, 7 Oct 2013 23:44:42 +0000 (UTC)","[jira] [Created] (HADOOP-10029) Specifying har file to MR job fails in secure cluster"
"""Chuan Liu (JIRA)"" <jira@apache.org>","Tue, 8 Oct 2013 04:28:42 +0000 (UTC)","[jira] [Created] (HADOOP-10030) FsShell -put/copyFromLocal should support Windows local path"
"""Chuan Liu (JIRA)"" <jira@apache.org>","Tue, 8 Oct 2013 04:56:42 +0000 (UTC)","[jira] [Created] (HADOOP-10031) Investigate PathData.expandAsGlob() support for Windows path"
"Apache Jenkins Server  <jenkins@builds.apache.org>","Tue, 8 Oct 2013 09:27:31 +0000 (UTC)","Build failed in Jenkins: Hadoop-Common-trunk #915"
"""Steve Loughran (JIRA)"" <jira@apache.org>","Tue, 8 Oct 2013 09:44:43 +0000 (UTC)","[jira] [Created] (HADOOP-10032) Backport hadoop-openstack to branch 1"
"""Steve Loughran (JIRA)"" <jira@apache.org>","Tue, 8 Oct 2013 09:46:44 +0000 (UTC)","[jira] [Created] (HADOOP-10033) backport openstack support to branch-2"
"Thomas Graves <tgraves@yahoo-inc.com>","Tue, 8 Oct 2013 13:48:29 +0000","Re: [VOTE] Release Apache Hadoop 2.2.0"
"""Steve Loughran (JIRA)"" <jira@apache.org>","Tue, 8 Oct 2013 18:58:44 +0000 (UTC)","[jira] [Resolved] (HADOOP-10033) backport openstack support to branch-2"
"""Sandy Ryza (JIRA)"" <jira@apache.org>","Tue, 8 Oct 2013 19:06:42 +0000 (UTC)","[jira] [Resolved] (HADOOP-9775) Add tracking IDs to FS tokens to allow tracing FS operations back to job"
"Sandy Ryza <sandy.ryza@cloudera.com>","Tue, 8 Oct 2013 15:13:40 -0700","Re: [VOTE] Release Apache Hadoop 2.2.0"
"""Colin Patrick McCabe (JIRA)"" <jira@apache.org>","Tue, 8 Oct 2013 22:32:42 +0000 (UTC)","[jira] [Created] (HADOOP-10034) optimize same-filesystem symlinks by doing resolution server-side"
"""Suresh Srinivas (JIRA)"" <jira@apache.org>","Wed, 9 Oct 2013 02:04:41 +0000 (UTC)","[jira] [Created] (HADOOP-10035) Cleanup TestFilterFileSystem"
"Zhijie Shen <zshen@hortonworks.com>","Wed, 9 Oct 2013 00:10:59 -0700","Re: [VOTE] Release Apache Hadoop 2.2.0"
"Steve Loughran <stevel@hortonworks.com>","Wed, 9 Oct 2013 09:28:35 +0100","Re: [VOTE] Release Apache Hadoop 2.2.0"
"Chris Douglas <cdouglas@apache.org>","Wed, 9 Oct 2013 01:29:23 -0700","Re: [VOTE] Release Apache Hadoop 2.2.0"
"Apache Jenkins Server  <jenkins@builds.apache.org>","Wed, 9 Oct 2013 09:27:23 +0000 (UTC)","Build failed in Jenkins: Hadoop-Common-trunk #916"
"Devaraj k <devaraj.k@huawei.com>","Wed, 9 Oct 2013 12:05:42 +0000","RE: [VOTE] Release Apache Hadoop 2.2.0"
"""Steve Loughran (JIRA)"" <jira@apache.org>","Wed, 9 Oct 2013 14:22:42 +0000 (UTC)","[jira] [Created] (HADOOP-10036) RetryInvocationHandler should recognise that there is no point retrying to auth failures"
"Kihwal Lee <kihwal@yahoo-inc.com>","Wed, 9 Oct 2013 07:24:34 -0700","Re: [VOTE] Release Apache Hadoop 2.2.0"
"Jun Ping Du <jdu@vmware.com>","Wed, 9 Oct 2013 07:39:24 -0700 (PDT)","Re: [VOTE] Release Apache Hadoop 2.2.0"
"Jason Lowe <jlowe@yahoo-inc.com>","Wed, 9 Oct 2013 09:45:26 -0500","Re: [VOTE] Release Apache Hadoop 2.2.0"
"""David Rosenstrauch (JIRA)"" <jira@apache.org>","Wed, 9 Oct 2013 16:06:42 +0000 (UTC)","[jira] [Created] (HADOOP-10037) s3n read truncated, but doesn't throw exception"
"Roman Shaposhnik <rvs@apache.org>","Wed, 9 Oct 2013 14:34:20 -0700","Re: [VOTE] Release Apache Hadoop 2.2.0"
"""David Chen (JIRA)"" <jira@apache.org>","Wed, 9 Oct 2013 23:50:43 +0000 (UTC)","[jira] [Created] (HADOOP-10038) Improve JobTracker web UI"
"Luke Lu <llu@apache.org>","Wed, 9 Oct 2013 16:51:27 -0700","Re: [VOTE] Release Apache Hadoop 2.2.0"
"=?UTF-8?Q?=22Andreas_Gr=C3=BCninger=22?= <ibgrueninger@gmx.de>","Thu, 10 Oct 2013 09:33:15 +0200 (CEST)","how to compile with OpenIndiana or Solaris"
"Steve Loughran <stevel@hortonworks.com>","Thu, 10 Oct 2013 09:37:06 +0100","Re: how to compile with OpenIndiana or Solaris"
"Apache Jenkins Server  <jenkins@builds.apache.org>","Thu, 10 Oct 2013 09:28:25 +0000 (UTC)","Build failed in Jenkins: Hadoop-Common-trunk #917"
"Arpit Gupta <arpit@hortonworks.com>","Thu, 10 Oct 2013 10:06:06 -0700","Re: [VOTE] Release Apache Hadoop 2.2.0"
"Bikas Saha <bikas@hortonworks.com>","Thu, 10 Oct 2013 10:18:21 -0700","RE: [VOTE] Release Apache Hadoop 2.2.0"
"Chris Nauroth <cnauroth@hortonworks.com>","Thu, 10 Oct 2013 10:59:28 -0700","Re: [VOTE] Release Apache Hadoop 2.2.0"
"Colin McCabe <cmccabe@alumni.cmu.edu>","Thu, 10 Oct 2013 13:08:36 -0700","Re: how to compile with OpenIndiana or Solaris"
"""Yingda Chen (JIRA)"" <jira@apache.org>","Fri, 11 Oct 2013 00:26:45 +0000 (UTC)","[jira] [Created] (HADOOP-10040) hadoop.cmd in UNIX format and would not run by default on Windows"
"Apache Jenkins Server  <jenkins@builds.apache.org>","Fri, 11 Oct 2013 09:27:36 +0000 (UTC)","Build failed in Jenkins: Hadoop-Common-trunk #918"
"""Dieter De Witte (JIRA)"" <jira@apache.org>","Fri, 11 Oct 2013 11:59:43 +0000 (UTC)","[jira] [Created] (HADOOP-10042) Heap space error during copy from maptask to reduce task"
"""Tsuyoshi OZAWA (JIRA)"" <jira@apache.org>","Fri, 11 Oct 2013 13:40:42 +0000 (UTC)","[jira] [Created] (HADOOP-10043) Convert org.apache.hadoop.security.token.SecretManager to be an AbstractService"
"""Suresh Srinivas (JIRA)"" <jira@apache.org>","Fri, 11 Oct 2013 15:40:45 +0000 (UTC)","[jira] [Resolved] (HADOOP-10042) Heap space error during copy from maptask to reduce task"
"""Sanjay Radia (JIRA)"" <jira@apache.org>","Fri, 11 Oct 2013 23:41:42 +0000 (UTC)","[jira] [Created] (HADOOP-10044) Improve the javadoc of rpc code"
"""Chris Nauroth (JIRA)"" <jira@apache.org>","Sat, 12 Oct 2013 03:22:43 +0000 (UTC)","[jira] [Resolved] (HADOOP-10040) hadoop.cmd in UNIX format and would not run by default on Windows"
"""Luke Lu (JIRA)"" <jira@apache.org>","Sat, 12 Oct 2013 05:11:46 +0000 (UTC)","[jira] [Reopened] (HADOOP-10040) hadoop.cmd in UNIX format and would not run by default on Windows"
"Apache Jenkins Server  <jenkins@builds.apache.org>","Sat, 12 Oct 2013 09:27:29 +0000 (UTC)","Build failed in Jenkins: Hadoop-Common-trunk #919"
"""Aaron T. Myers"" <atm@cloudera.com>","Sun, 13 Oct 2013 09:26:36 -0700","Re: [VOTE] Release Apache Hadoop 2.2.0"
"Vinod Kumar Vavilapalli <vinodkv@apache.org>","Sun, 13 Oct 2013 10:37:50 -0700","Re: [VOTE] Release Apache Hadoop 2.2.0"
"Hitesh Shah <hitesh@apache.org>","Sun, 13 Oct 2013 15:32:53 -0700","Re: [VOTE] Release Apache Hadoop 2.2.0"
"Tsuyoshi OZAWA <ozawa.tsuyoshi@gmail.com>","Sun, 13 Oct 2013 23:54:46 -0700","Re: [VOTE] Release Apache Hadoop 2.2.0"
"Apache Jenkins Server  <jenkins@builds.apache.org>","Mon, 14 Oct 2013 09:27:04 +0000 (UTC)","Build failed in Jenkins: Hadoop-Common-trunk #921"
"""Chris Nauroth (JIRA)"" <jira@apache.org>","Mon, 14 Oct 2013 17:52:46 +0000 (UTC)","[jira] [Resolved] (HADOOP-10040) hadoop.cmd in UNIX format and would not run by default on Windows"
"Jonathan Eagles <jeagles@gmail.com>","Mon, 14 Oct 2013 13:05:07 -0500","Re: [VOTE] Release Apache Hadoop 2.2.0"
"""Akira AJISAKA (JIRA)"" <jira@apache.org>","Mon, 14 Oct 2013 18:22:44 +0000 (UTC)","[jira] [Created] (HADOOP-10045) QueueMetrics 'maps_killed' and 'reduces_killed' are never incremented in branch-1"
"""David S. Wang (JIRA)"" <jira@apache.org>","Mon, 14 Oct 2013 18:48:43 +0000 (UTC)","[jira] [Created] (HADOOP-10046) Print a log message when SSL is enabled"
"Arpit Agarwal <aagarwal@hortonworks.com>","Mon, 14 Oct 2013 12:21:41 -0700","Re: [VOTE] Release Apache Hadoop 2.2.0"
"""=?utf-8?B?YWJoaXNla2d1bm5pYUB5YWhvby5jb20=?="" <abhisekgunnia@yahoo.com>"," Mon, 14 Oct 2013 17:41:38 -0400","=?utf-8?B?SGJhc2UgdG8gaGl2ZQ==?="
"Sandy Ryza <sandy.ryza@cloudera.com>","Mon, 14 Oct 2013 14:56:13 -0700","streaming documentation in Hadoop 2?"
"Eli Collins <eli@cloudera.com>","Mon, 14 Oct 2013 15:20:34 -0700","Re: streaming documentation in Hadoop 2?"
"Sandy Ryza <sandy.ryza@cloudera.com>","Mon, 14 Oct 2013 15:28:27 -0700","Re: streaming documentation in Hadoop 2?"
"Eli Collins <eli@cloudera.com>","Mon, 14 Oct 2013 15:30:41 -0700","Re: streaming documentation in Hadoop 2?"
"Sandy Ryza <sandy.ryza@cloudera.com>","Mon, 14 Oct 2013 15:41:09 -0700","Re: streaming documentation in Hadoop 2?"
"Shekhar Sharma <shekhar2581@gmail.com>","Tue, 15 Oct 2013 07:29:38 +0530","Re: Hbase to hive"
"Suresh Srinivas <suresh@hortonworks.com>","Mon, 14 Oct 2013 23:03:47 -0700","Re: [VOTE] Release Apache Hadoop 2.2.0"
"Apache Jenkins Server  <jenkins@builds.apache.org>","Tue, 15 Oct 2013 09:53:36 +0000 (UTC)","Build failed in Jenkins: Hadoop-Common-trunk #922"
"""Gopal V (JIRA)"" <jira@apache.org>","Tue, 15 Oct 2013 14:38:44 +0000 (UTC)","[jira] [Created] (HADOOP-10047) Allow Compressor/Decompressor APIs to expose a Direct ByteBuffer API"
"""Jason Lowe (JIRA)"" <jira@apache.org>","Tue, 15 Oct 2013 16:08:42 +0000 (UTC)","[jira] [Created] (HADOOP-10048) LocalDirAllocator should avoid holding locks while accessing the filesystem"
"""Michael Klybor (JIRA)"" <jira@apache.org>","Tue, 15 Oct 2013 18:06:42 +0000 (UTC)","[jira] [Created] (HADOOP-10049) 2.1.0 beta won't run under cygwin?"
"""Arpit Gupta (JIRA)"" <jira@apache.org>","Wed, 16 Oct 2013 00:25:42 +0000 (UTC)","[jira] [Created] (HADOOP-10050) Update single node and cluster install instructions to work with latest bits"
"Arun C Murthy <acm@hortonworks.com>","Tue, 15 Oct 2013 21:35:06 -0700","Re: [VOTE] Release Apache Hadoop 2.2.0"
"""Mattmann, Chris A (398J)"" <chris.a.mattmann@jpl.nasa.gov>","Wed, 16 Oct 2013 04:45:52 +0000","Re: [VOTE] Release Apache Hadoop 2.2.0"
"Tsuyoshi OZAWA <ozawa.tsuyoshi@gmail.com>","Tue, 15 Oct 2013 22:38:52 -0700","Re: [VOTE] Release Apache Hadoop 2.2.0"
"Tsuyoshi OZAWA <ozawa.tsuyoshi@gmail.com>","Wed, 16 Oct 2013 00:00:38 -0700","Re: [VOTE] Release Apache Hadoop 2.2.0"
"Mathias Herberts <mathias.herberts@gmail.com>","Wed, 16 Oct 2013 09:04:28 +0200","Re: [VOTE] Release Apache Hadoop 2.2.0"
"Tsuyoshi OZAWA <ozawa.tsuyoshi@gmail.com>","Wed, 16 Oct 2013 00:24:12 -0700","Re: [VOTE] Release Apache Hadoop 2.2.0"
"""Tsuyoshi OZAWA (JIRA)"" <jira@apache.org>","Wed, 16 Oct 2013 07:24:43 +0000 (UTC)","[jira] [Created] (HADOOP-10051) winutil.exe is not included in 2.2.0 bin tarball"
"Apache Jenkins Server  <jenkins@builds.apache.org>","Wed, 16 Oct 2013 09:28:10 +0000 (UTC)","Build failed in Jenkins: Hadoop-Common-trunk #923"
"""=?utf-8?B?YWJoaXNla2d1bm5pYUB5YWhvby5jb20=?="" <abhisekgunnia@yahoo.com>"," Wed, 16 Oct 2013 07:57:55 -0400","=?utf-8?B?UmU6IEhiYXNlIHRvIGhpdmU=?="
"""samar.opensource"" <samar.opensource@gmail.com>","Wed, 16 Oct 2013 17:43:08 +0530","Re: Hbase to hive"
"""Andrew Wang (JIRA)"" <jira@apache.org>","Wed, 16 Oct 2013 17:27:42 +0000 (UTC)","[jira] [Created] (HADOOP-10052) Temporarily disable client-side symlink resolution"
"Akira AJISAKA <ajisakaa@oss.nttdata.co.jp>","Wed, 16 Oct 2013 13:34:52 -0700","Re: [VOTE] Release Apache Hadoop 2.2.0"
"larry mccay <lmccay@apache.org>","Wed, 16 Oct 2013 16:42:30 -0400","Re: [VOTE] Release Apache Hadoop 2.2.0"
"""Paul Han (JIRA)"" <jira@apache.org>","Thu, 17 Oct 2013 00:44:42 +0000 (UTC)","[jira] [Created] (HADOOP-10053) fix typo and add clarification to ViewFs javadoc"
"""Paul Han (JIRA)"" <jira@apache.org>","Thu, 17 Oct 2013 00:54:42 +0000 (UTC)","[jira] [Created] (HADOOP-10054) ViewFsFileStatus.toString() is broken"
"""Eli Collins (JIRA)"" <jira@apache.org>","Thu, 17 Oct 2013 04:36:42 +0000 (UTC)","[jira] [Created] (HADOOP-10055) FileSystemShell.apt.vm doc has typo ""numRepicas"""
"Apache Jenkins Server  <jenkins@builds.apache.org>","Thu, 17 Oct 2013 09:27:18 +0000 (UTC)","Build failed in Jenkins: Hadoop-Common-trunk #924"
"Jonathan Bernwieser <bernwieserjonathan@gmail.com>","Thu, 17 Oct 2013 14:08:57 +0200","generated code in hadoop"
"Ted Yu <yuzhihong@gmail.com>","Thu, 17 Oct 2013 05:46:32 -0700","Re: generated code in hadoop"
"Akira AJISAKA <ajisakaa@oss.nttdata.co.jp>","Thu, 17 Oct 2013 11:44:09 -0700","Re: [VOTE] Release Apache Hadoop 2.2.0"
"Akira AJISAKA <ajisakaa@oss.nttdata.co.jp>","Thu, 17 Oct 2013 11:56:17 -0700","Re: [VOTE] Release Apache Hadoop 2.2.0"
"""Abraham Elmahrek (JIRA)"" <jira@apache.org>","Thu, 17 Oct 2013 20:16:42 +0000 (UTC)","[jira] [Created] (HADOOP-10056) MiniMRClientClusterFactory in Hadoop 1.x forces local mode"
"""Benoy Antony (JIRA)"" <jira@apache.org>","Thu, 17 Oct 2013 21:47:42 +0000 (UTC)","[jira] [Created] (HADOOP-10057) Add ability in Hadoop servers (Namenode, JobTracker Datanode ) to support multiple QOP  (Authentication , Privacy) simlutaneously"
"Andrew Wang <andrew.wang@cloudera.com>","Thu, 17 Oct 2013 15:01:34 -0700","[VOTE] Merge HDFS-4949 to trunk"
"Colin McCabe <cmccabe@alumni.cmu.edu>","Thu, 17 Oct 2013 15:07:08 -0700","Re: [VOTE] Merge HDFS-4949 to trunk"
"""Akira AJISAKA (JIRA)"" <jira@apache.org>","Thu, 17 Oct 2013 22:13:42 +0000 (UTC)","[jira] [Created] (HADOOP-10058) TestMetricsSystemImpl fails on trunk"
"""Eli Collins (JIRA)"" <jira@apache.org>","Fri, 18 Oct 2013 06:25:42 +0000 (UTC)","[jira] [Resolved] (HADOOP-10034) optimize same-filesystem symlinks by doing resolution server-side"
"Steve Loughran <stevel@hortonworks.com>","Fri, 18 Oct 2013 09:56:50 +0100","moving up the release versions in JIRA"
"Apache Jenkins Server  <jenkins@builds.apache.org>","Fri, 18 Oct 2013 09:27:58 +0000 (UTC)","Build failed in Jenkins: Hadoop-Common-trunk #925"
"""Jason Lowe (JIRA)"" <jira@apache.org>","Fri, 18 Oct 2013 13:58:45 +0000 (UTC)","[jira] [Created] (HADOOP-10059) RPC authentication and authorization metrics overflow to negative values on busy clusters"
"Chris Nauroth <cnauroth@hortonworks.com>","Fri, 18 Oct 2013 10:48:49 -0700","Re: [VOTE] Merge HDFS-4949 to trunk"
"Colin McCabe <cmccabe@alumni.cmu.edu>","Fri, 18 Oct 2013 11:15:27 -0700","Re: [VOTE] Merge HDFS-4949 to trunk"
"""Colin Patrick McCabe (JIRA)"" <jira@apache.org>","Fri, 18 Oct 2013 18:22:53 +0000 (UTC)","[jira] [Reopened] (HADOOP-9652) RawLocalFs#getFileLinkStatus does not fill in the link owner and mode"
"Chris Nauroth <cnauroth@hortonworks.com>","Fri, 18 Oct 2013 13:37:36 -0700","Re: [VOTE] Merge HDFS-4949 to trunk"
"Sandy Ryza <sandy.ryza@cloudera.com>","Fri, 18 Oct 2013 14:09:55 -0700","Re: moving up the release versions in JIRA"
"Arun C Murthy <acm@hortonworks.com>","Fri, 18 Oct 2013 14:10:57 -0700","Managing docs with hadoop-1 & hadoop-2"
"Arun C Murthy <acm@hortonworks.com>","Fri, 18 Oct 2013 14:12:10 -0700","Re: [VOTE] Release Apache Hadoop 2.2.0"
"Eli Collins <eli@cloudera.com>","Fri, 18 Oct 2013 14:17:40 -0700","Re: Managing docs with hadoop-1 & hadoop-2"
"Roman Shaposhnik <rvs@apache.org>","Fri, 18 Oct 2013 14:18:50 -0700","Re: Managing docs with hadoop-1 & hadoop-2"
"Tsuyoshi OZAWA <ozawa.tsuyoshi@gmail.com>","Fri, 18 Oct 2013 14:20:37 -0700","Re: Managing docs with hadoop-1 & hadoop-2"
"Akira AJISAKA <ajisakaa@oss.nttdata.co.jp>","Fri, 18 Oct 2013 14:20:38 -0700","Re: [VOTE] Release Apache Hadoop 2.2.0"
"Akira AJISAKA <ajisakaa@oss.nttdata.co.jp>","Fri, 18 Oct 2013 14:26:29 -0700","Re: Managing docs with hadoop-1 & hadoop-2"
"Apache Jenkins Server  <jenkins@builds.apache.org>","Sat, 19 Oct 2013 09:26:59 +0000 (UTC)","Build failed in Jenkins: Hadoop-Common-trunk #926"
"Amr Shahin <amrnablus@gmail.com>","Sun, 20 Oct 2013 01:34:34 +0300","mentor needed"
"""Anand Murali (JIRA)"" <jira@apache.org>","Sun, 20 Oct 2013 09:16:42 +0000 (UTC)","[jira] [Created] (HADOOP-10060) Unable to run JDK_1.7.1_40 commands in Cygwin2.829 (32 bit"
"Apache Jenkins Server  <jenkins@builds.apache.org>","Sun, 20 Oct 2013 09:27:47 +0000 (UTC)","Build failed in Jenkins: Hadoop-Common-trunk #927"
"Sandy Ryza <sandy.ryza@cloudera.com>","Sun, 20 Oct 2013 13:46:33 -0700","Re: mentor needed"
"Tsuyoshi OZAWA <ozawa.tsuyoshi@gmail.com>","Sun, 20 Oct 2013 20:39:57 -0700","Re: mentor needed"
"Apache Jenkins Server  <jenkins@builds.apache.org>","Mon, 21 Oct 2013 09:28:44 +0000 (UTC)","Build failed in Jenkins: Hadoop-Common-trunk #928"
"Amr Shahin <amrnablus@gmail.com>","Mon, 21 Oct 2013 12:36:30 +0300","Re: mentor needed"
"Amr Shahin <amrnablus@gmail.com>","Mon, 21 Oct 2013 12:38:27 +0300","Re: mentor needed"
"haosdent <haosdent@gmail.com>","Mon, 21 Oct 2013 17:40:41 +0800","Re: mentor needed"
"Amr Shahin <amrnablus@gmail.com>","Mon, 21 Oct 2013 13:06:40 +0300","Re: mentor needed"
"Aijas Mohammed <Aijas.Mohammed@infotech-enterprises.com>","Mon, 21 Oct 2013 11:19:34 +0000","Regarding CDR Data"
"""Colin Patrick McCabe (JIRA)"" <jira@apache.org>","Mon, 21 Oct 2013 17:10:43 +0000 (UTC)","[jira] [Created] (HADOOP-10061) TestMetricsSystemImpl#testInitFirstVerifyStopInvokedImmediately failed"
"""Andrew Wang (JIRA)"" <jira@apache.org>","Mon, 21 Oct 2013 17:56:43 +0000 (UTC)","[jira] [Reopened] (HADOOP-10052) Temporarily disable client-side symlink resolution"
"""Andrew Wang (JIRA)"" <jira@apache.org>","Mon, 21 Oct 2013 18:10:42 +0000 (UTC)","[jira] [Resolved] (HADOOP-10052) Temporarily disable client-side symlink resolution"
"""Colin Patrick McCabe (JIRA)"" <jira@apache.org>","Mon, 21 Oct 2013 18:20:42 +0000 (UTC)","[jira] [Resolved] (HADOOP-10061) TestMetricsSystemImpl#testInitFirstVerifyStopInvokedImmediately failed"
"""Shinichi Yamashita (JIRA)"" <jira@apache.org>","Mon, 21 Oct 2013 18:39:43 +0000 (UTC)","[jira] [Created] (HADOOP-10062) TestMetricsSystemImpl#testMultiThreadedPublish fails on trunk"
"Arun C Murthy <acm@hortonworks.com>","Mon, 21 Oct 2013 21:50:33 -0700","Re: Managing docs with hadoop-1 & hadoop-2"
"Apache Jenkins Server  <jenkins@builds.apache.org>","Tue, 22 Oct 2013 09:21:47 +0000 (UTC)","Build failed in Jenkins: Hadoop-Common-trunk #929"
"""Joe Au (JIRA)"" <jira@apache.org>","Tue, 22 Oct 2013 09:53:43 +0000 (UTC)","[jira] [Created] (HADOOP-10063) RunJar ClassLoader cached the class can't release"
"Mike Schliep <schliep@cs.umn.edu>","Tue, 22 Oct 2013 09:50:01 -0500","Combiner Execution"
"Eli Collins <eli@cloudera.com>","Tue, 22 Oct 2013 08:22:02 -0700","Re: Managing docs with hadoop-1 & hadoop-2"
"Amr Shahin <amrnablus@gmail.com>","Tue, 22 Oct 2013 18:27:25 +0300","Re: Combiner Execution"
"Gopal Vijayaraghavan <gopalv@apache.org>","Tue, 22 Oct 2013 21:32:30 +0530","Re: Combiner Execution"
"Bikas Saha <bikas@hortonworks.com>","Tue, 22 Oct 2013 09:28:35 -0700","RE: Combiner Execution"
"Tsuyoshi OZAWA <ozawa.tsuyoshi@gmail.com>","Wed, 23 Oct 2013 03:44:47 +0900","Re: Combiner Execution"
"""Arpit Agarwal (JIRA)"" <jira@apache.org>","Tue, 22 Oct 2013 22:39:42 +0000 (UTC)","[jira] [Created] (HADOOP-10064) Upgrade to maven antrun plugin version 1.7"
"""=?utf-8?B?YWJoaXNla2d1bm5pYUB5YWhvby5jb20=?="" <abhisekgunnia@yahoo.com>"," Tue, 22 Oct 2013 21:17:41 -0400","=?utf-8?B?UmU6IEhiYXNlIHRvIGhpdmU=?="
"""=?utf-8?B?YWJoaXNla2d1bm5pYUB5YWhvby5jb20=?="" <abhisekgunnia@yahoo.com>"," Tue, 22 Oct 2013 21:19:50 -0400","=?utf-8?B?SGl2ZSBIYmFzZSBJbnRlZ3JhdGlvbg==?="
"Steve Loughran <stevel@hortonworks.com>","Wed, 23 Oct 2013 10:04:54 +0100","Re: Hive Hbase Integration"
"Apache Jenkins Server  <jenkins@builds.apache.org>","Wed, 23 Oct 2013 09:28:59 +0000 (UTC)","Build failed in Jenkins: Hadoop-Common-trunk #930"
"samir das mohapatra <samir.helpdoc@gmail.com>","Wed, 23 Oct 2013 15:14:43 +0530","Re: Hbase to hive"
"""Arpit Gupta (JIRA)"" <jira@apache.org>","Wed, 23 Oct 2013 14:57:42 +0000 (UTC)","[jira] [Created] (HADOOP-10065) Fix namenode format documentation"
"""=?utf-8?B?YWJoaXNla2d1bm5pYUB5YWhvby5jb20=?="" <abhisekgunnia@yahoo.com>"," Wed, 23 Oct 2013 13:46:00 -0400","=?utf-8?B?UmU6IEhiYXNlIHRvIGhpdmU=?="
"Andrew Wang <andrew.wang@cloudera.com>","Wed, 23 Oct 2013 11:09:52 -0700","Re: Managing docs with hadoop-1 & hadoop-2"
"Chris Nauroth <cnauroth@hortonworks.com>","Wed, 23 Oct 2013 13:03:07 -0700","Re: [VOTE] Merge HDFS-4949 to trunk"
"Andrew Wang <andrew.wang@cloudera.com>","Wed, 23 Oct 2013 14:18:14 -0700","Re: [VOTE] Merge HDFS-4949 to trunk"
"Benyi Wang <bewang.tech@gmail.com>","Wed, 23 Oct 2013 16:21:29 -0700","Questions about hadoop-metrics2.properties"
"""Arpit Agarwal (JIRA)"" <jira@apache.org>","Thu, 24 Oct 2013 02:17:42 +0000 (UTC)","[jira] [Created] (HADOOP-10066) Cleanup ant dependencies"
"Luke Lu <llu@apache.org>","Wed, 23 Oct 2013 23:51:33 -0700","Re: Questions about hadoop-metrics2.properties"
"Apache Jenkins Server  <jenkins@builds.apache.org>","Thu, 24 Oct 2013 09:27:28 +0000 (UTC)","Build failed in Jenkins: Hadoop-Common-trunk #931"
"""Robert Rati (JIRA)"" <jira@apache.org>","Thu, 24 Oct 2013 18:08:16 +0000 (UTC)","[jira] [Created] (HADOOP-10067) Missing POM dependency on jsr305"
"""Robert Rati (JIRA)"" <jira@apache.org>","Thu, 24 Oct 2013 18:52:04 +0000 (UTC)","[jira] [Created] (HADOOP-10068) Improve log4j regex in testFindContainingJar"
"""Aaron T. Myers"" <atm@apache.org>","Fri, 25 Oct 2013 05:32:35 +0900","Re: [VOTE] Merge HDFS-4949 to trunk"
"Chris Nauroth <cnauroth@hortonworks.com>","Thu, 24 Oct 2013 13:40:58 -0700","[DISCUSS] What is the purpose of merge vote threads?"
"Chris Nauroth <cnauroth@hortonworks.com>","Thu, 24 Oct 2013 13:45:27 -0700","Re: [VOTE] Merge HDFS-4949 to trunk"
"""Aaron T. Myers"" <atm@apache.org>","Fri, 25 Oct 2013 06:07:24 +0900","Re: [DISCUSS] What is the purpose of merge vote threads?"
"Chris Nauroth <cnauroth@hortonworks.com>","Thu, 24 Oct 2013 14:51:00 -0700","Re: [DISCUSS] What is the purpose of merge vote threads?"
"Doug Cutting <cutting@apache.org>","Thu, 24 Oct 2013 15:46:28 -0700","Re: [DISCUSS] What is the purpose of merge vote threads?"
"Colin McCabe <cmccabe@alumni.cmu.edu>","Thu, 24 Oct 2013 16:02:23 -0700","Re: [VOTE] Merge HDFS-4949 to trunk"
"""Tsz Wo \(Nicholas\), Sze"" <s29752-hadoopdev@yahoo.com>","Thu, 24 Oct 2013 18:19:00 -0700 (PDT)","Re: [DISCUSS] What is the purpose of merge vote threads?"
"""Raymond Liu (JIRA)"" <jira@apache.org>","Fri, 25 Oct 2013 01:26:01 +0000 (UTC)","[jira] [Created] (HADOOP-10069) Not need to start secondary namenode upon NN HA?"
"""Raymond Liu (JIRA)"" <jira@apache.org>","Fri, 25 Oct 2013 01:28:02 +0000 (UTC)","[jira] [Resolved] (HADOOP-10069) Not need to start secondary namenode upon NN HA?"
"""Aaron T. Myers (JIRA)"" <jira@apache.org>","Fri, 25 Oct 2013 01:48:01 +0000 (UTC)","[jira] [Created] (HADOOP-10070) RPC client doesn't use per-connection conf to determine server's expected Kerberos principal name"
"""Aaron T. Myers"" <atm@apache.org>","Fri, 25 Oct 2013 15:29:14 +0900","Re: [VOTE] Merge HDFS-4949 to trunk"
"""Aaron T. Myers"" <atm@apache.org>","Thu, 24 Oct 2013 23:51:23 -0700","Re: [DISCUSS] What is the purpose of merge vote threads?"
"Apache Jenkins Server  <jenkins@builds.apache.org>","Fri, 25 Oct 2013 09:25:46 +0000 (UTC)","Build failed in Jenkins: Hadoop-Common-trunk #932"
"""Vinay (JIRA)"" <jira@apache.org>","Fri, 25 Oct 2013 12:01:32 +0000 (UTC)","[jira] [Created] (HADOOP-10071) under construction files deletion after snapshot+checkpoint+nn restart leads nn safemode"
"Suresh Srinivas <suresh@hortonworks.com>","Fri, 25 Oct 2013 09:35:19 -0700","Re: [DISCUSS] What is the purpose of merge vote threads?"
"Chris Nauroth <cnauroth@hortonworks.com>","Fri, 25 Oct 2013 09:51:32 -0700","Re: [VOTE] Merge HDFS-4949 to trunk"
"Suresh Srinivas <suresh@hortonworks.com>","Fri, 25 Oct 2013 10:07:04 -0700","Re: [VOTE] Merge HDFS-4949 to trunk"
"Doug Cutting <cutting@apache.org>","Fri, 25 Oct 2013 10:18:36 -0700","Re: [DISCUSS] What is the purpose of merge vote threads?"
"Vinod Kumar Vavilapalli <vinodkv@apache.org>","Fri, 25 Oct 2013 10:56:22 -0700","Re: [DISCUSS] What is the purpose of merge vote threads?"
"Doug Cutting <cutting@apache.org>","Fri, 25 Oct 2013 12:04:54 -0700","Re: [DISCUSS] What is the purpose of merge vote threads?"
"""Chris Nauroth (JIRA)"" <jira@apache.org>","Fri, 25 Oct 2013 20:34:30 +0000 (UTC)","[jira] [Created] (HADOOP-10072) TestNfsExports#testMultiMatchers fails due to non-deterministic timing around cache expiry check."
"Apache Jenkins Server  <jenkins@builds.apache.org>","Sat, 26 Oct 2013 09:27:13 +0000 (UTC)","Build failed in Jenkins: Hadoop-Common-trunk #933"
"""Sebb (JIRA)"" <jira@apache.org>","Sat, 26 Oct 2013 09:58:31 +0000 (UTC)","[jira] [Created] (HADOOP-10073) Branding issue on download site"
"Tony Wang <ivytony@gmail.com>","Sat, 26 Oct 2013 14:20:53 -0600","Read hadoop output file, question"
"""Yoonmin Nam (JIRA)"" <jira@apache.org>","Sun, 27 Oct 2013 08:06:31 +0000 (UTC)","[jira] [Created] (HADOOP-10074) Typos in the Cluster Setup webpage (hadoop.apaghe.org/docs/current)"
"Ranjan Dutta <rdbmsdata.ranjan@gmail.com>","Mon, 28 Oct 2013 09:37:19 +0530","Need help for building haddop source on windows7"
"Apache Jenkins Server  <jenkins@builds.apache.org>","Mon, 28 Oct 2013 09:27:37 +0000 (UTC)","Build failed in Jenkins: Hadoop-Common-trunk #935"
"""Robert Rati (JIRA)"" <jira@apache.org>","Mon, 28 Oct 2013 14:21:30 +0000 (UTC)","[jira] [Created] (HADOOP-10075) Update jetty dependency to version 9"
"""Robert Rati (JIRA)"" <jira@apache.org>","Mon, 28 Oct 2013 14:32:30 +0000 (UTC)","[jira] [Created] (HADOOP-10076) Update tomcat/jasper dependency to version 7"
"Arpit Agarwal <aagarwal@hortonworks.com>","Mon, 28 Oct 2013 11:09:13 -0700","Re: Need help for building haddop source on windows7"
"unmesha sreeveni <unmeshabiju@gmail.com>","Tue, 29 Oct 2013 10:54:12 +0530","Issues in emitting 2D double array from mapper."
"unmesha sreeveni <unmeshabiju@gmail.com>","Tue, 29 Oct 2013 10:59:01 +0530","Re: Issues in emitting 2D double array from mapper."
"Apache Jenkins Server  <jenkins@builds.apache.org>","Tue, 29 Oct 2013 09:26:43 +0000 (UTC)","Build failed in Jenkins: Hadoop-Common-trunk #936"
"Petar Tahchiev <paranoiabla@gmail.com>","Tue, 29 Oct 2013 21:22:44 +0200","Question on hadoop dependencies."
"unmesha sreeveni <unmeshabiju@gmail.com>","Wed, 30 Oct 2013 11:23:29 +0530","Empty value in write() method : Custom Datatype in Hadoop MapReduce"
"Apache Jenkins Server  <jenkins@builds.apache.org>","Wed, 30 Oct 2013 09:28:15 +0000 (UTC)","Build failed in Jenkins: Hadoop-Common-trunk #937"
"Steve Loughran <stevel@hortonworks.com>","Wed, 30 Oct 2013 12:54:05 +0000","Re: Question on hadoop dependencies."
"Petar Tahchiev <paranoiabla@gmail.com>","Wed, 30 Oct 2013 14:07:21 +0100","Re: Question on hadoop dependencies."
"Robert Rati <rrati@redhat.com>","Wed, 30 Oct 2013 14:43:01 -0400","Hadoop in Fedora updated to 2.2.0"
"Steve Loughran <stevel@hortonworks.com>","Wed, 30 Oct 2013 20:07:17 +0000","Re: Question on hadoop dependencies."
"Roman Shaposhnik <rvs@apache.org>","Wed, 30 Oct 2013 14:52:42 -0700","Re: Question on hadoop dependencies."
"Petar Tahchiev <paranoiabla@gmail.com>","Thu, 31 Oct 2013 00:25:50 +0200","Re: Question on hadoop dependencies."
"Alejandro Abdelnur <tucu@cloudera.com>","Wed, 30 Oct 2013 15:33:26 -0700","test-patch failing with OOM errors in javah"
"Roman Shaposhnik <rvs@apache.org>","Wed, 30 Oct 2013 15:39:17 -0700","Re: test-patch failing with OOM errors in javah"
"""Colin Patrick McCabe (JIRA)"" <jira@apache.org>","Wed, 30 Oct 2013 23:38:25 +0000 (UTC)","[jira] [Created] (HADOOP-10077) o.a.h.s.Groups should refresh in the background"
"Omkar Joshi <ojoshi@hortonworks.com>","Wed, 30 Oct 2013 16:47:31 -0700","Re: test-patch failing with OOM errors in javah"
"Omkar Joshi <ojoshi@hortonworks.com>","Wed, 30 Oct 2013 16:50:16 -0700","Re: test-patch failing with OOM errors in javah"
"unmesha sreeveni <unmeshabiju@gmail.com>","Thu, 31 Oct 2013 10:12:38 +0530","Re: Empty value in write() method : Custom Datatype in Hadoop MapReduce"
"Steve Loughran <stevel@hortonworks.com>","Thu, 31 Oct 2013 08:44:12 +0000","Re: Hadoop in Fedora updated to 2.2.0"
"Apache Jenkins Server  <jenkins@builds.apache.org>","Thu, 31 Oct 2013 09:27:50 +0000 (UTC)","Build failed in Jenkins: Hadoop-Common-trunk #938"
"unmesha sreeveni <unmeshabiju@gmail.com>","Thu, 31 Oct 2013 16:33:07 +0530","Implementing a custom hadoop key and value - need Help"
"Andre Kelpe <akelpe@concurrentinc.com>","Thu, 31 Oct 2013 12:27:58 +0100","Re: Hadoop in Fedora updated to 2.2.0"
"Amr Shahin <amrnablus@gmail.com>","Thu, 31 Oct 2013 16:27:48 +0400","Re: Implementing a custom hadoop key and value - need Help"
"Robert Rati <rrati@redhat.com>","Thu, 31 Oct 2013 09:15:14 -0400","Re: Hadoop in Fedora updated to 2.2.0"
"Jason Lowe <jlowe@yahoo-inc.com>","Thu, 31 Oct 2013 08:19:55 -0500","Re: test-patch failing with OOM errors in javah"
"""Robert Kanter (JIRA)"" <jira@apache.org>","Thu, 31 Oct 2013 21:10:18 +0000 (UTC)","[jira] [Created] (HADOOP-10078) KerberosAuthenticator always does SPNEGO"
"Andrew Wang <andrew.wang@cloudera.com>","Thu, 31 Oct 2013 14:51:50 -0700","Re: Hadoop in Fedora updated to 2.2.0"
"Jason Lowe <jlowe@yahoo-inc.com>","Thu, 31 Oct 2013 17:20:47 -0500","Re: test-patch failing with OOM errors in javah"
"""Colin Patrick McCabe (JIRA)"" <jira@apache.org>","Thu, 31 Oct 2013 23:52:18 +0000 (UTC)","[jira] [Created] (HADOOP-10079) log a warning message if group resolution takes too long."
