"Developer","Date","Subject"
"Apache Jenkins Server <jenkins@builds.apache.org>","Mon, 1 Aug 2016 15:52:37 +0000 (UTC)","Apache Hadoop qbt Report: trunk+JDK8 on Linux/x86"
"""Chris Nauroth (JIRA)"" <jira@apache.org>","Mon, 1 Aug 2016 23:51:20 +0000 (UTC)","[jira] [Created] (HADOOP-13446) S3Guard: Support running isolated unit tests separate from AWS integration tests."
"""Chris Nauroth (JIRA)"" <jira@apache.org>","Mon, 1 Aug 2016 23:57:20 +0000 (UTC)","[jira] [Created] (HADOOP-13447) S3Guard: Refactor S3AFileSystem to support introduction of separate metadata repository and tests."
"""Chris Nauroth (JIRA)"" <jira@apache.org>","Tue, 2 Aug 2016 00:01:32 +0000 (UTC)","[jira] [Created] (HADOOP-13448) S3Guard: Define MetadataStore interface."
"""Chris Nauroth (JIRA)"" <jira@apache.org>","Tue, 2 Aug 2016 00:01:32 +0000 (UTC)","[jira] [Created] (HADOOP-13449) S3Guard: Implement DynamoDBMetadataStore."
"""Chris Nauroth (JIRA)"" <jira@apache.org>","Tue, 2 Aug 2016 00:04:20 +0000 (UTC)","[jira] [Created] (HADOOP-13450) S3Guard: Implement access policy providing strong consistency with S3 as source of truth."
"""Chris Nauroth (JIRA)"" <jira@apache.org>","Tue, 2 Aug 2016 00:07:20 +0000 (UTC)","[jira] [Created] (HADOOP-13451) S3Guard: Implement access policy using metadata store as source of truth."
"""Chris Nauroth (JIRA)"" <jira@apache.org>","Tue, 2 Aug 2016 00:09:20 +0000 (UTC)","[jira] [Created] (HADOOP-13452) S3Guard: Implement access policy for intra-client consistency with in-memory metadata store."
"""Chris Nauroth (JIRA)"" <jira@apache.org>","Tue, 2 Aug 2016 00:10:20 +0000 (UTC)","[jira] [Created] (HADOOP-13453) S3Guard: Instrument new functionality with Hadoop metrics."
"""Chris Nauroth (JIRA)"" <jira@apache.org>","Tue, 2 Aug 2016 00:11:20 +0000 (UTC)","[jira] [Created] (HADOOP-13454) S3Guard: Provide custom FileSystem Statistics."
"""Chris Nauroth (JIRA)"" <jira@apache.org>","Tue, 2 Aug 2016 00:12:21 +0000 (UTC)","[jira] [Created] (HADOOP-13455) S3Guard: Write end user documentation."
"""syannn (JIRA)"" <jira@apache.org>","Tue, 2 Aug 2016 04:55:20 +0000 (UTC)","[jira] [Created] (HADOOP-13456) Just for watching"
"""Sean Busbey (JIRA)"" <jira@apache.org>","Tue, 2 Aug 2016 05:18:20 +0000 (UTC)","[jira] [Resolved] (HADOOP-13456) Just for watching"
"Mr rty ff <yasha32@yahoo.com.INVALID>","Tue, 2 Aug 2016 07:17:39 +0000 (UTC)","AWS S3AInputStream questions"
"Mr rty ff <yasha32@yahoo.com.INVALID>","Tue, 2 Aug 2016 07:39:06 +0000 (UTC)","Re: AWS S3AInputStream questions"
"Apache Jenkins Server <jenkins@builds.apache.org>","Tue, 2 Aug 2016 14:57:27 +0000 (UTC)","Apache Hadoop qbt Report: trunk+JDK8 on Linux/x86"
"""Kihwal Lee (JIRA)"" <jira@apache.org>","Tue, 2 Aug 2016 15:56:21 +0000 (UTC)","[jira] [Resolved] (HADOOP-13429) Dispose of unnecessary SASL servers"
"""Arpit Agarwal (JIRA)"" <jira@apache.org>","Tue, 2 Aug 2016 20:47:20 +0000 (UTC)","[jira] [Created] (HADOOP-13457) Remove hardcoded absolute path for shell executable"
"""Wei-Chiu Chuang (JIRA)"" <jira@apache.org>","Tue, 2 Aug 2016 21:23:20 +0000 (UTC)","[jira] [Created] (HADOOP-13458) LoadBalancingKMSClientProvider#doOp should log IOException stacktrace"
"""Arpit Agarwal (JIRA)"" <jira@apache.org>","Tue, 2 Aug 2016 21:57:20 +0000 (UTC)","[jira] [Reopened] (HADOOP-13434) Add quoting to Shell class"
"""Chris Nauroth (JIRA)"" <jira@apache.org>","Tue, 2 Aug 2016 23:31:20 +0000 (UTC)","[jira] [Created] (HADOOP-13459) hadoop-aws runs several test cases repeatedly, causing unnecessarily long running time."
"Andrew Wang <andrew.wang@cloudera.com>","Tue, 2 Aug 2016 18:13:09 -0700","Re: [DISCUSS] Release numbering semantics with concurrent (>2) releases [Was Setting JIRA fix versions for 3.0.0 releases]"
"""Akira Ajisaka (JIRA)"" <jira@apache.org>","Wed, 3 Aug 2016 04:02:20 +0000 (UTC)","[jira] [Created] (HADOOP-13460) Fix findbugs warnings of hadoop-hdfs-client in branch-2"
"""Colm O hEigeartaigh (JIRA)"" <jira@apache.org>","Wed, 3 Aug 2016 11:26:20 +0000 (UTC)","[jira] [Created] (HADOOP-13461) NPE in KeyProvider.rollNewVersion"
"""Eric Badger (JIRA)"" <jira@apache.org>","Wed, 3 Aug 2016 13:48:20 +0000 (UTC)","[jira] [Created] (HADOOP-13462) Increase timeout of TestAmFilter.testFilter"
"""Sean Busbey (JIRA)"" <jira@apache.org>","Wed, 3 Aug 2016 13:51:20 +0000 (UTC)","[jira] [Created] (HADOOP-13463) update to Guice 4.1"
"Apache Jenkins Server <jenkins@builds.apache.org>","Wed, 3 Aug 2016 14:50:05 +0000 (UTC)","Apache Hadoop qbt Report: trunk+JDK8 on Linux/x86"
"""Daryn Sharp (JIRA)"" <jira@apache.org>","Wed, 3 Aug 2016 16:23:20 +0000 (UTC)","[jira] [Created] (HADOOP-13465) Design Server.Call to be extensible for unified call queue"
"""Chen Liang (JIRA)"" <jira@apache.org>","Wed, 3 Aug 2016 21:31:20 +0000 (UTC)","[jira] [Created] (HADOOP-13466) Using a separate lock class to replace using class object lock"
"""Arpit Agarwal (JIRA)"" <jira@apache.org>","Wed, 3 Aug 2016 22:23:20 +0000 (UTC)","[jira] [Created] (HADOOP-13467) Shell#getSignalKillCommand should use the bash builtin on Linux"
"Konstantin Shvachko <shv.hadoop@gmail.com>","Wed, 3 Aug 2016 23:29:17 -0700","Re: [DISCUSS] Release numbering semantics with concurrent (>2) releases [Was Setting JIRA fix versions for 3.0.0 releases]"
"Gav <gmcdonald@apache.org>","Thu, 4 Aug 2016 19:18:03 +1000","Jenkins Node Labelling Documentation"
"Apache Jenkins Server <jenkins@builds.apache.org>","Thu, 4 Aug 2016 15:38:57 +0000 (UTC)","Apache Hadoop qbt Report: trunk+JDK8 on Linux/x86"
"Sean Busbey <busbey@cloudera.com>","Thu, 4 Aug 2016 12:14:53 -0500","Re: Jenkins Node Labelling Documentation"
"""Karthik Palanisamy (JIRA)"" <jira@apache.org>","Thu, 4 Aug 2016 17:40:20 +0000 (UTC)","[jira] [Created] (HADOOP-13468) In HA, Namenode is failed to start If any of the Quorum hostname is unresolved"
"Andrew Wang <andrew.wang@cloudera.com>","Thu, 4 Aug 2016 11:20:23 -0700","Re: [DISCUSS] Release numbering semantics with concurrent (>2) releases [Was Setting JIRA fix versions for 3.0.0 releases]"
"Chris Douglas <cdouglas@apache.org>","Thu, 4 Aug 2016 12:41:18 -0700","Re: [DISCUSS] Release numbering semantics with concurrent (>2) releases [Was Setting JIRA fix versions for 3.0.0 releases]"
"Gav <gmcdonald@apache.org>","Fri, 5 Aug 2016 07:16:50 +1000","Re: Jenkins Node Labelling Documentation"
"Andrew Bayer <andrew.bayer@gmail.com>","Thu, 4 Aug 2016 14:28:43 -0700","Re: Jenkins Node Labelling Documentation"
"Gav <gmcdonald@apache.org>","Fri, 5 Aug 2016 07:41:09 +1000","Re: Jenkins Node Labelling Documentation"
"Sean Busbey <busbey@cloudera.com>","Thu, 4 Aug 2016 16:52:25 -0500","Re: Jenkins Node Labelling Documentation"
"""Jeffrey E  Rodriguez (JIRA)"" <jira@apache.org>","Thu, 4 Aug 2016 22:04:20 +0000 (UTC)","[jira] [Resolved] (HADOOP-13119) Web UI authorization error accessing /logs/ when Kerberos"
"Gav <gmcdonald@apache.org>","Fri, 5 Aug 2016 08:05:01 +1000","Re: Jenkins Node Labelling Documentation"
"Andrew Wang <andrew.wang@cloudera.com>","Thu, 4 Aug 2016 15:37:16 -0700","Re: [DISCUSS] Release numbering semantics with concurrent (>2) releases [Was Setting JIRA fix versions for 3.0.0 releases]"
"Andrew Wang <andrew.wang@cloudera.com>","Thu, 4 Aug 2016 15:56:11 -0700","Re: [VOTE] Release Apache Hadoop 2.7.3 RC0"
"Chris Douglas <cdouglas@apache.org>","Thu, 4 Aug 2016 17:19:59 -0700","Re: [DISCUSS] Release numbering semantics with concurrent (>2) releases [Was Setting JIRA fix versions for 3.0.0 releases]"
"Senthil Kumar <senthilec566@gmail.com>","Fri, 5 Aug 2016 06:31:39 +0530","Re: HDFS NFS Gateway - Exporting multiple Directories"
"Konstantin Shvachko <shv.hadoop@gmail.com>","Thu, 4 Aug 2016 18:01:59 -0700","Re: [DISCUSS] Release numbering semantics with concurrent (>2) releases [Was Setting JIRA fix versions for 3.0.0 releases]"
"""Rakesh R (JIRA)"" <jira@apache.org>","Fri, 5 Aug 2016 05:13:20 +0000 (UTC)","[jira] [Created] (HADOOP-13469) Fix TestRefreshUserMappings.testRefreshSuperUserGroupsConfiguration test failure"
"""Mingliang Liu (JIRA)"" <jira@apache.org>","Fri, 5 Aug 2016 05:17:20 +0000 (UTC)","[jira] [Created] (HADOOP-13470) GenericTestUtils$LogCapturer is flaky"
"Sean Busbey <busbey@cloudera.com>","Fri, 5 Aug 2016 08:36:21 -0500","Where do we track our Jenkins stuff"
"Apache Jenkins Server <jenkins@builds.apache.org>","Fri, 5 Aug 2016 14:11:03 +0000 (UTC)","Apache Hadoop qbt Report: trunk+JDK8 on Linux/x86"
"Jason Lowe <jlowe@yahoo-inc.com.INVALID>","Fri, 5 Aug 2016 15:43:03 +0000 (UTC)","Re: [VOTE] Release Apache Hadoop 2.7.3 RC0"
"Aaron Fabbri <fabbri@cloudera.com>","Fri, 5 Aug 2016 10:40:25 -0700","Re: AWS S3AInputStream questions"
"""Mike Percy (JIRA)"" <jira@apache.org>","Fri, 5 Aug 2016 23:30:20 +0000 (UTC)","[jira] [Resolved] (HADOOP-8625) Use GzipCodec to decompress data in ResetableGzipOutputStream test"
"Sean Busbey <busbey@cloudera.com>","Sat, 6 Aug 2016 08:27:27 -0500","Re: Where do we track our Jenkins stuff"
"Apache Jenkins Server <jenkins@builds.apache.org>","Sat, 6 Aug 2016 14:16:50 +0000 (UTC)","Apache Hadoop qbt Report: trunk+JDK8 on Linux/x86"
"Chris Nauroth <cnauroth@hortonworks.com>","Sat, 6 Aug 2016 15:48:19 +0000","Re: Where do we track our Jenkins stuff"
"Sean Busbey <busbey@cloudera.com>","Sat, 6 Aug 2016 11:11:40 -0500","Re: Where do we track our Jenkins stuff"
"Gav <gmcdonald@apache.org>","Sun, 7 Aug 2016 09:56:11 +1000","Proposal: Drop all project specific labels."
"Apache Jenkins Server <jenkins@builds.apache.org>","Sun, 7 Aug 2016 14:16:40 +0000 (UTC)","Apache Hadoop qbt Report: trunk+JDK8 on Linux/x86"
"""Sebastian Nagel (JIRA)"" <jira@apache.org>","Sun, 7 Aug 2016 19:34:20 +0000 (UTC)","[jira] [Created] (HADOOP-13472) Inconsistencies for s3a timeouts in description and default values"
"""John Zhuge (JIRA)"" <jira@apache.org>","Mon, 8 Aug 2016 06:13:20 +0000 (UTC)","[jira] [Resolved] (HADOOP-13472) Inconsistencies for s3a timeouts in description and default values"
"Apache Jenkins Server <jenkins@builds.apache.org>","Mon, 8 Aug 2016 14:17:20 +0000 (UTC)","Apache Hadoop qbt Report: trunk+JDK8 on Linux/x86"
"Karthik Kambatla <kasha@cloudera.com>","Mon, 8 Aug 2016 10:54:44 -0700","Re: [DISCUSS] Release numbering semantics with concurrent (>2) releases [Was Setting JIRA fix versions for 3.0.0 releases]"
"Junping Du <jdu@hortonworks.com>","Mon, 8 Aug 2016 18:44:39 +0000","Re: [DISCUSS] Release numbering semantics with concurrent (>2) releases [Was Setting JIRA fix versions for 3.0.0 releases]"
"""Xiao Chen (JIRA)"" <jira@apache.org>","Mon, 8 Aug 2016 21:06:21 +0000 (UTC)","[jira] [Created] (HADOOP-13474) Add more details in the log when a token is expired"
"""Raul da Silva Martins (JIRA)"" <jira@apache.org>","Tue, 9 Aug 2016 00:09:20 +0000 (UTC)","[jira] [Created] (HADOOP-13475) CLONE - Adding Append Blob support for WASB"
"Sean Busbey <busbey@cloudera.com>","Mon, 8 Aug 2016 23:01:14 -0500","Re: Jenkins Node Labelling Documentation"
"Karthik Kambatla <kasha@cloudera.com>","Tue, 9 Aug 2016 06:02:06 -0700","Re: [DISCUSS] Release numbering semantics with concurrent (>2) releases [Was Setting JIRA fix versions for 3.0.0 releases]"
"Karthik Kambatla <kasha@cloudera.com>","Tue, 9 Aug 2016 06:20:32 -0700","Re: [DISCUSS] Release numbering semantics with concurrent (>2) releases [Was Setting JIRA fix versions for 3.0.0 releases]"
"Apache Jenkins Server <jenkins@builds.apache.org>","Tue, 9 Aug 2016 14:23:49 +0000 (UTC)","Apache Hadoop qbt Report: trunk+JDK8 on Linux/x86"
"Sangjin Lee <sjlee@apache.org>","Tue, 9 Aug 2016 09:00:34 -0700","HADOOP-13410"
"Sean Busbey <busbey@cloudera.com>","Tue, 9 Aug 2016 11:06:09 -0500","Re: HADOOP-13410"
"Sangjin Lee <sjlee@apache.org>","Tue, 9 Aug 2016 10:41:49 -0700","Re: HADOOP-13410"
"""Aaron Fabbri (JIRA)"" <jira@apache.org>","Tue, 9 Aug 2016 20:43:20 +0000 (UTC)","[jira] [Created] (HADOOP-13476) CredentialProviderFactory fails at class loading from libhdfs (JNI)"
"Chris Trezzo <ctrezzo@gmail.com>","Tue, 9 Aug 2016 17:32:32 -0700","[Release thread] 2.6.5 release activities"
"Sangjin Lee <sjlee@apache.org>","Tue, 9 Aug 2016 17:42:42 -0700","Re: HADOOP-13410"
"""JerryXin (JIRA)"" <jira@apache.org>","Wed, 10 Aug 2016 08:37:20 +0000 (UTC)","[jira] [Created] (HADOOP-13477) Ganglia metrics can be only sent to the first metric server"
"Apache Jenkins Server <jenkins@builds.apache.org>","Wed, 10 Aug 2016 14:24:51 +0000 (UTC)","Apache Hadoop qbt Report: trunk+JDK8 on Linux/x86"
"Jason Lowe <jlowe@yahoo-inc.com.INVALID>","Wed, 10 Aug 2016 15:14:18 +0000 (UTC)","Re: [Release thread] 2.6.5 release activities"
"Junping Du <jdu@hortonworks.com>","Wed, 10 Aug 2016 16:36:55 +0000","Re: [Release thread] 2.6.5 release activities"
"Chris Trezzo <ctrezzo@gmail.com>","Wed, 10 Aug 2016 13:30:33 -0700","Re: [Release thread] 2.6.5 release activities"
"""uncleGen (JIRA)"" <jira@apache.org>","Thu, 11 Aug 2016 01:34:22 +0000 (UTC)","[jira] [Created] (HADOOP-13478) Aliyun OSS phase I: some preparation and improvements before release"
"""uncleGen (JIRA)"" <jira@apache.org>","Thu, 11 Aug 2016 01:34:22 +0000 (UTC)","[jira] [Created] (HADOOP-13479) Aliyun OSS phase I: some preparation and improvements before release"
"""uncleGen (JIRA)"" <jira@apache.org>","Thu, 11 Aug 2016 01:37:20 +0000 (UTC)","[jira] [Created] (HADOOP-13480) User end documents for Aliyun OSS FileSystem"
"""uncleGen (JIRA)"" <jira@apache.org>","Thu, 11 Aug 2016 01:45:20 +0000 (UTC)","[jira] [Created] (HADOOP-13481) User end documents for Aliyun OSS FileSystem"
"""uncleGen (JIRA)"" <jira@apache.org>","Thu, 11 Aug 2016 01:49:22 +0000 (UTC)","[jira] [Resolved] (HADOOP-13480) User end documents for Aliyun OSS FileSystem"
"""uncleGen (JIRA)"" <jira@apache.org>","Thu, 11 Aug 2016 01:53:20 +0000 (UTC)","[jira] [Created] (HADOOP-13482) Provide hadoop-aliyun oss configuration documents"
"""uncleGen (JIRA)"" <jira@apache.org>","Thu, 11 Aug 2016 02:29:20 +0000 (UTC)","[jira] [Created] (HADOOP-13483) file-create should throw error rather than overwrite directories"
"Apache Jenkins Server <jenkins@builds.apache.org>","Thu, 11 Aug 2016 08:54:30 +0000 (UTC)","Apache Hadoop qbt Report: trunk+JDK8 on Linux/x86"
"Junping Du <jdu@hortonworks.com>","Thu, 11 Aug 2016 12:59:15 +0000","Re: [Release thread] 2.6.5 release activities"
"Allen Wittenauer <aw@effectivemachines.com>","Thu, 11 Aug 2016 07:13:21 -0700","Re: [Release thread] 2.6.5 release activities"
"""Nemo Chen (JIRA)"" <jira@apache.org>","Thu, 11 Aug 2016 14:15:20 +0000 (UTC)","[jira] [Created] (HADOOP-13484) Log refactoring: method invocation should be replaced by variable"
"""Nemo Chen (JIRA)"" <jira@apache.org>","Thu, 11 Aug 2016 15:08:20 +0000 (UTC)","[jira] [Created] (HADOOP-13485) Log refactoring: method invocation should be replaced by variable in hadoop tools"
"Junping Du <jdu@hortonworks.com>","Thu, 11 Aug 2016 15:10:53 +0000","Re: [Release thread] 2.6.5 release activities"
"""Xiao Chen (JIRA)"" <jira@apache.org>","Thu, 11 Aug 2016 16:42:20 +0000 (UTC)","[jira] [Resolved] (HADOOP-13264) Hadoop HDFS - DFSOutputStream close method fails to clean up resources in case no hdfs datanodes are accessible"
"""Nemo Chen (JIRA)"" <jira@apache.org>","Thu, 11 Aug 2016 18:24:22 +0000 (UTC)","[jira] [Created] (HADOOP-13486) Method invocation in log can be replaced by variable because the variable's toString method contain more info"
"""Alex Ivanov (JIRA)"" <jira@apache.org>","Thu, 11 Aug 2016 18:33:20 +0000 (UTC)","[jira] [Created] (HADOOP-13487) Hadoop KMS doesn't clean up old delegation tokens stored in Zookeeper"
"Allen Wittenauer <aw@effectivemachines.com>","Thu, 11 Aug 2016 12:50:44 -0700","Re: [Release thread] 2.6.5 release activities"
"Karthik Kambatla <kasha@cloudera.com>","Thu, 11 Aug 2016 13:03:36 -0700","Re: [Release thread] 2.6.5 release activities"
"""Xiaobing Zhou (JIRA)"" <jira@apache.org>","Thu, 11 Aug 2016 22:11:20 +0000 (UTC)","[jira] [Created] (HADOOP-13488) Have TryOnceThenFail implement ConnectionRetryPolicy"
"""Ted Yu (JIRA)"" <jira@apache.org>","Thu, 11 Aug 2016 23:33:20 +0000 (UTC)","[jira] [Created] (HADOOP-13489) DistCp may incorrectly return success status when the underlying Job failed"
"Chris Trezzo <ctrezzo@gmail.com>","Thu, 11 Aug 2016 16:42:25 -0700","Re: [Release thread] 2.6.5 release activities"
"""Allen Wittenauer (JIRA)"" <jira@apache.org>","Fri, 12 Aug 2016 04:01:20 +0000 (UTC)","[jira] [Created] (HADOOP-13490) create-release should not fail unless --asfrelease is used"
"""uncleGen (JIRA)"" <jira@apache.org>","Fri, 12 Aug 2016 08:30:20 +0000 (UTC)","[jira] [Created] (HADOOP-13491) fix several warnings from findbugs"
"""Pan Yuxuan (JIRA)"" <jira@apache.org>","Fri, 12 Aug 2016 08:30:20 +0000 (UTC)","[jira] [Created] (HADOOP-13492) DataXceiver#run() should not log InvalidToken exception as an error"
"Apache Jenkins Server <jenkins@builds.apache.org>","Fri, 12 Aug 2016 14:25:53 +0000 (UTC)","Apache Hadoop qbt Report: trunk+JDK8 on Linux/x86"
"Junping Du <jdu@hortonworks.com>","Fri, 12 Aug 2016 15:19:51 +0000","Re: [Release thread] 2.6.5 release activities"
"Vinod Kumar Vavilapalli <vinodkv@apache.org>","Fri, 12 Aug 2016 09:45:28 -0700","[VOTE] Release Apache Hadoop 2.7.3 RC1"
"Kihwal Lee <kihwal@yahoo-inc.com.INVALID>","Fri, 12 Aug 2016 16:56:20 +0000 (UTC)","Re: [Release thread] 2.6.5 release activities"
"""Allen Wittenauer (JIRA)"" <jira@apache.org>","Fri, 12 Aug 2016 17:21:20 +0000 (UTC)","[jira] [Created] (HADOOP-13495) create-release should allow a user-supplied Dockerfile"
"""Ted Yu (JIRA)"" <jira@apache.org>","Fri, 12 Aug 2016 17:38:20 +0000 (UTC)","[jira] [Created] (HADOOP-13496) Include file lengths in Mismatch in length error for distcp"
"Sangjin Lee <sjlee@apache.org>","Fri, 12 Aug 2016 13:31:55 -0700","Re: [Release thread] 2.6.5 release activities"
"Karthik Kambatla <kasha@cloudera.com>","Fri, 12 Aug 2016 16:45:50 -0700","[DISCUSS] Release cadence and EOL"
"Apache Jenkins Server <jenkins@builds.apache.org>","Sat, 13 Aug 2016 14:22:14 +0000 (UTC)","Apache Hadoop qbt Report: trunk+JDK8 on Linux/x86"
"Steve Loughran <stevel@hortonworks.com>","Sat, 13 Aug 2016 16:49:42 +0000","Re: [Release thread] 2.6.5 release activities"
"""Steve Loughran (JIRA)"" <jira@apache.org>","Sat, 13 Aug 2016 17:12:22 +0000 (UTC)","[jira] [Resolved] (HADOOP-10375) Local FS doesn't raise an error on mkdir() over a file"
"=?UTF-8?Q?Marco_Z=C3=BChlke?= <mzuehlke@gmail.com>","Sat, 13 Aug 2016 22:35:07 +0200","Re: [VOTE] Release Apache Hadoop 2.7.3 RC1"
"Gav <gmcdonald@apache.org>","Mon, 15 Aug 2016 08:37:36 +1000","Re: Jenkins Node Labelling Documentation"
"""John D. Ament"" <johndament@apache.org>","Sun, 14 Aug 2016 22:45:32 +0000","Re: Jenkins Node Labelling Documentation"
"Gav <gmcdonald@apache.org>","Mon, 15 Aug 2016 09:01:35 +1000","Re: Jenkins Node Labelling Documentation"
"""Yuanbo Liu (JIRA)"" <jira@apache.org>","Mon, 15 Aug 2016 08:50:20 +0000 (UTC)","[jira] [Created] (HADOOP-13497) fix wrong command in CredentialProviderAPI.md"
"""uncleGen (JIRA)"" <jira@apache.org>","Mon, 15 Aug 2016 11:31:20 +0000 (UTC)","[jira] [Resolved] (HADOOP-13479) Aliyun OSS phase I: some preparation and improvements before release"
"Apache Jenkins Server <jenkins@builds.apache.org>","Mon, 15 Aug 2016 14:22:22 +0000 (UTC)","Apache Hadoop qbt Report: trunk+JDK8 on Linux/x86"
"Allen Wittenauer <aw@effectivemachines.com>","Mon, 15 Aug 2016 10:55:50 -0700","Re: [Release thread] 2.6.5 release activities"
"Vinod Kumar Vavilapalli <vinodkv@apache.org>","Mon, 15 Aug 2016 13:32:08 -0700","Re: [VOTE] Release Apache Hadoop 2.7.3 RC1"
"Jason Lowe <jlowe@yahoo-inc.com.INVALID>","Mon, 15 Aug 2016 22:03:32 +0000 (UTC)","Re: [VOTE] Release Apache Hadoop 2.7.3 RC1"
"""uncleGen (JIRA)"" <jira@apache.org>","Tue, 16 Aug 2016 01:43:21 +0000 (UTC)","[jira] [Resolved] (HADOOP-13482) Provide hadoop-aliyun oss configuration documents"
"""Chris Nauroth (JIRA)"" <jira@apache.org>","Tue, 16 Aug 2016 04:59:22 +0000 (UTC)","[jira] [Resolved] (HADOOP-13319) S3A to list InstanceProfileCredentialsProvider after EnvironmentVariableCredentialsProvider"
"""Chris Nauroth (JIRA)"" <jira@apache.org>","Tue, 16 Aug 2016 04:59:22 +0000 (UTC)","[jira] [Reopened] (HADOOP-13319) S3A to list InstanceProfileCredentialsProvider after EnvironmentVariableCredentialsProvider"
"""uncleGen (JIRA)"" <jira@apache.org>","Tue, 16 Aug 2016 06:57:20 +0000 (UTC)","[jira] [Created] (HADOOP-13498) the number of multi-part upload part should not bigger than 10000"
"""uncleGen (JIRA)"" <jira@apache.org>","Tue, 16 Aug 2016 07:04:20 +0000 (UTC)","[jira] [Created] (HADOOP-13499) Support session credentials for authenticating with Aliyun"
"Steve Loughran <stevel@hortonworks.com>","Tue, 16 Aug 2016 09:25:54 +0000","Re: [VOTE] Release Apache Hadoop 2.7.3 RC1"
"Apache Jenkins Server <jenkins@builds.apache.org>","Tue, 16 Aug 2016 15:08:18 +0000 (UTC)","Apache Hadoop qbt Report: trunk+JDK8 on Linux/x86"
"""Allen Wittenauer (JIRA)"" <jira@apache.org>","Tue, 16 Aug 2016 16:08:20 +0000 (UTC)","[jira] [Resolved] (HADOOP-7678) Nightly build+test should run with ""continue on error"" for automated testing after successful build"
"Vinod Kumar Vavilapalli <vinodkv@apache.org>","Tue, 16 Aug 2016 11:26:01 -0700","Re: [VOTE] Release Apache Hadoop 2.7.3 RC1"
"""Jason Lowe (JIRA)"" <jira@apache.org>","Tue, 16 Aug 2016 19:49:20 +0000 (UTC)","[jira] [Created] (HADOOP-13500) Concurrency issues when using Configuration iterator"
"""Chris Nauroth (JIRA)"" <jira@apache.org>","Tue, 16 Aug 2016 20:35:20 +0000 (UTC)","[jira] [Created] (HADOOP-13501) Run contract tests guarded by ""is-blobstore"" flag against WASB."
"""Chris Nauroth (JIRA)"" <jira@apache.org>","Tue, 16 Aug 2016 20:42:20 +0000 (UTC)","[jira] [Created] (HADOOP-13502) Rename/split fs.contract.is-blobstore flag used by contract tests."
"""Mingliang Liu (JIRA)"" <jira@apache.org>","Tue, 16 Aug 2016 23:24:20 +0000 (UTC)","[jira] [Reopened] (HADOOP-13470) GenericTestUtils$LogCapturer is flaky"
"""Xiaobing Zhou (JIRA)"" <jira@apache.org>","Wed, 17 Aug 2016 00:25:21 +0000 (UTC)","[jira] [Created] (HADOOP-13503) Logging actual principal info from configuration"
"""SammiChen (JIRA)"" <jira@apache.org>","Wed, 17 Aug 2016 03:32:20 +0000 (UTC)","[jira] [Created] (HADOOP-13504) Refactor jni_common to conform to C89 restrictions imposed by Visual Studio 2010"
"Allen Wittenauer <aw@effectivemachines.com>","Tue, 16 Aug 2016 21:29:13 -0700","Re: [VOTE] Release Apache Hadoop 2.7.3 RC1"
"Akira Ajisaka <ajisakaa@oss.nttdata.co.jp>","Wed, 17 Aug 2016 14:01:03 +0900","Re: [VOTE] Release Apache Hadoop 2.7.3 RC1"
"""Yuanbo Liu (JIRA)"" <jira@apache.org>","Wed, 17 Aug 2016 07:52:20 +0000 (UTC)","[jira] [Created] (HADOOP-13505) Fuzzy match issue in Hadoop commands"
"""Kai Sasaki (JIRA)"" <jira@apache.org>","Wed, 17 Aug 2016 12:54:20 +0000 (UTC)","[jira] [Created] (HADOOP-13506) Redundant groupid warning in child projects"
"""Steve Loughran (JIRA)"" <jira@apache.org>","Wed, 17 Aug 2016 13:07:20 +0000 (UTC)","[jira] [Resolved] (HADOOP-13505) Fuzzy match issue in Hadoop commands"
"Junping Du <jdu@hortonworks.com>","Wed, 17 Aug 2016 13:15:13 +0000","Re: [VOTE] Release Apache Hadoop 2.7.3 RC1"
"Apache Jenkins Server <jenkins@builds.apache.org>","Wed, 17 Aug 2016 14:28:36 +0000 (UTC)","Apache Hadoop qbt Report: trunk+JDK8 on Linux/x86"
"Allen Wittenauer <aw@effectivemachines.com>","Wed, 17 Aug 2016 08:11:04 -0700","Re: [VOTE] Release Apache Hadoop 2.7.3 RC1"
"""Steve Loughran (JIRA)"" <jira@apache.org>","Wed, 17 Aug 2016 17:44:20 +0000 (UTC)","[jira] [Created] (HADOOP-13507) export s3a BlockingThreadPoolExecutorService pool info (size, load) as metrics"
"Vinod Kumar Vavilapalli <vinodkv@apache.org>","Wed, 17 Aug 2016 13:29:28 -0700","Re: [VOTE] Release Apache Hadoop 2.7.3 RC1"
"Vinod Kumar Vavilapalli <vinodkv@apache.org>","Wed, 17 Aug 2016 13:30:06 -0700","Re: [VOTE] Release Apache Hadoop 2.7.3 RC1"
"""Atul Sikaria (JIRA)"" <jira@apache.org>","Wed, 17 Aug 2016 20:54:20 +0000 (UTC)","[jira] [Created] (HADOOP-13508) FsPermission's string constructor fails on valid permissions like ""1777"""
"""David Sidlo (JIRA)"" <jira@apache.org>","Wed, 17 Aug 2016 22:15:20 +0000 (UTC)","[jira] [Created] (HADOOP-13509) ""fs -getmerge"" can fail in an HA NameNode env."
"""David Sidlo (JIRA)"" <jira@apache.org>","Wed, 17 Aug 2016 22:21:20 +0000 (UTC)","[jira] [Created] (HADOOP-13510) ""hadoop fs -getmerge"" docs, .../dir does not work, .../dir/* works."
"""Xiaobing Zhou (JIRA)"" <jira@apache.org>","Wed, 17 Aug 2016 23:01:20 +0000 (UTC)","[jira] [Created] (HADOOP-13511) Simplify connection cache logic"
"Vinod Kumar Vavilapalli <vinodkv@apache.org>","Wed, 17 Aug 2016 19:05:55 -0700","[VOTE] Release Apache Hadoop 2.7.3 RC2"
"""Mingliang Liu (JIRA)"" <jira@apache.org>","Thu, 18 Aug 2016 07:04:20 +0000 (UTC)","[jira] [Created] (HADOOP-13512) ReloadingX509TrustManager should keep reloading in case of exception"
"""Tibor Kiss (JIRA)"" <jira@apache.org>","Thu, 18 Aug 2016 07:56:20 +0000 (UTC)","[jira] [Created] (HADOOP-13513) Java 1.7 support for org.apache.hadoop.fs.azure testcases"
"""Ewan Higgs (JIRA)"" <jira@apache.org>","Thu, 18 Aug 2016 09:47:20 +0000 (UTC)","[jira] [Created] (HADOOP-13514) Upgrade surefire to 2.19.1"
"""Harsh J (JIRA)"" <jira@apache.org>","Thu, 18 Aug 2016 10:14:20 +0000 (UTC)","[jira] [Created] (HADOOP-13515) Redundant transitionToActive call can cause a NameNode to crash"
"""Steve Loughran (JIRA)"" <jira@apache.org>","Thu, 18 Aug 2016 12:57:20 +0000 (UTC)","[jira] [Resolved] (HADOOP-13271) Intermittent failure of TestS3AContractRootDir.testListEmptyRootDirectory"
"Steve Loughran <stevel@hortonworks.com>","Thu, 18 Aug 2016 13:53:04 +0000","adding contributor roles timing out again"
"Junping Du <jdu@hortonworks.com>","Thu, 18 Aug 2016 13:57:09 +0000","Re: [VOTE] Release Apache Hadoop 2.7.3 RC1"
"Apache Jenkins Server <jenkins@builds.apache.org>","Thu, 18 Aug 2016 14:49:26 +0000 (UTC)","Apache Hadoop qbt Report: trunk+JDK8 on Linux/x86"
"""Shaik Idris Ali (JIRA)"" <jira@apache.org>","Thu, 18 Aug 2016 15:28:21 +0000 (UTC)","[jira] [Created] (HADOOP-13516) Listing an empty s3a NON root directory throws FileNotFound."
"Steve Loughran <stevel@hortonworks.com>","Thu, 18 Aug 2016 15:32:27 +0000","Re: [VOTE] Release Apache Hadoop 2.7.3 RC1"
"""Steve Loughran (JIRA)"" <jira@apache.org>","Thu, 18 Aug 2016 15:35:21 +0000 (UTC)","[jira] [Resolved] (HADOOP-13516) Listing an empty s3a NON root directory throws FileNotFound."
"""Steve Loughran (JIRA)"" <jira@apache.org>","Thu, 18 Aug 2016 15:39:22 +0000 (UTC)","[jira] [Reopened] (HADOOP-13516) Listing an empty s3a NON root directory throws FileNotFound."
"Chris Nauroth <cnauroth@hortonworks.com>","Thu, 18 Aug 2016 15:39:45 +0000","Re: adding contributor roles timing out again"
"Andrew Purtell <andrew.purtell@gmail.com>","Thu, 18 Aug 2016 08:47:55 -0700","Re: [VOTE] Release Apache Hadoop 2.7.3 RC1"
"larry mccay <larry.mccay@gmail.com>","Thu, 18 Aug 2016 12:12:38 -0400","Re: [VOTE] Release Apache Hadoop 2.7.3 RC1"
"Chris Nauroth <cnauroth@hortonworks.com>","Thu, 18 Aug 2016 17:04:07 +0000","Re: [VOTE] Release Apache Hadoop 2.7.3 RC1"
"Andrew Purtell <andrew.purtell@gmail.com>","Thu, 18 Aug 2016 10:37:00 -0700","Re: [VOTE] Release Apache Hadoop 2.7.3 RC1"
"Kuhu Shukla <kshukla@yahoo-inc.com.INVALID>","Thu, 18 Aug 2016 17:41:20 +0000 (UTC)","Re: [VOTE] Release Apache Hadoop 2.7.3 RC1"
"""Steve Loughran (JIRA)"" <jira@apache.org>","Thu, 18 Aug 2016 18:16:20 +0000 (UTC)","[jira] [Created] (HADOOP-13517) TestS3NContractRootDir.testRecursiveRootListing failing"
"""Steve Loughran (JIRA)"" <jira@apache.org>","Thu, 18 Aug 2016 18:34:21 +0000 (UTC)","[jira] [Created] (HADOOP-13518) backport HADOOP-9258 to branch-2"
"Junping Du <jdu@hortonworks.com>","Thu, 18 Aug 2016 19:24:13 +0000","Re: [VOTE] Release Apache Hadoop 2.7.3 RC2"
"Ray Chiang <rchiang@apache.org>","Thu, 18 Aug 2016 12:57:55 -0700","Re: adding contributor roles timing out again"
"Vinod Kumar Vavilapalli <vinodkv@apache.org>","Thu, 18 Aug 2016 14:13:14 -0700","Re: adding contributor roles timing out again"
"Akira Ajisaka <ajisakaa@oss.nttdata.co.jp>","Fri, 19 Aug 2016 19:51:01 +0900","Re: [VOTE] Release Apache Hadoop 2.7.3 RC2"
"Vinod Kumar Vavilapalli <vinodkv@apache.org>","Fri, 19 Aug 2016 09:55:49 -0700","Re: Updated 2.8.0-SNAPSHOT artifact"
"Elliott Clark <eclark@apache.org>","Fri, 19 Aug 2016 10:09:12 -0700","Merge IPv6"
"""Steve Loughran (JIRA)"" <jira@apache.org>","Fri, 19 Aug 2016 20:56:20 +0000 (UTC)","[jira] [Created] (HADOOP-13519) Make Path serializable"
"""Xiaoyu Yao (JIRA)"" <jira@apache.org>","Fri, 19 Aug 2016 21:20:20 +0000 (UTC)","[jira] [Created] (HADOOP-13520) Document HADOOP-10158 for multi home/SPN support of HTTP principles"
"""Mark Wagner (JIRA)"" <jira@apache.org>","Fri, 19 Aug 2016 21:46:21 +0000 (UTC)","[jira] [Created] (HADOOP-13521) SampleQuantile does not perform well under load"
"Eric Payne <eric.payne1000@yahoo.com.INVALID>","Fri, 19 Aug 2016 22:32:08 +0000 (UTC)","Re: [VOTE] Release Apache Hadoop 2.7.3 RC2"
"""Alex Garbarini (JIRA)"" <jira@apache.org>","Fri, 19 Aug 2016 22:37:21 +0000 (UTC)","[jira] [Created] (HADOOP-13522) Permissions on fs stat added"
"""Xiao Chen (JIRA)"" <jira@apache.org>","Fri, 19 Aug 2016 23:20:21 +0000 (UTC)","[jira] [Created] (HADOOP-13523) Implement a json format audit logger for KMS"
"Elliott Clark <eclark@apache.org>","Fri, 19 Aug 2016 16:38:28 -0700","Re: Merge IPv6"
"""Vinod Kumar Vavilapalli (JIRA)"" <jira@apache.org>","Sat, 20 Aug 2016 04:19:22 +0000 (UTC)","[jira] [Created] (HADOOP-13524) mvn eclipse:eclipse generates .gitignore'able files"
"Kuhu Shukla <kshukla@yahoo-inc.com.INVALID>","Sat, 20 Aug 2016 05:37:09 +0000 (UTC)","Re: [VOTE] Release Apache Hadoop 2.7.3 RC2"
"Dmitry Sivachenko <trtrmitya@gmail.com>","Sat, 20 Aug 2016 10:48:58 +0300","Re: Merge IPv6"
"Steve Loughran <stevel@hortonworks.com>","Sat, 20 Aug 2016 09:24:45 +0000","Re: Merge IPv6"
"""Steve Loughran (JIRA)"" <jira@apache.org>","Sat, 20 Aug 2016 11:33:20 +0000 (UTC)","[jira] [Created] (HADOOP-13525) Optimize uses of FS operations in the ASF analysis frameworks,"
"Apache Jenkins Server <jenkins@builds.apache.org>","Sat, 20 Aug 2016 14:25:37 +0000 (UTC)","Apache Hadoop qbt Report: trunk+JDK8 on Linux/x86"
"Jian He <jhe@hortonworks.com>","Sat, 20 Aug 2016 14:29:53 +0000","Re: [VOTE] Release Apache Hadoop 2.7.3 RC2"
"""Suraj Acharya (JIRA)"" <jira@apache.org>","Sat, 20 Aug 2016 23:44:20 +0000 (UTC)","[jira] [Created] (HADOOP-13526) Add detailed logging in KMS log for the authentication failure of proxy user"
"""Weiqing Yang (JIRA)"" <jira@apache.org>","Sun, 21 Aug 2016 05:32:20 +0000 (UTC)","[jira] [Created] (HADOOP-13527) Add Spark as one of the users in the LimitedPrivate scope"
"Steve Loughran <stevel@hortonworks.com>","Sun, 21 Aug 2016 09:56:44 +0000","Re: adding contributor roles timing out again"
"Chris Nauroth <cnauroth@hortonworks.com>","Sun, 21 Aug 2016 13:38:03 +0000","Re: adding contributor roles timing out again"
"""Chris Nauroth (JIRA)"" <jira@apache.org>","Sun, 21 Aug 2016 14:19:20 +0000 (UTC)","[jira] [Created] (HADOOP-13528) Define acceptable grammar for values of caller context and enforce validation in code."
"Apache Jenkins Server <jenkins@builds.apache.org>","Sun, 21 Aug 2016 14:29:12 +0000 (UTC)","Apache Hadoop qbt Report: trunk+JDK8 on Linux/x86"
"Zhihai Xu <zhihaixu2012@gmail.com>","Sun, 21 Aug 2016 17:16:35 -0700","Re: [VOTE] Release Apache Hadoop 2.7.3 RC2"
"""Genmao Yu (JIRA)"" <jira@apache.org>","Mon, 22 Aug 2016 01:05:20 +0000 (UTC)","[jira] [Created] (HADOOP-13529) Do some code refactoring"
"Xiao Chen <xiao@cloudera.com>","Sun, 21 Aug 2016 18:19:28 -0700","Re: adding contributor roles timing out again"
"Rohith Sharma K S <ksrohithsharma@gmail.com>","Mon, 22 Aug 2016 07:24:44 +0530","Re: [VOTE] Release Apache Hadoop 2.7.3 RC2"
"Chris Nauroth <cnauroth@hortonworks.com>","Mon, 22 Aug 2016 04:07:37 +0000","Re: adding contributor roles timing out again"
"""Adrian Muraru (JIRA)"" <jira@apache.org>","Mon, 22 Aug 2016 05:01:20 +0000 (UTC)","[jira] [Created] (HADOOP-13530) Upgrade S3 fs.s3.buffer.dir to support multi directories"
"Weiqing Yang <wyang@hortonworks.com>","Mon, 22 Aug 2016 08:20:12 +0000","Re: adding contributor roles timing out again"
"""Steve Loughran (JIRA)"" <jira@apache.org>","Mon, 22 Aug 2016 08:51:20 +0000 (UTC)","[jira] [Resolved] (HADOOP-13530) Upgrade S3 fs.s3.buffer.dir to support multi directories"
"""Steve Loughran (JIRA)"" <jira@apache.org>","Mon, 22 Aug 2016 08:55:21 +0000 (UTC)","[jira] [Created] (HADOOP-13531) S3A output streams to share a single LocalDirAllocator for round-robin drive use"
"Brahma Reddy Battula <brahmareddy.battula@huawei.com>","Mon, 22 Aug 2016 13:19:27 +0000","RE: [VOTE] Release Apache Hadoop 2.7.3 RC2"
"Apache Jenkins Server <jenkins@builds.apache.org>","Mon, 22 Aug 2016 14:48:16 +0000 (UTC)","Apache Hadoop qbt Report: trunk+JDK8 on Linux/x86"
"Allen Wittenauer <aw@effectivemachines.com>","Mon, 22 Aug 2016 08:55:20 -0700","Re: Merge IPv6"
"Vinod Kumar Vavilapalli <vinodkv@apache.org>","Mon, 22 Aug 2016 09:11:23 -0700","Re: [VOTE] Release Apache Hadoop 2.7.3 RC2"
"""Albert Chu (JIRA)"" <jira@apache.org>","Mon, 22 Aug 2016 17:13:20 +0000 (UTC)","[jira] [Created] (HADOOP-13532) Fix typo in hadoop_connect_to_hosts error message"
"Jason Lowe <jlowe@yahoo-inc.com.INVALID>","Mon, 22 Aug 2016 18:25:08 +0000 (UTC)","Re: [VOTE] Release Apache Hadoop 2.7.3 RC2"
"Chris Trezzo <ctrezzo@gmail.com>","Mon, 22 Aug 2016 15:20:22 -0700","Re: adding contributor roles timing out again"
"""Albert Chu (JIRA)"" <jira@apache.org>","Tue, 23 Aug 2016 00:42:20 +0000 (UTC)","[jira] [Created] (HADOOP-13533) User cannot set empty HADOOP_SSH_OPTS environment variable option"
"Chris Nauroth <cnauroth@hortonworks.com>","Tue, 23 Aug 2016 06:05:44 +0000","Re: adding contributor roles timing out again"
"Apache Jenkins Server <jenkins@builds.apache.org>","Tue, 23 Aug 2016 14:24:19 +0000 (UTC)","Apache Hadoop qbt Report: trunk+JDK8 on Linux/x86"
"Steve Loughran <stevel@hortonworks.com>","Tue, 23 Aug 2016 14:59:58 +0000","Re: [VOTE] Release Apache Hadoop 2.7.3 RC2"
"""Wei-Chiu Chuang (JIRA)"" <jira@apache.org>","Tue, 23 Aug 2016 15:07:20 +0000 (UTC)","[jira] [Created] (HADOOP-13535) Add jetty6 acceptor startup issue workaround to branch-2"
"""Masatake Iwasaki (JIRA)"" <jira@apache.org>","Tue, 23 Aug 2016 15:13:21 +0000 (UTC)","[jira] [Resolved] (HADOOP-13497) fix wrong command in CredentialProviderAPI.md"
"Sangjin Lee <sjlee@apache.org>","Tue, 23 Aug 2016 08:41:16 -0700","Re: [DISCUSS] Release cadence and EOL"
"Karthik Kambatla <kasha@cloudera.com>","Tue, 23 Aug 2016 09:33:39 -0700","Re: [DISCUSS] Release cadence and EOL"
"Chris Trezzo <ctrezzo@gmail.com>","Tue, 23 Aug 2016 10:00:38 -0700","Re: adding contributor roles timing out again"
"Sunil Govind <sunil.govind@gmail.com>","Tue, 23 Aug 2016 17:33:58 +0000","Re: [VOTE] Release Apache Hadoop 2.7.3 RC2"
"Xuan Gong <xgong@hortonworks.com>","Tue, 23 Aug 2016 18:26:12 +0000","Re: [VOTE] Release Apache Hadoop 2.7.3 RC2"
"""Elliott Clark (JIRA)"" <jira@apache.org>","Tue, 23 Aug 2016 18:41:21 +0000 (UTC)","[jira] [Created] (HADOOP-13536) Clean up code"
"Eric Badger <ebadger@yahoo-inc.com.INVALID>","Tue, 23 Aug 2016 19:15:11 +0000 (UTC)","Re: [VOTE] Release Apache Hadoop 2.7.3 RC2"
"Naganarasimha Garla <naganarasimha_gr@apache.org>","Wed, 24 Aug 2016 01:05:59 +0530","Re: [VOTE] Release Apache Hadoop 2.7.3 RC2"
"""Daryn Sharp (JIRA)"" <jira@apache.org>","Tue, 23 Aug 2016 20:53:21 +0000 (UTC)","[jira] [Created] (HADOOP-13537) Support external calls in the RPC call queue"
"""Yiqun Lin (JIRA)"" <jira@apache.org>","Wed, 24 Aug 2016 00:35:20 +0000 (UTC)","[jira] [Created] (HADOOP-13538) Deprecate getInstance and initiate methods with Path in TrashPolicy"
"""Xiao Chen (JIRA)"" <jira@apache.org>","Wed, 24 Aug 2016 05:05:22 +0000 (UTC)","[jira] [Created] (HADOOP-13539) KMS's zookeeper-based secret manager should be consistent when failed to remove node"
"Akira Ajisaka <ajisakaa@oss.nttdata.co.jp>","Wed, 24 Aug 2016 14:16:40 +0900","Re: adding contributor roles timing out again"
"Tim Broberg <tbroberg@yahoo.com.INVALID>","Wed, 24 Aug 2016 11:18:04 +0000 (UTC)","dw: (1)"
"""Steve Loughran (JIRA)"" <jira@apache.org>","Wed, 24 Aug 2016 12:21:20 +0000 (UTC)","[jira] [Created] (HADOOP-13540) improve section on troubleshooting s3a auth problems"
"""Steve Loughran (JIRA)"" <jira@apache.org>","Wed, 24 Aug 2016 13:53:20 +0000 (UTC)","[jira] [Created] (HADOOP-13541) explicitly declare the Joda time version S3A depends on"
"Apache Jenkins Server <jenkins@builds.apache.org>","Wed, 24 Aug 2016 14:52:32 +0000 (UTC)","Apache Hadoop qbt Report: trunk+JDK8 on Linux/x86"
"""Renan Vicente Gomes da Silva (JIRA)"" <jira@apache.org>","Wed, 24 Aug 2016 16:30:21 +0000 (UTC)","[jira] [Created] (HADOOP-13542) Immutable Configuration"
"""Vinod Kumar Vavilapalli (JIRA)"" <jira@apache.org>","Wed, 24 Aug 2016 19:39:20 +0000 (UTC)","[jira] [Created] (HADOOP-13543) [Umbrella] Analyse 2.8.0 and 3.0.0-alpha1 jdiff reports and fix any issues"
"""Vinod Kumar Vavilapalli (JIRA)"" <jira@apache.org>","Wed, 24 Aug 2016 19:46:22 +0000 (UTC)","[jira] [Created] (HADOOP-13544) JDiff reports unncessarily show unannotated APIs and cause confusion while our javadocs only show annotated and public APIs"
"""Giovanni Matteo Fumarola (JIRA)"" <jira@apache.org>","Wed, 24 Aug 2016 20:06:20 +0000 (UTC)","[jira] [Created] (HADOOP-13545) Upgrade HSQLDB to 2.3.4"
"""Wangda Tan (JIRA)"" <jira@apache.org>","Wed, 24 Aug 2016 20:41:21 +0000 (UTC)","[jira] [Resolved] (HADOOP-12516) jdiff fails with error 'duplicate comment id' about MetricsSystem.register_changed"
"""Xiaobing Zhou (JIRA)"" <jira@apache.org>","Wed, 24 Aug 2016 22:14:20 +0000 (UTC)","[jira] [Created] (HADOOP-13546) Have TryOnceThenFail implement hashCode and equals"
"Wangda Tan <wheeleast@gmail.com>","Wed, 24 Aug 2016 22:30:52 -0700","Re: [VOTE] Release Apache Hadoop 2.7.3 RC2"
"Apache Jenkins Server <jenkins@builds.apache.org>","Thu, 25 Aug 2016 14:39:57 +0000 (UTC)","Apache Hadoop qbt Report: trunk+JDK8 on Linux/x86"
"""Daryn Sharp (JIRA)"" <jira@apache.org>","Thu, 25 Aug 2016 15:13:21 +0000 (UTC)","[jira] [Created] (HADOOP-13547) Optimize IPC client protobuf decoding"
"""Wei-Chiu Chuang (JIRA)"" <jira@apache.org>","Thu, 25 Aug 2016 15:51:21 +0000 (UTC)","[jira] [Created] (HADOOP-13548) Remove recursive dependencies of credential providers in LdapGroupsMapping"
"""Brian Loss (JIRA)"" <jira@apache.org>","Thu, 25 Aug 2016 16:18:21 +0000 (UTC)","[jira] [Resolved] (HADOOP-10934) AbstractCounters.readFields doesn't clear ""other"" groups"
"""Daryn Sharp (JIRA)"" <jira@apache.org>","Thu, 25 Aug 2016 17:20:20 +0000 (UTC)","[jira] [Created] (HADOOP-13549) Eliminate intermediate buffer for server-side PB encoding"
"Andrew Wang <andrew.wang@cloudera.com>","Thu, 25 Aug 2016 11:44:07 -0700","Re: Setting JIRA fix versions for 3.0.0 releases"
"Vinod Kumar Vavilapalli <vinodkv@apache.org>","Thu, 25 Aug 2016 11:57:50 -0700","Re: [VOTE] Release Apache Hadoop 2.7.3 RC2"
"xeon Mailinglist <xeonmailinglist@gmail.com>","Thu, 25 Aug 2016 20:18:14 +0100","What is the class that launches the reducers?"
"xeon Mailinglist <xeonmailinglist@gmail.com>","Thu, 25 Aug 2016 21:18:09 +0100","Re: What is the class that launches the reducers?"
"Haibo Chen <haibochen@cloudera.com>","Thu, 25 Aug 2016 14:12:12 -0700","Re: What is the class that launches the reducers?"
"xeon Mailinglist <xeonmailinglist@gmail.com>","Fri, 26 Aug 2016 00:10:02 +0100","Re: What is the class that launches the reducers?"
"Haibo Chen <haibochen@cloudera.com>","Thu, 25 Aug 2016 16:36:19 -0700","Re: What is the class that launches the reducers?"
"Andrew Wang <andrew.wang@cloudera.com>","Thu, 25 Aug 2016 17:06:53 -0700","Re: Setting JIRA fix versions for 3.0.0 releases"
"Daniel Templeton <daniel@cloudera.com>","Thu, 25 Aug 2016 18:07:29 -0700","Re: What is the class that launches the reducers?"
"xeon Mailinglist <xeonmailinglist@gmail.com>","Fri, 26 Aug 2016 07:07:20 +0100","Re: What is the class that launches the reducers?"
"Apache Jenkins Server <jenkins@builds.apache.org>","Fri, 26 Aug 2016 14:55:44 +0000 (UTC)","Apache Hadoop qbt Report: trunk+JDK8 on Linux/x86"
"Allen Wittenauer <aw@effectivemachines.com>","Fri, 26 Aug 2016 10:30:29 -0700","Re: Apache Hadoop qbt Report: trunk+JDK8 on Linux/x86"
"Haibo Chen <haibochen@cloudera.com>","Fri, 26 Aug 2016 10:50:05 -0700","Re: What is the class that launches the reducers?"
"""Steve Loughran (JIRA)"" <jira@apache.org>","Fri, 26 Aug 2016 18:02:20 +0000 (UTC)","[jira] [Created] (HADOOP-13550) Azure threaded deleter logs too much at info"
"""Steve Loughran (JIRA)"" <jira@apache.org>","Fri, 26 Aug 2016 20:50:20 +0000 (UTC)","[jira] [Created] (HADOOP-13551) hook up AwsSdkMetrics to hadoop metrics"
"""Steve Loughran (JIRA)"" <jira@apache.org>","Fri, 26 Aug 2016 21:03:20 +0000 (UTC)","[jira] [Created] (HADOOP-13553) hook up AwsSdkMetrics to hadoop metrics"
"""Jason Lowe (JIRA)"" <jira@apache.org>","Fri, 26 Aug 2016 21:03:20 +0000 (UTC)","[jira] [Created] (HADOOP-13552) RetryInvocationHandler logs all remote exceptions"
"Andrew Wang <andrew.wang@cloudera.com>","Fri, 26 Aug 2016 18:10:24 -0700","Re: [VOTE] Release Apache Hadoop 2.7.3 RC0"
"""Allen Wittenauer (JIRA)"" <jira@apache.org>","Sat, 27 Aug 2016 02:37:20 +0000 (UTC)","[jira] [Created] (HADOOP-13554) Add an equivalent of hadoop_subcmd_opts for secure opts"
"""Jitendra Nath Pandey (JIRA)"" <jira@apache.org>","Sat, 27 Aug 2016 04:51:20 +0000 (UTC)","[jira] [Created] (HADOOP-13555) ConcurrentModificationException in Configuration#iterator"
"Apache Jenkins Server <jenkins@builds.apache.org>","Sat, 27 Aug 2016 12:07:49 +0000 (UTC)","Apache Hadoop qbt Report: trunk+JDK8 on Linux/x86"
"""Steve Loughran (JIRA)"" <jira@apache.org>","Sat, 27 Aug 2016 12:34:20 +0000 (UTC)","[jira] [Resolved] (HADOOP-13553) hook up AwsSdkMetrics to hadoop metrics"
"Steve Loughran <stevel@hortonworks.com>","Sun, 28 Aug 2016 11:27:23 +0000","Fwd: jdk 9 early access"
"Rosenfeld Richard E <dweller@dwellersoul.com>","Sun, 28 Aug 2016 14:30:33 +0300","new work"
"Kristene Chappell <dweller@dwellersoul.com>","Sun, 28 Aug 2016 14:30:36 +0300","i found the stuff"
"Apache Jenkins Server <jenkins@builds.apache.org>","Sun, 28 Aug 2016 14:39:47 +0000 (UTC)","Apache Hadoop qbt Report: trunk+JDK8 on Linux/x86"
"""Larry McCay (JIRA)"" <jira@apache.org>","Sun, 28 Aug 2016 16:52:20 +0000 (UTC)","[jira] [Created] (HADOOP-13556) Change Configuration.getPropsWithPrefix to use getProps instead of iterator"
"Allen Wittenauer <aw@effectivemachines.com>","Sun, 28 Aug 2016 10:29:30 -0700","Re: jdk 9 early access"
"Apache Jenkins Server <jenkins@builds.apache.org>","Mon, 29 Aug 2016 14:23:12 +0000 (UTC)","Apache Hadoop qbt Report: trunk+JDK8 on Linux/x86"
"""Alejandro Abdelnur (JIRA)"" <jira@apache.org>","Mon, 29 Aug 2016 14:31:20 +0000 (UTC)","[jira] [Created] (HADOOP-13558) UserGroupInformation created from a Subject incorrectly tries to renew the Keberos ticket"
"""Alejandro Abdelnur (JIRA)"" <jira@apache.org>","Mon, 29 Aug 2016 14:31:20 +0000 (UTC)","[jira] [Created] (HADOOP-13557) UserGroupInformation created from a Subject incorrectly tries to renew the Keberos ticket"
"""Aaron Fabbri (JIRA)"" <jira@apache.org>","Mon, 29 Aug 2016 17:02:20 +0000 (UTC)","[jira] [Created] (HADOOP-13559) Remove close() within try-with-resources"
"""Xiao Chen (JIRA)"" <jira@apache.org>","Mon, 29 Aug 2016 17:20:21 +0000 (UTC)","[jira] [Resolved] (HADOOP-13557) UserGroupInformation created from a Subject incorrectly tries to renew the Keberos ticket"
"Andrew Wang <andrew.wang@cloudera.com>","Mon, 29 Aug 2016 14:18:17 -0700","Turning off JIRA notifications temporarily at ~6PM PDT for bulk JIRA fix version update"
"""Andrew Wang (JIRA)"" <jira@apache.org>","Mon, 29 Aug 2016 22:18:20 +0000 (UTC)","[jira] [Reopened] (HADOOP-11874) s3a can throw spurious IOEs on close()"
"""Andrew Wang (JIRA)"" <jira@apache.org>","Mon, 29 Aug 2016 22:19:20 +0000 (UTC)","[jira] [Resolved] (HADOOP-11874) s3a can throw spurious IOEs on close()"
"""Andrew Wang (JIRA)"" <jira@apache.org>","Mon, 29 Aug 2016 22:24:20 +0000 (UTC)","[jira] [Resolved] (HADOOP-12319) S3AFastOutputStream has no ability to apply backpressure"
"""Andrew Wang (JIRA)"" <jira@apache.org>","Mon, 29 Aug 2016 22:24:20 +0000 (UTC)","[jira] [Reopened] (HADOOP-12319) S3AFastOutputStream has no ability to apply backpressure"
"""Andrew Wang (JIRA)"" <jira@apache.org>","Mon, 29 Aug 2016 22:28:20 +0000 (UTC)","[jira] [Reopened] (HADOOP-12420) While trying to access Amazon S3 through hadoop-aws(Spark basically) I was getting Exception in thread ""main"" java.lang.NoSuchMethodError: com.amazonaws.services.s3.transfer.TransferManagerConfiguration.setMultipartUploadThreshold(I)V"
"""Andrew Wang (JIRA)"" <jira@apache.org>","Mon, 29 Aug 2016 22:28:20 +0000 (UTC)","[jira] [Resolved] (HADOOP-12420) While trying to access Amazon S3 through hadoop-aws(Spark basically) I was getting Exception in thread ""main"" java.lang.NoSuchMethodError: com.amazonaws.services.s3.transfer.TransferManagerConfiguration.setMultipartUploadThreshold(I)V"
"""Andrew Wang (JIRA)"" <jira@apache.org>","Mon, 29 Aug 2016 22:34:21 +0000 (UTC)","[jira] [Resolved] (HADOOP-12762) task: null java.lang.unsupportedoperationexception: this is supposed to be overridden by subclasses."
"""Andrew Wang (JIRA)"" <jira@apache.org>","Mon, 29 Aug 2016 23:19:20 +0000 (UTC)","[jira] [Reopened] (HADOOP-12976) s3a toString to be meaningful in logs"
"""Andrew Wang (JIRA)"" <jira@apache.org>","Mon, 29 Aug 2016 23:20:20 +0000 (UTC)","[jira] [Resolved] (HADOOP-12976) s3a toString to be meaningful in logs"
"""Andrew Wang (JIRA)"" <jira@apache.org>","Mon, 29 Aug 2016 23:20:21 +0000 (UTC)","[jira] [Reopened] (HADOOP-12997) s3a to pass PositionedReadable contract tests, improve readFully perf."
"""Andrew Wang (JIRA)"" <jira@apache.org>","Mon, 29 Aug 2016 23:20:21 +0000 (UTC)","[jira] [Resolved] (HADOOP-12997) s3a to pass PositionedReadable contract tests, improve readFully perf."
"""Andrew Wang (JIRA)"" <jira@apache.org>","Mon, 29 Aug 2016 23:22:21 +0000 (UTC)","[jira] [Resolved] (HADOOP-13286) add a S3A scale test to do gunzip and linecount"
"""Andrew Wang (JIRA)"" <jira@apache.org>","Mon, 29 Aug 2016 23:22:21 +0000 (UTC)","[jira] [Reopened] (HADOOP-13286) add a S3A scale test to do gunzip and linecount"
"Andrew Wang <andrew.wang@cloudera.com>","Mon, 29 Aug 2016 17:56:36 -0700","Re: Turning off JIRA notifications temporarily at ~6PM PDT for bulk JIRA fix version update"
"Andrew Wang <andrew.wang@cloudera.com>","Mon, 29 Aug 2016 18:46:15 -0700","Re: Turning off JIRA notifications temporarily at ~6PM PDT for bulk JIRA fix version update"
"Andrew Wang <andrew.wang@cloudera.com>","Mon, 29 Aug 2016 18:57:09 -0700","[REMINDER] How to set fix versions when committing"
"Junping Du <jdu@hortonworks.com>","Tue, 30 Aug 2016 11:30:50 +0000","Re: [REMINDER] How to set fix versions when committing"
"""Steve Loughran (JIRA)"" <jira@apache.org>","Tue, 30 Aug 2016 12:32:21 +0000 (UTC)","[jira] [Created] (HADOOP-13560) make sure s3 blob >5GB files copies, with metadata"
"""Steve Loughran (JIRA)"" <jira@apache.org>","Tue, 30 Aug 2016 12:32:22 +0000 (UTC)","[jira] [Created] (HADOOP-13561) make sure s3 blob >5GB files copies, with metadata"
"""Allen Wittenauer (JIRA)"" <jira@apache.org>","Tue, 30 Aug 2016 14:49:21 +0000 (UTC)","[jira] [Created] (HADOOP-13562) Change hadoop_subcommand_opts to use only uppercase"
"Rich Bowen <rbowen@apache.org>","Tue, 30 Aug 2016 11:03:41 -0400","ApacheCon Seville CFP closes September 9th"
"Apache Jenkins Server <jenkins@builds.apache.org>","Tue, 30 Aug 2016 15:06:05 +0000 (UTC)","Apache Hadoop qbt Report: trunk+JDK8 on Linux/x86"
"Andrew Wang <andrew.wang@cloudera.com>","Tue, 30 Aug 2016 08:51:20 -0700","[VOTE] Release Apache Hadoop 3.0.0-alpha1 RC0"
"Zhe Zhang <zhz@apache.org>","Tue, 30 Aug 2016 17:17:07 +0000","Re: [VOTE] Release Apache Hadoop 3.0.0-alpha1 RC0"
"Andrew Wang <andrew.wang@cloudera.com>","Tue, 30 Aug 2016 10:37:11 -0700","Re: [REMINDER] How to set fix versions when committing"
"""Allen Wittenauer (JIRA)"" <jira@apache.org>","Tue, 30 Aug 2016 17:49:21 +0000 (UTC)","[jira] [Created] (HADOOP-13563) hadoop_subcommand_opts should print name not actual content during debug"
"Andrew Wang <andrew.wang@cloudera.com>","Tue, 30 Aug 2016 10:57:32 -0700","Re: [VOTE] Release Apache Hadoop 3.0.0-alpha1 RC0"
"Allen Wittenauer <aw@effectivemachines.com>","Tue, 30 Aug 2016 11:12:05 -0700","Re: [VOTE] Release Apache Hadoop 3.0.0-alpha1 RC0"
"""Allen Wittenauer (JIRA)"" <jira@apache.org>","Tue, 30 Aug 2016 18:51:20 +0000 (UTC)","[jira] [Reopened] (HADOOP-13356) Add a function to handle command_subcommand_OPTS"
"""Allen Wittenauer (JIRA)"" <jira@apache.org>","Tue, 30 Aug 2016 19:10:20 +0000 (UTC)","[jira] [Reopened] (HADOOP-13357) Modify common to use hadoop_subcommand_opts"
"Eric Badger <ebadger@yahoo-inc.com.INVALID>","Tue, 30 Aug 2016 21:00:21 +0000 (UTC)","Re: [VOTE] Release Apache Hadoop 3.0.0-alpha1 RC0"
"Eric Badger <ebadger@yahoo-inc.com.INVALID>","Tue, 30 Aug 2016 21:06:52 +0000 (UTC)","Re: [VOTE] Release Apache Hadoop 3.0.0-alpha1 RC0"
"Allen Wittenauer <aw@effectivemachines.com>","Tue, 30 Aug 2016 14:11:52 -0700","Re: [VOTE] Release Apache Hadoop 3.0.0-alpha1 RC0"
"Andrew Wang <andrew.wang@cloudera.com>","Tue, 30 Aug 2016 14:12:45 -0700","Re: [VOTE] Release Apache Hadoop 3.0.0-alpha1 RC0"
"Eric Badger <ebadger@yahoo-inc.com.INVALID>","Tue, 30 Aug 2016 21:20:27 +0000 (UTC)","Re: [VOTE] Release Apache Hadoop 3.0.0-alpha1 RC0"
"Allen Wittenauer <aw@effectivemachines.com>","Tue, 30 Aug 2016 14:26:02 -0700","Re: [VOTE] Release Apache Hadoop 3.0.0-alpha1 RC0"
"""Allen Wittenauer (JIRA)"" <jira@apache.org>","Tue, 30 Aug 2016 22:04:20 +0000 (UTC)","[jira] [Created] (HADOOP-13564) modify mapred to use hadoop_subcommand_opts"
"Zhe Zhang <zhz@apache.org>","Tue, 30 Aug 2016 22:12:50 +0000","Re: [VOTE] Release Apache Hadoop 3.0.0-alpha1 RC0"
"""Steve Loughran (JIRA)"" <jira@apache.org>","Wed, 31 Aug 2016 12:51:21 +0000 (UTC)","[jira] [Created] (HADOOP-13566) NPE in S3AFastOutputStream.write"
"""Steve Loughran (JIRA)"" <jira@apache.org>","Wed, 31 Aug 2016 13:08:20 +0000 (UTC)","[jira] [Created] (HADOOP-13567) S3AFileSystem to override getStoragetStatistics() and so serve up its statistics"
"""Steve Loughran (JIRA)"" <jira@apache.org>","Wed, 31 Aug 2016 13:16:22 +0000 (UTC)","[jira] [Created] (HADOOP-13568) S3AFastOutputStream to implement flush()"
"Apache Jenkins Server <jenkins@builds.apache.org>","Wed, 31 Aug 2016 14:29:00 +0000 (UTC)","Apache Hadoop qbt Report: trunk+JDK8 on Linux/x86"
"Sean Busbey <busbey@cloudera.com>","Wed, 31 Aug 2016 09:31:29 -0500","Re: [VOTE] Release Apache Hadoop 3.0.0-alpha1 RC0"
"""Steve Loughran (JIRA)"" <jira@apache.org>","Wed, 31 Aug 2016 15:32:22 +0000 (UTC)","[jira] [Created] (HADOOP-13569) S3AFastOutputStream to take ProgressListener in file create()"
"Allen Wittenauer <aw@effectivemachines.com>","Wed, 31 Aug 2016 09:22:49 -0700","[DISCUSS] HADOOP-13341 Merge Request"
"""Aaron T. Myers"" <atm@cloudera.com>","Wed, 31 Aug 2016 11:14:18 -0700","Re: [VOTE] Release Apache Hadoop 3.0.0-alpha1 RC0"
"""Gangumalla, Uma"" <uma.gangumalla@intel.com>","Wed, 31 Aug 2016 18:46:59 +0000","Re: [VOTE] Release Apache Hadoop 3.0.0-alpha1 RC0"
"Andrew Wang <andrew.wang@cloudera.com>","Wed, 31 Aug 2016 14:25:52 -0700","Re: Yes/No newbie question on contributing"
