"Developer","Date","Subject"
"John Zhuge <jzhuge@cloudera.com>","Wed, 31 Aug 2016 17:49:27 -0700","Re: [VOTE] Release Apache Hadoop 3.0.0-alpha1 RC0"
"Rakesh Radhakrishnan <rakeshradr@gmail.com>","Thu, 1 Sep 2016 09:55:00 +0530","Re: [VOTE] Release Apache Hadoop 3.0.0-alpha1 RC0"
"""Chen He (JIRA)"" <jira@apache.org>","Thu, 1 Sep 2016 04:45:20 +0000 (UTC)","[jira] [Created] (HADOOP-13570) Hadoop swift Driver should use new Apache httpclient"
"Xiao Chen <xiao@cloudera.com>","Wed, 31 Aug 2016 23:06:38 -0700","Re: [VOTE] Release Apache Hadoop 3.0.0-alpha1 RC0"
"""Eric Badger (JIRA)"" <jira@apache.org>","Thu, 1 Sep 2016 13:48:20 +0000 (UTC)","[jira] [Created] (HADOOP-13571) ServerSocketUtil.getPort() should use loopback address, not 0.0.0.0"
"Apache Jenkins Server <jenkins@builds.apache.org>","Thu, 1 Sep 2016 15:02:22 +0000 (UTC)","Apache Hadoop qbt Report: trunk+JDK8 on Linux/x86"
"""Steve Loughran (JIRA)"" <jira@apache.org>","Thu, 1 Sep 2016 16:56:21 +0000 (UTC)","[jira] [Resolved] (HADOOP-13569) S3AFastOutputStream to take ProgressListener in file create()"
"""Marcin Zukowski (JIRA)"" <jira@apache.org>","Thu, 1 Sep 2016 17:47:22 +0000 (UTC)","[jira] [Created] (HADOOP-13572) fs.s3native.mkdirs does not work if the user is only authorized to a subdirectory"
"""Steve Loughran (JIRA)"" <jira@apache.org>","Thu, 1 Sep 2016 18:21:20 +0000 (UTC)","[jira] [Resolved] (HADOOP-13572) fs.s3native.mkdirs does not work if the user is only authorized to a subdirectory"
"""Chen He (JIRA)"" <jira@apache.org>","Thu, 1 Sep 2016 18:39:21 +0000 (UTC)","[jira] [Resolved] (HADOOP-13570) Hadoop Swift driver should use new Apache httpclient"
"""Aaron Fabbri (JIRA)"" <jira@apache.org>","Thu, 1 Sep 2016 21:53:21 +0000 (UTC)","[jira] [Created] (HADOOP-13573) S3Guard: create basic contract tests for MetadataStore implementations"
"Andrew Wang <andrew.wang@cloudera.com>","Thu, 1 Sep 2016 14:57:50 -0700","Re: [VOTE] Release Apache Hadoop 3.0.0-alpha1 RC0"
"Chen He <airbots@gmail.com>","Thu, 1 Sep 2016 15:01:57 -0700","Re: [VOTE] Release Apache Hadoop 3.0.0-alpha1 RC0"
"Allen Wittenauer <aw@effectivemachines.com>","Thu, 1 Sep 2016 15:18:29 -0700","Re: [VOTE] Release Apache Hadoop 3.0.0-alpha1 RC0"
"Allen Wittenauer <aw@effectivemachines.com>","Thu, 1 Sep 2016 15:21:12 -0700","Re: [VOTE] Release Apache Hadoop 3.0.0-alpha1 RC0"
"Andrew Wang <andrew.wang@cloudera.com>","Thu, 1 Sep 2016 15:39:03 -0700","Re: [VOTE] Release Apache Hadoop 3.0.0-alpha1 RC0"
"Aaron Fabbri <fabbri@cloudera.com>","Thu, 1 Sep 2016 16:31:01 -0700","Re: [VOTE] Release Apache Hadoop 3.0.0-alpha1 RC0"
"Arun Suresh <asuresh@apache.org>","Thu, 1 Sep 2016 20:32:47 -0700","Re: [VOTE] Release Apache Hadoop 3.0.0-alpha1 RC0"
"""Alex Zolotko (JIRA)"" <jira@apache.org>","Fri, 2 Sep 2016 08:18:20 +0000 (UTC)","[jira] [Created] (HADOOP-13574) Unnecessary file existence check causes problems with S3"
"""Jacek Laskowski (JIRA)"" <jira@apache.org>","Fri, 2 Sep 2016 09:49:21 +0000 (UTC)","[jira] [Created] (HADOOP-13575) Website shows incorrect 25 January, 2016 as the release date for 2.7.3"
"Kuhu Shukla <kshukla@yahoo-inc.com.INVALID>","Fri, 2 Sep 2016 14:56:06 +0000 (UTC)","Re: [VOTE] Release Apache Hadoop 3.0.0-alpha1 RC0"
"Apache Jenkins Server <jenkins@builds.apache.org>","Fri, 2 Sep 2016 15:27:05 +0000 (UTC)","Apache Hadoop qbt Report: trunk+JDK8 on Linux/x86"
"""Sebb (JIRA)"" <jira@apache.org>","Fri, 2 Sep 2016 15:58:20 +0000 (UTC)","[jira] [Created] (HADOOP-13576) Old Hadoop user mailing lists still exist"
"Tsuyoshi Ozawa <ozawa@apache.org>","Sat, 3 Sep 2016 01:53:16 +0900","Re: [VOTE] Release Apache Hadoop 3.0.0-alpha1 RC0"
"Tsuyoshi Ozawa <ozawa@apache.org>","Sat, 3 Sep 2016 01:54:28 +0900","Re: [VOTE] Release Apache Hadoop 3.0.0-alpha1 RC0"
"""Sebb (JIRA)"" <jira@apache.org>","Fri, 2 Sep 2016 23:02:20 +0000 (UTC)","[jira] [Created] (HADOOP-13577) Download page should link the ASF mirrora for KEYS, sigs, hashes"
"""Zheng, Kai"" <kai.zheng@intel.com>","Fri, 2 Sep 2016 23:11:31 +0000","RE: [VOTE] Release Apache Hadoop 3.0.0-alpha1 RC0"
"""churro morales (JIRA)"" <jira@apache.org>","Fri, 2 Sep 2016 23:23:20 +0000 (UTC)","[jira] [Created] (HADOOP-13578) Add Codec for ZStandard Compression"
"Apache Jenkins Server <jenkins@builds.apache.org>","Sat, 3 Sep 2016 15:15:11 +0000 (UTC)","Apache Hadoop qbt Report: trunk+JDK8 on Linux/x86"
"Tsuyoshi Ozawa <ozawa@apache.org>","Sun, 4 Sep 2016 00:37:58 +0900","Re: [VOTE] Release Apache Hadoop 3.0.0-alpha1 RC0"
"Eric Payne <eric.payne1000@yahoo.com.INVALID>","Sun, 4 Sep 2016 00:06:56 +0000 (UTC)","Re: [VOTE] Release Apache Hadoop 3.0.0-alpha1 RC0"
"Akira Ajisaka <ajisakaa@oss.nttdata.co.jp>","Sun, 4 Sep 2016 10:55:35 +0900","Re: [VOTE] Release Apache Hadoop 3.0.0-alpha1 RC0"
"Apache Jenkins Server <jenkins@builds.apache.org>","Sun, 4 Sep 2016 15:05:54 +0000 (UTC)","Apache Hadoop qbt Report: trunk+JDK8 on Linux/x86"
"Apache Jenkins Server <jenkins@builds.apache.org>","Mon, 5 Sep 2016 15:04:03 +0000 (UTC)","Apache Hadoop qbt Report: trunk+JDK8 on Linux/x86"
"""Akira Ajisaka (JIRA)"" <jira@apache.org>","Tue, 6 Sep 2016 05:50:20 +0000 (UTC)","[jira] [Created] (HADOOP-13579) Fix source-level compatibility after HADOOP-11252"
"Apache Jenkins Server <jenkins@builds.apache.org>","Tue, 6 Sep 2016 16:16:17 +0000 (UTC)","Apache Hadoop qbt Report: trunk+JDK8 on Linux/x86"
"""Wei-Chiu Chuang (JIRA)"" <jira@apache.org>","Tue, 6 Sep 2016 16:29:20 +0000 (UTC)","[jira] [Created] (HADOOP-13580) If user is unauthorized, log ""unauthorized"" instead of ""Invalid signed text:"""
"Andrew Wang <andrew.wang@cloudera.com>","Tue, 6 Sep 2016 09:30:52 -0700","Re: [VOTE] Release Apache Hadoop 3.0.0-alpha1 RC0"
"""Chris Nauroth (JIRA)"" <jira@apache.org>","Tue, 6 Sep 2016 19:02:20 +0000 (UTC)","[jira] [Created] (HADOOP-13581) Expand FileSystem specification to describe differences between FileSystem and FileContext."
"""Xiao Chen (JIRA)"" <jira@apache.org>","Tue, 6 Sep 2016 22:14:21 +0000 (UTC)","[jira] [Created] (HADOOP-13582) Implement logExpireToken in ZKDelegationTokenSecretManager"
"""Andrew Wang (JIRA)"" <jira@apache.org>","Tue, 6 Sep 2016 23:32:20 +0000 (UTC)","[jira] [Created] (HADOOP-13583) Incorporate checkcompatibility script which runs Java API Compliance Checker"
"""shimingfei (JIRA)"" <jira@apache.org>","Wed, 7 Sep 2016 03:12:20 +0000 (UTC)","[jira] [Created] (HADOOP-13584) Merge HADOOP-12756 branch to latest trunk"
"""Steve Loughran (JIRA)"" <jira@apache.org>","Wed, 7 Sep 2016 11:13:20 +0000 (UTC)","[jira] [Created] (HADOOP-13585) shell rm command to not rename to ~/.Trash in object stores"
"""Steve Loughran (JIRA)"" <jira@apache.org>","Wed, 7 Sep 2016 12:36:20 +0000 (UTC)","[jira] [Created] (HADOOP-13586) Hadoop 3.0 doesn't build on windows"
"Steve Loughran <stevel@hortonworks.com>","Wed, 7 Sep 2016 12:38:48 +0000","Re: [VOTE] Release Apache Hadoop 3.0.0-alpha1 RC0"
"Allen Wittenauer <aw@effectivemachines.com>","Wed, 7 Sep 2016 06:44:56 -0700","[VOTE] Merge HADOOP-13341"
"Apache Jenkins Server <jenkins@builds.apache.org>","Wed, 7 Sep 2016 15:16:37 +0000 (UTC)","Apache Hadoop qbt Report: trunk+JDK8 on Linux/x86"
"""John Zhuge (JIRA)"" <jira@apache.org>","Wed, 7 Sep 2016 17:46:21 +0000 (UTC)","[jira] [Resolved] (HADOOP-13191) FileSystem#listStatus should not return null"
"""Zoran Dimitrijevic (JIRA)"" <jira@apache.org>","Wed, 7 Sep 2016 21:27:20 +0000 (UTC)","[jira] [Created] (HADOOP-13587) distcp.map.bandwidth.mb is overwritten even when -bandwidth flag isn't set"
"""Kai Zheng (JIRA)"" <jira@apache.org>","Wed, 7 Sep 2016 21:28:20 +0000 (UTC)","[jira] [Reopened] (HADOOP-13218) Migrate other Hadoop side tests to prepare for removing WritableRPCEngine"
"Akira Ajisaka <ajisakaa@oss.nttdata.co.jp>","Thu, 8 Sep 2016 11:53:55 +0900","Re: adding contributor roles timing out again"
"""Eric Yang (JIRA)"" <jira@apache.org>","Thu, 8 Sep 2016 06:28:20 +0000 (UTC)","[jira] [Reopened] (HADOOP-13119) Web UI authorization error accessing /logs/ when Kerberos"
"Steve Loughran <stevel@hortonworks.com>","Thu, 8 Sep 2016 09:50:56 +0000","Re: [VOTE] Merge HADOOP-13341"
"Apache Jenkins Server <jenkins@builds.apache.org>","Thu, 8 Sep 2016 14:37:06 +0000 (UTC)","Apache Hadoop qbt Report: trunk+JDK8 on Linux/x86"
"Allen Wittenauer <aw@effectivemachines.com>","Thu, 8 Sep 2016 08:08:58 -0700","Re: [VOTE] Merge HADOOP-13341"
"""Weiwei Yang (JIRA)"" <jira@apache.org>","Thu, 8 Sep 2016 15:16:20 +0000 (UTC)","[jira] [Created] (HADOOP-13588) ConfServlet doesn't set response content type based on accept header"
"""Andrew Wang (JIRA)"" <jira@apache.org>","Fri, 9 Sep 2016 01:27:20 +0000 (UTC)","[jira] [Resolved] (HADOOP-13575) Website shows incorrect 25 January, 2016 as the release date for 2.7.3"
"Patrick Hunt <dweller@dwellersoul.com>","Fri, 9 Sep 2016 05:13:29 +0300","I found it!"
"Tsuyoshi Ozawa <ozawa@apache.org>","Fri, 9 Sep 2016 14:42:01 +0900","About 2.6.5 and 2.7.4 release"
"Tsuyoshi Ozawa <ozawa@apache.org>","Fri, 9 Sep 2016 15:31:28 +0900","Re: About 2.6.5 and 2.7.4 release"
"Akira Ajisaka <ajisakaa@oss.nttdata.co.jp>","Fri, 9 Sep 2016 16:02:42 +0900","Re: About 2.6.5 and 2.7.4 release"
"Steve Loughran <stevel@hortonworks.com>","Fri, 9 Sep 2016 10:31:27 +0000","Re: [VOTE] Merge HADOOP-13341"
"Apache Jenkins Server <jenkins@builds.apache.org>","Fri, 9 Sep 2016 14:24:04 +0000 (UTC)","Apache Hadoop qbt Report: trunk+JDK8 on Linux/x86"
"Chris Trezzo <ctrezzo@gmail.com>","Fri, 9 Sep 2016 13:24:14 -0700","Re: [Release thread] 2.6.5 release activities"
"Anu Engineer <aengineer@hortonworks.com>","Fri, 9 Sep 2016 21:15:59 +0000","Re: [VOTE] Merge HADOOP-13341"
"""Chris Nauroth (JIRA)"" <jira@apache.org>","Fri, 9 Sep 2016 21:29:20 +0000 (UTC)","[jira] [Created] (HADOOP-13589) S3Guard: Allow execution of all S3A integration tests with S3Guard enabled."
"""Chris Nauroth (JIRA)"" <jira@apache.org>","Fri, 9 Sep 2016 21:32:20 +0000 (UTC)","[jira] [Resolved] (HADOOP-13450) S3Guard: Implement access policy providing strong consistency with S3 as source of truth."
"""Chris Nauroth (JIRA)"" <jira@apache.org>","Fri, 9 Sep 2016 21:32:20 +0000 (UTC)","[jira] [Resolved] (HADOOP-13451) S3Guard: Implement access policy using metadata store as source of truth."
"Allen Wittenauer <aw@effectivemachines.com>","Fri, 9 Sep 2016 15:06:56 -0700","Re: [VOTE] Merge HADOOP-13341"
"""Kihwal Lee (JIRA)"" <jira@apache.org>","Fri, 9 Sep 2016 22:32:22 +0000 (UTC)","[jira] [Resolved] (HADOOP-13425) IPC layer optimizations"
"Anu Engineer <aengineer@hortonworks.com>","Fri, 9 Sep 2016 22:52:32 +0000","Re: [VOTE] Merge HADOOP-13341"
"""Xiao Chen (JIRA)"" <jira@apache.org>","Sat, 10 Sep 2016 00:31:20 +0000 (UTC)","[jira] [Created] (HADOOP-13590) Retry until TGT expires even if the UGI renewal thread encountered exception"
"Chris Douglas <chris.douglas@gmail.com>","Fri, 9 Sep 2016 18:01:55 -0700","Re: [VOTE] Merge HADOOP-13341"
"""Genmao Yu (JIRA)"" <jira@apache.org>","Sat, 10 Sep 2016 03:01:20 +0000 (UTC)","[jira] [Created] (HADOOP-13591) issue about the logic of `directory` in Aliyun OSS"
"Apache Jenkins Server <jenkins@builds.apache.org>","Sat, 10 Sep 2016 14:45:45 +0000 (UTC)","Apache Hadoop qbt Report: trunk+JDK8 on Linux/x86"
"Apache Jenkins Server <jenkins@builds.apache.org>","Sun, 11 Sep 2016 15:21:40 +0000 (UTC)","Apache Hadoop qbt Report: trunk+JDK8 on Linux/x86"
"""Tsuyoshi Ozawa (JIRA)"" <jira@apache.org>","Mon, 12 Sep 2016 07:24:21 +0000 (UTC)","[jira] [Created] (HADOOP-13592) Outputs errors and warnings by checkstyle at compile time"
"""Yuanbo Liu (JIRA)"" <jira@apache.org>","Mon, 12 Sep 2016 08:00:36 +0000 (UTC)","[jira] [Created] (HADOOP-13593) `hadoop distcp -atomic` invokes improper host check while copying data from HDFS to Swift"
"""Tsuyoshi Ozawa (JIRA)"" <jira@apache.org>","Mon, 12 Sep 2016 09:28:20 +0000 (UTC)","[jira] [Created] (HADOOP-13594) findbugs warnings to block a build"
"Apache Jenkins Server <jenkins@builds.apache.org>","Mon, 12 Sep 2016 14:39:33 +0000 (UTC)","Apache Hadoop qbt Report: trunk+JDK8 on Linux/x86"
"Allen Wittenauer <aw@effectivemachines.com>","Mon, 12 Sep 2016 08:16:20 -0700","[RESULTS] Re: [VOTE] Merge HADOOP-13341"
"Ravi Prakash <ravihadoop@gmail.com>","Mon, 12 Sep 2016 12:30:32 -0700","Re: adding contributor roles timing out again"
"Sangjin Lee <sjlee@apache.org>","Mon, 12 Sep 2016 15:24:12 -0700","Re: [Release thread] 2.6.5 release activities"
"""Allen Wittenauer (JIRA)"" <jira@apache.org>","Mon, 12 Sep 2016 22:59:21 +0000 (UTC)","[jira] [Created] (HADOOP-13595) Rework hadoop_usage to be broken up by clients/daemons/etc."
"""Hao Chen (JIRA)"" <jira@apache.org>","Tue, 13 Sep 2016 03:08:20 +0000 (UTC)","[jira] [Created] (HADOOP-13596) Support to declare policy including a set of UI template, Policy Template, Context Variables"
"""John Zhuge (JIRA)"" <jira@apache.org>","Tue, 13 Sep 2016 05:10:20 +0000 (UTC)","[jira] [Created] (HADOOP-13597) Switch KMS to use Jetty"
"""Akira Ajisaka (JIRA)"" <jira@apache.org>","Tue, 13 Sep 2016 06:19:21 +0000 (UTC)","[jira] [Created] (HADOOP-13598) Add eol=lf for unix format files in .gitattributes"
"""Steve Loughran (JIRA)"" <jira@apache.org>","Tue, 13 Sep 2016 09:18:20 +0000 (UTC)","[jira] [Created] (HADOOP-13599) s3a close() to be non-synchronized, so avoid risk of deadlock on shutdown"
"Levi Nie <levinie001@gmail.com>","Tue, 13 Sep 2016 17:19:13 +0800","how about syncing namenode metadata to glusterfs?"
"""Steve Loughran (JIRA)"" <jira@apache.org>","Tue, 13 Sep 2016 11:16:22 +0000 (UTC)","[jira] [Created] (HADOOP-13600) S3a rename() to copy files in a directory in parallel"
"Zhe Zhang <zhe.zhang.research@gmail.com>","Tue, 13 Sep 2016 14:31:16 +0000","Re: how about syncing namenode metadata to glusterfs?"
"Apache Jenkins Server <jenkins@builds.apache.org>","Tue, 13 Sep 2016 14:31:17 +0000 (UTC)","Apache Hadoop qbt Report: trunk+JDK8 on Linux/x86"
"Allen Wittenauer <aw@effectivemachines.com>","Tue, 13 Sep 2016 07:38:23 -0700","Re: Apache Hadoop qbt Report: trunk+JDK8 on Linux/x86"
"""Mehran Hassani (JIRA)"" <jira@apache.org>","Tue, 13 Sep 2016 14:53:20 +0000 (UTC)","[jira] [Created] (HADOOP-13601) Typo in a log messages"
"""Tsuyoshi Ozawa (JIRA)"" <jira@apache.org>","Tue, 13 Sep 2016 15:46:21 +0000 (UTC)","[jira] [Created] (HADOOP-13602) Fix findbugs warning in hadoop-maven-plugin"
"""Shane Kumpf (JIRA)"" <jira@apache.org>","Tue, 13 Sep 2016 16:08:21 +0000 (UTC)","[jira] [Created] (HADOOP-13603) Remove package line length checkstyle rule"
"Andrew Wang <andrew.wang@cloudera.com>","Tue, 13 Sep 2016 10:46:16 -0700","Re: how about syncing namenode metadata to glusterfs?"
"""Henry Robinson (JIRA)"" <jira@apache.org>","Tue, 13 Sep 2016 17:55:22 +0000 (UTC)","[jira] [Created] (HADOOP-13604) Abort retry loop when RPC has an unrecoverable error"
"""Steve Loughran (JIRA)"" <jira@apache.org>","Tue, 13 Sep 2016 18:11:21 +0000 (UTC)","[jira] [Created] (HADOOP-13605) Clean up FileSystem javadocs, logging; improve diagnostics on FS load"
"""Steve Loughran (JIRA)"" <jira@apache.org>","Tue, 13 Sep 2016 18:47:21 +0000 (UTC)","[jira] [Created] (HADOOP-13606) swift FS to add a service load metadata file"
"Kihwal Lee <kihwal@yahoo-inc.com.INVALID>","Tue, 13 Sep 2016 19:54:40 +0000 (UTC)","Re: how about syncing namenode metadata to glusterfs?"
"""Chris Nauroth (JIRA)"" <jira@apache.org>","Tue, 13 Sep 2016 20:03:20 +0000 (UTC)","[jira] [Created] (HADOOP-13607) Specify and test contract for FileSystem#close."
"""Andrew Wang (JIRA)"" <jira@apache.org>","Tue, 13 Sep 2016 22:34:20 +0000 (UTC)","[jira] [Resolved] (HADOOP-7198) Hadoop defaults for web UI ports often fall smack in the middle of Linux ephemeral port range"
"""Hrishikesh Gadre (JIRA)"" <jira@apache.org>","Tue, 13 Sep 2016 23:06:22 +0000 (UTC)","[jira] [Created] (HADOOP-13608) DelegationTokenAuthenticationFilter doesn't provide the impersonator information"
"""Tsuyoshi Ozawa (JIRA)"" <jira@apache.org>","Tue, 13 Sep 2016 23:55:20 +0000 (UTC)","[jira] [Resolved] (HADOOP-13594) findbugs warnings to block a build"
"""Kai Zheng (JIRA)"" <jira@apache.org>","Wed, 14 Sep 2016 01:22:20 +0000 (UTC)","[jira] [Created] (HADOOP-13609) Refine credential provider related codes for AliyunOss integration"
"""Kai Zheng (JIRA)"" <jira@apache.org>","Wed, 14 Sep 2016 01:47:20 +0000 (UTC)","[jira] [Created] (HADOOP-13610) Clean up AliyunOss integration tests"
"""Steve Loughran (JIRA)"" <jira@apache.org>","Wed, 14 Sep 2016 13:49:20 +0000 (UTC)","[jira] [Created] (HADOOP-13611) FileSystem/s3a processDeleteOnExit to skip the exists() check"
"""Steve Loughran (JIRA)"" <jira@apache.org>","Wed, 14 Sep 2016 13:58:20 +0000 (UTC)","[jira] [Created] (HADOOP-13612) FileSystem static mkdirs(FS, path, permissions) to invoke FS.mkdirs(path, permissions)"
"""Doug Balog (JIRA)"" <jira@apache.org>","Wed, 14 Sep 2016 14:08:20 +0000 (UTC)","[jira] [Created] (HADOOP-13613) Credentials writeTokenStorageFile should create files with permission 0600"
"Apache Jenkins Server <jenkins@builds.apache.org>","Wed, 14 Sep 2016 15:14:41 +0000 (UTC)","Apache Hadoop qbt Report: trunk+JDK8 on Linux/x86"
"""Steve Loughran (JIRA)"" <jira@apache.org>","Wed, 14 Sep 2016 19:12:21 +0000 (UTC)","[jira] [Created] (HADOOP-13614) Purge some superfluous/obsolete S3 FS tests that are slowing test runs down"
"""Andrew Wang (JIRA)"" <jira@apache.org>","Wed, 14 Sep 2016 20:56:20 +0000 (UTC)","[jira] [Created] (HADOOP-13615) Convert uses of AtomicLong for counter metrics to LongAdder"
"Sangjin Lee <sjlee@apache.org>","Wed, 14 Sep 2016 16:38:26 -0700","Re: [Release thread] 2.6.5 release activities"
"""Kai Sasaki (JIRA)"" <jira@apache.org>","Thu, 15 Sep 2016 13:47:20 +0000 (UTC)","[jira] [Created] (HADOOP-13616) Broken code snippet area in Hadoop Benchmarking"
"Apache Jenkins Server <jenkins@builds.apache.org>","Thu, 15 Sep 2016 14:27:30 +0000 (UTC)","Apache Hadoop qbt Report: trunk+JDK8 on Linux/x86"
"""Sangjin Lee (JIRA)"" <jira@apache.org>","Thu, 15 Sep 2016 17:24:20 +0000 (UTC)","[jira] [Reopened] (HADOOP-13410) RunJar adds the content of the jar twice to the classpath"
"Apache Jenkins Server <jenkins@builds.apache.org>","Thu, 15 Sep 2016 22:27:40 +0000 (UTC)","Apache Hadoop qbt Report: trunk+JDK8 on Linux/ppc64le"
"Apache Jenkins Server <jenkins@builds.apache.org>","Fri, 16 Sep 2016 04:50:44 +0000 (UTC)","Apache Hadoop qbt Report: trunk+JDK8 on Linux/ppc64le"
"""Xiao Chen (JIRA)"" <jira@apache.org>","Fri, 16 Sep 2016 05:47:20 +0000 (UTC)","[jira] [Resolved] (HADOOP-13127) Correctly cache delegation tokens in KMSClientProvider"
"Apache Jenkins Server <jenkins@builds.apache.org>","Fri, 16 Sep 2016 14:34:45 +0000 (UTC)","Apache Hadoop qbt Report: trunk+JDK8 on Linux/x86"
"""Steve Yang (JIRA)"" <jira@apache.org>","Fri, 16 Sep 2016 16:53:20 +0000 (UTC)","[jira] [Created] (HADOOP-13617) Swift client retrying original request is using expired token after re-authentication"
"""Steve Yang (JIRA)"" <jira@apache.org>","Fri, 16 Sep 2016 17:28:22 +0000 (UTC)","[jira] [Created] (HADOOP-13618) IllegalArgumentException when accessing Swift object with name containing space character"
"""Steve Yang (JIRA)"" <jira@apache.org>","Fri, 16 Sep 2016 18:37:20 +0000 (UTC)","[jira] [Created] (HADOOP-13619) missing data when reading avro file"
"Apache Jenkins Server <jenkins@builds.apache.org>","Fri, 16 Sep 2016 19:30:15 +0000 (UTC)","Apache Hadoop qbt Report: trunk+JDK8 on Linux/ppc64le"
"Chris Trezzo <ctrezzo@gmail.com>","Fri, 16 Sep 2016 14:51:02 -0700","Re: [Release thread] 2.6.5 release activities"
"""Mingliang Liu (JIRA)"" <jira@apache.org>","Sat, 17 Sep 2016 00:57:20 +0000 (UTC)","[jira] [Created] (HADOOP-13621) s3:// should have been fully cut off from trunk"
"""Mingliang Liu (JIRA)"" <jira@apache.org>","Sat, 17 Sep 2016 01:04:20 +0000 (UTC)","[jira] [Resolved] (HADOOP-12642) Update documentation to cover fs.s3.buffer.dir enhancements"
"Apache Jenkins Server <jenkins@builds.apache.org>","Sat, 17 Sep 2016 14:28:32 +0000 (UTC)","Apache Hadoop qbt Report: trunk+JDK8 on Linux/x86"
"Apache Jenkins Server <jenkins@builds.apache.org>","Sat, 17 Sep 2016 19:12:48 +0000 (UTC)","Apache Hadoop qbt Report: trunk+JDK8 on Linux/ppc64le"
"Apache Jenkins Server <jenkins@builds.apache.org>","Sun, 18 Sep 2016 14:31:10 +0000 (UTC)","Apache Hadoop qbt Report: trunk+JDK8 on Linux/x86"
"Apache Jenkins Server <jenkins@builds.apache.org>","Sun, 18 Sep 2016 19:13:14 +0000 (UTC)","Apache Hadoop qbt Report: trunk+JDK8 on Linux/ppc64le"
"""Yuanbo Liu (JIRA)"" <jira@apache.org>","Mon, 19 Sep 2016 09:12:20 +0000 (UTC)","[jira] [Created] (HADOOP-13622) `-atomic` should not be supported while using `distcp` command in object file system"
"""Steve Loughran (JIRA)"" <jira@apache.org>","Mon, 19 Sep 2016 12:32:21 +0000 (UTC)","[jira] [Created] (HADOOP-13623) regression: ITestS3NContractRootDir"
"""Kai Zheng (JIRA)"" <jira@apache.org>","Mon, 19 Sep 2016 13:34:20 +0000 (UTC)","[jira] [Created] (HADOOP-13624) Rename TestAliyunOSSContractDispCp"
"Apache Jenkins Server <jenkins@builds.apache.org>","Mon, 19 Sep 2016 14:39:41 +0000 (UTC)","Apache Hadoop qbt Report: trunk+JDK8 on Linux/x86"
"""Chris Nauroth (JIRA)"" <jira@apache.org>","Mon, 19 Sep 2016 18:17:21 +0000 (UTC)","[jira] [Created] (HADOOP-13625) Document FileSystem actions that trigger update of modification time."
"""Chris Douglas (JIRA)"" <jira@apache.org>","Mon, 19 Sep 2016 18:56:20 +0000 (UTC)","[jira] [Created] (HADOOP-13626) Remove distcp dependency on FileStatus serialization"
"Apache Jenkins Server <jenkins@builds.apache.org>","Mon, 19 Sep 2016 19:22:39 +0000 (UTC)","Apache Hadoop qbt Report: trunk+JDK8 on Linux/ppc64le"
"Bill Woods <dweller@dwellersoul.com>","RANDOM_Tue, 20 Sep 2016 11:44:40 +0300","some new stuff"
"dweller <dweller@dwellersoul.com>","RANDOM_Tue, 20 Sep 2016 11:47:52 +0300","a question"
"Apache Jenkins Server <jenkins@builds.apache.org>","Tue, 20 Sep 2016 14:52:34 +0000 (UTC)","Apache Hadoop qbt Report: trunk+JDK8 on Linux/x86"
"""Steve Loughran (JIRA)"" <jira@apache.org>","Tue, 20 Sep 2016 15:20:20 +0000 (UTC)","[jira] [Created] (HADOOP-13627) Have an explicit KerberosAuthException for UGI to throw, text from public constants"
"""Weiwei Yang (JIRA)"" <jira@apache.org>","Tue, 20 Sep 2016 16:36:20 +0000 (UTC)","[jira] [Created] (HADOOP-13628) Support to retrieve specific property from configuration via REST API"
"""Steve Loughran (JIRA)"" <jira@apache.org>","Tue, 20 Sep 2016 17:16:20 +0000 (UTC)","[jira] [Resolved] (HADOOP-13367) Support more types of Store in S3Native File System"
"""Sean Mackrory (JIRA)"" <jira@apache.org>","Tue, 20 Sep 2016 17:49:20 +0000 (UTC)","[jira] [Created] (HADOOP-13629) Make RemoteEditLogManifest.committedTxnId optional in Protocol Buffers"
"Apache Jenkins Server <jenkins@builds.apache.org>","Tue, 20 Sep 2016 19:17:21 +0000 (UTC)","Apache Hadoop qbt Report: trunk+JDK8 on Linux/ppc64le"
"""Steve Loughran (JIRA)"" <jira@apache.org>","Tue, 20 Sep 2016 19:22:20 +0000 (UTC)","[jira] [Created] (HADOOP-13630) split up AWS index.md"
"""Aaron Fabbri (JIRA)"" <jira@apache.org>","Tue, 20 Sep 2016 21:44:20 +0000 (UTC)","[jira] [Created] (HADOOP-13631) S3Guard: implement move() for LocalMetadataStore, add unit tests"
"""Andrew Wang (JIRA)"" <jira@apache.org>","Wed, 21 Sep 2016 00:31:20 +0000 (UTC)","[jira] [Created] (HADOOP-13632) Daemonization does not check process liveness before renicing"
"""Huafeng Wang (JIRA)"" <jira@apache.org>","Wed, 21 Sep 2016 08:13:20 +0000 (UTC)","[jira] [Created] (HADOOP-13633) Introduce Apache Kafka as a Service into Hadoop"
"""Genmao Yu (JIRA)"" <jira@apache.org>","Wed, 21 Sep 2016 11:35:20 +0000 (UTC)","[jira] [Created] (HADOOP-13634) Some configuration in doc has been outdated"
"Apache Jenkins Server <jenkins@builds.apache.org>","Wed, 21 Sep 2016 14:39:11 +0000 (UTC)","Apache Hadoop qbt Report: trunk+JDK8 on Linux/x86"
"""Robert Yokota (JIRA)"" <jira@apache.org>","Wed, 21 Sep 2016 15:24:20 +0000 (UTC)","[jira] [Created] (HADOOP-13635) Replace Hadoop Common crypto code with Apache Commons Crypto"
"""Steve Loughran (JIRA)"" <jira@apache.org>","Wed, 21 Sep 2016 15:30:21 +0000 (UTC)","[jira] [Created] (HADOOP-13636) s3a rm on the CLI generates deprecation warning on io.bytes.per.checksum"
"Apache Jenkins Server <jenkins@builds.apache.org>","Wed, 21 Sep 2016 19:47:22 +0000 (UTC)","Apache Hadoop qbt Report: trunk+JDK8 on Linux/ppc64le"
"""Steve Loughran (JIRA)"" <jira@apache.org>","Wed, 21 Sep 2016 19:53:20 +0000 (UTC)","[jira] [Created] (HADOOP-13637) improve setting of max connections in AWS client"
"""Wei-Chiu Chuang (JIRA)"" <jira@apache.org>","Wed, 21 Sep 2016 21:04:20 +0000 (UTC)","[jira] [Created] (HADOOP-13638) KMS should set UGI's Configuration object properly"
"""Weiwei Yang (JIRA)"" <jira@apache.org>","Thu, 22 Sep 2016 14:26:21 +0000 (UTC)","[jira] [Created] (HADOOP-13639) Support plain text in ConfServlet http response"
"Apache Jenkins Server <jenkins@builds.apache.org>","Thu, 22 Sep 2016 15:39:47 +0000 (UTC)","Apache Hadoop qbt Report: trunk+JDK8 on Linux/x86"
"""Tsuyoshi Ozawa (JIRA)"" <jira@apache.org>","Thu, 22 Sep 2016 16:46:21 +0000 (UTC)","[jira] [Created] (HADOOP-13640) Fix findbugs warning in VersionInfoMojo.java"
"""Xiao Chen (JIRA)"" <jira@apache.org>","Thu, 22 Sep 2016 17:57:20 +0000 (UTC)","[jira] [Created] (HADOOP-13641) Update UGI#spawnAutoRenewalThreadForUserCreds to reduce indentation"
"""Inigo Goiri (JIRA)"" <jira@apache.org>","Thu, 22 Sep 2016 19:07:20 +0000 (UTC)","[jira] [Created] (HADOOP-13642) Move RecordFactory from YARN to Common"
"Apache Jenkins Server <jenkins@builds.apache.org>","Thu, 22 Sep 2016 19:13:51 +0000 (UTC)","Apache Hadoop qbt Report: trunk+JDK8 on Linux/ppc64le"
"""Mingliang Liu (JIRA)"" <jira@apache.org>","Fri, 23 Sep 2016 01:33:20 +0000 (UTC)","[jira] [Created] (HADOOP-13644) Replace config key literal strings with config key names"
"""Weiwei Yang (JIRA)"" <jira@apache.org>","Fri, 23 Sep 2016 08:35:21 +0000 (UTC)","[jira] [Created] (HADOOP-13645) Refine TestRackResolver#testCaching to ensure cache is truly tested"
"Steve Loughran <stevel@hortonworks.com>","Fri, 23 Sep 2016 08:52:28 +0000","Fwd: HADOOP-13636 and io.bytes.per.checksum"
"""Akira Ajisaka (JIRA)"" <jira@apache.org>","Fri, 23 Sep 2016 09:00:32 +0000 (UTC)","[jira] [Created] (HADOOP-13646) Remove outdated overview.html"
"""xiboliyalangwolf (JIRA)"" <jira@apache.org>","Fri, 23 Sep 2016 12:12:20 +0000 (UTC)","[jira] [Created] (HADOOP-13647) cannot writeData to HDFS form localfile"
"""Allen Wittenauer (JIRA)"" <jira@apache.org>","Fri, 23 Sep 2016 16:33:20 +0000 (UTC)","[jira] [Resolved] (HADOOP-11010) Post-9902 ""Umbrella"" JIRA"
"Apache Jenkins Server <jenkins@builds.apache.org>","Fri, 23 Sep 2016 16:43:49 +0000 (UTC)","Apache Hadoop qbt Report: trunk+JDK8 on Linux/x86"
"Andrew Wang <andrew.wang@cloudera.com>","Fri, 23 Sep 2016 10:55:07 -0700","Re: HADOOP-13636 and io.bytes.per.checksum"
"Apache Jenkins Server <jenkins@builds.apache.org>","Fri, 23 Sep 2016 19:21:06 +0000 (UTC)","Apache Hadoop qbt Report: trunk+JDK8 on Linux/ppc64le"
"""Steve Loughran (JIRA)"" <jira@apache.org>","Fri, 23 Sep 2016 19:42:21 +0000 (UTC)","[jira] [Created] (HADOOP-13648) s3a home directory to be ""/"""
"""Aaron Fabbri (JIRA)"" <jira@apache.org>","Fri, 23 Sep 2016 20:37:20 +0000 (UTC)","[jira] [Created] (HADOOP-13649) s3guard: implement time-based (TTL) expiry for LocalMetadataStore"
"""Lei (Eddy) Xu (JIRA)"" <jira@apache.org>","Fri, 23 Sep 2016 22:45:22 +0000 (UTC)","[jira] [Created] (HADOOP-13650) S3Guard: Provide command line tools to manipulate metadata store."
"""Aaron Fabbri (JIRA)"" <jira@apache.org>","Fri, 23 Sep 2016 22:54:21 +0000 (UTC)","[jira] [Created] (HADOOP-13651) S3Guard: S3AFileSystem Integration with MetadataStore"
"Steve Loughran <stevel@hortonworks.com>","Sat, 24 Sep 2016 11:24:37 +0000","Re: HADOOP-13636 and io.bytes.per.checksum"
"Allen Wittenauer <aw@effectivemachines.com>","Sat, 24 Sep 2016 05:11:19 -0700","Re: HADOOP-13636 and io.bytes.per.checksum"
"Allen Wittenauer <aw@effectivemachines.com>","Sat, 24 Sep 2016 06:06:20 -0700","Re: HADOOP-13636 and io.bytes.per.checksum"
"Apache Jenkins Server <jenkins@builds.apache.org>","Sat, 24 Sep 2016 14:20:45 +0000 (UTC)","Apache Hadoop qbt Report: trunk+JDK8 on Linux/x86"
"Apache Jenkins Server <jenkins@builds.apache.org>","Sat, 24 Sep 2016 19:14:48 +0000 (UTC)","Apache Hadoop qbt Report: trunk+JDK8 on Linux/ppc64le"
"""Alex Ivanov (JIRA)"" <jira@apache.org>","Sun, 25 Sep 2016 08:56:20 +0000 (UTC)","[jira] [Created] (HADOOP-13652) ZKDelegationTokenSecretManager doesn't seem to honor ZK connection/session timeouts"
"""Alex Ivanov (JIRA)"" <jira@apache.org>","Sun, 25 Sep 2016 09:14:21 +0000 (UTC)","[jira] [Created] (HADOOP-13653) ZKDelegationTokenSecretManager curator client seems to rapidly connect & disconnect from ZK"
"Apache Jenkins Server <jenkins@builds.apache.org>","Sun, 25 Sep 2016 14:31:04 +0000 (UTC)","Apache Hadoop qbt Report: trunk+JDK8 on Linux/x86"
"""Steve Loughran (JIRA)"" <jira@apache.org>","Sun, 25 Sep 2016 15:24:20 +0000 (UTC)","[jira] [Created] (HADOOP-13654) S3A create() to support asynchronous check of dest & parent paths"
"""Steve Loughran (JIRA)"" <jira@apache.org>","Sun, 25 Sep 2016 15:41:22 +0000 (UTC)","[jira] [Created] (HADOOP-13655) document object store use with fs shell and distcp"
"Apache Jenkins Server <jenkins@builds.apache.org>","Sun, 25 Sep 2016 19:15:39 +0000 (UTC)","Apache Hadoop qbt Report: trunk+JDK8 on Linux/ppc64le"
"""Chris Douglas (JIRA)"" <jira@apache.org>","Mon, 26 Sep 2016 07:02:20 +0000 (UTC)","[jira] [Resolved] (HADOOP-13184) Add ""Apache"" to Hadoop project logo"
"""Steve Loughran (JIRA)"" <jira@apache.org>","Mon, 26 Sep 2016 13:14:20 +0000 (UTC)","[jira] [Created] (HADOOP-13656) fs -expunge to take a filesystem"
"""Steve Loughran (JIRA)"" <jira@apache.org>","Mon, 26 Sep 2016 14:29:20 +0000 (UTC)","[jira] [Resolved] (HADOOP-13281) S3A to track multipart upload count, size, duration"
"Apache Jenkins Server <jenkins@builds.apache.org>","Mon, 26 Sep 2016 14:33:31 +0000 (UTC)","Apache Hadoop qbt Report: trunk+JDK8 on Linux/x86"
"""Zhe Zhang (JIRA)"" <jira@apache.org>","Mon, 26 Sep 2016 16:32:21 +0000 (UTC)","[jira] [Created] (HADOOP-13657) IPC Reader thread could silently die and leave NameNode unresponsive"
"""Chen Liang (JIRA)"" <jira@apache.org>","Mon, 26 Sep 2016 17:34:20 +0000 (UTC)","[jira] [Created] (HADOOP-13658) Replace config key literal string with the name of the keys in o.a.h.i.f.t.Compression"
"Apache Jenkins Server <jenkins@builds.apache.org>","Mon, 26 Sep 2016 19:09:29 +0000 (UTC)","Apache Hadoop qbt Report: trunk+JDK8 on Linux/ppc64le"
"""Sean Mackrory (JIRA)"" <jira@apache.org>","Mon, 26 Sep 2016 22:04:20 +0000 (UTC)","[jira] [Created] (HADOOP-13659) Upgrade jaxb-api version"
"""Sean Mackrory (JIRA)"" <jira@apache.org>","Mon, 26 Sep 2016 22:05:21 +0000 (UTC)","[jira] [Created] (HADOOP-13660) Upgrade commons-configuration version"
"""Sean Mackrory (JIRA)"" <jira@apache.org>","Mon, 26 Sep 2016 22:06:21 +0000 (UTC)","[jira] [Created] (HADOOP-13661) Upgrade HTrace version"
"""Sean Mackrory (JIRA)"" <jira@apache.org>","Mon, 26 Sep 2016 22:54:20 +0000 (UTC)","[jira] [Created] (HADOOP-13662) Upgrade jackson2 version"
"""Inigo Goiri (JIRA)"" <jira@apache.org>","Mon, 26 Sep 2016 23:07:22 +0000 (UTC)","[jira] [Created] (HADOOP-13663) Index out of range in SysInfoWindows"
"""Steve Loughran (JIRA)"" <jira@apache.org>","Tue, 27 Sep 2016 13:04:21 +0000 (UTC)","[jira] [Created] (HADOOP-13664) S3AInputStream to use a retry policy on read failures"
"Apache Jenkins Server <jenkins@builds.apache.org>","Tue, 27 Sep 2016 14:32:14 +0000 (UTC)","Apache Hadoop qbt Report: trunk+JDK8 on Linux/x86"
"""Weiwei Yang (JIRA)"" <jira@apache.org>","Tue, 27 Sep 2016 16:11:21 +0000 (UTC)","[jira] [Resolved] (HADOOP-13645) Refine TestRackResolver#testCaching to ensure cache is truly tested"
"""Wei-Chiu Chuang (JIRA)"" <jira@apache.org>","Tue, 27 Sep 2016 16:56:22 +0000 (UTC)","[jira] [Created] (HADOOP-13665) Erasure Coding codec should support fallback coder"
"Steve Loughran <stevel@hortonworks.com>","Tue, 27 Sep 2016 17:06:34 +0000","new look site"
"Allen Wittenauer <aw@effectivemachines.com>","Tue, 27 Sep 2016 10:20:03 -0700","Re: new look site"
"""Inigo Goiri (JIRA)"" <jira@apache.org>","Tue, 27 Sep 2016 17:31:20 +0000 (UTC)","[jira] [Created] (HADOOP-13666) Supporting rack exclusion in NetworkTopology"
"Andrew Wang <andrew.wang@cloudera.com>","Tue, 27 Sep 2016 10:34:45 -0700","Re: new look site"
"Chris Douglas <chris.douglas@gmail.com>","Tue, 27 Sep 2016 11:27:19 -0700","Re: new look site"
"Apache Jenkins Server <jenkins@builds.apache.org>","Tue, 27 Sep 2016 19:18:52 +0000 (UTC)","Apache Hadoop qbt Report: trunk+JDK8 on Linux/ppc64le"
"Chris Douglas <chris.douglas@gmail.com>","Tue, 27 Sep 2016 12:24:39 -0700","Re: new look site"
"Sangjin Lee <sjlee@apache.org>","Tue, 27 Sep 2016 13:28:36 -0700","[VOTE] Release Apache Hadoop 2.6.5 (RC0)"
"Lei Xu <lei@cloudera.com>","Tue, 27 Sep 2016 16:11:32 -0700","Re: [VOTE] Release Apache Hadoop 2.6.5 (RC0)"
"""Kai Zheng (JIRA)"" <jira@apache.org>","Wed, 28 Sep 2016 01:26:20 +0000 (UTC)","[jira] [Reopened] (HADOOP-13584) hadoop-aliyun: merge HADOOP-12756 branch back"
"""Zheng, Kai"" <kai.zheng@intel.com>","Wed, 28 Sep 2016 02:35:10 +0000","[VOTE] HADOOP-12756 - Aliyun OSS Support branch merge"
"""Rui Gao (JIRA)"" <jira@apache.org>","Wed, 28 Sep 2016 04:52:20 +0000 (UTC)","[jira] [Created] (HADOOP-13667) Fix typing mistake of inline document in hadoop-metrics2.properties"
"""Zheng, Kai"" <kai.zheng@intel.com>","Wed, 28 Sep 2016 06:58:30 +0000","RE: desc error on official site http://hadoop.apache.org/"
"""Cheng, Hao"" <hao.cheng@intel.com>","Wed, 28 Sep 2016 13:36:56 +0000","RE: [VOTE] HADOOP-12756 - Aliyun OSS Support branch merge"
"""Steve Loughran (JIRA)"" <jira@apache.org>","Wed, 28 Sep 2016 14:21:21 +0000 (UTC)","[jira] [Resolved] (HADOOP-13567) S3AFileSystem to override getStorageStatistics() and so serve up its statistics"
"Apache Jenkins Server <jenkins@builds.apache.org>","Wed, 28 Sep 2016 15:09:45 +0000 (UTC)","Apache Hadoop qbt Report: trunk+JDK8 on Linux/x86"
"""Kihwal Lee (JIRA)"" <jira@apache.org>","Wed, 28 Sep 2016 16:01:20 +0000 (UTC)","[jira] [Resolved] (HADOOP-13657) IPC Reader thread could silently die and leave NameNode unresponsive"
"Sean Mackrory <mackrorysd@gmail.com>","Wed, 28 Sep 2016 10:56:19 -0600","Upgrading Hadoop dependencies and catching potential incompatibilities for HBase"
"Allen Wittenauer <aw@effectivemachines.com>","Wed, 28 Sep 2016 10:59:30 -0700","Re: Upgrading Hadoop dependencies and catching potential incompatibilities for HBase"
"=?UTF-8?Q?Enis_S=C3=B6ztutar?= <enis.soz@gmail.com>","Wed, 28 Sep 2016 11:55:52 -0700","Re: Upgrading Hadoop dependencies and catching potential incompatibilities for HBase"
"Sean Busbey <busbey@cloudera.com>","Wed, 28 Sep 2016 14:15:58 -0500","Re: Upgrading Hadoop dependencies and catching potential incompatibilities for HBase"
"Apache Jenkins Server <jenkins@builds.apache.org>","Wed, 28 Sep 2016 19:36:59 +0000 (UTC)","Apache Hadoop qbt Report: trunk+JDK8 on Linux/ppc64le"
"=?UTF-8?Q?Enis_S=C3=B6ztutar?= <enis.soz@gmail.com>","Wed, 28 Sep 2016 12:57:51 -0700","Re: Upgrading Hadoop dependencies and catching potential incompatibilities for HBase"
"Andrew Purtell <andrew.purtell@gmail.com>","Wed, 28 Sep 2016 13:16:33 -0700","Re: Upgrading Hadoop dependencies and catching potential incompatibilities for HBase"
"Kihwal Lee <kihwal@yahoo-inc.com.INVALID>","Wed, 28 Sep 2016 22:54:28 +0000 (UTC)","Is anyone seeing this during trunk build?"
"Ted Yu <yuzhihong@gmail.com>","Wed, 28 Sep 2016 17:16:07 -0700","Re: Is anyone seeing this during trunk build?"
"""Arpit Agarwal (JIRA)"" <jira@apache.org>","Thu, 29 Sep 2016 00:53:21 +0000 (UTC)","[jira] [Created] (HADOOP-13668) Make InstrumentedLock require ReentrantLock"
"Apache Jenkins Server <jenkins@builds.apache.org>","Thu, 29 Sep 2016 14:21:14 +0000 (UTC)","Apache Hadoop qbt Report: trunk+JDK8 on Linux/x86"
"Chris Trezzo <ctrezzo@gmail.com>","Thu, 29 Sep 2016 10:33:49 -0700","Re: [VOTE] Release Apache Hadoop 2.6.5 (RC0)"
"""Andrew Wang (JIRA)"" <jira@apache.org>","Thu, 29 Sep 2016 18:36:21 +0000 (UTC)","[jira] [Resolved] (HADOOP-11090) [Umbrella] Support Java 8 in Hadoop"
"Apache Jenkins Server <jenkins@builds.apache.org>","Thu, 29 Sep 2016 19:08:14 +0000 (UTC)","Apache Hadoop qbt Report: trunk+JDK8 on Linux/ppc64le"
"Kihwal Lee <kihwal@yahoo-inc.com.INVALID>","Thu, 29 Sep 2016 21:01:03 +0000 (UTC)","Re: Is anyone seeing this during trunk build?"
"""Chris Nauroth (JIRA)"" <jira@apache.org>","Thu, 29 Sep 2016 21:13:20 +0000 (UTC)","[jira] [Reopened] (HADOOP-13081) add the ability to create multiple UGIs/subjects from one kerberos login"
"Arun Suresh <arun.suresh@gmail.com>","Thu, 29 Sep 2016 16:58:35 -0700","Re: Is anyone seeing this during trunk build?"
"""Xiao Chen (JIRA)"" <jira@apache.org>","Fri, 30 Sep 2016 00:40:20 +0000 (UTC)","[jira] [Created] (HADOOP-13669) KMS Server should log exceptions before throwing"
"Brahma Reddy Battula <brahmareddy.battula@huawei.com>","Fri, 30 Sep 2016 07:28:46 +0000","Updation of Change.txt in branch-2.7"
"""Brahma Reddy Battula (JIRA)"" <jira@apache.org>","Fri, 30 Sep 2016 08:14:20 +0000 (UTC)","[jira] [Created] (HADOOP-13670) Update CHANGES.txt to reflect all the changes in branch-2.7"
"Apache Jenkins Server <jenkins@builds.apache.org>","Fri, 30 Sep 2016 14:08:50 +0000 (UTC)","Apache Hadoop qbt Report: trunk+JDK8 on Linux/x86"
"Kihwal Lee <kihwal@yahoo-inc.com.INVALID>","Fri, 30 Sep 2016 16:12:18 +0000 (UTC)","Re: Is anyone seeing this during trunk build?"
"""Kihwal Lee (JIRA)"" <jira@apache.org>","Fri, 30 Sep 2016 16:20:20 +0000 (UTC)","[jira] [Created] (HADOOP-13671) Fix ClassFormatException during trunk build."
"Apache Jenkins Server <jenkins@builds.apache.org>","Fri, 30 Sep 2016 19:16:34 +0000 (UTC)","Apache Hadoop qbt Report: trunk+JDK8 on Linux/ppc64le"
"Ming Ma <mingma@twitter.com.INVALID>","Fri, 30 Sep 2016 13:53:09 -0700","Re: [VOTE] Release Apache Hadoop 2.6.5 (RC0)"
"Lei Xu <lei@cloudera.com>","Fri, 30 Sep 2016 13:58:55 -0700","[VOTE] HADOOP-12756 - Aliyun OSS Support branch merge"
"Sangjin Lee <sjlee@apache.org>","Fri, 30 Sep 2016 21:49:18 +0000","Re: [VOTE] Release Apache Hadoop 2.6.5 (RC0)"
