"Developer","Date","Subject"
"Gautam Singaraju <gautam.singaraju@gmail.com>","Sat, 31 Jul 2010 22:10:34 -0700","Checksum of blocks"
"Ahmad Shahzad <ashahzad4@gmail.com>","Sun, 1 Aug 2010 13:56:52 +0200","purpose of RPC Client and Server"
"cvkkumar <cvkkumar@me.com>","Sun, 01 Aug 2010 20:18:29 -0700","Re: Checksum of blocks"
"Amareshwari Sri Ramadasu <amarsri@yahoo-inc.com>","Mon, 2 Aug 2010 09:22:54 +0530","Re: Wrong type in log history - Hadoop 0.21.0 (candidate 0)"
"""Owen O'Malley (JIRA)"" <jira@apache.org>","Mon, 2 Aug 2010 01:20:17 -0400 (EDT)","[jira] Resolved: (HADOOP-4851) Change filesystem permissions to use JAAS rather than UGI"
"""Owen O'Malley (JIRA)"" <jira@apache.org>","Mon, 2 Aug 2010 01:28:19 -0400 (EDT)","[jira] Created: (HADOOP-6893) FileContext needs a method to test for existence of a file or directory."
"""Alejandro Abdelnur (JIRA)"" <jira@apache.org>","Mon, 2 Aug 2010 03:24:16 -0400 (EDT)","[jira] Created: (HADOOP-6894) Common foundation for Hadoop client tools"
"Ahmad Shahzad <ashahzad4@gmail.com>","Mon, 2 Aug 2010 13:51:16 +0200","sockets in hadoop"
"""Hairong Kuang (JIRA)"" <jira@apache.org>","Mon, 2 Aug 2010 13:26:21 -0400 (EDT)","[jira] Reopened: (HADOOP-6890) Improve listFiles API introduced by HADOOP-6870"
"""Stephen Watt (JIRA)"" <jira@apache.org>","Mon, 2 Aug 2010 16:01:20 -0400 (EDT)","[jira] Created: (HADOOP-6895) Native Libraries do not load if a different platform signature is returned from org.apache.hadoop.util.PlatformName"
"""Owen O'Malley (JIRA)"" <jira@apache.org>","Mon, 2 Aug 2010 17:11:17 -0400 (EDT)","[jira] Created: (HADOOP-6896) Remove the Util separation in FileContext"
"Ahmad Shahzad <ashahzad4@gmail.com>","Tue, 3 Aug 2010 05:27:09 +0200","Annotation processing error... HELP!!"
"Hemanth Yamijala <yhemanth@gmail.com>","Tue, 3 Aug 2010 09:55:14 +0530","Re: sockets in hadoop"
"Maxim Veksler <maxim@vekslers.org>","Tue, 3 Aug 2010 11:34:40 +0300","2 General questions - NameNode SPOF, Byzantine fault tolerance"
"Ahmad Shahzad <ashahzad4@gmail.com>","Tue, 3 Aug 2010 13:27:01 +0200","hadoop ANT build ERROR HELP!!!!"
"Saikat Kanjilal <sxk1969@hotmail.com>","Tue, 3 Aug 2010 05:59:29 -0700","Re: hadoop ANT build ERROR HELP!!!!"
"Gautam Singaraju <gautam.singaraju@gmail.com>","Tue, 3 Aug 2010 08:59:03 -0700","Re: Checksum of blocks"
"Stephen Watt <swatt@us.ibm.com>","Tue, 3 Aug 2010 11:44:04 -0500","Re: hadoop ANT build ERROR HELP!!!!"
"""Hairong Kuang (JIRA)"" <jira@apache.org>","Tue, 3 Aug 2010 18:38:16 -0400 (EDT)","[jira] Created: (HADOOP-6897) FileSystem#mkdirs(FileSystem, Path, FsPermission) should not call setPermission if mkdirs failled"
"""Todd Lipcon (JIRA)"" <jira@apache.org>","Tue, 3 Aug 2010 20:52:17 -0400 (EDT)","[jira] Created: (HADOOP-6898) FileSystem.copyToLocal creates files with 777 permissions"
"Ahmad Shahzad <ashahzad4@gmail.com>","Wed, 4 Aug 2010 20:32:56 +0200","hadoop JobTRACKER error HELP!!!"
"""Sanjay Radia (JIRA)"" <jira@apache.org>","Wed, 4 Aug 2010 19:29:16 -0400 (EDT)","[jira] Created: (HADOOP-6899) FileSystem#setWorkingDir() does not work for relative names"
"""Suresh Srinivas (JIRA)"" <jira@apache.org>","Wed, 4 Aug 2010 19:31:17 -0400 (EDT)","[jira] Created: (HADOOP-6900) FileSystem#listLocatedStatus API needs changes to indicate complete set of error conditions"
"""Rick Weber (JIRA)"" <jira@apache.org>","Thu, 5 Aug 2010 12:23:21 -0400 (EDT)","[jira] Created: (HADOOP-6901) Parsing large compressed files with HADOOP-1722 spawns multiple mappers per file"
"""Kan Zhang (JIRA)"" <jira@apache.org>","Thu, 5 Aug 2010 19:35:18 -0400 (EDT)","[jira] Created: (HADOOP-6902) RPC server's SASL_PROPS shouldn't be re-initialized every time an RPC client is created"
"Tom White <tom@cloudera.com>","Fri, 6 Aug 2010 11:07:58 -0700","Re: Wrong type in log history - Hadoop 0.21.0 (candidate 0)"
"""Sanjay Radia (JIRA)"" <jira@apache.org>","Fri, 6 Aug 2010 15:16:16 -0400 (EDT)","[jira] Created: (HADOOP-6903) Make AbstractFileSystem's methods public to allow filter-Fs like implementions in a differnt package than fs"
"""Kan Zhang (JIRA)"" <jira@apache.org>","Fri, 6 Aug 2010 19:19:17 -0400 (EDT)","[jira] Created: (HADOOP-6905) Better logging messages when a delegation token is invalid"
"Rajesh Balamohan <rajesh.balamohan@gmail.com>","Sat, 7 Aug 2010 08:39:41 +0530","Re: hadoop JobTRACKER error HELP!!!"
"Jeff Hammerbacher <hammer@cloudera.com>","Fri, 6 Aug 2010 20:18:08 -0700","Re: 2 General questions - NameNode SPOF, Byzantine fault tolerance"
"thinke365 <thinke365@gmail.com>","Sat, 7 Aug 2010 18:31:23 -0700 (PDT)","Re: How to Build Hadoop code in eclipse"
"Saikat Kanjilal <sxk1969@hotmail.com>","Sat, 7 Aug 2010 19:36:59 -0700","Re: How to Build Hadoop code in eclipse"
"""Vinod K V (JIRA)"" <jira@apache.org>","Mon, 9 Aug 2010 06:21:17 -0400 (EDT)","[jira] Created: (HADOOP-6906) FileContext copy() utility doesn't work with recursive copying of directories."
"""Kan Zhang (JIRA)"" <jira@apache.org>","Mon, 9 Aug 2010 17:37:19 -0400 (EDT)","[jira] Created: (HADOOP-6907) Rpc client doesn't use the per-connection conf to figure out server's Kerberos principal"
"""Mathias Gug (JIRA)"" <jira@apache.org>","Mon, 9 Aug 2010 18:16:16 -0400 (EDT)","[jira] Created: (HADOOP-6908) Provide a ""-y"" option that skips the confirmation question of the namenode for use in scripts."
"""Jeff Hammerbacher (JIRA)"" <jira@apache.org>","Tue, 10 Aug 2010 12:41:17 -0400 (EDT)","[jira] Created: (HADOOP-6909) Umbrella ticket for reducing the number of libraries in Common"
"""Jeff Hammerbacher (JIRA)"" <jira@apache.org>","Tue, 10 Aug 2010 12:43:20 -0400 (EDT)","[jira] Created: (HADOOP-6910) Replace or merge Configuration with Jakarta Commons Configuration"
"""Boris Shkolnik (JIRA)"" <jira@apache.org>","Tue, 10 Aug 2010 13:41:17 -0400 (EDT)","[jira] Created: (HADOOP-6911) doc update for DelegationTokenFetcher (part of HDFS-1036)"
"""Kan Zhang (JIRA)"" <jira@apache.org>","Tue, 10 Aug 2010 17:50:16 -0400 (EDT)","[jira] Created: (HADOOP-6912) Guard against NPE when calling UGI.isLoginKeytabBased()"
"""Boris Shkolnik (JIRA)"" <jira@apache.org>","Tue, 10 Aug 2010 18:42:44 -0400 (EDT)","[jira] Resolved: (HADOOP-6911) doc update for DelegationTokenFetcher (part of HDFS-1036)"
"Saikat Kanjilal <sxk1969@hotmail.com>","Tue, 10 Aug 2010 21:29:40 -0700","JIRA 6891"
"""Hairong Kuang (JIRA)"" <jira@apache.org>","Wed, 11 Aug 2010 00:46:18 -0400 (EDT)","[jira] Resolved: (HADOOP-6900) FileSystem#listLocatedStatus should not throw generic RuntimeException to indicate error conditions"
"Amareshwari Sri Ramadasu <amarsri@yahoo-inc.com>","Wed, 11 Aug 2010 10:27:06 +0530","Re: JIRA 6891"
"Ahmad Shahzad <ashahzad4@gmail.com>","Wed, 11 Aug 2010 14:32:51 +0200","Re: How to Build Hadoop code in eclipse"
"Ahmad Shahzad <ashahzad4@gmail.com>","Wed, 11 Aug 2010 14:45:58 +0200","HELP !!!! configuring hadoop on ECLIPSE"
"Saikat Kanjilal <sxk1969@hotmail.com>","Wed, 11 Aug 2010 06:16:19 -0700","Re: HELP !!!! configuring hadoop on ECLIPSE"
"Saikat Kanjilal <sxk1969@hotmail.com>","Wed, 11 Aug 2010 06:26:13 -0700","Re: JIRA 6891"
"Saikat Kanjilal <sxk1969@hotmail.com>","Wed, 11 Aug 2010 07:41:38 -0700","Response"
"Ahmad Shahzad <ashahzad4@gmail.com>","Wed, 11 Aug 2010 18:03:22 +0200","Re: HELP !!!! configuring hadoop on ECLIPSE"
"Harsh J <qwertymaniac@gmail.com>","Wed, 11 Aug 2010 22:16:01 +0530","Re: HELP !!!! configuring hadoop on ECLIPSE"
"Harsh J <qwertymaniac@gmail.com>","Wed, 11 Aug 2010 22:29:48 +0530","Re: How to Build Hadoop code in eclipse"
"Ahmad Shahzad <ashahzad4@gmail.com>","Wed, 11 Aug 2010 19:09:44 +0200","Re: HELP !!!! configuring hadoop on ECLIPSE"
"""Kan Zhang (JIRA)"" <jira@apache.org>","Wed, 11 Aug 2010 14:16:18 -0400 (EDT)","[jira] Created: (HADOOP-6913) Circular initialization between UserGroupInformation and KerberosName"
"Jothi Padmanabhan <jothipn@yahoo-inc.com>","Thu, 12 Aug 2010 16:14:48 +0530","<no subject>"
"Bern Hassmo <h455m0@googlemail.com>","Thu, 12 Aug 2010 14:59:07 +0200","Intro / Ideas for contribution"
"""Richard Lackey (JIRA)"" <jira@apache.org>","Thu, 12 Aug 2010 16:52:16 -0400 (EDT)","[jira] Created: (HADOOP-6914) IPC Client Connection close does not protect against partially Connection objects"
"""Nicolas Spiegelberg (JIRA)"" <jira@apache.org>","Thu, 12 Aug 2010 18:00:25 -0400 (EDT)","[jira] Created: (HADOOP-6915) Add daemon restart option"
"Ahmad Shahzad <ashahzad4@gmail.com>","Fri, 13 Aug 2010 01:39:12 +0200","Use of RPC Server and Client..."
"momina khan <momina.azam@gmail.com>","Fri, 13 Aug 2010 05:46:47 +0600","Re: Use of RPC Server and Client..."
"Arun C Murthy <acm@yahoo-inc.com>","Thu, 12 Aug 2010 16:48:13 -0700","Re: Intro / Ideas for contribution"
"Ahmad Shahzad <ashahzad4@gmail.com>","Fri, 13 Aug 2010 01:51:02 +0200","SOCKET FACTORIES problem.... HELP!!"
"Ahmad Shahzad <ashahzad4@gmail.com>","Fri, 13 Aug 2010 02:24:18 +0200","Re: Use of RPC Server and Client..."
"momina khan <momina.azam@gmail.com>","Fri, 13 Aug 2010 06:31:31 +0600","Re: Use of RPC Server and Client..."
"Ahmad Shahzad <ashahzad4@gmail.com>","Fri, 13 Aug 2010 03:59:01 +0200","Re: Use of RPC Server and Client..."
"Hotmail Email Address <sxk1969@hotmail.com>","Thu, 12 Aug 2010 19:55:05 -0700","Jira task 6891"
"Amareshwari Sri Ramadasu <amarsri@yahoo-inc.com>","Fri, 13 Aug 2010 10:20:54 +0530","Re: Jira task 6891"
"Hotmail Email Address <sxk1969@hotmail.com>","Thu, 12 Aug 2010 22:03:54 -0700","Re: Jira task 6891"
"""Alejandro Abdelnur (JIRA)"" <jira@apache.org>","Fri, 13 Aug 2010 03:37:36 -0400 (EDT)","[jira] Resolved: (HADOOP-5303) Oozie, Hadoop Workflow System"
"Jitendra Nath Pandey <jitendra@yahoo-inc.com>","Fri, 13 Aug 2010 11:03:24 -0700","Re: Use of RPC Server and Client..."
"Tom White <tom@cloudera.com>","Fri, 13 Aug 2010 14:05:24 -0700","[VOTE] Release Hadoop 0.21.0 (candidate 1)"
"Amareshwari Sri Ramadasu <amarsri@yahoo-inc.com>","Sat, 14 Aug 2010 14:50:29 +0530","Re: [VOTE] Release Hadoop 0.21.0 (candidate 1)"
"Tom White <tom@cloudera.com>","Sat, 14 Aug 2010 21:33:00 -0700","Re: [VOTE] Release Hadoop 0.21.0 (candidate 1)"
"""Oleg Aleshko (JIRA)"" <jira@apache.org>","Mon, 16 Aug 2010 10:34:17 -0400 (EDT)","[jira] Created: (HADOOP-6916) Implement append operation for S3FileSystem"
"Tom White <tom@cloudera.com>","Mon, 16 Aug 2010 22:29:25 -0700","[VOTE] Release Hadoop 0.21.0 (candidate 2)"
"""Konstantin Boudnik (JIRA)"" <jira@apache.org>","Tue, 17 Aug 2010 18:51:18 -0400 (EDT)","[jira] Resolved: (HADOOP-6784) Create Wiki document about Herriot Test Framework and test development guide"
"Tom White <tom@cloudera.com>","Thu, 19 Aug 2010 09:41:09 -0700","Re: [VOTE] Release Hadoop 0.21.0 (candidate 2)"
"Hairong Kuang <kuang.hairong@gmail.com>","Thu, 19 Aug 2010 23:05:35 -0700","Re: [VOTE] Release Hadoop 0.21.0 (candidate 2)"
"Gang Luo <lgpublic@yahoo.com.cn>","Fri, 20 Aug 2010 23:08:12 +0800 (CST)","where distributed cache start working"
"Jeff Zhang <zjffdu@gmail.com>","Fri, 20 Aug 2010 08:22:49 -0700","Re: where distributed cache start working"
"Doug Cutting <cutting@apache.org>","Fri, 20 Aug 2010 10:32:11 -0700","Re: [VOTE] Release Hadoop 0.21.0 (candidate 2)"
"""Tom White (JIRA)"" <jira@apache.org>","Fri, 20 Aug 2010 14:29:16 -0400 (EDT)","[jira] Created: (HADOOP-6917) Remove empty FTPFileSystemConfigKeys.java file"
"Tom White <tom@cloudera.com>","Fri, 20 Aug 2010 12:09:16 -0700","Re: [VOTE] Release Hadoop 0.21.0 (candidate 2)"
"Gang Luo <lgpublic@yahoo.com.cn>","Mon, 23 Aug 2010 00:48:44 +0800 (CST)","Re: where distributed cache start working"
"Arun C Murthy <acm@yahoo-inc.com>","Sun, 22 Aug 2010 18:38:02 -0700","Re: where distributed cache start working"
"Jeff Zhang <zjffdu@gmail.com>","Sun, 22 Aug 2010 21:47:31 -0700","Re: where distributed cache start working"
"Thiago Veiga <thgveiga@gmail.com>","Mon, 23 Aug 2010 10:58:06 -0300","read directory"
"""Luke Lu (JIRA)"" <jira@apache.org>","Mon, 23 Aug 2010 13:00:17 -0400 (EDT)","[jira] Created: (HADOOP-6918) jjjjjjjjj"
"""Luke Lu (JIRA)"" <jira@apache.org>","Mon, 23 Aug 2010 16:53:16 -0400 (EDT)","[jira] Created: (HADOOP-6919) Metrics2: metrics framework"
"""Luke Lu (JIRA)"" <jira@apache.org>","Mon, 23 Aug 2010 17:01:17 -0400 (EDT)","[jira] Created: (HADOOP-6920) Metrics2: metrics instrumentation"
"""Luke Lu (JIRA)"" <jira@apache.org>","Mon, 23 Aug 2010 17:06:23 -0400 (EDT)","[jira] Created: (HADOOP-6921) metrics2: metrics plugins"
"""Ravi Gummadi (JIRA)"" <jira@apache.org>","Tue, 24 Aug 2010 05:16:17 -0400 (EDT)","[jira] Created: (HADOOP-6922) COMMON part of MAPREDUCE-1664"
"Tom White <tom@cloudera.com>","Tue, 24 Aug 2010 12:18:58 -0700","[ANNOUNCE] Apache Hadoop 0.21.0 released"
"""Stephen Watt (JIRA)"" <jira@apache.org>","Tue, 24 Aug 2010 15:50:17 -0400 (EDT)","[jira] Created: (HADOOP-6923) Native Libraries do not load if a different platform signature is returned from org.apache.hadoop.util.PlatformName"
"""Stephen Watt (JIRA)"" <jira@apache.org>","Tue, 24 Aug 2010 16:48:16 -0400 (EDT)","[jira] Created: (HADOOP-6924) Build fails with non-Sun JREs due to different pathing to the operating system architecture shared libraries"
"""Todd Lipcon (JIRA)"" <jira@apache.org>","Tue, 24 Aug 2010 18:11:16 -0400 (EDT)","[jira] Created: (HADOOP-6925) BZip2Codec incorrectly implements read()"
"""Todd Lipcon (JIRA)"" <jira@apache.org>","Tue, 24 Aug 2010 18:40:23 -0400 (EDT)","[jira] Created: (HADOOP-6926) SocketInputStream incorrectly implements read()"
"Vinod KV <vinodkv@yahoo-inc.com>","Wed, 25 Aug 2010 09:05:33 +0530","Re: [ANNOUNCE] Apache Hadoop 0.21.0 released"
"Ahmad Shahzad <ashahzad4@gmail.com>","Wed, 25 Aug 2010 11:45:55 +0200","Replacing IPC NIO with Simple Sockets"
"""Segel, Mike"" <msegel@navteq.com>","Wed, 25 Aug 2010 08:46:02 -0500","RE: [jira] Created: (HADOOP-6923) Native Libraries do not load if a different platform signature is returned from org.apache.hadoop.util.PlatformName"
"Jay Booth <jaybooth@gmail.com>","Wed, 25 Aug 2010 09:47:25 -0400","Re: Replacing IPC NIO with Simple Sockets"
"Gang Luo <lgpublic@yahoo.com.cn>","Wed, 25 Aug 2010 23:12:25 +0800 (CST)","Re: where distributed cache start working"
"Hemanth Yamijala <yhemanth@gmail.com>","Wed, 25 Aug 2010 23:05:08 +0530","Re: [ANNOUNCE] Apache Hadoop 0.21.0 released"
"Gang Luo <lgpublic@yahoo.com.cn>","Thu, 26 Aug 2010 12:59:10 +0800 (CST)","Re: where distributed cache start working"
"""Simone Leo (JIRA)"" <jira@apache.org>","Thu, 26 Aug 2010 05:04:56 -0400 (EDT)","[jira] Resolved: (HADOOP-6388) Hadoop uses invalid names for environment variables"
"Johannes Zillmann <jzillmann@googlemail.com>","Thu, 26 Aug 2010 13:57:51 +0200","RawComparator of BooleanWritable broken ?"
"Owen O'Malley <omalley@apache.org>","Thu, 26 Aug 2010 09:44:02 -0700","Re: RawComparator of BooleanWritable broken ?"
"""Al Thompson (JIRA)"" <jira@apache.org>","Thu, 26 Aug 2010 12:48:56 -0400 (EDT)","[jira] Created: (HADOOP-6927) Herriot NN and DN clients should vend statistics"
"""Owen O'Malley (JIRA)"" <jira@apache.org>","Thu, 26 Aug 2010 12:52:54 -0400 (EDT)","[jira] Created: (HADOOP-6928) Fix BooleanWritable comparator in 0.20"
"""Al Thompson (JIRA)"" <jira@apache.org>","Thu, 26 Aug 2010 13:09:54 -0400 (EDT)","[jira] Resolved: (HADOOP-6927) Herriot NN and DN clients should vend statistics"
"Eli Collins <eli@cloudera.com>","Thu, 26 Aug 2010 11:50:18 -0700","Re: RawComparator of BooleanWritable broken ?"
"""Sharad Agarwal (JIRA)"" <jira@apache.org>","Thu, 26 Aug 2010 16:48:55 -0400 (EDT)","[jira] Created: (HADOOP-6929) RPC should have a way to pass Security information other than protocol annotations"
"""Sharad Agarwal (JIRA)"" <jira@apache.org>","Thu, 26 Aug 2010 17:03:54 -0400 (EDT)","[jira] Created: (HADOOP-6930) AvroRpcEngine doesn't work with generated Avro code"
"""Boris Shkolnik (JIRA)"" <jira@apache.org>","Thu, 26 Aug 2010 17:12:53 -0400 (EDT)","[jira] Created: (HADOOP-6931) Namenode start (init) fails because of invalid kerberos key, even when security set to ""simple"""
"Johannes Zillmann <jzillmann@googlemail.com>","Fri, 27 Aug 2010 00:02:41 +0200","Re: RawComparator of BooleanWritable broken ?"
"Eli Collins <eli@cloudera.com>","Thu, 26 Aug 2010 15:15:47 -0700","Re: RawComparator of BooleanWritable broken ?"
"Johannes Zillmann <jzillmann@googlemail.com>","Fri, 27 Aug 2010 09:07:17 +0200","Re: RawComparator of BooleanWritable broken ?"
"Hemanth Yamijala <yhemanth@gmail.com>","Fri, 27 Aug 2010 19:34:46 +0530","Re: where distributed cache start working"
"Eli Collins <eli@cloudera.com>","Fri, 27 Aug 2010 09:29:49 -0700","Re: RawComparator of BooleanWritable broken ?"
"Greg Roelofs <roelofs@yahoo-inc.com>","Fri, 27 Aug 2010 14:40:08 -0700","Re: RawComparator of BooleanWritable broken ?"
"""Todd Lipcon (JIRA)"" <jira@apache.org>","Fri, 27 Aug 2010 18:03:53 -0400 (EDT)","[jira] Created: (HADOOP-6933) TestListFiles is flaky"
"""Johannes Zillmann (JIRA)"" <jira@apache.org>","Sat, 28 Aug 2010 13:49:53 -0400 (EDT)","[jira] Created: (HADOOP-6934) test for ByteWritable comparator"
"Johannes Zillmann <jzillmann@googlemail.com>","Sat, 28 Aug 2010 19:57:18 +0200","Re: RawComparator of BooleanWritable broken ?"
"Himanshu Vashishtha <vashishtha.h@gmail.com>","Sun, 29 Aug 2010 00:02:41 -0600","data distribution"
"Johannes Zillmann <jzillmann@googlemail.com>","Sun, 29 Aug 2010 13:57:19 +0200","Re: RawComparator of BooleanWritable broken ?"
