"Developer","Date","Subject"
"Hui Fei <feihui.ustc@gmail.com>","Tue, 1 Nov 2016 10:53:05 +0800","any suggestions for HADOOP-13773"
"""Tianyin Xu (JIRA)"" <jira@apache.org>","Tue, 1 Nov 2016 05:11:58 +0000 (UTC)","[jira] [Created] (HADOOP-13777) Trim configuration values in `rumen`"
"""Genmao Yu (JIRA)"" <jira@apache.org>","Tue, 1 Nov 2016 09:37:58 +0000 (UTC)","[jira] [Created] (HADOOP-13778) Unit test failed in TestAliyunOSSContractCreate"
"Brahma Reddy Battula <brahmareddy.battula@huawei.com>","Tue, 1 Nov 2016 11:00:51 +0000","RE: [DISCUSS] Pre-commit build in Windows platform"
"""Steve Loughran (JIRA)"" <jira@apache.org>","Tue, 1 Nov 2016 11:31:58 +0000 (UTC)","[jira] [Created] (HADOOP-13779) s3a to skip s3 bucket existence check in initialize() for faster creation"
"Apache Jenkins Server <jenkins@builds.apache.org>","Tue, 1 Nov 2016 14:27:27 +0000 (UTC)","Apache Hadoop qbt Report: trunk+JDK8 on Linux/x86"
"""Sean Busbey (JIRA)"" <jira@apache.org>","Tue, 1 Nov 2016 15:15:59 +0000 (UTC)","[jira] [Created] (HADOOP-13780) LICENSE/NOTICE are out of date for source artifacts"
"""Steve Loughran (JIRA)"" <jira@apache.org>","Tue, 1 Nov 2016 16:08:58 +0000 (UTC)","[jira] [Resolved] (HADOOP-13729) switch to Configuration.getLongBytes for byte options"
"Allen Wittenauer <aw@effectivemachines.com>","Tue, 1 Nov 2016 09:42:02 -0700","Re: [DISCUSS] Pre-commit build in Windows platform"
"""Andres Perez (JIRA)"" <jira@apache.org>","Tue, 1 Nov 2016 19:01:58 +0000 (UTC)","[jira] [Created] (HADOOP-13781) ZKFailoverController#initZK should use the ActiveStanbyElector constructor with failFast as false"
"Apache Jenkins Server <jenkins@builds.apache.org>","Tue, 1 Nov 2016 19:03:34 +0000 (UTC)","Apache Hadoop qbt Report: trunk+JDK8 on Linux/ppc64le"
"""Erik Krogen (JIRA)"" <jira@apache.org>","Tue, 1 Nov 2016 21:10:58 +0000 (UTC)","[jira] [Created] (HADOOP-13782) Make MutableRates metrics thread-local write, aggregate-on-read"
"""NITIN VERMA (JIRA)"" <jira@apache.org>","Tue, 1 Nov 2016 23:07:58 +0000 (UTC)","[jira] [Created] (HADOOP-13783) Improve efficiency of WASB over page blobs"
"Andrew Wang <andrew.wang@cloudera.com>","Tue, 1 Nov 2016 16:31:51 -0700","Re: [DISCUSS] Release cadence and EOL"
"Zhe Zhang <zhe.zhang.research@gmail.com>","Wed, 02 Nov 2016 00:05:15 +0000","Re: Updated 2.8.0-SNAPSHOT artifact"
"""Andrew Wang (JIRA)"" <jira@apache.org>","Wed, 2 Nov 2016 00:48:58 +0000 (UTC)","[jira] [Created] (HADOOP-13784) Output javadoc inside the target directory"
"""Xiao Chen (JIRA)"" <jira@apache.org>","Wed, 2 Nov 2016 04:23:58 +0000 (UTC)","[jira] [Created] (HADOOP-13785) Clean up tests that conditionally handle IBM_JAVA"
"Steve Loughran <stevel@hortonworks.com>","Wed, 2 Nov 2016 14:04:51 +0000","Re: Updated 2.8.0-SNAPSHOT artifact"
"Apache Jenkins Server <jenkins@builds.apache.org>","Wed, 2 Nov 2016 14:47:08 +0000 (UTC)","Apache Hadoop qbt Report: trunk+JDK8 on Linux/x86"
"""Steve Loughran (JIRA)"" <jira@apache.org>","Wed, 2 Nov 2016 18:16:58 +0000 (UTC)","[jira] [Created] (HADOOP-13786) add output committer which uses s3guard for consistent O(1) commits to S3"
"""Steve Loughran (JIRA)"" <jira@apache.org>","Wed, 2 Nov 2016 18:28:59 +0000 (UTC)","[jira] [Resolved] (HADOOP-13712) S3A open to avoid needless HEAD on the successful execution path"
"Apache Jenkins Server <jenkins@builds.apache.org>","Wed, 2 Nov 2016 19:32:42 +0000 (UTC)","Apache Hadoop qbt Report: trunk+JDK8 on Linux/ppc64le"
"""Andrew Wang (JIRA)"" <jira@apache.org>","Wed, 2 Nov 2016 20:46:59 +0000 (UTC)","[jira] [Reopened] (HADOOP-13717) Normalize daemonization behavior of the diskbalancer with balancer and mover"
"""Andrew Wang (JIRA)"" <jira@apache.org>","Wed, 2 Nov 2016 20:47:59 +0000 (UTC)","[jira] [Resolved] (HADOOP-13717) Normalize daemonization behavior of the diskbalancer with balancer and mover"
"""John Zhuge (JIRA)"" <jira@apache.org>","Thu, 3 Nov 2016 00:22:59 +0000 (UTC)","[jira] [Created] (HADOOP-13787) testGlobStatusThrowsExceptionForUnreadableDir failed"
"""xluren (JIRA)"" <jira@apache.org>","Thu, 3 Nov 2016 06:16:00 +0000 (UTC)","[jira] [Created] (HADOOP-13788) datatransfer.Receiver.processOp error"
"""Sean Busbey (JIRA)"" <jira@apache.org>","Thu, 3 Nov 2016 07:43:59 +0000 (UTC)","[jira] [Created] (HADOOP-13789) Hadoop Common includes generated test protos in both jar and test-jar"
"Apache Jenkins Server <jenkins@builds.apache.org>","Thu, 3 Nov 2016 14:22:37 +0000 (UTC)","Apache Hadoop qbt Report: trunk+JDK8 on Linux/x86"
"""Andrew Wang (JIRA)"" <jira@apache.org>","Thu, 3 Nov 2016 19:04:58 +0000 (UTC)","[jira] [Created] (HADOOP-13790) Make qbt script executable"
"""ramtin (JIRA)"" <jira@apache.org>","Thu, 3 Nov 2016 19:24:58 +0000 (UTC)","[jira] [Created] (HADOOP-13791) Filtering endpoints based on the region for Identity API v3"
"Apache Jenkins Server <jenkins@builds.apache.org>","Thu, 3 Nov 2016 20:38:58 +0000 (UTC)","Apache Hadoop qbt Report: trunk+JDK8 on Linux/ppc64le"
"""Aaron Fabbri (JIRA)"" <jira@apache.org>","Thu, 3 Nov 2016 22:47:00 +0000 (UTC)","[jira] [Created] (HADOOP-13793) s3guard: add inconsistency injection, integration tests"
"""Xiao Chen (JIRA)"" <jira@apache.org>","Thu, 3 Nov 2016 23:17:59 +0000 (UTC)","[jira] [Reopened] (HADOOP-7930) Kerberos relogin interval in UserGroupInformation should be configurable"
"""Sean Busbey (JIRA)"" <jira@apache.org>","Fri, 4 Nov 2016 04:39:58 +0000 (UTC)","[jira] [Created] (HADOOP-13794) JSON.org license is now CatX"
"Apache Jenkins Server <jenkins@builds.apache.org>","Fri, 4 Nov 2016 14:25:03 +0000 (UTC)","Apache Hadoop qbt Report: trunk+JDK8 on Linux/x86"
"""Kihwal Lee (JIRA)"" <jira@apache.org>","Fri, 4 Nov 2016 14:33:58 +0000 (UTC)","[jira] [Resolved] (HADOOP-13788) datatransfer.Receiver.processOp error"
"""John Zhuge (JIRA)"" <jira@apache.org>","Fri, 4 Nov 2016 16:03:58 +0000 (UTC)","[jira] [Created] (HADOOP-13795) Skip testGlobStatusThrowsExceptionForUnreadableDir in TestFSMainOperationsSwift"
"""Owen O'Malley"" <omalley@apache.org>","Fri, 4 Nov 2016 10:24:57 -0700","Hadoop Summit EU 2017"
"Sangjin Lee <sjlee@apache.org>","Fri, 4 Nov 2016 10:33:31 -0700","Re: [DISCUSS] Release cadence and EOL"
"Apache Jenkins Server <jenkins@builds.apache.org>","Fri, 4 Nov 2016 18:52:06 +0000 (UTC)","Apache Hadoop qbt Report: trunk+JDK8 on Linux/ppc64le"
"Andrew Wang <andrew.wang@cloudera.com>","Fri, 4 Nov 2016 12:09:31 -0700","Re: [DISCUSS] Release cadence and EOL"
"Jason Lowe <jlowe@yahoo-inc.com.INVALID>","Fri, 4 Nov 2016 22:38:56 +0000 (UTC)","Re: Updated 2.8.0-SNAPSHOT artifact"
"""Xiaoyu Yao (JIRA)"" <jira@apache.org>","Fri, 4 Nov 2016 23:01:03 +0000 (UTC)","[jira] [Reopened] (HADOOP-13565) KerberosAuthenticationHandler#authenticate should not rebuild SPN based on client request"
"Brahma Reddy Battula <brahmareddy.battula@hotmail.com>","Sat, 5 Nov 2016 08:36:16 +0000","[DISCUSS] Commit log Pattern Unification"
"Apache Jenkins Server <jenkins@builds.apache.org>","Sat, 5 Nov 2016 14:45:58 +0000 (UTC)","Apache Hadoop qbt Report: trunk+JDK8 on Linux/x86"
"""Bhavan Jindal (JIRA)"" <jira@apache.org>","Sat, 5 Nov 2016 16:52:58 +0000 (UTC)","[jira] [Created] (HADOOP-13796) Standby namenode didnot change its role"
"Apache Jenkins Server <jenkins@builds.apache.org>","Sat, 5 Nov 2016 18:51:36 +0000 (UTC)","Apache Hadoop qbt Report: trunk+JDK8 on Linux/ppc64le"
"Apache Jenkins Server <jenkins@builds.apache.org>","Sun, 6 Nov 2016 14:11:03 +0000 (UTC)","Apache Hadoop qbt Report: trunk+JDK8 on Linux/x86"
"""Christine Koppelt (JIRA)"" <jira@apache.org>","Sun, 6 Nov 2016 16:49:58 +0000 (UTC)","[jira] [Created] (HADOOP-13797) Remove hardcoded absolute path for ls"
"Apache Jenkins Server <jenkins@builds.apache.org>","Sun, 6 Nov 2016 18:49:16 +0000 (UTC)","Apache Hadoop qbt Report: trunk+JDK8 on Linux/ppc64le"
"Akira Ajisaka <ajisakaa@oss.nttdata.co.jp>","Mon, 7 Nov 2016 11:40:46 +0900","Re: [DISCUSS] Commit log Pattern Unification"
"Daniel Templeton <daniel@cloudera.com>","Sun, 6 Nov 2016 20:01:37 -0800","Re: [DISCUSS] Commit log Pattern Unification"
"Daniel Templeton <daniel@cloudera.com>","Sun, 6 Nov 2016 20:18:25 -0800","Re: [DISCUSS] Commit log Pattern Unification"
"""Akira Ajisaka (JIRA)"" <jira@apache.org>","Mon, 7 Nov 2016 04:41:59 +0000 (UTC)","[jira] [Created] (HADOOP-13798) TestHadoopArchives times out"
"Steve Loughran <stevel@hortonworks.com>","Mon, 7 Nov 2016 10:25:26 +0000","Re: Updated 2.8.0-SNAPSHOT artifact"
"""Rajat Khandelwal (JIRA)"" <jira@apache.org>","Mon, 7 Nov 2016 11:55:58 +0000 (UTC)","[jira] [Created] (HADOOP-13799) org.apache.hadoop.conf.Configuration#getClasses doesn't return the default classes passed"
"""Akira Ajisaka (JIRA)"" <jira@apache.org>","Mon, 7 Nov 2016 14:04:58 +0000 (UTC)","[jira] [Created] (HADOOP-13800) Remove unused HADOOP_AUDIT_LOGGER from hadoop-env.sh"
"Apache Jenkins Server <jenkins@builds.apache.org>","Mon, 7 Nov 2016 14:40:49 +0000 (UTC)","Apache Hadoop qbt Report: trunk+JDK8 on Linux/x86"
"""Kihwal Lee (JIRA)"" <jira@apache.org>","Mon, 7 Nov 2016 14:47:58 +0000 (UTC)","[jira] [Resolved] (HADOOP-13796) Standby namenode didnot change its role"
"""Steve Loughran (JIRA)"" <jira@apache.org>","Mon, 7 Nov 2016 15:14:59 +0000 (UTC)","[jira] [Created] (HADOOP-13801) regression: ITestS3AMiniYarnCluster failing"
"""Steve Loughran (JIRA)"" <jira@apache.org>","Mon, 7 Nov 2016 18:10:59 +0000 (UTC)","[jira] [Resolved] (HADOOP-9680) Extend S3FS and S3NativeFS to work with AWS IAM Temporary Security Credentials"
"Steve Loughran <stevel@hortonworks.com>","Mon, 7 Nov 2016 18:14:18 +0000","Json.org licensing, amazon-AWS and Jackson versions"
"""Grant Sohn (JIRA)"" <jira@apache.org>","Mon, 7 Nov 2016 18:31:58 +0000 (UTC)","[jira] [Created] (HADOOP-13802) Make generic options help more consistent, and aligned"
"Sangjin Lee <sjlee0@gmail.com>","Mon, 7 Nov 2016 10:37:09 -0800","Re: Updated 2.8.0-SNAPSHOT artifact"
"""Andrew Wang (JIRA)"" <jira@apache.org>","Mon, 7 Nov 2016 19:01:01 +0000 (UTC)","[jira] [Created] (HADOOP-13803) Revert HADOOP-13081 add the ability to create multiple UGIs/subjects from one kerberos login"
"""Andrew Wang (JIRA)"" <jira@apache.org>","Mon, 7 Nov 2016 19:01:58 +0000 (UTC)","[jira] [Resolved] (HADOOP-13803) Revert HADOOP-13081 add the ability to create multiple UGIs/subjects from one kerberos login"
"Andrew Wang <andrew.wang@cloudera.com>","Mon, 7 Nov 2016 11:14:53 -0800","Re: Json.org licensing, amazon-AWS and Jackson versions"
"Ravi Prakash <ravihadoop@gmail.com>","Mon, 7 Nov 2016 11:29:26 -0800","Re: [DISCUSS] Commit log Pattern Unification"
"Andrew Wang <andrew.wang@cloudera.com>","Mon, 7 Nov 2016 11:35:49 -0800","Re: [DISCUSS] Commit log Pattern Unification"
"Allen Wittenauer <aw@effectivemachines.com>","Mon, 7 Nov 2016 11:38:21 -0800","Re: [DISCUSS] Commit log Pattern Unification"
"Ravi Prakash <ravihadoop@gmail.com>","Mon, 7 Nov 2016 11:45:45 -0800","Re: [DISCUSS] Commit log Pattern Unification"
"Andrew Wang <andrew.wang@cloudera.com>","Mon, 7 Nov 2016 11:59:15 -0800","Re: [DISCUSS] Commit log Pattern Unification"
"Andrew Wang <andrew.wang@cloudera.com>","Mon, 7 Nov 2016 14:31:02 -0800","Re: Json.org licensing, amazon-AWS and Jackson versions"
"""Erik Krogen (JIRA)"" <jira@apache.org>","Mon, 7 Nov 2016 22:49:59 +0000 (UTC)","[jira] [Created] (HADOOP-13804) MutableStat mean loses accuracy if add(long, long) is used"
"Akira Ajisaka <ajisakaa@oss.nttdata.co.jp>","Tue, 8 Nov 2016 11:05:16 +0900","Re: [DISCUSS] Commit log Pattern Unification"
"Steve Loughran <stevel@hortonworks.com>","Tue, 8 Nov 2016 11:04:01 +0000","Re: Json.org licensing, amazon-AWS and Jackson versions"
"Apache Jenkins Server <jenkins@builds.apache.org>","Tue, 8 Nov 2016 14:23:45 +0000 (UTC)","Apache Hadoop qbt Report: trunk+JDK8 on Linux/x86"
"Apache Jenkins Server <jenkins@builds.apache.org>","Tue, 8 Nov 2016 18:36:51 +0000 (UTC)","Apache Hadoop qbt Report: trunk+JDK8 on Linux/ppc64le"
"Sean Busbey <busbey@cloudera.com>","Tue, 8 Nov 2016 17:54:17 -0600","[NOTICE] breaking precommit checks"
"Sean Busbey <busbey@cloudera.com>","Tue, 8 Nov 2016 19:00:33 -0600","Re: [NOTICE] breaking precommit checks"
"Sasaki Kai <lewuathe@me.com>","Wed, 09 Nov 2016 22:38:55 +0900","Multiple node Hadoop cluster on Docker for test and debugging"
"Apache Jenkins Server <jenkins@builds.apache.org>","Wed, 9 Nov 2016 15:49:57 +0000 (UTC)","Apache Hadoop qbt Report: trunk+JDK8 on Linux/x86"
"Zhe Zhang <zhe.zhang.research@gmail.com>","Wed, 09 Nov 2016 17:30:35 +0000","Re: Multiple node Hadoop cluster on Docker for test and debugging"
"Apache Jenkins Server <jenkins@builds.apache.org>","Wed, 9 Nov 2016 18:54:22 +0000 (UTC)","Apache Hadoop qbt Report: trunk+JDK8 on Linux/ppc64le"
"Mingliang Liu <liuml07@apache.org>","Wed, 9 Nov 2016 11:15:51 -0800","Re: Multiple node Hadoop cluster on Docker for test and debugging"
"Ming Ma <mingma@twitter.com.INVALID>","Wed, 9 Nov 2016 12:06:02 -0800","Re: Updated 2.8.0-SNAPSHOT artifact"
"Roman Shaposhnik <rvs@apache.org>","Wed, 9 Nov 2016 16:07:36 -0800","Re: Multiple node Hadoop cluster on Docker for test and debugging"
"Karthik Kambatla <kasha@cloudera.com>","Wed, 9 Nov 2016 23:11:29 -0800","Re: [DISCUSS] Release cadence and EOL"
"Karthik Kambatla <kasha@cloudera.com>","Wed, 9 Nov 2016 23:56:30 -0800","Re: Updated 2.8.0-SNAPSHOT artifact"
"""Alejandro Abdelnur (JIRA)"" <jira@apache.org>","Thu, 10 Nov 2016 08:52:01 +0000 (UTC)","[jira] [Created] (HADOOP-13805) UGI.getCurrentUser() fails if user does not have a keytab associated"
"""Naganarasimha G R (JIRA)"" <jira@apache.org>","Thu, 10 Nov 2016 13:30:58 +0000 (UTC)","[jira] [Created] (HADOOP-13806) MetricsSourceBuilder doesn't set hasAtMetric when the Source object is reregistered"
"""Alejandro Abdelnur (JIRA)"" <jira@apache.org>","Thu, 10 Nov 2016 13:52:59 +0000 (UTC)","[jira] [Created] (HADOOP-13807) UGI renewal thread should be spawn only if the keytaab is not external"
"Eric Payne <erichadoop-1@yahoo.com.INVALID>","Thu, 10 Nov 2016 14:16:31 +0000 (UTC)","Re: Updated 2.8.0-SNAPSHOT artifact"
"Apache Jenkins Server <jenkins@builds.apache.org>","Thu, 10 Nov 2016 14:25:55 +0000 (UTC)","Apache Hadoop qbt Report: trunk+JDK8 on Linux/x86"
"Apache Jenkins Server <jenkins@builds.apache.org>","Thu, 10 Nov 2016 18:39:50 +0000 (UTC)","Apache Hadoop qbt Report: trunk+JDK8 on Linux/ppc64le"
"Sangjin Lee <sjlee0@gmail.com>","Thu, 10 Nov 2016 15:49:59 -0800","Re: Updated 2.8.0-SNAPSHOT artifact"
"Sangjin Lee <sjlee0@gmail.com>","Thu, 10 Nov 2016 15:51:56 -0800","Re: Updated 2.8.0-SNAPSHOT artifact"
"Zhe Zhang <zhz@apache.org>","Fri, 11 Nov 2016 00:00:00 +0000","Jenkins patch-compile fails on trunk"
"Wangda Tan <wheeleast@gmail.com>","Thu, 10 Nov 2016 16:38:30 -0800","Re: Jenkins patch-compile fails on trunk"
"Sunil Govind <sunil.govind@gmail.com>","Fri, 11 Nov 2016 09:22:38 +0000","Re: Jenkins patch-compile fails on trunk"
"""Steve Loughran (JIRA)"" <jira@apache.org>","Fri, 11 Nov 2016 11:59:58 +0000 (UTC)","[jira] [Created] (HADOOP-13808) replace `Can't get Master Kerberos principal` message with useful information about principal and configuration item"
"Apache Jenkins Server <jenkins@builds.apache.org>","Fri, 11 Nov 2016 14:56:16 +0000 (UTC)","Apache Hadoop qbt Report: trunk+JDK8 on Linux/x86"
"""Adriano (JIRA)"" <jira@apache.org>","Fri, 11 Nov 2016 16:29:58 +0000 (UTC)","[jira] [Created] (HADOOP-13809) hive: 'java.lang.IllegalStateException(zip file closed)'"
"""Steve Loughran (JIRA)"" <jira@apache.org>","Fri, 11 Nov 2016 17:30:00 +0000 (UTC)","[jira] [Created] (HADOOP-13810) Add a test to verify that Configuration handles &-encoded characters"
"""Steve Loughran (JIRA)"" <jira@apache.org>","Fri, 11 Nov 2016 18:28:58 +0000 (UTC)","[jira] [Created] (HADOOP-13811) s3a: getFileStatus fails with com.amazonaws.AmazonClientException: Failed to sanitize XML document destined for handler class"
"Apache Jenkins Server <jenkins@builds.apache.org>","Fri, 11 Nov 2016 18:39:39 +0000 (UTC)","Apache Hadoop qbt Report: trunk+JDK8 on Linux/ppc64le"
"""John Zhuge (JIRA)"" <jira@apache.org>","Sat, 12 Nov 2016 04:40:58 +0000 (UTC)","[jira] [Created] (HADOOP-13812) Upgrade Tomcat to 6.0.47 for security fixes"
"""Mingliang Liu (JIRA)"" <jira@apache.org>","Sat, 12 Nov 2016 05:54:58 +0000 (UTC)","[jira] [Created] (HADOOP-13813) TestDelegationTokenFetcher#testDelegationTokenWithoutRenewer is failing"
"""Lantao Jin (JIRA)"" <jira@apache.org>","Sat, 12 Nov 2016 08:39:58 +0000 (UTC)","[jira] Lantao Jin shared ""HDFS-11111: Delete something in  .Trash using ""rm"" should be forbidden without safety option "" with you"
"Apache Jenkins Server <jenkins@builds.apache.org>","Sat, 12 Nov 2016 14:31:36 +0000 (UTC)","Apache Hadoop qbt Report: trunk+JDK8 on Linux/x86"
"Apache Jenkins Server <jenkins@builds.apache.org>","Sat, 12 Nov 2016 18:41:46 +0000 (UTC)","Apache Hadoop qbt Report: trunk+JDK8 on Linux/ppc64le"
"Sasaki Kai <lewuathe@me.com>","Sun, 13 Nov 2016 12:17:34 +0900","Re: Multiple node Hadoop cluster on Docker for test and debugging"
"""Masahiro Tanaka (JIRA)"" <jira@apache.org>","Sun, 13 Nov 2016 08:21:58 +0000 (UTC)","[jira] [Created] (HADOOP-13814) A sample configuration of KMS HTTP Authentication signature is misleading will lead to misunderstanding"
"Apache Jenkins Server <jenkins@builds.apache.org>","Sun, 13 Nov 2016 15:19:12 +0000 (UTC)","Apache Hadoop qbt Report: trunk+JDK8 on Linux/x86"
"Apache Jenkins Server <jenkins@builds.apache.org>","Sun, 13 Nov 2016 18:42:31 +0000 (UTC)","Apache Hadoop qbt Report: trunk+JDK8 on Linux/ppc64le"
"""Brahma Reddy Battula (JIRA)"" <jira@apache.org>","Mon, 14 Nov 2016 06:48:00 +0000 (UTC)","[jira] [Created] (HADOOP-13815) TestKMS#testDelegationTokensOpsSimple and TestKMS#testDelegationTokensOpsKerberized Fails in Trunk"
"""Kai Sasaki (JIRA)"" <jira@apache.org>","Mon, 14 Nov 2016 11:36:02 +0000 (UTC)","[jira] [Created] (HADOOP-13816) Ambiguous plugin version warning from maven build."
"""Harsh J (JIRA)"" <jira@apache.org>","Mon, 14 Nov 2016 11:49:58 +0000 (UTC)","[jira] [Created] (HADOOP-13817) Add a finite shell command timeout to ShellBasedUnixGroupsMapping"
"Apache Jenkins Server <jenkins@builds.apache.org>","Mon, 14 Nov 2016 15:14:12 +0000 (UTC)","Apache Hadoop qbt Report: trunk+JDK8 on Linux/x86"
"Apache Jenkins Server <jenkins@builds.apache.org>","Mon, 14 Nov 2016 18:48:31 +0000 (UTC)","Apache Hadoop qbt Report: trunk+JDK8 on Linux/ppc64le"
"""Akira Ajisaka (JIRA)"" <jira@apache.org>","Tue, 15 Nov 2016 02:20:58 +0000 (UTC)","[jira] [Created] (HADOOP-13818) TestLocalFileSystem#testSetTimes fails"
"""Xiao Chen (JIRA)"" <jira@apache.org>","Tue, 15 Nov 2016 02:29:58 +0000 (UTC)","[jira] [Created] (HADOOP-13819) Directory Scanner should log startup message time correctly"
"Apache Jenkins Server <jenkins@builds.apache.org>","Tue, 15 Nov 2016 14:33:43 +0000 (UTC)","Apache Hadoop qbt Report: trunk+JDK8 on Linux/x86"
"Apache Jenkins Server <jenkins@builds.apache.org>","Tue, 15 Nov 2016 18:48:37 +0000 (UTC)","Apache Hadoop qbt Report: trunk+JDK8 on Linux/ppc64le"
"Apache Jenkins Server <jenkins@builds.apache.org>","Wed, 16 Nov 2016 15:11:23 +0000 (UTC)","Apache Hadoop qbt Report: trunk+JDK8 on Linux/x86"
"Apache Jenkins Server <jenkins@builds.apache.org>","Wed, 16 Nov 2016 19:05:28 +0000 (UTC)","Apache Hadoop qbt Report: trunk+JDK8 on Linux/ppc64le"
"""Andrew Wang (JIRA)"" <jira@apache.org>","Wed, 16 Nov 2016 21:59:58 +0000 (UTC)","[jira] [Resolved] (HADOOP-13543) [Umbrella] Analyse 2.8.0 and 3.0.0-alpha1 jdiff reports and fix any issues"
"""Andrew Wang (JIRA)"" <jira@apache.org>","Wed, 16 Nov 2016 22:01:58 +0000 (UTC)","[jira] [Resolved] (HADOOP-13423) Run JDiff on trunk for Hadoop-Common and analyze results"
"""Karthik Kambatla (JIRA)"" <jira@apache.org>","Wed, 16 Nov 2016 22:43:58 +0000 (UTC)","[jira] [Created] (HADOOP-13821) Improve findbugs rules to not require trivially overriding equals and hashCode methods"
"""Brahma Reddy Battula (JIRA)"" <jira@apache.org>","Thu, 17 Nov 2016 02:57:58 +0000 (UTC)","[jira] [Created] (HADOOP-13822) Use GlobalStorageStatistics.INSTANCE.reset() at FileSystem#clearStatistics()"
"""Steve Loughran (JIRA)"" <jira@apache.org>","Thu, 17 Nov 2016 10:13:58 +0000 (UTC)","[jira] [Created] (HADOOP-13823) s3a rename onto existing file must fail"
"""Rob Vesse (JIRA)"" <jira@apache.org>","Thu, 17 Nov 2016 10:59:59 +0000 (UTC)","[jira] [Created] (HADOOP-13824) FsShell can suppress the real error if no error message is present"
"Apache Jenkins Server <jenkins@builds.apache.org>","Thu, 17 Nov 2016 11:48:50 +0000 (UTC)","Apache Hadoop qbt Report: trunk+JDK8 on Linux/x86"
"""Tom James (JIRA)"" <jira@apache.org>","Thu, 17 Nov 2016 17:23:58 +0000 (UTC)","[jira] [Created] (HADOOP-13825) KMSClientProvider is not using truststore and keystore provided in ssl-client.xml"
"Apache Jenkins Server <jenkins@builds.apache.org>","Thu, 17 Nov 2016 18:29:45 +0000 (UTC)","Apache Hadoop qbt Report: trunk+JDK8 on Linux/ppc64le"
"Brahma Reddy Battula <brahmareddy.battula@huawei.com>","Fri, 18 Nov 2016 09:08:41 +0000","RE: [DISCUSS] Commit log Pattern Unification"
"Antonios Kouzoupis <kouzoupis.ant@gmail.com>","Fri, 18 Nov 2016 10:29:14 +0100","Hadoop RPC/IPC server SSL support"
"Apache Jenkins Server <jenkins@builds.apache.org>","Fri, 18 Nov 2016 14:27:59 +0000 (UTC)","Apache Hadoop qbt Report: trunk+JDK8 on Linux/x86"
"Apache Jenkins Server <jenkins@builds.apache.org>","Fri, 18 Nov 2016 18:38:21 +0000 (UTC)","Apache Hadoop qbt Report: trunk+JDK8 on Linux/ppc64le"
"Apache Jenkins Server <jenkins@builds.apache.org>","Sat, 19 Nov 2016 14:38:45 +0000 (UTC)","Apache Hadoop qbt Report: trunk+JDK8 on Linux/x86"
"Apache Jenkins Server <jenkins@builds.apache.org>","Sat, 19 Nov 2016 18:36:49 +0000 (UTC)","Apache Hadoop qbt Report: trunk+JDK8 on Linux/ppc64le"
"Apache Jenkins Server <jenkins@builds.apache.org>","Sun, 20 Nov 2016 14:32:01 +0000 (UTC)","Apache Hadoop qbt Report: trunk+JDK8 on Linux/x86"
"Apache Jenkins Server <jenkins@builds.apache.org>","Sun, 20 Nov 2016 18:33:24 +0000 (UTC)","Apache Hadoop qbt Report: trunk+JDK8 on Linux/ppc64le"
"Apache Jenkins Server <jenkins@builds.apache.org>","Mon, 21 Nov 2016 15:12:34 +0000 (UTC)","Apache Hadoop qbt Report: trunk+JDK8 on Linux/x86"
"Apache Jenkins Server <jenkins@builds.apache.org>","Mon, 21 Nov 2016 18:32:14 +0000 (UTC)","Apache Hadoop qbt Report: trunk+JDK8 on Linux/ppc64le"
"""Sean Mackrory (JIRA)"" <jira@apache.org>","Mon, 21 Nov 2016 20:16:00 +0000 (UTC)","[jira] [Created] (HADOOP-13826) [s3a] Deadlock possible using Amazon S3 SDK"
"""Andrew Wang (JIRA)"" <jira@apache.org>","Tue, 22 Nov 2016 01:57:58 +0000 (UTC)","[jira] [Resolved] (HADOOP-13663) Index out of range in SysInfoWindows"
"""Andrew Wang (JIRA)"" <jira@apache.org>","Tue, 22 Nov 2016 01:57:58 +0000 (UTC)","[jira] [Reopened] (HADOOP-13663) Index out of range in SysInfoWindows"
"Andrew Wang <andrew.wang@cloudera.com>","Mon, 21 Nov 2016 18:05:22 -0800","Re: [DISCUSS] Commit log Pattern Unification"
"Apache Jenkins Server <jenkins@builds.apache.org>","Tue, 22 Nov 2016 14:48:27 +0000 (UTC)","Apache Hadoop qbt Report: trunk+JDK8 on Linux/x86"
"Apache Jenkins Server <jenkins@builds.apache.org>","Tue, 22 Nov 2016 18:45:15 +0000 (UTC)","Apache Hadoop qbt Report: trunk+JDK8 on Linux/ppc64le"
"""Manoj Govindassamy (JIRA)"" <jira@apache.org>","Wed, 23 Nov 2016 02:01:01 +0000 (UTC)","[jira] [Created] (HADOOP-13828) Implement getFileChecksum(path, length) for ViewFileSystem"
"""Steve Loughran (JIRA)"" <jira@apache.org>","Wed, 23 Nov 2016 12:03:58 +0000 (UTC)","[jira] [Created] (HADOOP-13829) S3A getContentSummary to use flat listFiles instead of treewalk"
"""Steve Loughran (JIRA)"" <jira@apache.org>","Wed, 23 Nov 2016 13:52:59 +0000 (UTC)","[jira] [Created] (HADOOP-13830) intermittent failure of ITestS3NContractRootDir.testRecursiveRootListing: ""Can not create a Path from an empty string"""
"Apache Jenkins Server <jenkins@builds.apache.org>","Wed, 23 Nov 2016 15:06:46 +0000 (UTC)","Apache Hadoop qbt Report: trunk+JDK8 on Linux/x86"
"Apache Jenkins Server <jenkins@builds.apache.org>","Wed, 23 Nov 2016 18:40:52 +0000 (UTC)","Apache Hadoop qbt Report: trunk+JDK8 on Linux/ppc64le"
"""Gaurav Kanade (JIRA)"" <jira@apache.org>","Wed, 23 Nov 2016 19:37:58 +0000 (UTC)","[jira] [Created] (HADOOP-13831) Correct check for error code to detect Azure Storage Throttling and provide retries"
"""Gary Helmling (JIRA)"" <jira@apache.org>","Wed, 23 Nov 2016 23:12:58 +0000 (UTC)","[jira] [Created] (HADOOP-13832) Implement a file-based GroupMappingServiceProvider"
"Akira Ajisaka <ajisakaa@oss.nttdata.co.jp>","Thu, 24 Nov 2016 16:11:32 +0900","Re: Updated 2.8.0-SNAPSHOT artifact"
"Apache Jenkins Server <jenkins@builds.apache.org>","Thu, 24 Nov 2016 14:42:48 +0000 (UTC)","Apache Hadoop qbt Report: trunk+JDK8 on Linux/x86"
"""Brahma Reddy Battula (JIRA)"" <jira@apache.org>","Thu, 24 Nov 2016 16:02:58 +0000 (UTC)","[jira] [Created] (HADOOP-13833) TestSymlinkHdfsFileSystem#testCreateLinkUsingPartQualPath2 fails after HADOOP13605"
"""Steve Loughran (JIRA)"" <jira@apache.org>","Thu, 24 Nov 2016 17:23:59 +0000 (UTC)","[jira] [Created] (HADOOP-13834) use categories for s3a scale"
"Apache Jenkins Server <jenkins@builds.apache.org>","Thu, 24 Nov 2016 19:31:05 +0000 (UTC)","Apache Hadoop qbt Report: trunk+JDK8 on Linux/ppc64le"
"Apache Jenkins Server <jenkins@builds.apache.org>","Fri, 25 Nov 2016 15:08:45 +0000 (UTC)","Apache Hadoop qbt Report: trunk+JDK8 on Linux/x86"
"Apache Jenkins Server <jenkins@builds.apache.org>","Fri, 25 Nov 2016 18:40:54 +0000 (UTC)","Apache Hadoop qbt Report: trunk+JDK8 on Linux/ppc64le"
"""Akira Ajisaka (JIRA)"" <jira@apache.org>","Sat, 26 Nov 2016 02:06:58 +0000 (UTC)","[jira] [Resolved] (HADOOP-9024) Unit Test: TestKerberosAuthenticator fails when tested  with ant-1.8.4"
"""Akira Ajisaka (JIRA)"" <jira@apache.org>","Sat, 26 Nov 2016 02:06:58 +0000 (UTC)","[jira] [Resolved] (HADOOP-9843) Backport TestDiskChecker to branch-1."
"Apache Jenkins Server <jenkins@builds.apache.org>","Sat, 26 Nov 2016 14:38:31 +0000 (UTC)","Apache Hadoop qbt Report: trunk+JDK8 on Linux/x86"
"Apache Jenkins Server <jenkins@builds.apache.org>","Sat, 26 Nov 2016 18:37:59 +0000 (UTC)","Apache Hadoop qbt Report: trunk+JDK8 on Linux/ppc64le"
"John Zhuge <jzhuge@cloudera.com>","Sat, 26 Nov 2016 12:52:38 -0800","DI framework"
"John Zhuge <jzhuge@cloudera.com>","Sat, 26 Nov 2016 14:23:09 -0800","Re: DI framework"
"Saikat Kanjilal <sxk1969@hotmail.com>","Sat, 26 Nov 2016 22:37:39 +0000","Re: DI framework"
"Apache Jenkins Server <jenkins@builds.apache.org>","Sun, 27 Nov 2016 14:26:54 +0000 (UTC)","Apache Hadoop qbt Report: trunk+JDK8 on Linux/x86"
"Apache Jenkins Server <jenkins@builds.apache.org>","Sun, 27 Nov 2016 18:37:26 +0000 (UTC)","Apache Hadoop qbt Report: trunk+JDK8 on Linux/ppc64le"
"""Varun Vasudev (JIRA)"" <jira@apache.org>","Mon, 28 Nov 2016 04:09:58 +0000 (UTC)","[jira] [Created] (HADOOP-13835) Move Google Test Framework code from mapreduce to hadoop-common"
"""kartheek muthyala (JIRA)"" <jira@apache.org>","Mon, 28 Nov 2016 11:26:59 +0000 (UTC)","[jira] [Created] (HADOOP-13836) Securing Hadoop RPC using SSL"
"Apache Jenkins Server <jenkins@builds.apache.org>","Mon, 28 Nov 2016 14:26:10 +0000 (UTC)","Apache Hadoop qbt Report: trunk+JDK8 on Linux/x86"
"""Weiwei Yang (JIRA)"" <jira@apache.org>","Mon, 28 Nov 2016 17:11:58 +0000 (UTC)","[jira] [Created] (HADOOP-13837) Process check bug in hadoop_stop_daemon"
"Apache Jenkins Server <jenkins@builds.apache.org>","Mon, 28 Nov 2016 18:38:07 +0000 (UTC)","Apache Hadoop qbt Report: trunk+JDK8 on Linux/ppc64le"
"""Xiao Chen (JIRA)"" <jira@apache.org>","Mon, 28 Nov 2016 21:09:58 +0000 (UTC)","[jira] [Created] (HADOOP-13838) KMSTokenRenewer should close providers"
"Andrew Wang <andrew.wang@cloudera.com>","Mon, 28 Nov 2016 14:18:06 -0800","Hadoop 3 status wiki page"
"""Masatake Iwasaki (JIRA)"" <jira@apache.org>","Mon, 28 Nov 2016 23:34:59 +0000 (UTC)","[jira] [Created] (HADOOP-13839) Fix outdated tracing documentation"
"""Manoj Govindassamy (JIRA)"" <jira@apache.org>","Tue, 29 Nov 2016 02:08:58 +0000 (UTC)","[jira] [Created] (HADOOP-13840) Implement getUsed() for ViewFileSystem"
"""Steve Loughran (JIRA)"" <jira@apache.org>","Tue, 29 Nov 2016 12:35:58 +0000 (UTC)","[jira] [Created] (HADOOP-13841) S3a auth exception to link to a wiki page on the problem"
"""Akira Ajisaka (JIRA)"" <jira@apache.org>","Tue, 29 Nov 2016 12:39:58 +0000 (UTC)","[jira] [Created] (HADOOP-13842) Update jackson from 1.9.13 to 2.x in hadoop-maven-plugins"
"Apache Jenkins Server <jenkins@builds.apache.org>","Tue, 29 Nov 2016 14:39:22 +0000 (UTC)","Apache Hadoop qbt Report: trunk+JDK8 on Linux/x86"
"""Steve Loughran (JIRA)"" <jira@apache.org>","Tue, 29 Nov 2016 15:49:58 +0000 (UTC)","[jira] [Created] (HADOOP-13843) S3Guard, MetadataStore to support atomic create(path, overwrite=false)"
"""Steve Loughran (JIRA)"" <jira@apache.org>","Tue, 29 Nov 2016 16:21:58 +0000 (UTC)","[jira] [Created] (HADOOP-13844) Move swift duration stats tracking to hadoop common utils"
"""Steve Loughran (JIRA)"" <jira@apache.org>","Tue, 29 Nov 2016 16:26:58 +0000 (UTC)","[jira] [Created] (HADOOP-13845) s3a to instrument duration of HTTP calls"
"Apache Jenkins Server <jenkins@builds.apache.org>","Tue, 29 Nov 2016 18:43:47 +0000 (UTC)","Apache Hadoop qbt Report: trunk+JDK8 on Linux/ppc64le"
"""Steve Loughran (JIRA)"" <jira@apache.org>","Tue, 29 Nov 2016 19:54:59 +0000 (UTC)","[jira] [Created] (HADOOP-13846) S3A to implement rename(final Path src, final Path dst, final Rename... options)"
"""Anthony Young-Garner (JIRA)"" <jira@apache.org>","Tue, 29 Nov 2016 20:29:58 +0000 (UTC)","[jira] [Created] (HADOOP-13847) KMSWebApp should close KeyProviderCryptoExtension"
"Junping Du <jdu@hortonworks.com>","Wed, 30 Nov 2016 04:50:19 +0000","[Continued] [Release thread] 2.8.0 release activities"
"""John Zhuge (JIRA)"" <jira@apache.org>","Wed, 30 Nov 2016 06:12:58 +0000 (UTC)","[jira] [Created] (HADOOP-13848) Missing auth-keys.xml prevents detecting test code build problem"
"""Tao Li (JIRA)"" <jira@apache.org>","Wed, 30 Nov 2016 13:10:58 +0000 (UTC)","[jira] [Created] (HADOOP-13849) Bzip2 java-builtin and system-native have almost the same compress speed"
"Apache Jenkins Server <jenkins@builds.apache.org>","Wed, 30 Nov 2016 16:03:12 +0000 (UTC)","Apache Hadoop qbt Report: trunk+JDK8 on Linux/x86"
"""Steve Loughran (JIRA)"" <jira@apache.org>","Wed, 30 Nov 2016 17:01:04 +0000 (UTC)","[jira] [Created] (HADOOP-13850) s3guard to log choice of metadata store at debug"
"""John Zhuge (JIRA)"" <jira@apache.org>","Wed, 30 Nov 2016 17:39:58 +0000 (UTC)","[jira] [Created] (HADOOP-13851) hadoop-openstack should build tests without auth-keys.xml"
"""Steve Loughran (JIRA)"" <jira@apache.org>","Wed, 30 Nov 2016 17:49:58 +0000 (UTC)","[jira] [Resolved] (HADOOP-13849) Bzip2 java-builtin and system-native have almost the same compress speed"
"Apache Jenkins Server <jenkins@builds.apache.org>","Wed, 30 Nov 2016 21:05:25 +0000 (UTC)","Apache Hadoop qbt Report: trunk+JDK8 on Linux/ppc64le"
"Sangjin Lee <sjlee@apache.org>","Wed, 30 Nov 2016 15:24:37 -0800","Re: [Continued] [Release thread] 2.8.0 release activities"
