"Developer","Date","Subject"
"Apache Jenkins Server  <jenkins@builds.apache.org>","Wed, 1 Aug 2012 00:28:06 +0000 (UTC)","Build failed in Jenkins: Cassandra-quick #1004"
"Apache Jenkins Server  <jenkins@builds.apache.org>","Wed, 1 Aug 2012 01:02:24 +0000 (UTC)","Build failed in Jenkins: Cassandra #1840"
"Apache Jenkins Server  <jenkins@builds.apache.org>","Wed, 1 Aug 2012 01:02:57 +0000 (UTC)","Build failed in Jenkins: Cassandra-quick #1005"
"Apache Jenkins Server  <jenkins@builds.apache.org>","Wed, 1 Aug 2012 01:58:56 +0000 (UTC)","Build failed in Jenkins: Cassandra-quick #1006"
"Apache Jenkins Server  <jenkins@builds.apache.org>","Wed, 1 Aug 2012 05:44:32 +0000 (UTC)","Build failed in Jenkins: Cassandra-quick #1007"
"Sylvain Lebresne <sylvain@datastax.com>","Wed, 1 Aug 2012 20:29:09 +0200","[VOTE] Release Apache Cassandra 1.1.3 (Strike 2)"
"Apache Jenkins Server  <jenkins@builds.apache.org>","Wed, 1 Aug 2012 19:01:41 +0000 (UTC)","Build failed in Jenkins: Cassandra-quick #1008"
"Brandon Williams <driftx@gmail.com>","Wed, 1 Aug 2012 16:38:21 -0500","Re: [VOTE] Release Apache Cassandra 1.1.3 (Strike 2)"
"Apache Jenkins Server  <jenkins@builds.apache.org>","Wed, 1 Aug 2012 22:21:19 +0000 (UTC)","Build failed in Jenkins: Cassandra-quick #1009"
"canadianveggie <git@git.apache.org>","Wed,  1 Aug 2012 23:58:16 +0000 (UTC)","cassandra pull request: Fix logic for logging a timeout error when Messagin..."
"Apache Jenkins Server  <jenkins@builds.apache.org>","Thu, 2 Aug 2012 01:58:53 +0000 (UTC)","Build failed in Jenkins: Cassandra-quick #1010"
"Sylvain Lebresne <sylvain@datastax.com>","Thu, 2 Aug 2012 07:56:24 +0200","[VOTE CLOSED] Release Apache Cassandra 1.1.3 (Strike 2)"
"Sylvain Lebresne <sylvain@datastax.com>","Thu, 2 Aug 2012 08:43:21 +0200","[VOTE] Release Apache Cassandra 1.1.3 (Strike 3)"
"Jonathan Ellis <jbellis@gmail.com>","Thu, 2 Aug 2012 09:51:25 -0500","Re: cassandra pull request: Fix logic for logging a timeout error when Messagin..."
"Jonathan Ellis <jbellis@gmail.com>","Thu, 2 Aug 2012 16:15:13 -0500","Re: [VOTE] Release Apache Cassandra 1.1.3 (Strike 3)"
"Apache Jenkins Server  <jenkins@builds.apache.org>","Fri, 3 Aug 2012 03:57:04 +0000 (UTC)","Build failed in Jenkins: Cassandra-quick #1011"
"Apache Jenkins Server  <jenkins@builds.apache.org>","Fri, 3 Aug 2012 10:32:26 +0000 (UTC)","Build failed in Jenkins: Cassandra-quick #1012"
"Apache Jenkins Server  <jenkins@builds.apache.org>","Fri, 3 Aug 2012 10:58:10 +0000 (UTC)","Build failed in Jenkins: Cassandra-quick #1013"
"Apache Jenkins Server  <jenkins@builds.apache.org>","Fri, 3 Aug 2012 12:25:58 +0000 (UTC)","Build failed in Jenkins: Cassandra-quick #1014"
"Apache Jenkins Server  <jenkins@builds.apache.org>","Fri, 3 Aug 2012 12:57:58 +0000 (UTC)","Build failed in Jenkins: Cassandra-quick #1015"
"Apache Jenkins Server  <jenkins@builds.apache.org>","Fri, 3 Aug 2012 13:58:52 +0000 (UTC)","Build failed in Jenkins: Cassandra-quick #1016"
"Brandon Williams <driftx@gmail.com>","Fri, 3 Aug 2012 12:20:44 -0500","Re: [VOTE] Release Apache Cassandra 1.1.3 (Strike 3)"
"Pavel Yaskevich <povel.y@gmail.com>","Fri, 3 Aug 2012 20:22:19 +0300","Re: [VOTE] Release Apache Cassandra 1.1.3 (Strike 3)"
"Apache Jenkins Server  <jenkins@builds.apache.org>","Fri, 3 Aug 2012 18:56:34 +0000 (UTC)","Build failed in Jenkins: Cassandra-quick #1017"
"Apache Jenkins Server  <jenkins@builds.apache.org>","Fri, 3 Aug 2012 19:14:07 +0000 (UTC)","Build failed in Jenkins: Cassandra-quick #1018"
"Apache Jenkins Server  <jenkins@builds.apache.org>","Fri, 3 Aug 2012 19:16:10 +0000 (UTC)","Build failed in Jenkins: Cassandra-quick #1019"
"Apache Jenkins Server  <jenkins@builds.apache.org>","Fri, 3 Aug 2012 19:40:42 +0000 (UTC)","Build failed in Jenkins: Cassandra-quick #1020"
"Apache Jenkins Server  <jenkins@builds.apache.org>","Fri, 3 Aug 2012 20:16:09 +0000 (UTC)","Build failed in Jenkins: Cassandra-quick #1021"
"Apache Jenkins Server  <jenkins@builds.apache.org>","Fri, 3 Aug 2012 20:56:35 +0000 (UTC)","Build failed in Jenkins: Cassandra-quick #1022"
"Apache Jenkins Server  <jenkins@builds.apache.org>","Fri, 3 Aug 2012 21:58:47 +0000 (UTC)","Build failed in Jenkins: Cassandra-quick #1023"
"Apache Jenkins Server  <jenkins@builds.apache.org>","Fri, 3 Aug 2012 22:03:33 +0000 (UTC)","Build failed in Jenkins: Cassandra #1860"
"""CROCKETT, LEONARD P"" <lc1851@att.com>","Fri, 3 Aug 2012 22:06:05 +0000","RE: Build failed in Jenkins: Cassandra-quick #1023"
"Apache Jenkins Server  <jenkins@builds.apache.org>","Fri, 3 Aug 2012 22:25:59 +0000 (UTC)","Build failed in Jenkins: Cassandra-quick #1024"
"Apache Jenkins Server  <jenkins@builds.apache.org>","Fri, 3 Aug 2012 23:41:09 +0000 (UTC)","Build failed in Jenkins: Cassandra-quick #1025"
"Apache Jenkins Server  <jenkins@builds.apache.org>","Sat, 4 Aug 2012 01:53:27 +0000 (UTC)","Build failed in Jenkins: Cassandra-quick #1026"
"Apache Jenkins Server  <jenkins@builds.apache.org>","Sat, 4 Aug 2012 03:15:00 +0000 (UTC)","Build failed in Jenkins: Cassandra-quick #1027"
"Apache Jenkins Server  <jenkins@builds.apache.org>","Sat, 4 Aug 2012 03:40:53 +0000 (UTC)","Build failed in Jenkins: Cassandra-quick #1028"
"Apache Jenkins Server  <jenkins@builds.apache.org>","Sat, 4 Aug 2012 10:14:02 +0000 (UTC)","Build failed in Jenkins: Cassandra-quick #1029"
"Apache Jenkins Server  <jenkins@builds.apache.org>","Sat, 4 Aug 2012 10:41:39 +0000 (UTC)","Build failed in Jenkins: Cassandra-quick #1030"
"Apache Jenkins Server  <jenkins@builds.apache.org>","Sat, 4 Aug 2012 11:07:04 +0000 (UTC)","Build failed in Jenkins: Cassandra-quick #1031"
"Apache Jenkins Server  <jenkins@builds.apache.org>","Sat, 4 Aug 2012 11:25:57 +0000 (UTC)","Build failed in Jenkins: Cassandra-quick #1032"
"Apache Jenkins Server  <jenkins@builds.apache.org>","Sat, 4 Aug 2012 12:30:55 +0000 (UTC)","Build failed in Jenkins: Cassandra-quick #1033"
"Rick Shaw <wfshaw@gmail.com>","Sat, 4 Aug 2012 10:35:02 -0400","Client side issues with implementing new Collections support in 1.2"
"Apache Jenkins Server  <jenkins@builds.apache.org>","Sat, 4 Aug 2012 17:01:13 +0000 (UTC)","Build failed in Jenkins: Cassandra #1874"
"Apache Jenkins Server  <jenkins@builds.apache.org>","Sun, 5 Aug 2012 02:12:46 +0000 (UTC)","Build failed in Jenkins: Cassandra-quick #1034"
"Apache Jenkins Server  <jenkins@builds.apache.org>","Sun, 5 Aug 2012 03:15:44 +0000 (UTC)","Build failed in Jenkins: Cassandra-quick #1035"
"Apache Jenkins Server  <jenkins@builds.apache.org>","Sun, 5 Aug 2012 04:27:58 +0000 (UTC)","Build failed in Jenkins: Cassandra-quick #1036"
"Apache Jenkins Server  <jenkins@builds.apache.org>","Sun, 5 Aug 2012 06:43:57 +0000 (UTC)","Build failed in Jenkins: Cassandra-quick #1037"
"Apache Jenkins Server  <jenkins@builds.apache.org>","Sun, 5 Aug 2012 06:58:45 +0000 (UTC)","Build failed in Jenkins: Cassandra-quick #1038"
"Apache Jenkins Server  <jenkins@builds.apache.org>","Sun, 5 Aug 2012 07:14:12 +0000 (UTC)","Build failed in Jenkins: Cassandra-quick #1039"
"Apache Jenkins Server  <jenkins@builds.apache.org>","Sun, 5 Aug 2012 07:44:47 +0000 (UTC)","Build failed in Jenkins: Cassandra-quick #1040"
"Apache Jenkins Server  <jenkins@builds.apache.org>","Sun, 5 Aug 2012 08:14:07 +0000 (UTC)","Build failed in Jenkins: Cassandra-quick #1041"
"Apache Jenkins Server  <jenkins@builds.apache.org>","Sun, 5 Aug 2012 10:42:32 +0000 (UTC)","Build failed in Jenkins: Cassandra-quick #1042"
"Apache Jenkins Server  <jenkins@builds.apache.org>","Sun, 5 Aug 2012 10:46:16 +0000 (UTC)","Build failed in Jenkins: Cassandra-quick #1043"
"Apache Jenkins Server  <jenkins@builds.apache.org>","Sun, 5 Aug 2012 12:14:54 +0000 (UTC)","Build failed in Jenkins: Cassandra-quick #1044"
"Apache Jenkins Server  <jenkins@builds.apache.org>","Sun, 5 Aug 2012 12:43:47 +0000 (UTC)","Build failed in Jenkins: Cassandra-quick #1045"
"Apache Jenkins Server  <jenkins@builds.apache.org>","Sun, 5 Aug 2012 12:58:44 +0000 (UTC)","Build failed in Jenkins: Cassandra-quick #1046"
"Apache Jenkins Server  <jenkins@builds.apache.org>","Sun, 5 Aug 2012 13:13:53 +0000 (UTC)","Build failed in Jenkins: Cassandra-quick #1047"
"Apache Jenkins Server  <jenkins@builds.apache.org>","Sun, 5 Aug 2012 13:31:13 +0000 (UTC)","Build failed in Jenkins: Cassandra-quick #1048"
"Apache Jenkins Server  <jenkins@builds.apache.org>","Sun, 5 Aug 2012 13:59:52 +0000 (UTC)","Build failed in Jenkins: Cassandra-quick #1049"
"Sylvain Lebresne <sylvain@datastax.com>","Sun, 5 Aug 2012 18:06:33 +0200","[VOTE SUCESS] Release Apache Cassandra 1.1.3 (Strike 3)"
"Apache Jenkins Server  <jenkins@builds.apache.org>","Sun, 5 Aug 2012 17:40:50 +0000 (UTC)","Build failed in Jenkins: Cassandra-quick #1050"
"Apache Jenkins Server  <jenkins@builds.apache.org>","Sun, 5 Aug 2012 18:01:23 +0000 (UTC)","Build failed in Jenkins: Cassandra #1884"
"Apache Jenkins Server  <jenkins@builds.apache.org>","Sun, 5 Aug 2012 22:31:13 +0000 (UTC)","Build failed in Jenkins: Cassandra-quick #1051"
"Apache Jenkins Server  <jenkins@builds.apache.org>","Mon, 6 Aug 2012 00:20:28 +0000 (UTC)","Build failed in Jenkins: Cassandra-quick #1052"
"Sylvain Lebresne <sylvain@datastax.com>","Mon, 6 Aug 2012 11:49:38 +0200","Re: Client side issues with implementing new Collections support in 1.2"
"Jonathan Ellis <jbellis@gmail.com>","Mon, 6 Aug 2012 10:15:54 -0500","Re: Client side issues with implementing new Collections support in 1.2"
"Jonathan Ellis <jbellis@gmail.com>","Mon, 6 Aug 2012 10:20:24 -0500","Re: Client side issues with implementing new Collections support in 1.2"
"Rick Shaw <wfshaw@gmail.com>","Mon, 6 Aug 2012 15:51:13 -0400","Re: Client side issues with implementing new Collections support in 1.2"
"Apache Jenkins Server  <jenkins@builds.apache.org>","Mon, 6 Aug 2012 21:57:36 +0000 (UTC)","Build failed in Jenkins: Cassandra-quick #1053"
"Apache Jenkins Server  <jenkins@builds.apache.org>","Tue, 7 Aug 2012 11:01:16 +0000 (UTC)","Build failed in Jenkins: Cassandra #1888"
"canadianveggie <git@git.apache.org>","Tue,  7 Aug 2012 14:59:41 +0000 (UTC)","cassandra pull request: Fix logic for logging a timeout error when Messagin..."
"Apache Jenkins Server  <jenkins@builds.apache.org>","Tue, 7 Aug 2012 20:01:45 +0000 (UTC)","Build failed in Jenkins: Cassandra-quick #1054"
"Apache Jenkins Server  <jenkins@builds.apache.org>","Wed, 8 Aug 2012 01:17:28 +0000 (UTC)","Build failed in Jenkins: Cassandra-quick #1055"
"Apache Jenkins Server  <jenkins@builds.apache.org>","Wed, 8 Aug 2012 01:26:45 +0000 (UTC)","Build failed in Jenkins: Cassandra #1890"
"Apache Jenkins Server  <jenkins@builds.apache.org>","Wed, 8 Aug 2012 02:53:58 +0000 (UTC)","Build failed in Jenkins: Cassandra #1891"
"Apache Jenkins Server  <jenkins@builds.apache.org>","Wed, 8 Aug 2012 03:01:36 +0000 (UTC)","Build failed in Jenkins: Cassandra-quick #1056"
"Apache Jenkins Server  <jenkins@builds.apache.org>","Wed, 8 Aug 2012 06:23:23 +0000 (UTC)","Build failed in Jenkins: Cassandra #1892"
"Apache Jenkins Server  <jenkins@builds.apache.org>","Wed, 8 Aug 2012 10:15:10 +0000 (UTC)","Build failed in Jenkins: Cassandra-quick #1057"
"Apache Jenkins Server  <jenkins@builds.apache.org>","Wed, 8 Aug 2012 12:07:22 +0000 (UTC)","Build failed in Jenkins: Cassandra-quick #1058"
"Apache Jenkins Server  <jenkins@builds.apache.org>","Wed, 8 Aug 2012 13:34:31 +0000 (UTC)","Build failed in Jenkins: Cassandra-quick #1059"
"Apache Jenkins Server  <jenkins@builds.apache.org>","Wed, 8 Aug 2012 14:17:32 +0000 (UTC)","Build failed in Jenkins: Cassandra-quick #1060"
"Apache Jenkins Server  <jenkins@builds.apache.org>","Wed, 8 Aug 2012 14:51:12 +0000 (UTC)","Build failed in Jenkins: Cassandra-quick #1061"
"Apache Jenkins Server  <jenkins@builds.apache.org>","Wed, 8 Aug 2012 16:33:54 +0000 (UTC)","Build failed in Jenkins: Cassandra-quick #1062"
"Apache Jenkins Server  <jenkins@builds.apache.org>","Wed, 8 Aug 2012 17:00:27 +0000 (UTC)","Build failed in Jenkins: Cassandra-quick #1063"
"Saurabh Lodha <saurabhlodha@outlook.com>","Wed, 8 Aug 2012 19:25:49 -0400","Error while running Cassandra CLI"
"Apache Jenkins Server  <jenkins@builds.apache.org>","Thu, 9 Aug 2012 01:28:13 +0000 (UTC)","Build failed in Jenkins: Cassandra-Coverage #276"
"Apache Jenkins Server  <jenkins@builds.apache.org>","Thu, 9 Aug 2012 05:24:55 +0000 (UTC)","Build failed in Jenkins: Cassandra-quick #1064"
"Apache Jenkins Server  <jenkins@builds.apache.org>","Thu, 9 Aug 2012 06:01:02 +0000 (UTC)","Build failed in Jenkins: Cassandra #1895"
"Apache Jenkins Server  <jenkins@builds.apache.org>","Thu, 9 Aug 2012 10:00:40 +0000 (UTC)","Build failed in Jenkins: Cassandra-quick #1065"
"Apache Jenkins Server  <jenkins@builds.apache.org>","Thu, 9 Aug 2012 11:29:02 +0000 (UTC)","Build failed in Jenkins: Cassandra-quick #1066"
"Apache Jenkins Server  <jenkins@builds.apache.org>","Thu, 9 Aug 2012 14:55:59 +0000 (UTC)","Build failed in Jenkins: Cassandra-quick #1067"
"Apache Jenkins Server  <jenkins@builds.apache.org>","Thu, 9 Aug 2012 17:21:03 +0000 (UTC)","Build failed in Jenkins: Cassandra-quick #1068"
"Apache Jenkins Server  <jenkins@builds.apache.org>","Fri, 10 Aug 2012 03:05:02 +0000 (UTC)","Build failed in Jenkins: Cassandra #1896"
"Apache Jenkins Server  <jenkins@builds.apache.org>","Fri, 10 Aug 2012 15:01:11 +0000 (UTC)","Build failed in Jenkins: Cassandra #1900"
"Apache Jenkins Server  <jenkins@builds.apache.org>","Fri, 10 Aug 2012 15:46:39 +0000 (UTC)","Build failed in Jenkins: Cassandra-quick #1069"
"Apache Jenkins Server  <jenkins@builds.apache.org>","Fri, 10 Aug 2012 16:11:39 +0000 (UTC)","Build failed in Jenkins: Cassandra-quick #1070"
"Apache Jenkins Server  <jenkins@builds.apache.org>","Fri, 10 Aug 2012 21:41:38 +0000 (UTC)","Build failed in Jenkins: Cassandra-quick #1071"
"Apache Jenkins Server  <jenkins@builds.apache.org>","Sat, 11 Aug 2012 00:13:51 +0000 (UTC)","Build failed in Jenkins: Cassandra #1906"
"Jonathan Ellis <jbellis@gmail.com>","Mon, 13 Aug 2012 13:43:47 -0500","Re: Error while running Cassandra CLI"
"Eric Evans <eevans@acunu.com>","Mon, 13 Aug 2012 16:44:27 -0500","[VOTE] Release Apache Cassandra 1.1.4"
"Jonathan Ellis <jbellis@gmail.com>","Mon, 13 Aug 2012 18:09:15 -0500","Re: [VOTE] Release Apache Cassandra 1.1.4"
"Dave Brosius <dbrosius@mebigfatguy.com>","Mon, 13 Aug 2012 22:43:16 -0400","Re: Error while running Cassandra CLI"
"Gaurav Bhati <gaurav@bloomreach.com>","Tue, 14 Aug 2012 08:49:53 +0530","Re: Error while running Cassandra CLI"
"Gaurav Bhati <gaurav@bloomreach.com>","Tue, 14 Aug 2012 08:50:41 +0530","Re: Error while running Cassandra CLI"
"Cathy Daw <cathy@datastax.com>","Mon, 13 Aug 2012 20:56:19 -0700","Re: [VOTE] Release Apache Cassandra 1.1.4"
"Dave Brosius <dbrosius@mebigfatguy.com>","Tue, 14 Aug 2012 07:48:01 -0400","Re: [VOTE] Release Apache Cassandra 1.1.4"
"Eric Evans <eevans@acunu.com>","Tue, 14 Aug 2012 09:15:47 -0500","Re: [VOTE] Release Apache Cassandra 1.1.4"
"Eric Evans <eevans@acunu.com>","Tue, 14 Aug 2012 10:48:36 -0500","Re: [VOTE] Release Apache Cassandra 1.1.4"
"Apache Jenkins Server  <jenkins@builds.apache.org>","Tue, 14 Aug 2012 20:25:53 +0000 (UTC)","Build failed in Jenkins: Cassandra-quick #1072"
"Eric Evans <eevans@acunu.com>","Tue, 14 Aug 2012 16:34:24 -0500","[VOTE] Release Apache Cassandra 1.1.4 (take #2)"
"Apache Jenkins Server  <jenkins@builds.apache.org>","Tue, 14 Aug 2012 21:56:15 +0000 (UTC)","Build failed in Jenkins: Cassandra-quick #1073"
"Jonathan Ellis <jbellis@gmail.com>","Tue, 14 Aug 2012 16:56:50 -0500","Re: [VOTE] Release Apache Cassandra 1.1.4 (take #2)"
"Pavel Yaskevich <povel.y@gmail.com>","Wed, 15 Aug 2012 00:58:27 +0300","Re: [VOTE] Release Apache Cassandra 1.1.4 (take #2)"
"Apache Jenkins Server  <jenkins@builds.apache.org>","Tue, 14 Aug 2012 22:26:19 +0000 (UTC)","Build failed in Jenkins: Cassandra #1910"
"Apache Jenkins Server  <jenkins@builds.apache.org>","Wed, 15 Aug 2012 00:17:46 +0000 (UTC)","Build failed in Jenkins: Cassandra-quick #1074"
"Apache Jenkins Server  <jenkins@builds.apache.org>","Wed, 15 Aug 2012 09:42:54 +0000 (UTC)","Build failed in Jenkins: Cassandra-quick #1075"
"Apache Jenkins Server  <jenkins@builds.apache.org>","Wed, 15 Aug 2012 10:28:01 +0000 (UTC)","Build failed in Jenkins: Cassandra-quick #1076"
"Gary Dusbabek <gdusbabek@gmail.com>","Wed, 15 Aug 2012 07:59:21 -0500","Re: [VOTE] Release Apache Cassandra 1.1.4 (take #2)"
"Apache Jenkins Server  <jenkins@builds.apache.org>","Wed, 15 Aug 2012 14:03:58 +0000 (UTC)","Build failed in Jenkins: Cassandra-quick #1077"
"Apache Jenkins Server  <jenkins@builds.apache.org>","Wed, 15 Aug 2012 14:36:11 +0000 (UTC)","Build failed in Jenkins: Cassandra-quick #1078"
"Apache Jenkins Server  <jenkins@builds.apache.org>","Wed, 15 Aug 2012 14:55:58 +0000 (UTC)","Build failed in Jenkins: Cassandra-quick #1079"
"Brandon Williams <driftx@gmail.com>","Wed, 15 Aug 2012 10:45:11 -0500","Re: [VOTE] Release Apache Cassandra 1.1.4 (take #2)"
"Apache Jenkins Server  <jenkins@builds.apache.org>","Wed, 15 Aug 2012 16:04:16 +0000 (UTC)","Build failed in Jenkins: Cassandra #1918"
"Apache Jenkins Server  <jenkins@builds.apache.org>","Thu, 16 Aug 2012 00:38:35 +0000 (UTC)","Build failed in Jenkins: Cassandra-Coverage #281"
"Apache Jenkins Server  <jenkins@builds.apache.org>","Thu, 16 Aug 2012 06:24:17 +0000 (UTC)","Build failed in Jenkins: Cassandra-quick #1080"
"Apache Jenkins Server  <jenkins@builds.apache.org>","Thu, 16 Aug 2012 06:31:17 +0000 (UTC)","Build failed in Jenkins: Cassandra-quick #1081"
"Apache Jenkins Server  <jenkins@builds.apache.org>","Thu, 16 Aug 2012 07:59:53 +0000 (UTC)","Build failed in Jenkins: Cassandra-quick #1082"
"Apache Jenkins Server  <jenkins@builds.apache.org>","Thu, 16 Aug 2012 08:56:36 +0000 (UTC)","Build failed in Jenkins: Cassandra-quick #1083"
"Apache Jenkins Server  <jenkins@builds.apache.org>","Thu, 16 Aug 2012 21:07:34 +0000 (UTC)","Build failed in Jenkins: Cassandra-quick #1084"
"Apache Jenkins Server  <jenkins@builds.apache.org>","Thu, 16 Aug 2012 21:28:17 +0000 (UTC)","Build failed in Jenkins: Cassandra #1923"
"Apache Jenkins Server  <jenkins@builds.apache.org>","Thu, 16 Aug 2012 22:45:22 +0000 (UTC)","Build failed in Jenkins: Cassandra-quick #1085"
"Apache Jenkins Server  <jenkins@builds.apache.org>","Thu, 16 Aug 2012 22:47:23 +0000 (UTC)","Build failed in Jenkins: Cassandra-quick #1086"
"Apache Jenkins Server  <jenkins@builds.apache.org>","Thu, 16 Aug 2012 23:18:06 +0000 (UTC)","Build failed in Jenkins: Cassandra-quick #1087"
"Apache Jenkins Server  <jenkins@builds.apache.org>","Thu, 16 Aug 2012 23:18:56 +0000 (UTC)","Build failed in Jenkins: Cassandra #1924"
"Apache Jenkins Server  <jenkins@builds.apache.org>","Fri, 17 Aug 2012 00:37:17 +0000 (UTC)","Build failed in Jenkins: Cassandra-Coverage #282"
"Apache Jenkins Server  <jenkins@builds.apache.org>","Fri, 17 Aug 2012 02:16:28 +0000 (UTC)","Build failed in Jenkins: Cassandra-quick #1088"
"Apache Jenkins Server  <jenkins@builds.apache.org>","Fri, 17 Aug 2012 02:31:52 +0000 (UTC)","Build failed in Jenkins: Cassandra-quick #1089"
"Apache Jenkins Server  <jenkins@builds.apache.org>","Fri, 17 Aug 2012 03:14:35 +0000 (UTC)","Build failed in Jenkins: Cassandra #1925"
"Apache Jenkins Server  <jenkins@builds.apache.org>","Fri, 17 Aug 2012 03:46:17 +0000 (UTC)","Build failed in Jenkins: Cassandra-quick #1090"
"Apache Jenkins Server  <jenkins@builds.apache.org>","Fri, 17 Aug 2012 04:06:28 +0000 (UTC)","Build failed in Jenkins: Cassandra-quick #1091"
"Apache Jenkins Server  <jenkins@builds.apache.org>","Fri, 17 Aug 2012 04:06:32 +0000 (UTC)","Build failed in Jenkins: Cassandra #1926"
"Apache Jenkins Server  <jenkins@builds.apache.org>","Fri, 17 Aug 2012 04:31:24 +0000 (UTC)","Build failed in Jenkins: Cassandra-quick #1092"
"Apache Jenkins Server  <jenkins@builds.apache.org>","Fri, 17 Aug 2012 08:02:35 +0000 (UTC)","Build failed in Jenkins: Cassandra #1927"
"Apache Jenkins Server  <jenkins@builds.apache.org>","Fri, 17 Aug 2012 09:01:42 +0000 (UTC)","Build failed in Jenkins: Cassandra #1928"
"Apache Jenkins Server  <jenkins@builds.apache.org>","Fri, 17 Aug 2012 10:02:57 +0000 (UTC)","Build failed in Jenkins: Cassandra-quick #1093"
"Apache Jenkins Server  <jenkins@builds.apache.org>","Fri, 17 Aug 2012 10:47:22 +0000 (UTC)","Build failed in Jenkins: Cassandra-quick #1094"
"Apache Jenkins Server  <jenkins@builds.apache.org>","Fri, 17 Aug 2012 11:02:23 +0000 (UTC)","Build failed in Jenkins: Cassandra-quick #1095"
"Apache Jenkins Server  <jenkins@builds.apache.org>","Fri, 17 Aug 2012 11:48:23 +0000 (UTC)","Build failed in Jenkins: Cassandra-quick #1096"
"Apache Jenkins Server  <jenkins@builds.apache.org>","Fri, 17 Aug 2012 12:02:15 +0000 (UTC)","Build failed in Jenkins: Cassandra #1929"
"Apache Jenkins Server  <jenkins@builds.apache.org>","Fri, 17 Aug 2012 12:02:15 +0000 (UTC)","Build failed in Jenkins: Cassandra-quick #1097"
"Apache Jenkins Server  <jenkins@builds.apache.org>","Fri, 17 Aug 2012 13:03:16 +0000 (UTC)","Build failed in Jenkins: Cassandra #1930"
"Apache Jenkins Server  <jenkins@builds.apache.org>","Fri, 17 Aug 2012 13:03:16 +0000 (UTC)","Build failed in Jenkins: Cassandra-quick #1098"
"Apache Jenkins Server  <jenkins@builds.apache.org>","Fri, 17 Aug 2012 15:02:06 +0000 (UTC)","Build failed in Jenkins: Cassandra #1931"
"Apache Jenkins Server  <jenkins@builds.apache.org>","Fri, 17 Aug 2012 15:02:53 +0000 (UTC)","Build failed in Jenkins: Cassandra-quick #1099"
"Apache Jenkins Server  <jenkins@builds.apache.org>","Fri, 17 Aug 2012 15:27:04 +0000 (UTC)","Build failed in Jenkins: Cassandra-quick #1100"
"Apache Jenkins Server  <jenkins@builds.apache.org>","Fri, 17 Aug 2012 16:04:01 +0000 (UTC)","Build failed in Jenkins: Cassandra #1932"
"Apache Jenkins Server  <jenkins@builds.apache.org>","Fri, 17 Aug 2012 16:41:10 +0000 (UTC)","Build failed in Jenkins: Cassandra-quick #1101"
"Apache Jenkins Server  <jenkins@builds.apache.org>","Sat, 18 Aug 2012 03:14:51 +0000 (UTC)","Build failed in Jenkins: Cassandra-quick #1102"
"Apache Jenkins Server  <jenkins@builds.apache.org>","Sat, 18 Aug 2012 03:55:48 +0000 (UTC)","Build failed in Jenkins: Cassandra-quick #1103"
"Apache Jenkins Server  <jenkins@builds.apache.org>","Sat, 18 Aug 2012 05:16:40 +0000 (UTC)","Build failed in Jenkins: Cassandra-quick #1104"
"Apache Jenkins Server  <jenkins@builds.apache.org>","Sat, 18 Aug 2012 10:42:06 +0000 (UTC)","Build failed in Jenkins: Cassandra-quick #1105"
"Apache Jenkins Server  <jenkins@builds.apache.org>","Sat, 18 Aug 2012 11:13:40 +0000 (UTC)","Build failed in Jenkins: Cassandra-quick #1106"
"Apache Jenkins Server  <jenkins@builds.apache.org>","Sat, 18 Aug 2012 11:53:25 +0000 (UTC)","Build failed in Jenkins: Cassandra-quick #1107"
"Apache Jenkins Server  <jenkins@builds.apache.org>","Sat, 18 Aug 2012 12:02:13 +0000 (UTC)","Build failed in Jenkins: Cassandra-quick #1108"
"Apache Jenkins Server  <jenkins@builds.apache.org>","Sat, 18 Aug 2012 12:25:44 +0000 (UTC)","Build failed in Jenkins: Cassandra-quick #1109"
"Apache Jenkins Server  <jenkins@builds.apache.org>","Sat, 18 Aug 2012 14:42:56 +0000 (UTC)","Build failed in Jenkins: Cassandra-quick #1110"
"Apache Jenkins Server  <jenkins@builds.apache.org>","Sat, 18 Aug 2012 15:23:42 +0000 (UTC)","Build failed in Jenkins: Cassandra-quick #1111"
"Apache Jenkins Server  <jenkins@builds.apache.org>","Sat, 18 Aug 2012 23:08:44 +0000 (UTC)","Build failed in Jenkins: Cassandra-quick #1112"
"Apache Jenkins Server  <jenkins@builds.apache.org>","Sun, 19 Aug 2012 00:33:22 +0000 (UTC)","Build failed in Jenkins: Cassandra-quick #1113"
"Apache Jenkins Server  <jenkins@builds.apache.org>","Sun, 19 Aug 2012 01:31:10 +0000 (UTC)","Build failed in Jenkins: Cassandra-quick #1114"
"Apache Jenkins Server  <jenkins@builds.apache.org>","Sun, 19 Aug 2012 12:01:22 +0000 (UTC)","Build failed in Jenkins: Cassandra #1944"
"Apache Jenkins Server  <jenkins@builds.apache.org>","Mon, 20 Aug 2012 01:43:37 +0000 (UTC)","Build failed in Jenkins: Cassandra-quick #1115"
"Apache Jenkins Server  <jenkins@builds.apache.org>","Mon, 20 Aug 2012 02:52:30 +0000 (UTC)","Build failed in Jenkins: Cassandra-quick #1116"
"Apache Jenkins Server  <jenkins@builds.apache.org>","Mon, 20 Aug 2012 09:26:33 +0000 (UTC)","Build failed in Jenkins: Cassandra-quick #1117"
"Apache Jenkins Server  <jenkins@builds.apache.org>","Mon, 20 Aug 2012 09:41:48 +0000 (UTC)","Build failed in Jenkins: Cassandra-quick #1118"
"Apache Jenkins Server  <jenkins@builds.apache.org>","Mon, 20 Aug 2012 10:14:27 +0000 (UTC)","Build failed in Jenkins: Cassandra-quick #1119"
"Apache Jenkins Server  <jenkins@builds.apache.org>","Mon, 20 Aug 2012 10:41:20 +0000 (UTC)","Build failed in Jenkins: Cassandra-quick #1120"
"Apache Jenkins Server  <jenkins@builds.apache.org>","Mon, 20 Aug 2012 15:03:01 +0000 (UTC)","Build failed in Jenkins: Cassandra #1949"
"Eric Evans <eevans@acunu.com>","Mon, 20 Aug 2012 10:59:18 -0500","Re: [VOTE] Release Apache Cassandra 1.1.4 (take #2)"
"Apache Jenkins Server  <jenkins@builds.apache.org>","Mon, 20 Aug 2012 20:57:10 +0000 (UTC)","Build failed in Jenkins: Cassandra-quick #1121"
"Apache Jenkins Server  <jenkins@builds.apache.org>","Mon, 20 Aug 2012 21:18:43 +0000 (UTC)","Build failed in Jenkins: Cassandra-quick #1122"
"Eric Evans <eevans@acunu.com>","Mon, 20 Aug 2012 16:55:55 -0500","Upgrade path for virtual nodes"
"Apache Jenkins Server  <jenkins@builds.apache.org>","Tue, 21 Aug 2012 00:24:21 +0000 (UTC)","Build failed in Jenkins: Cassandra-quick #1123"
"Apache Jenkins Server  <jenkins@builds.apache.org>","Tue, 21 Aug 2012 05:46:21 +0000 (UTC)","Build failed in Jenkins: Cassandra-quick #1124"
"Apache Jenkins Server  <jenkins@builds.apache.org>","Tue, 21 Aug 2012 06:12:18 +0000 (UTC)","Build failed in Jenkins: Cassandra-quick #1125"
"Apache Jenkins Server  <jenkins@builds.apache.org>","Tue, 21 Aug 2012 10:11:45 +0000 (UTC)","Build failed in Jenkins: Cassandra-quick #1126"
"Apache Jenkins Server  <jenkins@builds.apache.org>","Tue, 21 Aug 2012 10:41:04 +0000 (UTC)","Build failed in Jenkins: Cassandra-quick #1127"
"Apache Jenkins Server  <jenkins@builds.apache.org>","Tue, 21 Aug 2012 11:14:19 +0000 (UTC)","Build failed in Jenkins: Cassandra-quick #1128"
"Apache Jenkins Server  <jenkins@builds.apache.org>","Tue, 21 Aug 2012 12:13:12 +0000 (UTC)","Build failed in Jenkins: Cassandra-quick #1129"
"Amit Handa <amithanda01@gmail.com>","Tue, 21 Aug 2012 18:49:34 +0530","Problem while configuring key and row cache?"
"Jonathan Ellis <jbellis@gmail.com>","Tue, 21 Aug 2012 09:49:36 -0500","Re: Problem while configuring key and row cache?"
"Apache Jenkins Server  <jenkins@builds.apache.org>","Tue, 21 Aug 2012 16:56:33 +0000 (UTC)","Build failed in Jenkins: Cassandra-quick #1130"
"Apache Jenkins Server  <jenkins@builds.apache.org>","Tue, 21 Aug 2012 18:01:27 +0000 (UTC)","Build failed in Jenkins: Cassandra #1954"
"Apache Jenkins Server  <jenkins@builds.apache.org>","Tue, 21 Aug 2012 19:09:01 +0000 (UTC)","Build failed in Jenkins: Cassandra-quick #1131"
"Jonathan Ellis <jbellis@gmail.com>","Tue, 21 Aug 2012 14:54:37 -0500","Re: Upgrade path for virtual nodes"
"Apache Jenkins Server  <jenkins@builds.apache.org>","Tue, 21 Aug 2012 20:03:58 +0000 (UTC)","Build failed in Jenkins: Cassandra-quick #1132"
"Apache Jenkins Server  <jenkins@builds.apache.org>","Tue, 21 Aug 2012 20:58:36 +0000 (UTC)","Build failed in Jenkins: Cassandra-quick #1133"
"Apache Jenkins Server  <jenkins@builds.apache.org>","Tue, 21 Aug 2012 21:25:46 +0000 (UTC)","Build failed in Jenkins: Cassandra-quick #1134"
"Apache Jenkins Server  <jenkins@builds.apache.org>","Wed, 22 Aug 2012 01:03:45 +0000 (UTC)","Build failed in Jenkins: Cassandra-Coverage #287"
"Apache Jenkins Server  <jenkins@builds.apache.org>","Wed, 22 Aug 2012 03:33:31 +0000 (UTC)","Build failed in Jenkins: Cassandra-quick #1135"
"Apache Jenkins Server  <jenkins@builds.apache.org>","Wed, 22 Aug 2012 03:46:47 +0000 (UTC)","Build failed in Jenkins: Cassandra-quick #1136"
"Apache Jenkins Server  <jenkins@builds.apache.org>","Wed, 22 Aug 2012 04:23:23 +0000 (UTC)","Build failed in Jenkins: Cassandra-quick #1137"
"Amit Handa <amithanda01@gmail.com>","Wed, 22 Aug 2012 10:48:52 +0530","Re: Problem while configuring key and row cache?"
"Apache Jenkins Server  <jenkins@builds.apache.org>","Wed, 22 Aug 2012 12:03:14 +0000 (UTC)","Build failed in Jenkins: Cassandra-quick #1138"
"Apache Jenkins Server  <jenkins@builds.apache.org>","Wed, 22 Aug 2012 13:30:50 +0000 (UTC)","Build failed in Jenkins: Cassandra-quick #1139"
"Apache Jenkins Server  <jenkins@builds.apache.org>","Wed, 22 Aug 2012 15:54:15 +0000 (UTC)","Build failed in Jenkins: Cassandra-quick #1140"
"Apache Jenkins Server  <jenkins@builds.apache.org>","Wed, 22 Aug 2012 17:54:17 +0000 (UTC)","Build failed in Jenkins: Cassandra-quick #1142"
"Apache Jenkins Server  <jenkins@builds.apache.org>","Wed, 22 Aug 2012 18:01:22 +0000 (UTC)","Build failed in Jenkins: Cassandra #1959"
"Apache Jenkins Server  <jenkins@builds.apache.org>","Wed, 22 Aug 2012 20:16:18 +0000 (UTC)","Build failed in Jenkins: Cassandra-quick #1143"
"Apache Jenkins Server  <jenkins@builds.apache.org>","Wed, 22 Aug 2012 21:03:58 +0000 (UTC)","Build failed in Jenkins: Cassandra-quick #1144"
"Apache Jenkins Server  <jenkins@builds.apache.org>","Wed, 22 Aug 2012 21:54:15 +0000 (UTC)","Build failed in Jenkins: Cassandra-quick #1145"
"Apache Jenkins Server  <jenkins@builds.apache.org>","Wed, 22 Aug 2012 22:24:09 +0000 (UTC)","Build failed in Jenkins: Cassandra-quick #1146"
"Christoph Hack <christoph@tux21b.org>","Thu, 23 Aug 2012 00:53:22 +0200","A few questions about Cassandra's native protocol"
"Apache Jenkins Server  <jenkins@builds.apache.org>","Wed, 22 Aug 2012 22:53:56 +0000 (UTC)","Build failed in Jenkins: Cassandra-quick #1147"
"Apache Jenkins Server  <jenkins@builds.apache.org>","Wed, 22 Aug 2012 23:04:25 +0000 (UTC)","Build failed in Jenkins: Cassandra #1961"
"Apache Jenkins Server  <jenkins@builds.apache.org>","Thu, 23 Aug 2012 07:25:34 +0000 (UTC)","Build failed in Jenkins: Cassandra-quick #1148"
"aaron morton <aaron@thelastpickle.com>","Thu, 23 Aug 2012 21:17:43 +1200","Re: Problem while configuring key and row cache?"
"Apache Jenkins Server  <jenkins@builds.apache.org>","Thu, 23 Aug 2012 09:21:15 +0000 (UTC)","Build failed in Jenkins: Cassandra-quick #1149"
"Apache Jenkins Server  <jenkins@builds.apache.org>","Thu, 23 Aug 2012 11:09:33 +0000 (UTC)","Build failed in Jenkins: Cassandra-quick #1150"
"Apache Jenkins Server  <jenkins@builds.apache.org>","Thu, 23 Aug 2012 12:40:50 +0000 (UTC)","Build failed in Jenkins: Cassandra-quick #1151"
"Apache Jenkins Server  <jenkins@builds.apache.org>","Thu, 23 Aug 2012 12:54:28 +0000 (UTC)","Build failed in Jenkins: Cassandra-quick #1152"
"Apache Jenkins Server  <jenkins@builds.apache.org>","Thu, 23 Aug 2012 15:10:40 +0000 (UTC)","Build failed in Jenkins: Cassandra-quick #1153"
"Apache Jenkins Server  <jenkins@builds.apache.org>","Thu, 23 Aug 2012 16:25:39 +0000 (UTC)","Build failed in Jenkins: Cassandra-quick #1154"
"Apache Jenkins Server  <jenkins@builds.apache.org>","Thu, 23 Aug 2012 16:40:40 +0000 (UTC)","Build failed in Jenkins: Cassandra-quick #1155"
"Apache Jenkins Server  <jenkins@builds.apache.org>","Thu, 23 Aug 2012 16:54:34 +0000 (UTC)","Build failed in Jenkins: Cassandra-quick #1156"
"Apache Jenkins Server  <jenkins@builds.apache.org>","Thu, 23 Aug 2012 17:18:14 +0000 (UTC)","Build failed in Jenkins: Cassandra #1963"
"Apache Jenkins Server  <jenkins@builds.apache.org>","Thu, 23 Aug 2012 17:31:42 +0000 (UTC)","Build failed in Jenkins: Cassandra-quick #1157"
"Apache Jenkins Server  <jenkins@builds.apache.org>","Thu, 23 Aug 2012 17:54:13 +0000 (UTC)","Build failed in Jenkins: Cassandra-quick #1158"
"Apache Jenkins Server  <jenkins@builds.apache.org>","Thu, 23 Aug 2012 20:39:49 +0000 (UTC)","Build failed in Jenkins: Cassandra-quick #1159"
"Apache Jenkins Server  <jenkins@builds.apache.org>","Thu, 23 Aug 2012 21:23:13 +0000 (UTC)","Build failed in Jenkins: Cassandra-quick #1160"
"Apache Jenkins Server  <jenkins@builds.apache.org>","Fri, 24 Aug 2012 00:35:36 +0000 (UTC)","Build failed in Jenkins: Cassandra-Coverage #289"
"Apache Jenkins Server  <jenkins@builds.apache.org>","Fri, 24 Aug 2012 01:39:45 +0000 (UTC)","Build failed in Jenkins: Cassandra-quick #1161"
"Apache Jenkins Server  <jenkins@builds.apache.org>","Fri, 24 Aug 2012 03:04:15 +0000 (UTC)","Build failed in Jenkins: Cassandra-quick #1162"
"Apache Jenkins Server  <jenkins@builds.apache.org>","Fri, 24 Aug 2012 03:41:55 +0000 (UTC)","Build failed in Jenkins: Cassandra-quick #1163"
"Apache Jenkins Server  <jenkins@builds.apache.org>","Fri, 24 Aug 2012 04:24:49 +0000 (UTC)","Build failed in Jenkins: Cassandra-quick #1164"
"Apache Jenkins Server  <jenkins@builds.apache.org>","Fri, 24 Aug 2012 15:49:49 +0000 (UTC)","Build failed in Jenkins: Cassandra-quick #1165"
"Eric Evans <eevans@acunu.com>","Fri, 24 Aug 2012 11:23:17 -0500","Re: Upgrade path for virtual nodes"
"Jonathan Ellis <jbellis@gmail.com>","Fri, 24 Aug 2012 11:27:13 -0500","Re: Upgrade path for virtual nodes"
"Apache Jenkins Server  <jenkins@builds.apache.org>","Fri, 24 Aug 2012 20:14:36 +0000 (UTC)","Build failed in Jenkins: Cassandra-quick #1166"
"Apache Jenkins Server  <jenkins@builds.apache.org>","Fri, 24 Aug 2012 20:15:28 +0000 (UTC)","Build failed in Jenkins: Cassandra #1970"
"Apache Jenkins Server  <jenkins@builds.apache.org>","Fri, 24 Aug 2012 20:32:05 +0000 (UTC)","Build failed in Jenkins: Cassandra-quick #1167"
"Eric Evans <eevans@acunu.com>","Fri, 24 Aug 2012 15:39:58 -0500","Re: Upgrade path for virtual nodes"
"Apache Jenkins Server  <jenkins@builds.apache.org>","Fri, 24 Aug 2012 21:10:02 +0000 (UTC)","Build failed in Jenkins: Cassandra-quick #1168"
"Apache Jenkins Server  <jenkins@builds.apache.org>","Sat, 25 Aug 2012 00:59:01 +0000 (UTC)","Build failed in Jenkins: Cassandra-Coverage #290"
"paul cannon <paul@datastax.com>","Sat, 25 Aug 2012 12:47:06 -0600","Re: A few questions about Cassandra's native protocol"
"Christoph Hack <christoph@tux21b.org>","Sun, 26 Aug 2012 22:03:54 +0200","Re: A few questions about Cassandra's native protocol"
"Eric Evans <eevans@acunu.com>","Mon, 27 Aug 2012 15:54:07 -0500","Re: Upgrade path for virtual nodes"
"paul cannon <paul@datastax.com>","Mon, 27 Aug 2012 14:54:09 -0600","Re: A few questions about Cassandra's native protocol"
"Jonathan Ellis <jbellis@gmail.com>","Mon, 27 Aug 2012 16:38:57 -0500","Re: Upgrade path for virtual nodes"
"Jonathan Ellis <jbellis@gmail.com>","Mon, 27 Aug 2012 17:16:36 -0500","1.2 freeze"
"Apache Jenkins Server  <jenkins@builds.apache.org>","Mon, 27 Aug 2012 22:54:35 +0000 (UTC)","Build failed in Jenkins: Cassandra-quick #1169"
"Eric Evans <eevans@acunu.com>","Mon, 27 Aug 2012 18:33:24 -0500","Re: 1.2 freeze"
"Jonathan Ellis <jbellis@gmail.com>","Mon, 27 Aug 2012 23:02:45 -0500","Re: 1.2 freeze"
"Apache Jenkins Server  <jenkins@builds.apache.org>","Tue, 28 Aug 2012 23:09:15 +0000 (UTC)","Build failed in Jenkins: Cassandra #1981"
"Manu Zhang <owenzhang1990@gmail.com>","Wed, 29 Aug 2012 17:59:20 +0800","OldNetwrokTopologyStrategy throws exception for SimpleStrategy"
"Krishnanand Khambadkone <kkhambadkone@yahoo.com>","Wed, 29 Aug 2012 12:19:17 -0700 (PDT)","Exception when connecting to Cassandra"
"Jonathan Ellis <jbellis@gmail.com>","Wed, 29 Aug 2012 14:40:50 -0500","Re: Exception when connecting to Cassandra"
"Krishnanand Khambadkone <kkhambadkone@yahoo.com>","Wed, 29 Aug 2012 13:36:03 -0700 (PDT)","Re: Exception when connecting to Cassandra"
"Samuel CARRIERE <samuel.carriere@urssaf.fr>","Wed, 29 Aug 2012 23:25:18 +0200","AUTO : Samuel CARRIERE is out of the office (retour 19/09/2012)"
"Manu Zhang <owenzhang1990@gmail.com>","Thu, 30 Aug 2012 10:51:51 +0800","Cassandra 1.2 initialization error"
"Apache Jenkins Server  <jenkins@builds.apache.org>","Fri, 31 Aug 2012 11:12:49 +0000 (UTC)","Build failed in Jenkins: Cassandra #1983"
"Apache Jenkins Server  <jenkins@builds.apache.org>","Fri, 31 Aug 2012 11:13:26 +0000 (UTC)","Build failed in Jenkins: Cassandra-quick #1170"
"Apache Jenkins Server  <jenkins@builds.apache.org>","Fri, 31 Aug 2012 11:43:55 +0000 (UTC)","Build failed in Jenkins: Cassandra-quick #1171"
"Apache Jenkins Server  <jenkins@builds.apache.org>","Fri, 31 Aug 2012 12:40:50 +0000 (UTC)","Build failed in Jenkins: Cassandra-quick #1172"
"Apache Jenkins Server  <jenkins@builds.apache.org>","Fri, 31 Aug 2012 13:02:26 +0000 (UTC)","Build failed in Jenkins: Cassandra #1985"
"Apache Jenkins Server  <jenkins@builds.apache.org>","Fri, 31 Aug 2012 13:07:38 +0000 (UTC)","Build failed in Jenkins: Cassandra-quick #1173"
"Apache Jenkins Server  <jenkins@builds.apache.org>","Fri, 31 Aug 2012 13:46:55 +0000 (UTC)","Build failed in Jenkins: Cassandra-quick #1174"
"Apache Jenkins Server  <jenkins@builds.apache.org>","Fri, 31 Aug 2012 14:10:35 +0000 (UTC)","Build failed in Jenkins: Cassandra-quick #1175"
"Apache Jenkins Server  <jenkins@builds.apache.org>","Fri, 31 Aug 2012 15:08:17 +0000 (UTC)","Build failed in Jenkins: Cassandra-quick #1176"
"Apache Jenkins Server  <jenkins@builds.apache.org>","Fri, 31 Aug 2012 20:22:52 +0000 (UTC)","Build failed in Jenkins: Cassandra-quick #1177"
"Apache Jenkins Server  <jenkins@builds.apache.org>","Fri, 31 Aug 2012 23:56:53 +0000 (UTC)","Build failed in Jenkins: Cassandra-quick #1178"
