"Developer","Date","Subject"
"Pierre Sutra <pierre.sutra@unine.ch>","Fri, 5 Jul 2013 12:48:46 +0200","About atomic compare-and-swap"
"Radim Kolar <hsn@filez.com>","Mon, 08 Jul 2013 00:20:22 +0200","cassandra vnodes"
"Sylvain Lebresne <sylvain@datastax.com>","Tue, 9 Jul 2013 11:20:37 +0200","[VOTE] Release Apache Cassandra 2.0.0-beta1"
"Suresh Sajja <suresh.sajja@imaginea.com>","Tue, 9 Jul 2013 15:13:31 +0530","org.apache.cassandra.cli.CliTest:testCli is failing"
"Murali <muralidharan.tnj@gmail.com>","Tue, 9 Jul 2013 15:43:45 +0530","Re: [VOTE] Release Apache Cassandra 2.0.0-beta1"
"Carl Yeksigian <carl@yeksigian.com>","Tue, 9 Jul 2013 07:45:44 -0400","Re: [VOTE] Release Apache Cassandra 2.0.0-beta1"
"Jason Brown <jasedbrown@gmail.com>","Tue, 9 Jul 2013 05:52:38 -0700","Re: [VOTE] Release Apache Cassandra 2.0.0-beta1"
"=?iso-8859-2?Q?=A3ukasz_Dywicki?= <luke@code-house.org>","Tue, 9 Jul 2013 15:02:15 +0200","Configuration of network connectors"
"Jeremy Hanna <jeremy.hanna1234@gmail.com>","Tue, 9 Jul 2013 14:22:03 +0100","Re: Configuration of network connectors"
"Jonathan Ellis <jbellis@gmail.com>","Tue, 9 Jul 2013 08:41:42 -0500","Re: [VOTE] Release Apache Cassandra 2.0.0-beta1"
"Jonathan Ellis <jbellis@gmail.com>","Tue, 9 Jul 2013 07:46:15 -0700","Re: org.apache.cassandra.cli.CliTest:testCli is failing"
"Eric Evans <eevans@sym-link.com>","Tue, 9 Jul 2013 09:49:17 -0500","Re: [VOTE] Release Apache Cassandra 2.0.0-beta1"
"Darren Lee <dlee@amplience.com>","Tue, 9 Jul 2013 17:46:31 +0000","Composite Key Overload"
"=?iso-8859-2?Q?=A3ukasz_Dywicki?= <luke@code-house.org>","Tue, 9 Jul 2013 20:05:32 +0200","Re: Configuration of network connectors"
"Gary Dusbabek <gdusbabek@gmail.com>","Tue, 9 Jul 2013 17:38:46 -0500","Re: Configuration of network connectors"
"Brandon Williams <driftx@gmail.com>","Tue, 9 Jul 2013 17:59:30 -0500","Re: [VOTE] Release Apache Cassandra 2.0.0-beta1"
"Gary Dusbabek <gdusbabek@gmail.com>","Tue, 9 Jul 2013 20:30:22 -0500","Re: [VOTE] Release Apache Cassandra 2.0.0-beta1"
"Marcus Eriksson <krummas@gmail.com>","Wed, 10 Jul 2013 07:46:29 +0200","Re: [VOTE] Release Apache Cassandra 2.0.0-beta1"
"Vijay <vijay2win@gmail.com>","Wed, 10 Jul 2013 15:30:39 -0700","Re: [VOTE] Release Apache Cassandra 2.0.0-beta1"
"HuS.Andy <hushansmile@hotmail.com>","Thu, 11 Jul 2013 01:46:49 +0000","Some node can not receive GossipDigestAckMessage"
"Suresh Sajja <suresh.sajja@imaginea.com>","Thu, 11 Jul 2013 09:07:56 +0530","Re: org.apache.cassandra.cli.CliTest:testCli is failing"
"Murali <muralidharan.tnj@gmail.com>","Thu, 11 Jul 2013 12:16:32 +0530","CQL 3.0"
"HuS.Andy <hushansmile@hotmail.com>","Thu, 11 Jul 2013 07:05:21 +0000","RE: Some node can not receive GossipDigestAckMessage"
"mkjellman@barracuda.com","Thu, 11 Jul 2013 00:06:04 -0700","Re: CQL 3.0"
"mkjellman@barracuda.com","Thu, 11 Jul 2013 00:08:57 -0700","Re: Some node can not receive GossipDigestAckMessage"
"Sylvain Lebresne <sylvain@datastax.com>","Fri, 12 Jul 2013 11:59:14 +0200","[VOTE SUCESS] Release Apache Cassandra 2.0.0-beta1"
"Radim Kolar <hsn@filez.com>","Sat, 13 Jul 2013 02:13:10 +0200","wiki bootstrap doc"
"Dave Brosius <dbrosius@mebigfatguy.com>","Fri, 12 Jul 2013 20:39:11 -0400","Re: wiki bootstrap doc"
"Samuel CARRIERE <samuel.carriere@urssaf.fr>","Sat, 13 Jul 2013 04:02:18 +0200","AUTO : Samuel CARRIERE is out of the office (retour 07/08/2013)"
"Radim Kolar <hsn@filez.com>","Sat, 13 Jul 2013 18:52:48 +0200","Re: cassandra vnodes"
"mkjellman@barracuda.com","Sat, 13 Jul 2013 11:15:04 -0700","Re: cassandra vnodes"
"Vladimir Prudnikov <v.prudnikov@gmail.com>","Wed, 17 Jul 2013 22:18:02 +0200","CQL vs Thrift"
"Tyler Hobbs <tyler@datastax.com>","Wed, 17 Jul 2013 16:03:43 -0500","Re: CQL vs Thrift"
"Brandon Williams <driftx@gmail.com>","Wed, 17 Jul 2013 16:08:06 -0500","Re: CQL vs Thrift"
"Jonathan Ellis <jbellis@gmail.com>","Wed, 17 Jul 2013 16:18:22 -0500","Re: CQL vs Thrift"
"Edward Capriolo <edlinuxguru@gmail.com>","Thu, 18 Jul 2013 09:29:35 -0400","Re: CQL vs Thrift"
"Vivek Mishra <vivek.mishra@yahoo.com>","Thu, 18 Jul 2013 08:32:15 -0700 (PDT)","Re: CQL vs Thrift"
"clohfink <git@git.apache.org>","Fri, 19 Jul 2013 23:18:12 +0000 (UTC)","cassandra pull request: When providing multiple keys to sstable2json it wil..."
"Sylvain Lebresne <sylvain@datastax.com>","Mon, 22 Jul 2013 18:23:11 +0200","[VOTE] Release Apache Cassandra 2.0.0-beta2"
"Andrew Cobley <a.e.cobley@dundee.ac.uk>","Mon, 22 Jul 2013 16:30:48 +0000","Re: [VOTE] Release Apache Cassandra 2.0.0-beta2"
"Jonathan Ellis <jbellis@gmail.com>","Mon, 22 Jul 2013 11:31:36 -0500","Re: [VOTE] Release Apache Cassandra 2.0.0-beta2"
"Andrew Cobley <a.e.cobley@dundee.ac.uk>","Mon, 22 Jul 2013 16:39:15 +0000","Re: [VOTE] Release Apache Cassandra 2.0.0-beta2"
"Jonathan Ellis <jbellis@gmail.com>","Mon, 22 Jul 2013 11:42:02 -0500","Re: [VOTE] Release Apache Cassandra 2.0.0-beta2"
"Yuki Morishita <mor.yuki@gmail.com>","Mon, 22 Jul 2013 12:10:27 -0500","Re: [VOTE] Release Apache Cassandra 2.0.0-beta2"
"Gary Dusbabek <gdusbabek@gmail.com>","Mon, 22 Jul 2013 16:54:08 -0500","Re: [VOTE] Release Apache Cassandra 2.0.0-beta2"
"Carl Yeksigian <carl@yeksigian.com>","Mon, 22 Jul 2013 17:04:00 -0500","Re: [VOTE] Release Apache Cassandra 2.0.0-beta2"
"Vijay <vijay2win@gmail.com>","Mon, 22 Jul 2013 15:58:50 -0700","Re: [VOTE] Release Apache Cassandra 2.0.0-beta2"
"Jason Brown <jasedbrown@gmail.com>","Mon, 22 Jul 2013 21:57:59 -0700","Re: [VOTE] Release Apache Cassandra 2.0.0-beta2"
"Murali <muralidharan.tnj@gmail.com>","Tue, 23 Jul 2013 15:25:57 +0530","Re: [VOTE] Release Apache Cassandra 2.0.0-beta2"
"Sylvain Lebresne <sylvain@datastax.com>","Tue, 23 Jul 2013 16:27:13 +0200","[VOTE] Release Apache Cassandra 1.2.7"
"Jonathan Ellis <jbellis@gmail.com>","Tue, 23 Jul 2013 09:44:14 -0500","Re: [VOTE] Release Apache Cassandra 1.2.7"
"Gary Dusbabek <gdusbabek@gmail.com>","Tue, 23 Jul 2013 10:16:54 -0500","Re: [VOTE] Release Apache Cassandra 1.2.7"
"Murali <muralidharan.tnj@gmail.com>","Tue, 23 Jul 2013 21:08:31 +0530","Re: [VOTE] Release Apache Cassandra 1.2.7"
"Jason Brown <jasedbrown@gmail.com>","Tue, 23 Jul 2013 09:43:31 -0700","Re: [VOTE] Release Apache Cassandra 1.2.7"
"Brandon Williams <driftx@gmail.com>","Tue, 23 Jul 2013 15:32:20 -0500","Re: [VOTE] Release Apache Cassandra 1.2.7"
"Carl Yeksigian <carl@yeksigian.com>","Tue, 23 Jul 2013 16:50:58 -0500","Re: [VOTE] Release Apache Cassandra 1.2.7"
"Rohit Yadav <rohit.yadav@wingify.com>","Wed, 24 Jul 2013 04:02:40 +0530","Understanding CQL internals"
"Sylvain Lebresne <sylvain@datastax.com>","Wed, 24 Jul 2013 16:42:36 +0200","[VOTE CLOSED] Release Apache Cassandra 1.2.7"
"Sylvain Lebresne <sylvain@datastax.com>","Wed, 24 Jul 2013 18:21:35 +0200","[VOTE] Release Apache Cassandra 1.2.7 (Strike 2)"
"Jason Brown <jasbrown@netflix.com>","Wed, 24 Jul 2013 09:22:26 -0700","Re: [VOTE] Release Apache Cassandra 1.2.7 (Strike 2)"
"Carl Yeksigian <carl@yeksigian.com>","Wed, 24 Jul 2013 12:26:00 -0400","Re: [VOTE] Release Apache Cassandra 1.2.7 (Strike 2)"
"Brandon Williams <driftx@gmail.com>","Wed, 24 Jul 2013 11:45:49 -0500","Re: [VOTE] Release Apache Cassandra 1.2.7 (Strike 2)"
"Jonathan Ellis <jbellis@gmail.com>","Wed, 24 Jul 2013 13:52:31 -0500","Re: [VOTE] Release Apache Cassandra 1.2.7 (Strike 2)"
"Sylvain Lebresne <sylvain@datastax.com>","Thu, 25 Jul 2013 14:25:50 +0200","Re: [VOTE] Release Apache Cassandra 2.0.0-beta2"
"Sylvain Lebresne <sylvain@datastax.com>","Fri, 26 Jul 2013 17:52:20 +0200","[VOTE SUCCESS] Release Apache Cassandra 1.2.7 (Strike 2)"
"Jonathan Ellis <jbellis@gmail.com>","Sat, 27 Jul 2013 14:39:25 -0500","Regression in 1.2.7"
"mkjellman@barracuda.com","Sat, 27 Jul 2013 12:43:02 -0700","Re: Regression in 1.2.7"
"Yuki Morishita <mor.yuki@gmail.com>","Sat, 27 Jul 2013 15:25:01 -0500","Re: Regression in 1.2.7"
"Brandon Williams <driftx@gmail.com>","Sat, 27 Jul 2013 15:35:37 -0500","Re: Regression in 1.2.7"
"Eric Evans <eevans@sym-link.com>","Sat, 27 Jul 2013 19:30:44 -0400","Re: Regression in 1.2.7"
"Eric Evans <eevans@sym-link.com>","Sat, 27 Jul 2013 21:15:36 -0400","[VOTE] Release Apache Cassandra 1.2.8"
"Jonathan Ellis <jbellis@gmail.com>","Sat, 27 Jul 2013 20:32:38 -0500","Re: [VOTE] Release Apache Cassandra 1.2.8"
"Jason Brown <jasedbrown@gmail.com>","Sat, 27 Jul 2013 18:35:17 -0700","Re: [VOTE] Release Apache Cassandra 1.2.8"
"Brandon Williams <driftx@gmail.com>","Sat, 27 Jul 2013 20:42:58 -0500","Re: [VOTE] Release Apache Cassandra 1.2.8"
"Carl Yeksigian <carl@yeksigian.com>","Sat, 27 Jul 2013 21:53:23 -0400","Re: [VOTE] Release Apache Cassandra 1.2.8"
"Gary Dusbabek <gdusbabek@gmail.com>","Sun, 28 Jul 2013 08:16:19 -0500","Re: [VOTE] Release Apache Cassandra 1.2.8"
"Eric Evans <eevans@sym-link.com>","Sun, 28 Jul 2013 22:05:50 -0400","Re: [VOTE] Release Apache Cassandra 1.2.8"
"Nulik Nol <nuliknol@gmail.com>","Wed, 31 Jul 2013 04:34:18 -0500","StorageService.initServer() fails"
"Jonathan Ellis <jbellis@gmail.com>","Wed, 31 Jul 2013 11:48:47 -0500","Re: StorageService.initServer() fails"
