"Developer","Date","Subject"
"Jake Farrell <jfarrell@apache.org>","Fri, 30 Sep 2016 22:01:30 -0400","Re: [VOTE] Accept dtests Donation Into Project"
"sankalp kohli <kohlisankalp@gmail.com>","Fri, 30 Sep 2016 20:14:04 -0700","Re: [VOTE] Accept dtests Donation Into Project"
"Jonathan Ekwempu <onyii5119@gmail.com>","Sat, 1 Oct 2016 10:29:46 -0400","Re: [VOTE] Release Apache Cassandra 3.9"
"DuyHai Doan <doanduyhai@gmail.com>","Sat, 1 Oct 2016 17:24:40 +0200","Re: [VOTE] Release Apache Cassandra 3.9"
"ptemplier <git@git.apache.org>","Sun,  2 Oct 2016 08:08:56 +0000 (UTC)","[GitHub] cassandra pull request #75: Fix windows available ports checking"
"Gary Dusbabek <gdusbabek@gmail.com>","Mon, 3 Oct 2016 08:40:29 -0500","Re: [VOTE] Accept dtests Donation Into Project"
"Eric Evans <john.eric.evans@gmail.com>","Mon, 3 Oct 2016 09:25:33 -0500","Re: [VOTE] Accept dtests Donation Into Project"
"Aleksey Yeschenko <aleksey@apache.org>","Mon, 3 Oct 2016 15:54:32 +0100","Re: [VOTE] Accept dtests Donation Into Project"
"Pavel Yaskevich <povel.y@gmail.com>","Mon, 3 Oct 2016 11:38:50 -0700","Re: [VOTE] Accept dtests Donation Into Project"
"Nate McCall <zznate.m@gmail.com>","Tue, 4 Oct 2016 09:56:39 +1300","Re: [VOTE] Accept dtests Donation Into Project"
"Robert Lemmen <robertle@semistable.com>","Tue, 4 Oct 2016 17:21:05 +0100","merkle anti-entropy and balancing of trees"
"Kant Kodali <kant@peernova.com>","Tue, 04 Oct 2016 18:25:45 +0000","How to write a trigger in Cassandra to only detect updates of an existing row ?"
"Philip Thompson <philip.thompson@datastax.com>","Wed, 5 Oct 2016 11:02:47 -0400","Failing tests 2016-10-05"
"Michael Shuler <michael@pbandjelly.org>","Wed, 5 Oct 2016 18:09:58 -0500","[VOTE] Release Apache Cassandra 2.1.16"
"Brandon Williams <driftx@gmail.com>","Wed, 5 Oct 2016 18:10:55 -0500","Re: [VOTE] Release Apache Cassandra 2.1.16"
"Nate McCall <zznate.m@gmail.com>","Thu, 6 Oct 2016 12:32:36 +1300","Re: [VOTE] Release Apache Cassandra 2.1.16"
"""Jeff Jirsa""<jjirsa@apache.org>","Wed, 05 Oct 2016 23:46:20 -0000","Re: [VOTE] Release Apache Cassandra 2.1.16"
"Varun Barala <varunbarala99@gmail.com>","Thu, 6 Oct 2016 12:17:53 +0800","Counter global logical clock"
"Gary Dusbabek <gdusbabek@gmail.com>","Thu, 6 Oct 2016 09:32:37 -0500","Re: [VOTE] Release Apache Cassandra 2.1.16"
"Aleksey Yeschenko <aleksey@apache.org>","Thu, 6 Oct 2016 17:08:44 +0100","Re: [VOTE] Release Apache Cassandra 2.1.16"
"Tyler Hobbs <tyler@datastax.com>","Thu, 6 Oct 2016 12:58:44 -0500","Re: [VOTE] Release Apache Cassandra 2.1.16"
"Paul Weiss <paulweiss.dev@gmail.com>","Thu, 6 Oct 2016 17:54:39 -0400","Re: sstableloader from java"
"Romain Hardouin <romainh_ml@yahoo.fr.INVALID>","Thu, 6 Oct 2016 22:45:56 +0000 (UTC)","Re: [VOTE] Release Apache Cassandra 2.1.16"
"Jason Brown <jasedbrown@gmail.com>","Fri, 7 Oct 2016 06:52:26 -0700","Re: [VOTE] Release Apache Cassandra 2.1.16"
"Michael Shuler <michael@pbandjelly.org>","Fri, 7 Oct 2016 09:29:00 -0500","Re: [VOTE] Release Apache Cassandra 2.1.16"
"Jason Brown <jasedbrown@gmail.com>","Fri, 7 Oct 2016 08:03:45 -0700","Re: [VOTE] Release Apache Cassandra 2.1.16"
"Prasenjit Sarkar <prasenjit.sarkar@datos.io>","Fri, 7 Oct 2016 11:02:07 -0700","Proprietary Replication Strategies: Cassandra Driver Support"
"Vladimir Yudovin <vladyu@winguzone.com>","Fri, 07 Oct 2016 14:11:43 -0400","Re: Proprietary Replication Strategies: Cassandra Driver Support"
"Jeremiah D Jordan <jeremiah.jordan@gmail.com>","Fri, 7 Oct 2016 13:56:15 -0500","Re: Proprietary Replication Strategies: Cassandra Driver Support"
"Prasenjit Sarkar <prasenjit.sarkar@datos.io>","Fri, 7 Oct 2016 14:06:09 -0700","Re: Proprietary Replication Strategies: Cassandra Driver Support"
"sridhar nemani <sridhar.gmrit@gmail.com>","Fri, 7 Oct 2016 16:19:49 -0500","Question regd CDC in cassandra 3.7+"
"""J. D. Jordan"" <jeremiah.jordan@gmail.com>","Fri, 7 Oct 2016 16:31:16 -0500","Re: Proprietary Replication Strategies: Cassandra Driver Support"
"Prasenjit Sarkar <prasenjit.sarkar@datos.io>","Fri, 7 Oct 2016 14:36:10 -0700","Re: Proprietary Replication Strategies: Cassandra Driver Support"
"Vladimir Yudovin <vladyu@winguzone.com>","Sat, 08 Oct 2016 00:37:36 -0400","Re: Proprietary Replication Strategies: Cassandra Driver Support"
"DuyHai Doan <doanduyhai@gmail.com>","Sat, 8 Oct 2016 10:17:06 +0200","Re: Question regd CDC in cassandra 3.7+"
"Sridhar Nemani <sridhar.nemani@whamtech.com>","Sat, 8 Oct 2016 08:32:05 -0500","Re: Question regd CDC in cassandra 3.7+"
"Edward Capriolo <edlinuxguru@gmail.com>","Sat, 8 Oct 2016 13:09:46 -0400","Re: Proprietary Replication Strategies: Cassandra Driver Support"
"Jeff Jirsa <jjirsa@gmail.com>","Sat, 8 Oct 2016 10:17:14 -0700","Re: Proprietary Replication Strategies: Cassandra Driver Support"
"Vladimir Yudovin <vladyu@winguzone.com>","Sat, 08 Oct 2016 13:33:34 -0400","Re: Re: Proprietary Replication Strategies: Cassandra Driver Support"
"Jeff Jirsa <jjirsa@gmail.com>","Sat, 8 Oct 2016 10:44:00 -0700","Re: Proprietary Replication Strategies: Cassandra Driver Support"
"Vladimir Yudovin <vladyu@winguzone.com>","Sat, 08 Oct 2016 13:56:18 -0400","Re: Proprietary Replication Strategies: Cassandra Driver Support"
"Michael Shuler <michael@pbandjelly.org>","Mon, 10 Oct 2016 08:37:44 -0500","[VOTE RESULT] Release Apache Cassandra 2.1.16"
"Philip Thompson <philip.thompson@datastax.com>","Mon, 10 Oct 2016 11:57:49 -0400","Failing tests 2016-10-10"
"Nate McCall <zznate.m@gmail.com>","Tue, 11 Oct 2016 08:26:32 +1300","Re: [VOTE] Release Apache Cassandra 2.1.16"
"Michael Shuler <michael@pbandjelly.org>","Mon, 10 Oct 2016 14:44:01 -0500","Re: [VOTE] Release Apache Cassandra 2.1.16"
"Brandon Williams <driftx@gmail.com>","Mon, 10 Oct 2016 14:47:09 -0500","Re: [VOTE] Release Apache Cassandra 2.1.16"
"Nate McCall <zznate.m@gmail.com>","Tue, 11 Oct 2016 09:09:42 +1300","Re: [VOTE] Release Apache Cassandra 2.1.16"
"Michael Shuler <michael@pbandjelly.org>","Mon, 10 Oct 2016 15:55:08 -0500","CASSANDRA-12758 in 2.1? (was: Re: [VOTE] Release Apache Cassandra 2.1.16)"
"Brandon Williams <driftx@gmail.com>","Mon, 10 Oct 2016 15:57:44 -0500","Re: CASSANDRA-12758 in 2.1? (was: Re: [VOTE] Release Apache Cassandra 2.1.16)"
"Michael Shuler <mshuler@apache.org>","Mon, 10 Oct 2016 16:55:08 -0500","[RELEASE] Apache Cassandra 2.1.16 released"
"Abhishek Verma <verma@uber.com>","Mon, 10 Oct 2016 16:34:55 -0700","Bootstrapping data from Cassandra 2.2.5 datacenter to 3.0.8 datacenter fails because of streaming errors"
"Jonathan Haddad <jon@jonhaddad.com>","Mon, 10 Oct 2016 23:46:17 +0000","Re: Bootstrapping data from Cassandra 2.2.5 datacenter to 3.0.8 datacenter fails because of streaming errors"
"Utkarsh Sengar <utkarsh2012@gmail.com>","Mon, 10 Oct 2016 16:51:42 -0700","Re: Bootstrapping data from Cassandra 2.2.5 datacenter to 3.0.8 datacenter fails because of streaming errors"
"Ben Bromhead <ben@instaclustr.com>","Tue, 11 Oct 2016 00:51:42 +0000","Re: Proprietary Replication Strategies: Cassandra Driver Support"
"Kant Kodali <kant@peernova.com>","Wed, 12 Oct 2016 00:58:53 -0700","Why does Cassandra need to have 2B column limit? why can't we have unlimited ?"
"Dorian Hoxha <dorian.hoxha@gmail.com>","Wed, 12 Oct 2016 10:37:57 +0200","Re: Why does Cassandra need to have 2B column limit? why can't we have unlimited ?"
"Dorian Hoxha <dorian.hoxha@gmail.com>","Wed, 12 Oct 2016 10:41:10 +0200","Re: Why does Cassandra need to have 2B column limit? why can't we have unlimited ?"
"Kant Kodali <kant@peernova.com>","Wed, 12 Oct 2016 01:54:39 -0700","Re: Why does Cassandra need to have 2B column limit? why can't we have unlimited ?"
"Kant Kodali <kant@peernova.com>","Wed, 12 Oct 2016 01:57:36 -0700","Re: Why does Cassandra need to have 2B column limit? why can't we have unlimited ?"
"Jake Luciani <jakers@gmail.com>","Thu, 13 Oct 2016 18:01:55 -0400","Re: [jira] [Commented] (CASSANDRA-12490) Add sequence distribution type to cassandra stress"
"Ben Slater <ben.slater@instaclustr.com>","Fri, 14 Oct 2016 00:40:47 +0000","Re: [jira] [Commented] (CASSANDRA-12490) Add sequence distribution type to cassandra stress"
"Jeremiah D Jordan <jeremiah.jordan@gmail.com>","Thu, 13 Oct 2016 20:25:28 -0500","Re: [jira] [Commented] (CASSANDRA-12490) Add sequence distribution type to cassandra stress"
"Kant Kodali <kant@peernova.com>","Fri, 14 Oct 2016 23:37:14 -0700","Is SASI index in Cassandra efficient for high cardinality columns?"
"DuyHai Doan <doanduyhai@gmail.com>","Sat, 15 Oct 2016 11:40:52 +0200","Re: Is SASI index in Cassandra efficient for high cardinality columns?"
"Kant Kodali <kant@peernova.com>","Sat, 15 Oct 2016 02:55:06 -0700","Re: Is SASI index in Cassandra efficient for high cardinality columns?"
"DuyHai Doan <doanduyhai@gmail.com>","Sat, 15 Oct 2016 13:35:18 +0200","Re: Is SASI index in Cassandra efficient for high cardinality columns?"
"deshpamit <git@git.apache.org>","Sat, 15 Oct 2016 16:24:48 +0000 (UTC)","[GitHub] cassandra pull request #76: CASSANDRA-12541, CASSANDRA-12542, CASSANDRA-1254..."
"doanduyhai <git@git.apache.org>","Sat, 15 Oct 2016 16:44:23 +0000 (UTC)","[GitHub] cassandra issue #76: CASSANDRA-12541, CASSANDRA-12542, CASSANDRA-12543 and C..."
"deshpamit <git@git.apache.org>","Sat, 15 Oct 2016 16:48:52 +0000 (UTC)","[GitHub] cassandra issue #76: CASSANDRA-12541, CASSANDRA-12542, CASSANDRA-12543 and C..."
"edwardcapriolo <git@git.apache.org>","Sat, 15 Oct 2016 19:52:10 +0000 (UTC)","[GitHub] cassandra issue #76: CASSANDRA-12541, CASSANDRA-12542, CASSANDRA-12543 and C..."
"deshpamit <git@git.apache.org>","Mon, 17 Oct 2016 21:10:48 +0000 (UTC)","[GitHub] cassandra issue #55: Fix typo in Java doc for pending compactions"
"deshpamit <git@git.apache.org>","Mon, 17 Oct 2016 21:11:28 +0000 (UTC)","[GitHub] cassandra issue #53: Create Readme_mohit"
"gargmohit3890 <git@git.apache.org>","Tue, 18 Oct 2016 05:06:52 +0000 (UTC)","[GitHub] cassandra issue #53: Create Readme_mohit"
"gargmohit3890 <git@git.apache.org>","Tue, 18 Oct 2016 05:07:57 +0000 (UTC)","[GitHub] cassandra issue #53: Create Readme_mohit"
"Michael Kjellman <mkjellman@internalcircle.com>","Tue, 18 Oct 2016 15:10:23 +0000","Cleanup after yourselves please"
"Oleksandr Petrov <oleksandr.petrov@gmail.com>","Tue, 18 Oct 2016 15:18:48 +0000","Re: Cleanup after yourselves please"
"Michael Kjellman <mkjellman@internalcircle.com>","Tue, 18 Oct 2016 15:28:33 +0000","Use of posix_fadvise"
"Benedict Elliott Smith <benedict@apache.org>","Tue, 18 Oct 2016 16:33:23 +0100","Re: Use of posix_fadvise"
"Michael Kjellman <mkjellman@internalcircle.com>","Tue, 18 Oct 2016 15:47:13 +0000","Re: Use of posix_fadvise"
"Jake Luciani <jakers@gmail.com>","Tue, 18 Oct 2016 11:50:54 -0400","Re: Use of posix_fadvise"
"Michael Kjellman <mkjellman@internalcircle.com>","Tue, 18 Oct 2016 15:57:07 +0000","Re: Use of posix_fadvise"
"Michael Kjellman <mkjellman@internalcircle.com>","Tue, 18 Oct 2016 15:59:23 +0000","Re: Use of posix_fadvise"
"Edward Capriolo <edlinuxguru@gmail.com>","Tue, 18 Oct 2016 12:00:08 -0400","Low hanging fruit crew"
"Ariel Weisberg <ariel.weisberg@datastax.com>","Tue, 18 Oct 2016 12:02:51 -0400","Re: Use of posix_fadvise"
"Michael Kjellman <mkjellman@internalcircle.com>","Tue, 18 Oct 2016 16:04:33 +0000","Re: Cleanup after yourselves please"
"Michael Kjellman <mkjellman@internalcircle.com>","Tue, 18 Oct 2016 16:05:58 +0000","Re: Use of posix_fadvise"
"Ariel Weisberg <ariel@weisberg.ws>","Tue, 18 Oct 2016 12:12:39 -0400","Re: Use of posix_fadvise"
"Oleksandr Petrov <oleksandr.petrov@gmail.com>","Tue, 18 Oct 2016 16:15:30 +0000","Re: Cleanup after yourselves please"
"Michael Kjellman <mkjellman@internalcircle.com>","Tue, 18 Oct 2016 16:17:38 +0000","8099 Storage Format Documentation as used with PRIMARY_INDEX"
"Michael Kjellman <mkjellman@internalcircle.com>","Tue, 18 Oct 2016 16:20:53 +0000","Re: Cleanup after yourselves please"
"Jake Luciani <jakers@gmail.com>","Tue, 18 Oct 2016 12:34:06 -0400","Re: Use of posix_fadvise"
"Michael Kjellman <mkjellman@internalcircle.com>","Tue, 18 Oct 2016 16:42:27 +0000","Re: Use of posix_fadvise"
"Benedict Elliott Smith <benedict@apache.org>","Tue, 18 Oct 2016 18:07:15 +0100","Re: Use of posix_fadvise"
"Josh McKenzie <jmckenzie@apache.org>","Tue, 18 Oct 2016 13:21:01 -0400","Re: Cleanup after yourselves please"
"Michael Kjellman <mkjellman@internalcircle.com>","Tue, 18 Oct 2016 17:28:26 +0000","Re: Use of posix_fadvise"
"Benedict Elliott Smith <benedict@apache.org>","Tue, 18 Oct 2016 19:48:48 +0100","Re: Use of posix_fadvise"
"Edward Capriolo <edlinuxguru@gmail.com>","Tue, 18 Oct 2016 15:35:25 -0400","Re: Cleanup after yourselves please"
"Nate McCall <zznate.m@gmail.com>","Wed, 19 Oct 2016 10:27:45 +1300","Re: Use of posix_fadvise"
"Edward Capriolo <edlinuxguru@gmail.com>","Tue, 18 Oct 2016 17:29:34 -0400","Re: Use of posix_fadvise"
"kurt Greaves <kurt@instaclustr.com>","Tue, 18 Oct 2016 22:58:18 +0000","Re: Low hanging fruit crew"
"Dikang Gu <dikang85@gmail.com>","Tue, 18 Oct 2016 15:59:42 -0700","Batch read requests to one physical host?"
"Eric Stevens <mightye@gmail.com>","Wed, 19 Oct 2016 00:07:09 +0000","Re: Batch read requests to one physical host?"
"Nate McCall <zznate.m@gmail.com>","Wed, 19 Oct 2016 18:30:42 +1300","Re: Low hanging fruit crew"
"Michael Kjellman <mkjellman@internalcircle.com>","Wed, 19 Oct 2016 07:41:51 +0000","Re: 8099 Storage Format Documentation as used with PRIMARY_INDEX"
"kurt Greaves <kurt@instaclustr.com>","Wed, 19 Oct 2016 08:18:50 +0000","Re: Low hanging fruit crew"
"Edward Capriolo <edlinuxguru@gmail.com>","Wed, 19 Oct 2016 09:01:01 -0400","Re: Low hanging fruit crew"
"Benjamin Lerer <benjamin.lerer@datastax.com>","Wed, 19 Oct 2016 15:27:31 +0200","Re: Low hanging fruit crew"
"Tyler Hobbs <tyler@datastax.com>","Wed, 19 Oct 2016 10:26:22 -0500","Re: Batch read requests to one physical host?"
"Jonathan Ellis <jbellis@gmail.com>","Wed, 19 Oct 2016 10:33:47 -0500","Re: Low hanging fruit crew"
"Jonathan Haddad <jon@jonhaddad.com>","Wed, 19 Oct 2016 15:52:45 +0000","Re: Low hanging fruit crew"
"Jeremiah D Jordan <jeremiah.jordan@gmail.com>","Wed, 19 Oct 2016 10:55:02 -0500","Re: Low hanging fruit crew"
"Jonathan Ellis <jbellis@gmail.com>","Wed, 19 Oct 2016 11:08:00 -0500","Re: Low hanging fruit crew"
"Jeremy Hanna <jeremy.hanna1234@gmail.com>","Wed, 19 Oct 2016 11:14:08 -0500","Re: Low hanging fruit crew"
"=?UTF-8?B?0JLQu9Cw0LTQuNC80LjRgCDQkdGD0YXRgtC+0Y/RgNC+0LI=?= <jsecoder@mail.ru.INVALID>","Wed, 19 Oct 2016 19:21:35 +0300","=?UTF-8?B?SGlzdG9ncmFtIGVycm9yICJVbmFibGUgdG8gY29tcHV0ZSBjZWlsaW5nIGZv?= =?UTF-8?B?ciBtYXggd2hlbiBoaXN0b2dyYW0gb3ZlcmZsb3dlZCI=?="
"Jeff Jirsa <jeff.jirsa@crowdstrike.com>","Wed, 19 Oct 2016 16:44:34 +0000","Re: Low hanging fruit crew"
"jeffjirsa <git@git.apache.org>","Wed, 19 Oct 2016 16:58:53 +0000 (UTC)","[GitHub] cassandra issue #76: CASSANDRA-12541, CASSANDRA-12542, CASSANDRA-12543 and C..."
"Edward Capriolo <edlinuxguru@gmail.com>","Wed, 19 Oct 2016 13:01:39 -0400","Re: Low hanging fruit crew"
"Ken Hancock <ken.hancock@schange.com>","Wed, 19 Oct 2016 13:17:23 -0400","Re: Histogram error ""Unable to compute ceiling for max when histogram overflowed"""
"Edward Capriolo <edlinuxguru@gmail.com>","Wed, 19 Oct 2016 13:20:04 -0400","Re: Low hanging fruit crew"
"=?UTF-8?B?0JLQu9Cw0LTQuNC80LjRgCDQkdGD0YXRgtC+0Y/RgNC+0LI=?= <jsecoder@mail.ru.INVALID>","Wed, 19 Oct 2016 21:12:27 +0300","=?UTF-8?B?UmVbMl06IEhpc3RvZ3JhbSBlcnJvciAiVW5hYmxlIHRvIGNvbXB1dGUgY2Vp?= =?UTF-8?B?bGluZyBmb3IgbWF4IHdoZW4gaGlzdG9ncmFtIG92ZXJmbG93ZWQi?="
"deshpamit <git@git.apache.org>","Wed, 19 Oct 2016 19:34:50 +0000 (UTC)","[GitHub] cassandra pull request #76: CASSANDRA-12541, CASSANDRA-12542, CASSANDRA-1254..."
"Jeff Beck <beckje01@gmail.com>","Wed, 19 Oct 2016 20:33:54 +0000","Re: Low hanging fruit crew"
"eprothro <git@git.apache.org>","Wed, 19 Oct 2016 20:34:46 +0000 (UTC)","[GitHub] cassandra pull request #77: 12804 3.x"
"eprothro <git@git.apache.org>","Wed, 19 Oct 2016 21:13:00 +0000 (UTC)","[GitHub] cassandra pull request #77: Remove legacy docs"
"Nate McCall <zznate.m@gmail.com>","Thu, 20 Oct 2016 11:01:29 +1300","Re: Batch read requests to one physical host?"
"Jonathan Haddad <jon@jonhaddad.com>","Wed, 19 Oct 2016 22:27:17 +0000","Re: Low hanging fruit crew"
"Dikang Gu <dikang85@gmail.com>","Wed, 19 Oct 2016 15:29:59 -0700","Re: Batch read requests to one physical host?"
"Jeremy Hanna <jeremy.hanna1234@gmail.com>","Wed, 19 Oct 2016 17:39:47 -0500","Re: Low hanging fruit crew"
"Nate McCall <zznate.m@gmail.com>","Thu, 20 Oct 2016 18:56:37 +1300","Re: Low hanging fruit crew"
"spodkowinski <git@git.apache.org>","Thu, 20 Oct 2016 14:00:52 +0000 (UTC)","[GitHub] cassandra issue #74: fixed typo in select example"
"=?UTF-8?B?0JLQu9Cw0LTQuNC80LjRgCDQkdGD0YXRgtC+0Y/RgNC+0LI=?= <jsecoder@mail.ru.INVALID>","Thu, 20 Oct 2016 18:06:04 +0300","=?UTF-8?B?UmVbM106IEhpc3RvZ3JhbSBlcnJvciAiVW5hYmxlIHRvIGNvbXB1dGUgY2Vp?= =?UTF-8?B?bGluZyBmb3IgbWF4IHdoZW4gaGlzdG9ncmFtIG92ZXJmbG93ZWQi?="
"Jeremy Hanna <jeremy.hanna1234@gmail.com>","Thu, 20 Oct 2016 11:33:11 -0500","Re: Proposal - 3.5.1"
"Ben Bromhead <ben@instaclustr.com>","Thu, 20 Oct 2016 16:52:37 +0000","Re: Proposal - 3.5.1"
"Jeremy Hanna <jeremy.hanna1234@gmail.com>","Thu, 20 Oct 2016 11:57:10 -0500","Re: Proposal - 3.5.1"
"""J. D. Jordan"" <jeremiah.jordan@gmail.com>","Thu, 20 Oct 2016 15:26:58 -0500","Re: Proposal - 3.5.1"
"Nate McCall <zznate.m@gmail.com>","Fri, 21 Oct 2016 09:56:09 +1300","Re: Re[3]: Histogram error ""Unable to compute ceiling for max when histogram overflowed"""
"""Jeff Jirsa""<jjirsa@apache.org>","Thu, 20 Oct 2016 20:59:38 -0000","Re: Proposal - 3.5.1"
"Chris Lohfink <chris.lohfink@datastax.com>","Thu, 20 Oct 2016 16:17:38 -0500","Re: Re[3]: Histogram error ""Unable to compute ceiling for max when histogram overflowed"""
"sankalp kohli <kohlisankalp@gmail.com>","Thu, 20 Oct 2016 14:18:17 -0700","Backports to 2.1.16"
"Jeremiah Jordan <jeremiah@datastax.com>","Thu, 20 Oct 2016 16:21:15 -0500","Re: Proposal - 3.5.1"
"""Jeff Jirsa""<jjirsa@apache.org>","Thu, 20 Oct 2016 21:42:41 -0000","Re: Proposal - 3.5.1"
"Jeremiah D Jordan <jeremiah.jordan@gmail.com>","Thu, 20 Oct 2016 16:53:43 -0500","Re: Proposal - 3.5.1"
"Aleksey Yeschenko <aleksey@apache.org>","Thu, 20 Oct 2016 22:57:02 +0100","Re: Proposal - 3.5.1"
"Nate McCall <zznate.m@gmail.com>","Fri, 21 Oct 2016 11:17:18 +1300","Re: Proposal - 3.5.1"
"Jonathan Haddad <jon@jonhaddad.com>","Thu, 20 Oct 2016 22:38:54 +0000","Re: Proposal - 3.5.1"
"Jonathan Haddad <jon@jonhaddad.com>","Thu, 20 Oct 2016 22:41:14 +0000","Re: Proposal - 3.5.1"
"Ben Bromhead <ben@instaclustr.com>","Thu, 20 Oct 2016 23:27:05 +0000","Re: Backports to 2.1.16"
"Kant Kodali <kant@peernova.com>","Fri, 21 Oct 2016 01:20:07 -0700","Re: Is SASI index in Cassandra efficient for high cardinality columns?"
"DuyHai Doan <doanduyhai@gmail.com>","Fri, 21 Oct 2016 11:50:21 +0200","Re: Is SASI index in Cassandra efficient for high cardinality columns?"
"Romain Hardouin <romainh_ml@yahoo.fr.INVALID>","Fri, 21 Oct 2016 10:02:50 +0000 (UTC)","Re: Backports to 2.1.16"
"earlye <git@git.apache.org>","Fri, 21 Oct 2016 14:50:00 +0000 (UTC)","[GitHub] cassandra pull request #78: Fix flapping test in 2.0.17. Looks like an event..."
"earlye <git@git.apache.org>","Fri, 21 Oct 2016 14:50:38 +0000 (UTC)","[GitHub] cassandra issue #78: Fix flapping test in 2.0.17. Looks like an eventual con..."
"earlye <git@git.apache.org>","Fri, 21 Oct 2016 14:50:40 +0000 (UTC)","[GitHub] cassandra pull request #78: Fix flapping test in 2.0.17. Looks like an event..."
"sankalp kohli <kohlisankalp@gmail.com>","Fri, 21 Oct 2016 10:31:24 -0700","Re: Backports to 2.1.16"
"Dikang Gu <dikang85@gmail.com>","Mon, 24 Oct 2016 16:51:01 -0700","Re: Batch read requests to one physical host?"
"Rajath Subramanyam <rajath26@gmail.com>","Tue, 25 Oct 2016 19:03:56 -0700","Cassandra snapshot JMX commands"
"cmlicata <git@git.apache.org>","Fri, 28 Oct 2016 13:21:37 +0000 (UTC)","[GitHub] cassandra pull request #79: Correct Spelling Errors in JavaDoc for IEndPoint..."
"Michael Shuler <michael@pbandjelly.org>","Mon, 31 Oct 2016 10:18:40 -0500","[VOTE] Release Apache Cassandra 3.10"
"Michael Shuler <michael@pbandjelly.org>","Mon, 31 Oct 2016 11:12:01 -0500","[VOTE] Release Apache Cassandra 3.0.10"
"Aleksey Yeschenko <aleksey@apache.org>","Mon, 31 Oct 2016 16:16:00 +0000","Re: [VOTE] Release Apache Cassandra 3.0.10"
"Aleksey Yeschenko <aleksey@apache.org>","Mon, 31 Oct 2016 16:16:38 +0000","Re: [VOTE] Release Apache Cassandra 3.10"
"""Licata, Christopher (CONT)"" <Christopher.Licata@capitalone.com>","Mon, 31 Oct 2016 16:26:46 +0000","Re: [VOTE] Release Apache Cassandra 3.10"
"Nate McCall <zznate.m@gmail.com>","Tue, 1 Nov 2016 04:29:29 +1100","Re: [VOTE] Release Apache Cassandra 3.0.10"
"Nate McCall <zznate.m@gmail.com>","Tue, 1 Nov 2016 04:29:54 +1100","Re: [VOTE] Release Apache Cassandra 3.10"
"Brandon Williams <driftx@gmail.com>","Mon, 31 Oct 2016 12:41:23 -0500","Re: [VOTE] Release Apache Cassandra 3.0.10"
"Brandon Williams <driftx@gmail.com>","Mon, 31 Oct 2016 12:41:45 -0500","Re: [VOTE] Release Apache Cassandra 3.10"
"kurt Greaves <kurt@instaclustr.com>","Mon, 31 Oct 2016 22:14:57 +0000","Re: [VOTE] Release Apache Cassandra 3.10"
