"Developer","Date","Subject"
"serphacker <git@git.apache.org>","Tue,  4 Nov 2014 10:27:50 +0000 (UTC)","[GitHub] cassandra pull request: change private evictionCheckTimer to publi..."
"serphacker <git@git.apache.org>","Tue,  4 Nov 2014 10:30:50 +0000 (UTC)","[GitHub] cassandra pull request: change private evictionCheckTimer to publi..."
"serphacker <git@git.apache.org>","Tue,  4 Nov 2014 10:30:51 +0000 (UTC)","[GitHub] cassandra pull request: change private evictionCheckTimer to publi..."
"Jake Luciani <jake@apache.org>","Wed, 5 Nov 2014 21:20:49 -0500","[VOTE] Release Apache Cassandra 2.1.2"
"Jonathan Ellis <jbellis@gmail.com>","Wed, 5 Nov 2014 20:23:59 -0600","Re: [VOTE] Release Apache Cassandra 2.1.2"
"Mikhail Stepura <mikhail.stepura@outlook.com>","Wed, 5 Nov 2014 18:46:59 -0800","Re: [VOTE] Release Apache Cassandra 2.1.2"
"Winter Gao <winter.gao@gmail.com>","Thu, 6 Nov 2014 11:06:18 +0800","Question about writetime() function"
"Amitabha Karmakar <amitabha.karmakar@gmail.com>","Wed, 5 Nov 2014 22:19:24 -0500","Re: [VOTE] Release Apache Cassandra 2.1.2"
"Sylvain Lebresne <sylvain@datastax.com>","Thu, 6 Nov 2014 10:29:29 +0100","Re: [VOTE] Release Apache Cassandra 2.1.2"
"Josh McKenzie <josh.mckenzie@datastax.com>","Thu, 6 Nov 2014 09:28:24 -0600","Re: [VOTE] Release Apache Cassandra 2.1.2"
"Gary Dusbabek <gdusbabek@gmail.com>","Thu, 6 Nov 2014 13:05:16 -0600","Re: [VOTE] Release Apache Cassandra 2.1.2"
"Jacques-Henri Berthemet <jacques-henri.berthemet@genesys.com>","Fri, 7 Nov 2014 18:13:33 +0000","Retrieving clustering columns values from cell names"
"Brandon Williams <driftx@gmail.com>","Sat, 8 Nov 2014 15:28:16 -0600","Re: [VOTE] Release Apache Cassandra 2.1.2"
"Reik Schatz <reik.schatz@gmail.com>","Mon, 10 Nov 2014 12:06:56 +0100","object mapping and keyspace in @UDT and @Table"
"Olivier Michallat <olivier.michallat@datastax.com>","Mon, 10 Nov 2014 14:42:27 +0100","Re: object mapping and keyspace in @UDT and @Table"
"Jake Luciani <jake@apache.org>","Mon, 10 Nov 2014 08:58:07 -0500","[VOTE RESULT] Release Apache Cassandra 2.1.2"
"Jacques-Henri Berthemet <jacques-henri.berthemet@genesys.com>","Mon, 10 Nov 2014 15:09:17 +0000","RE: Retrieving clustering columns values from cell names"
"Jake Luciani <jake@apache.org>","Mon, 10 Nov 2014 11:03:55 -0500","[RELEASE] Apache Cassandra 2.1.2 released"
"Rajanarayanan Thottuvaikkatumana <rnamboodiri@gmail.com>","Tue, 11 Nov 2014 14:46:16 +0000","CQLSH is not connecting - Trunk Version"
"Rajanarayanan Thottuvaikkatumana <rnamboodiri@gmail.com>","Tue, 11 Nov 2014 14:52:34 +0000","Re: CQLSH is not connecting - Trunk Version"
"Aleksey Yeschenko <aleksey@apache.org>","Tue, 11 Nov 2014 18:20:13 +0300","Re: CQLSH is not connecting - Trunk Version"
"Adam Israel <adam.israel@canonical.com>","Tue, 11 Nov 2014 13:23:57 -0500","Debian mirror is blocked"
"oded peer <peer.oded@gmail.com>","Tue, 11 Nov 2014 23:35:41 +0200","Reviewing patches"
"Eric Evans <eevans@sym-link.com>","Tue, 11 Nov 2014 20:36:26 -0600","Re: Debian mirror is blocked"
"Eric Evans <eevans@sym-link.com>","Tue, 11 Nov 2014 22:17:47 -0600","Re: Debian mirror is blocked"
"Michael Shuler <michael@pbandjelly.org>","Wed, 12 Nov 2014 12:30:41 -0600","Re: Reviewing patches"
"Jacob Rhoden <jacob.rhoden@me.com>","Tue, 18 Nov 2014 21:46:21 +1100","Reads requiring response from both servers."
"Tyler Hobbs <tyler@datastax.com>","Tue, 18 Nov 2014 11:44:48 -0600","Re: Reads requiring response from both servers."
"Jacob Rhoden <jacob.rhoden@me.com>","Wed, 19 Nov 2014 06:57:26 +1100","Re: Reads requiring response from both servers."
"Rajanarayanan Thottuvaikkatumana <rnamboodiri@gmail.com>","Tue, 18 Nov 2014 20:43:05 +0000","Latest Code from Trunk - Server is not starting"
"Robert Stupp <snazy@snazy.de>","Tue, 18 Nov 2014 21:54:23 +0100","Re: Latest Code from Trunk - Server is not starting"
"Yuki Morishita <mor.yuki@gmail.com>","Tue, 18 Nov 2014 15:00:59 -0600","Re: Latest Code from Trunk - Server is not starting"
"Rajanarayanan Thottuvaikkatumana <rnamboodiri@gmail.com>","Tue, 18 Nov 2014 21:09:48 +0000","Re: Latest Code from Trunk - Server is not starting"
"Tyler Hobbs <tyler@datastax.com>","Tue, 18 Nov 2014 15:47:23 -0600","Re: Reads requiring response from both servers."
"Rajanarayanan Thottuvaikkatumana <rnamboodiri@gmail.com>","Sat, 22 Nov 2014 23:46:11 +0000","Error opening zip file or JAR manifest missing"
"Rajanarayanan Thottuvaikkatumana <rnamboodiri@gmail.com>","Sat, 22 Nov 2014 23:58:14 +0000","Re: Error opening zip file or JAR manifest missing"
"Michael Shuler <michael@pbandjelly.org>","Mon, 24 Nov 2014 18:37:17 -0600","Re: Error opening zip file or JAR manifest missing"
"Yuki Morishita <mor.yuki@gmail.com>","Mon, 24 Nov 2014 18:59:14 -0600","Re: Error opening zip file or JAR manifest missing"
"Jay Patel <pateljay3001@gmail.com>","Wed, 26 Nov 2014 07:43:27 -0800","Reviewing patch: CASSANDRA-7882"
"Jacques-Henri Berthemet <jacques-henri.berthemet@genesys.com>","Thu, 27 Nov 2014 11:07:38 +0000","Knowning which node received a search request."
"Jacques-Henri Berthemet <jacques-henri.berthemet@genesys.com>","Fri, 28 Nov 2014 15:23:11 +0000","RE: Knowning which node received a search request."
