"Developer","Date","Subject"
"Ray Slakinski <ray.slakinski@gmail.com>","Fri, 30 Nov 2012 20:52:39 -0500","Re: 2.0"
"Sylvain Lebresne <sylvain@datastax.com>","Sat, 1 Dec 2012 09:03:54 +0100","Re: 2.0"
"""Bisht, Jaikrit"" <bishtj@visa.com>","Sat, 1 Dec 2012 17:18:44 +0000","Hector  0.8.0-2 update fails with : ""All host pools marked down. Retry burden pushed out to client."""
"Edward Capriolo <edlinuxguru@gmail.com>","Sat, 1 Dec 2012 13:24:47 -0500","Re: 2.0"
"Radim Kolar <hsn@filez.com>","Sat, 01 Dec 2012 20:05:34 +0100","Re: Hector  0.8.0-2 update fails with : ""All host pools marked down. Retry burden pushed out to client."""
"Drew Kutcharian <drew@venarc.com>","Sun, 2 Dec 2012 19:57:45 -0800","Re: 2.0"
"Brandon Williams <driftx@gmail.com>","Sun, 2 Dec 2012 22:01:41 -0600","Re: 2.0"
"Brandon Williams <driftx@gmail.com>","Sun, 2 Dec 2012 22:19:09 -0600","Re: [VOTE] Release Apache Cassandra 1.2.0-rc1"
"Jonathan Ellis <jbellis@gmail.com>","Mon, 3 Dec 2012 13:45:56 +0900","Re: [VOTE] Release Apache Cassandra 1.2.0-rc1"
"Brandon Williams <driftx@gmail.com>","Sun, 2 Dec 2012 22:57:53 -0600","Re: [VOTE] Release Apache Cassandra 1.2.0-rc1"
"""Bisht, Jaikrit"" <bishtj@visa.com>","Mon, 3 Dec 2012 08:15:50 +0000","RE: Hector  0.8.0-2 update fails with : ""All host pools marked down. Retry burden pushed out to client."""
"Cyril Scetbon <cyril.scetbon@free.fr>","Mon, 3 Dec 2012 10:02:09 +0100","Re: Secondary Index seen as empty"
"Cyril Scetbon <cyril.scetbon@free.fr>","Mon, 3 Dec 2012 10:24:08 +0100","Re: Secondary Index seen as empty"
"Jason Brown <jasedbrown@gmail.com>","Mon, 3 Dec 2012 09:25:38 -0800","Re: 2.0"
"Jason Brown <jasedbrown@gmail.com>","Mon, 3 Dec 2012 09:32:00 -0800","Re: 2.0"
"Sylvain Lebresne <sylvain@datastax.com>","Mon, 3 Dec 2012 18:34:20 +0100","[VOTE CLOSED] Release Apache Cassandra 1.2.0-rc1"
"Sylvain Lebresne <sylvain@datastax.com>","Mon, 3 Dec 2012 19:43:47 +0100","[VOTE] Release Apache Cassandra 1.2.0-beta3"
"Brandon Williams <driftx@gmail.com>","Mon, 3 Dec 2012 12:44:54 -0600","Re: [VOTE] Release Apache Cassandra 1.2.0-beta3"
"Jake Luciani <jakers@gmail.com>","Mon, 3 Dec 2012 14:28:00 -0500","Re: [VOTE] Release Apache Cassandra 1.2.0-beta3"
"Jonathan Ellis <jbellis@gmail.com>","Mon, 3 Dec 2012 13:38:52 -0600","Re: [VOTE] Release Apache Cassandra 1.2.0-beta3"
"William Katsak <wkatsak@cs.rutgers.edu>","Mon, 3 Dec 2012 16:06:10 -0500","Anti-Entropy Question"
"Cyril Scetbon <cyril.scetbon@free.fr>","Mon, 3 Dec 2012 22:53:49 +0100","Re: Secondary Index seen as empty"
"Vijay <vijay2win@gmail.com>","Mon, 3 Dec 2012 22:01:39 -0800","Re: [VOTE] Release Apache Cassandra 1.2.0-beta3"
"Dave Brosius <dbrosius@mebigfatguy.com>","Tue, 04 Dec 2012 01:30:49 -0500","Re: [VOTE] Release Apache Cassandra 1.2.0-beta3"
"""Bisht, Jaikrit"" <bishtj@visa.com>","Tue, 4 Dec 2012 14:28:18 +0000","Stable Hector version with cassandra 1.1.6"
"Edward Capriolo <edlinuxguru@gmail.com>","Tue, 4 Dec 2012 09:46:13 -0500","Re: Stable Hector version with cassandra 1.1.6"
"""Bisht, Jaikrit"" <bishtj@visa.com>","Tue, 4 Dec 2012 17:00:21 +0000","RE: Stable Hector version with cassandra 1.1.6"
"Radim Kolar <hsn@filez.com>","Tue, 04 Dec 2012 18:21:08 +0100","Re: Hector  0.8.0-2 update fails with : ""All host pools marked down. Retry burden pushed out to client."""
"Sylvain Lebresne <sylvain@datastax.com>","Tue, 4 Dec 2012 19:10:54 +0100","Re: [VOTE] Release Apache Cassandra 1.2.0-beta3"
"pkolaczk <git@git.apache.org>","Thu,  6 Dec 2012 14:11:15 +0000 (UTC)","cassandra pull request: Dsp 1089 transport factory refactoring"
"pkolaczk <git@git.apache.org>","Thu,  6 Dec 2012 14:11:36 +0000 (UTC)","cassandra pull request: Dsp 1089 transport factory refactoring"
"Jonathan Ellis <jbellis@gmail.com>","Thu, 6 Dec 2012 11:45:34 -0600","Re: 2.0"
"""Brian O'Neill"" <bone@alumni.brown.edu>","Mon, 10 Dec 2012 01:05:56 -0500","CQL/CLI Experiments w/ 1.2"
"Sylvain Lebresne <sylvain@datastax.com>","Mon, 10 Dec 2012 09:16:38 +0100","Re: CQL/CLI Experiments w/ 1.2"
"Brian O'Neill <bone@alumni.brown.edu>","Mon, 10 Dec 2012 13:33:28 -0500","Re: CQL/CLI Experiments w/ 1.2"
"Sylvain Lebresne <sylvain@datastax.com>","Tue, 11 Dec 2012 12:19:02 +0100","[VOTE] Release Apache Cassandra 1.2.0-rc1"
"Jonathan Ellis <jbellis@gmail.com>","Tue, 11 Dec 2012 07:27:06 -0600","Re: [VOTE] Release Apache Cassandra 1.2.0-rc1"
"Yuki Morishita <mor.yuki@gmail.com>","Tue, 11 Dec 2012 10:28:34 -0600","Re: [VOTE] Release Apache Cassandra 1.2.0-rc1"
"Pavel Yaskevich <povel.y@gmail.com>","Tue, 11 Dec 2012 09:42:38 -0800","Re: [VOTE] Release Apache Cassandra 1.2.0-rc1"
"Brandon Williams <driftx@gmail.com>","Tue, 11 Dec 2012 12:28:46 -0600","Re: [VOTE] Release Apache Cassandra 1.2.0-rc1"
"Gary Dusbabek <gdusbabek@gmail.com>","Tue, 11 Dec 2012 13:41:28 -0600","Re: [VOTE] Release Apache Cassandra 1.2.0-rc1"
"Sylvain Lebresne <sylvain@datastax.com>","Fri, 14 Dec 2012 19:17:00 +0100","Re: [VOTE] Release Apache Cassandra 1.2.0-rc1"
"Sylvain Lebresne <sylvain@datastax.com>","Mon, 17 Dec 2012 10:28:16 +0100","[VOTE] Release Apache Cassandra 1.1.8"
"Gary Dusbabek <gdusbabek@gmail.com>","Mon, 17 Dec 2012 07:18:22 -0600","Re: [VOTE] Release Apache Cassandra 1.1.8"
"Jonathan Ellis <jbellis@gmail.com>","Mon, 17 Dec 2012 07:21:03 -0600","Re: [VOTE] Release Apache Cassandra 1.1.8"
"""Brian O'Neill"" <bone@alumni.brown.edu>","Mon, 17 Dec 2012 09:42:26 -0500","Re: Compund/Composite column names"
"Vivek Mishra <vivek.mishra@yahoo.com>","Mon, 17 Dec 2012 06:52:27 -0800 (PST)","Re: Compund/Composite column names"
"Edward Capriolo <edlinuxguru@gmail.com>","Mon, 17 Dec 2012 10:11:06 -0500","Re: Compund/Composite column names"
"Sylvain Lebresne <sylvain@datastax.com>","Mon, 17 Dec 2012 16:35:09 +0100","Re: Compund/Composite column names"
"Jonathan Ellis <jbellis@gmail.com>","Mon, 17 Dec 2012 09:36:18 -0600","Re: Compund/Composite column names"
"Brian O'Neill <bone@alumni.brown.edu>","Mon, 17 Dec 2012 10:40:48 -0500","Re: Compund/Composite column names"
"Brandon Williams <driftx@gmail.com>","Mon, 17 Dec 2012 10:56:40 -0600","Re: [VOTE] Release Apache Cassandra 1.1.8"
"Eric Evans <eevans@acunu.com>","Mon, 17 Dec 2012 11:29:33 -0600","Re: [VOTE] Release Apache Cassandra 1.1.8"
"Jason Brown <jasedbrown@gmail.com>","Mon, 17 Dec 2012 17:09:42 -0800","Re: [VOTE] Release Apache Cassandra 1.1.8"
"Sylvain Lebresne <sylvain@datastax.com>","Thu, 20 Dec 2012 11:58:09 +0100","[VOTE] Release Apache Cassandra 1.2.0-rc2"
"Sylvain Lebresne <sylvain@datastax.com>","Thu, 20 Dec 2012 11:59:27 +0100","Re: [VOTE] Release Apache Cassandra 1.1.8"
"Jonathan Ellis <jbellis@gmail.com>","Thu, 20 Dec 2012 07:48:57 -0600","Re: [VOTE] Release Apache Cassandra 1.2.0-rc2"
"Brandon Williams <driftx@gmail.com>","Thu, 20 Dec 2012 10:03:54 -0600","Re: [VOTE] Release Apache Cassandra 1.2.0-rc2"
"Carl Yeksigian <carl@yeksigian.com>","Thu, 20 Dec 2012 11:14:19 -0500","Re: [VOTE] Release Apache Cassandra 1.2.0-rc2"
"Jason Brown <jasedbrown@gmail.com>","Thu, 20 Dec 2012 09:51:43 -0800","Re: [VOTE] Release Apache Cassandra 1.2.0-rc2"
"Cyril Scetbon <cyril.scetbon@free.fr>","Fri, 21 Dec 2012 14:22:33 +0100","Re: Secondary Index seen as empty"
"Sylvain Lebresne <sylvain@datastax.com>","Fri, 21 Dec 2012 19:28:35 +0100","Re: [VOTE] Release Apache Cassandra 1.2.0-rc2"
"Eric Evans <eevans@acunu.com>","Wed, 26 Dec 2012 15:54:33 -0600","ApacheCon NA Hackathon?"
"=?ISO-8859-2?Q?Micha=B3_Czerwi=F1ski?= <michal@qubitproducts.com>","Thu, 27 Dec 2012 14:28:55 +0000","A quick newbie disaster question: Where do I find cfIDs?"
"Pavel Yaskevich <povel.y@gmail.com>","Thu, 27 Dec 2012 09:47:09 -0800","Re: A quick newbie disaster question: Where do I find cfIDs?"
"=?ISO-8859-2?Q?Micha=B3_Czerwi=F1ski?= <michal@qubitproducts.com>","Thu, 27 Dec 2012 19:30:24 +0000","Re: A quick newbie disaster question: Where do I find cfIDs?"
"Sylvain Lebresne <sylvain@datastax.com>","Sat, 29 Dec 2012 13:40:07 +0100","[VOTE] Release Apache Cassandra 1.2.0"
"Jonathan Ellis <jbellis@gmail.com>","Sat, 29 Dec 2012 08:34:44 -0500","Re: [VOTE] Release Apache Cassandra 1.2.0"
"Jake Luciani <jakers@gmail.com>","Sat, 29 Dec 2012 10:11:20 -0500","Re: [VOTE] Release Apache Cassandra 1.2.0"
"Gary Dusbabek <gdusbabek@gmail.com>","Sat, 29 Dec 2012 10:43:21 -0600","Re: [VOTE] Release Apache Cassandra 1.2.0"
"Vijay <vijay2win@gmail.com>","Sat, 29 Dec 2012 09:30:27 -0800","Re: [VOTE] Release Apache Cassandra 1.2.0"
"Jason Brown <jasedbrown@gmail.com>","Sat, 29 Dec 2012 09:41:18 -0800","Re: [VOTE] Release Apache Cassandra 1.2.0"
"Yuki Morishita <mor.yuki@gmail.com>","Sat, 29 Dec 2012 16:14:49 -0600","Re: [VOTE] Release Apache Cassandra 1.2.0"
"Pavel Yaskevich <povel.y@gmail.com>","Sat, 29 Dec 2012 14:16:53 -0800","Re: [VOTE] Release Apache Cassandra 1.2.0"
"Carl Yeksigian <carl@yeksigian.com>","Sat, 29 Dec 2012 16:59:38 -0600","Re: [VOTE] Release Apache Cassandra 1.2.0"
"Tomaz Muraus <tomaz@apache.org>","Sun, 30 Dec 2012 18:30:55 -0800","Re: ApacheCon NA Hackathon?"
