"Developer","Date","Subject"
"Stephen Connolly <stephen.alan.connolly@gmail.com>","Mon, 4 Feb 2013 10:22:44 +0000","[VOTE] Release Mojo's Cassandra Maven Plugin 1.2.0-1"
"William Katsak <wkatsak@cs.rutgers.edu>","Mon, 04 Feb 2013 15:11:50 -0500","Question about Streaming"
"Brandon Williams <driftx@gmail.com>","Mon, 4 Feb 2013 15:50:09 -0600","Re: Question about Streaming"
"Jonathan Ellis <jbellis@gmail.com>","Wed, 6 Feb 2013 23:21:54 +0100","Proposal: require Java7 for Cassandra 2.0"
"Pavel Yaskevich <povel.y@gmail.com>","Wed, 6 Feb 2013 14:24:05 -0800","Re: Proposal: require Java7 for Cassandra 2.0"
"Aleksey Yeschenko <aleksey@yeschenko.com>","Thu, 7 Feb 2013 01:26:39 +0300","Re: Proposal: require Java7 for Cassandra 2.0"
"Tupshin Harper <tupshin@tupshin.com>","Wed, 6 Feb 2013 17:28:17 -0500","Re: Proposal: require Java7 for Cassandra 2.0"
"Brandon Williams <driftx@gmail.com>","Wed, 6 Feb 2013 16:29:04 -0600","Re: Proposal: require Java7 for Cassandra 2.0"
"mkjellman@barracuda.com","Wed, 6 Feb 2013 14:29:17 -0800","Re: Proposal: require Java7 for Cassandra 2.0"
"Jason Brown <jasedbrown@gmail.com>","Wed, 6 Feb 2013 14:32:20 -0800","Re: Proposal: require Java7 for Cassandra 2.0"
"Gary Dusbabek <gdusbabek@gmail.com>","Wed, 6 Feb 2013 16:32:27 -0600","Re: Proposal: require Java7 for Cassandra 2.0"
"Jake Luciani <jakers@gmail.com>","Wed, 6 Feb 2013 21:13:08 -0500","Re: Proposal: require Java7 for Cassandra 2.0"
"Sylvain Lebresne <sylvain@datastax.com>","Thu, 7 Feb 2013 08:22:06 +0100","Re: Proposal: require Java7 for Cassandra 2.0"
"Ajith Kannan <kannana@mail.montclair.edu>","Thu, 07 Feb 2013 15:58:22 -0500","Re: Proposal: require Java7 for Cassandra 2.0"
"Anton Prakash <anton.prakash@cloudtalk.com>","Thu, 7 Feb 2013 13:38:03 -0800","Re: Proposal: require Java7 for Cassandra 2.0"
"Eric Evans <eevans@acunu.com>","Thu, 7 Feb 2013 23:30:18 +0000","Re: Proposal: require Java7 for Cassandra 2.0"
"Carl Yeksigian <carl@yeksigian.com>","Thu, 7 Feb 2013 18:36:21 -0500","Re: Proposal: require Java7 for Cassandra 2.0"
"Edward Capriolo <edlinuxguru@gmail.com>","Thu, 7 Feb 2013 19:24:53 -0500","Re: Proposal: require Java7 for Cassandra 2.0"
"""Rahman, Muntasir Raihan"" <mrahman2@illinois.edu>","Fri, 8 Feb 2013 22:13:32 +0000","Understanding the Cassandra Code Base"
"Jonathan Ellis <jbellis@gmail.com>","Fri, 8 Feb 2013 23:15:40 +0100","Re: Understanding the Cassandra Code Base"
"""Rahman, Muntasir Raihan"" <mrahman2@illinois.edu>","Fri, 8 Feb 2013 22:23:37 +0000","RE: Understanding the Cassandra Code Base"
"mkjellman@barracuda.com","Fri, 8 Feb 2013 14:36:18 -0800","Re: Understanding the Cassandra Code Base"
"""Rahman, Muntasir Raihan"" <mrahman2@illinois.edu>","Fri, 8 Feb 2013 22:44:06 +0000","RE: Understanding the Cassandra Code Base"
"aaron morton <aaron@thelastpickle.com>","Mon, 11 Feb 2013 23:01:21 +1300","Re: Proposal: require Java7 for Cassandra 2.0"
"Eric Evans <eevans@acunu.com>","Mon, 11 Feb 2013 15:26:14 +0000","ApacheCon North America"
"Radim Kolar <hsn@filez.com>","Mon, 11 Feb 2013 19:53:17 +0100","real leveldb vs cassandra leveldb"
"aaron morton <aaron@thelastpickle.com>","Tue, 12 Feb 2013 08:48:30 +1300","Re: ApacheCon North America"
"Vijay <vijay2win@gmail.com>","Mon, 11 Feb 2013 23:25:05 -0800","Re: Proposal: require Java7 for Cassandra 2.0"
"Sylvain Lebresne <sylvain@datastax.com>","Tue, 12 Feb 2013 10:59:16 +0100","[VOTE] Release Apache Cassandra 1.1.10"
"Jonathan Ellis <jbellis@gmail.com>","Tue, 12 Feb 2013 08:24:38 -0600","Re: [VOTE] Release Apache Cassandra 1.1.10"
"Brandon Williams <driftx@gmail.com>","Tue, 12 Feb 2013 11:32:11 -0600","Re: [VOTE] Release Apache Cassandra 1.1.10"
"Eric Evans <eevans@acunu.com>","Tue, 12 Feb 2013 19:09:23 +0000","Re: [VOTE] Release Apache Cassandra 1.1.10"
"Jason Brown <jasedbrown@gmail.com>","Tue, 12 Feb 2013 12:59:50 -0800","Re: [VOTE] Release Apache Cassandra 1.1.10"
"Pavel Yaskevich <povel.y@gmail.com>","Tue, 12 Feb 2013 20:20:44 -0800","Re: [VOTE] Release Apache Cassandra 1.1.10"
"""Rahman, Muntasir Raihan"" <mrahman2@illinois.edu>","Wed, 13 Feb 2013 04:21:49 +0000","RE: [VOTE] Release Apache Cassandra 1.1.10"
"Gary Dusbabek <gdusbabek@gmail.com>","Wed, 13 Feb 2013 07:39:07 -0600","Re: [VOTE] Release Apache Cassandra 1.1.10"
"Jonathan Ellis <jbellis@gmail.com>","Wed, 13 Feb 2013 09:32:35 -0600","Re: real leveldb vs cassandra leveldb"
"Jonathan Ellis <jbellis@gmail.com>","Wed, 13 Feb 2013 11:26:46 -0600","Welcome committer Jason Brown!"
"Brandon Williams <driftx@gmail.com>","Wed, 13 Feb 2013 11:28:59 -0600","Re: Welcome committer Jason Brown!"
"Jason Brown <jasedbrown@gmail.com>","Wed, 13 Feb 2013 09:39:39 -0800","Re: Welcome committer Jason Brown!"
"Vladimir Vivien <vladimir.vivien@gmail.com>","Wed, 13 Feb 2013 14:18:52 -0500","Re: Welcome committer Jason Brown!"
"Brandon Williams <driftx@gmail.com>","Wed, 13 Feb 2013 13:20:23 -0600","Re: Welcome committer Jason Brown!"
"Vladimir Vivien <vladimir.vivien@gmail.com>","Wed, 13 Feb 2013 14:27:39 -0500","Re: Welcome committer Jason Brown!"
"Brandon Williams <driftx@gmail.com>","Wed, 13 Feb 2013 13:29:42 -0600","Re: Welcome committer Jason Brown!"
"Vladimir Vivien <vladimir.vivien@gmail.com>","Wed, 13 Feb 2013 14:33:38 -0500","Re: Welcome committer Jason Brown!"
"Stephen Connolly <stephen.alan.connolly@gmail.com>","Wed, 13 Feb 2013 21:27:03 +0000","Re: [VOTE] Release Mojo's Cassandra Maven Plugin 1.2.0-1"
"mkjellman@barracuda.com","Wed, 13 Feb 2013 13:33:30 -0800","Re: [VOTE] Release Mojo's Cassandra Maven Plugin 1.2.0-1"
"Stephen Connolly <stephen.alan.connolly@gmail.com>","Wed, 13 Feb 2013 21:37:32 +0000","Re: [VOTE] Release Mojo's Cassandra Maven Plugin 1.2.0-1"
"Stephen Connolly <stephen.alan.connolly@gmail.com>","Thu, 14 Feb 2013 09:12:49 +0000","[RESULT] [VOTE] Release Mojo's Cassandra Maven Plugin 1.2.0-1"
"Stephen Connolly <stephen.alan.connolly@gmail.com>","Thu, 14 Feb 2013 09:28:56 +0000","[VOTE] Release Mojo's Cassandra Maven Plugin 1.2.1-1"
"Radim Kolar <hsn@filez.com>","Thu, 14 Feb 2013 14:48:49 +0100","Re: real leveldb vs cassandra leveldb"
"Jonathan Ellis <jbellis@gmail.com>","Thu, 14 Feb 2013 08:01:58 -0600","Re: real leveldb vs cassandra leveldb"
"Sylvain Lebresne <sylvain@datastax.com>","Fri, 15 Feb 2013 20:07:29 +0100","Re: [VOTE] Release Apache Cassandra 1.1.10"
"Muntasir Raihan Rahman <muntasir.raihan@gmail.com>","Fri, 15 Feb 2013 16:24:42 -0600","Understanding Read and Writes During Transient States"
"Edward Capriolo <edlinuxguru@gmail.com>","Sat, 16 Feb 2013 18:40:49 -0500","Re: Understanding Read and Writes During Transient States"
"mdorman@ironicdesign.com","Mon, 18 Feb 2013 15:16:10 -0500","Best place to discuss CQL Binary Protcol spec?"
"paul cannon <pcannon@gmail.com>","Mon, 18 Feb 2013 15:27:01 -0700","Re: Best place to discuss CQL Binary Protcol spec?"
"mdorman@ironicdesign.com","Mon, 18 Feb 2013 20:48:25 -0500","Re: Best place to discuss CQL Binary Protcol spec?"
"paul cannon <pcannon@gmail.com>","Mon, 18 Feb 2013 21:06:04 -0700","Re: Best place to discuss CQL Binary Protcol spec?"
"Sylvain Lebresne <sylvain@datastax.com>","Thu, 21 Feb 2013 01:01:03 +0100","[VOTE] Release Apache Cassandra 1.2.2"
"mkjellman@barracuda.com","Wed, 20 Feb 2013 16:06:21 -0800","Re: [VOTE] Release Apache Cassandra 1.2.2"
"Brandon Williams <driftx@gmail.com>","Wed, 20 Feb 2013 18:23:11 -0600","Re: [VOTE] Release Apache Cassandra 1.2.2"
"Sai Kumar Ganji <saikumarganji.i@gmail.com>","Wed, 20 Feb 2013 19:20:11 -0700","benchmark"
"Carl Yeksigian <carl@yeksigian.com>","Wed, 20 Feb 2013 21:37:02 -0500","Re: [VOTE] Release Apache Cassandra 1.2.2"
"Jonathan Ellis <jbellis@gmail.com>","Wed, 20 Feb 2013 20:18:23 -0800","Re: [VOTE] Release Apache Cassandra 1.2.2"
"Gary Dusbabek <gdusbabek@gmail.com>","Thu, 21 Feb 2013 05:16:38 -0600","Re: [VOTE] Release Apache Cassandra 1.2.2"
"Jason Brown <jasedbrown@gmail.com>","Thu, 21 Feb 2013 05:50:47 -0800","Re: [VOTE] Release Apache Cassandra 1.2.2"
"Sri Ramya <ramya.1255@gmail.com>","Fri, 22 Feb 2013 01:11:48 +0530","Counting problem"
"Vijay <vijay2win@gmail.com>","Thu, 21 Feb 2013 15:33:34 -0800","Re: [VOTE] Release Apache Cassandra 1.2.2"
"Adrian Rodriguez <oglowo@gmail.com>","Thu, 21 Feb 2013 16:54:30 -0800","Re: [VOTE] Release Apache Cassandra 1.2.2"
"Radim Kolar <hsn@filez.com>","Fri, 22 Feb 2013 13:00:07 +0100","Re: real leveldb vs cassandra leveldb"
"mkjellman@barracuda.com","Fri, 22 Feb 2013 07:32:36 -0800","Re: real leveldb vs cassandra leveldb"
"Jonathan Ellis <jbellis@gmail.com>","Fri, 22 Feb 2013 08:17:00 -0800","Re: real leveldb vs cassandra leveldb"
"Sylvain Lebresne <sylvain@datastax.com>","Mon, 25 Feb 2013 12:12:33 +0100","Re: [VOTE] Release Apache Cassandra 1.2.2"
"Stephen Connolly <stephen.alan.connolly@gmail.com>","Mon, 25 Feb 2013 14:23:00 +0000","[RESULT] [VOTE] Release Mojo's Cassandra Maven Plugin 1.2.1-1"
"Jonathan Ellis <jbellis@gmail.com>","Mon, 25 Feb 2013 17:00:07 -0600","Notes from committer's meeting: overview"
"Jonathan Ellis <jbellis@gmail.com>","Mon, 25 Feb 2013 17:09:19 -0600","Notes from committers meeting: streaming and repair"
"Edward Capriolo <edlinuxguru@gmail.com>","Mon, 25 Feb 2013 18:19:58 -0500","Re: Notes from committer's meeting: overview"
"Brandon Williams <driftx@gmail.com>","Mon, 25 Feb 2013 17:23:17 -0600","Re: Notes from committer's meeting: overview"
"Anton Prakash <anton.prakash@cloudtalk.com>","Mon, 25 Feb 2013 15:24:46 -0800","Re: Notes from committer's meeting: overview"
"mkjellman@barracuda.com","Mon, 25 Feb 2013 15:26:47 -0800","Re: Notes from committer's meeting: overview"
"Eric Evans <eevans@acunu.com>","Mon, 25 Feb 2013 17:54:43 -0600","Re: Notes from committer's meeting: overview"
"Jonathan Ellis <jbellis@gmail.com>","Mon, 25 Feb 2013 22:08:37 -0600","Notes from committer's meeting: counters"
"William Katsak <wkatsak@cs.rutgers.edu>","Tue, 26 Feb 2013 15:49:02 -0500","Question about slicing"
"""C.F.Scheidecker Antunes"" <cf.antunes@gmail.com>","Tue, 26 Feb 2013 17:19:16 -0700","Loading AspectJ with Cassandra"
"""C.F.Scheidecker Antunes"" <cf.antunes@gmail.com>","Tue, 26 Feb 2013 17:38:10 -0700","Loading AspectJ with Cassandra"
"""C.F.Scheidecker Antunes"" <cf.antunes@gmail.com>","Wed, 27 Feb 2013 09:47:56 -0700","Re: Loading AspectJ with Cassandra"
"""C.F.Scheidecker Antunes"" <cf.antunes@gmail.com>","Wed, 27 Feb 2013 13:23:58 -0700","Re: Loading AspectJ with Cassandra"
"Michal Michalski <michalm@opera.com>","Thu, 28 Feb 2013 15:11:17 +0100","Question about the way that isLocalDc() gets local DC"
"Marcus Eriksson <krummas@gmail.com>","Thu, 28 Feb 2013 15:30:52 +0100","Re: Question about the way that isLocalDc() gets local DC"
"Michal Michalski <michalm@opera.com>","Thu, 28 Feb 2013 15:51:04 +0100","Re: Question about the way that isLocalDc() gets local DC"
