"Developer","Date","Subject"
"mck <mck@apache.org>","Mon, 01 May 2017 10:29:38 +1000","Re: Move 3.11.x unresolved features and improvements to 4.0"
"Michael Shuler <michael@pbandjelly.org>","Mon, 1 May 2017 06:19:51 -0700","Re: Move 3.11.x unresolved features and improvements to 4.0"
"mck <mck@apache.org>","Tue, 02 May 2017 13:37:28 +1000","Re: Move 3.11.x unresolved features and improvements to 4.0"
"""kedar mhaswade""<kedar.mhaswade@gmail.com>","Wed, 03 May 2017 01:02:08 -0000","A (drop-in) replacement for ColumnFamilyRecordReader in C*3?"
"Jeff Jirsa <jjirsa@gmail.com>","Wed, 3 May 2017 19:01:13 -0700","Re: A (drop-in) replacement for ColumnFamilyRecordReader in C*3?"
"""techpyaasa ."" <techpyaasa@gmail.com>","Thu, 4 May 2017 19:51:26 +0530","Re: Slow performance after upgrading from 2.0.9 to 2.1.11"
"Jonathan Haddad <jon@jonhaddad.com>","Thu, 04 May 2017 17:17:50 +0000","Re: Guidelines on testing"
"Blake Eggleston <beggleston@apple.com>","Fri, 05 May 2017 14:09:15 -0700","Re: Guidelines on testing"
"Jeff Jirsa <jjirsa@gmail.com>","Fri, 5 May 2017 15:15:23 -0700","Semi-weekly Cassandra wrap-up"
"""Amitkumar Ghatwal"" <ghatwala@us.ibm.com>","Mon, 8 May 2017 11:14:54 +0530","Re: Semi-weekly Cassandra wrap-up"
"Anubhav Kale <Anubhav.Kale@microsoft.com.INVALID>","Tue, 9 May 2017 21:01:58 +0000","Cassandra 2.1.13: Using JOIN_RING=False"
"Fedor Bobin <fuudtorrentsru@gmail.com>","Wed, 10 May 2017 09:16:17 +0300","CASSANDRA-13444: Fast Streaming Hist"
"Ariel Weisberg <ariel@weisberg.ws>","Wed, 10 May 2017 12:45:21 -0400","Soliciting volunteers for flaky dtests on trunk"
"Ariel Weisberg <ariel@weisberg.ws>","Wed, 10 May 2017 15:44:36 -0400","Re: Soliciting volunteers for flaky dtests on trunk"
"Blake Eggleston <beggleston@apple.com>","Wed, 10 May 2017 12:59:52 -0700","Re: Soliciting volunteers for flaky dtests on trunk"
"Kant Kodali <kant@peernova.com>","Wed, 10 May 2017 14:54:15 -0700","Does partition size limitation still exists in Cassandra 3.10 given there is a B-tree implementation?"
"Lerh Chuan Low <lerh@instaclustr.com>","Thu, 11 May 2017 14:45:54 +1000","Re: Soliciting volunteers for flaky dtests on trunk"
"DuyHai Doan <doanduyhai@gmail.com>","Thu, 11 May 2017 00:37:20 -0700","Re: Does partition size limitation still exists in Cassandra 3.10 given there is a B-tree implementation?"
"Kant Kodali <kant@peernova.com>","Thu, 11 May 2017 01:13:27 -0700","Re: Does partition size limitation still exists in Cassandra 3.10 given there is a B-tree implementation?"
"Kant Kodali <kant@peernova.com>","Thu, 11 May 2017 01:48:04 -0700","Re: Does partition size limitation still exists in Cassandra 3.10 given there is a B-tree implementation?"
"Michael Kjellman <mkjellman@internalcircle.com>","Thu, 11 May 2017 08:51:06 +0000","Re: Does partition size limitation still exists in Cassandra 3.10 given there is a B-tree implementation?"
"""varun saluja""<saluja50@gmail.com>","Thu, 11 May 2017 16:50:18 -0000","Dropped Mutation and Read messages."
"Jason Brown <jasedbrown@gmail.com>","Thu, 11 May 2017 10:12:03 -0700","Re: Soliciting volunteers for flaky dtests on trunk"
"Oskar Kjellin <oskar.kjellin@gmail.com>","Thu, 11 May 2017 19:31:58 +0200","Re: Dropped Mutation and Read messages."
"varun saluja <saluja50@gmail.com>","Thu, 11 May 2017 23:11:16 +0530","Re: Dropped Mutation and Read messages."
"Oskar Kjellin <oskar.kjellin@gmail.com>","Thu, 11 May 2017 19:45:49 +0200","Re: Dropped Mutation and Read messages."
"varun saluja <saluja50@gmail.com>","Thu, 11 May 2017 23:18:07 +0530","Re: Dropped Mutation and Read messages."
"varun saluja <saluja50@gmail.com>","Thu, 11 May 2017 23:20:20 +0530","Re: Dropped Mutation and Read messages."
"Oskar Kjellin <oskar.kjellin@gmail.com>","Thu, 11 May 2017 19:53:44 +0200","Re: Dropped Mutation and Read messages."
"Michael Kjellman <mkjellman@internalcircle.com>","Thu, 11 May 2017 17:56:05 +0000","Re: Dropped Mutation and Read messages."
"Oskar Kjellin <oskar.kjellin@gmail.com>","Thu, 11 May 2017 19:57:10 +0200","Re: Dropped Mutation and Read messages."
"=?UTF-8?B?5aSn5bmz5oCc?= <rei.odaira@gmail.com>","Thu, 11 May 2017 16:59:25 -0500","Integrating vendor-specific code and developing plugins"
"Jason Brown <jasedbrown@gmail.com>","Thu, 11 May 2017 15:29:23 -0700","Re: Integrating vendor-specific code and developing plugins"
"Sylvain Lebresne <sylvain@datastax.com>","Fri, 12 May 2017 13:35:55 +0200","Re: Integrating vendor-specific code and developing plugins"
"Aleksey Yeschenko <aleksey@apache.org>","Fri, 12 May 2017 13:31:07 +0100","Re: Integrating vendor-specific code and developing plugins"
"Jason Brown <jasedbrown@gmail.com>","Fri, 12 May 2017 09:38:25 -0700","Re: CASSANDRA-13444: Fast Streaming Hist"
"Jason Brown <jasedbrown@gmail.com>","Fri, 12 May 2017 12:25:46 -0700","Re: Integrating vendor-specific code and developing plugins"
"Jeff Jirsa <jjirsa@gmail.com>","Fri, 12 May 2017 19:02:56 -0700","Re: Integrating vendor-specific code and developing plugins"
"Nate McCall <zznate.m@gmail.com>","Fri, 12 May 2017 21:21:56 -0500","Re: Integrating vendor-specific code and developing plugins"
"""J. D. Jordan"" <jeremiah.jordan@gmail.com>","Fri, 12 May 2017 23:31:26 -0500","Re: Integrating vendor-specific code and developing plugins"
"Yuji Ito <yuji@imagine-orb.com>","Sat, 13 May 2017 21:21:43 +0900","Proposal - GroupCommitLogService"
"""J. D. Jordan"" <jeremiah.jordan@gmail.com>","Sat, 13 May 2017 07:38:17 -0500","Re: Proposal - GroupCommitLogService"
"Yuji Ito <yuji@imagine-orb.com>","Sat, 13 May 2017 21:58:29 +0900","Re: Proposal - GroupCommitLogService"
"Jonathan Haddad <jon@jonhaddad.com>","Sat, 13 May 2017 14:40:25 +0000","Re: Integrating vendor-specific code and developing plugins"
"Jonathan Ellis <jbellis@gmail.com>","Sat, 13 May 2017 09:49:10 -0500","Re: Proposal - GroupCommitLogService"
"Yuji Ito <yuji@imagine-orb.com>","Sun, 14 May 2017 00:08:17 +0900","Re: Proposal - GroupCommitLogService"
"Nate McCall <zznate.m@gmail.com>","Sat, 13 May 2017 11:05:07 -0500","Re: Integrating vendor-specific code and developing plugins"
"Jonathan Ellis <jbellis@gmail.com>","Sat, 13 May 2017 12:51:02 -0500","Re: Proposal - GroupCommitLogService"
"Yuji Ito <yuji@imagine-orb.com>","Sun, 14 May 2017 10:21:49 +0900","Re: Proposal - GroupCommitLogService"
"Hiroyuki Yamada <mogwaing@gmail.com>","Mon, 15 May 2017 12:41:43 +0900","Re: Proposal - GroupCommitLogService"
"Jeff Jirsa <jjirsa@gmail.com>","Sun, 14 May 2017 21:02:47 -0700","Re: Integrating vendor-specific code and developing plugins"
"Vincent Royer <vroyer@vroyer.org>","Mon, 15 May 2017 09:25:00 +0200","Re: Integrating vendor-specific code and developing plugins"
"Jonathan Haddad <jon@jonhaddad.com>","Mon, 15 May 2017 11:54:25 +0000","Re: Integrating vendor-specific code and developing plugins"
"benjamin roth <brstgt@gmail.com>","Mon, 15 May 2017 15:42:23 +0200","Re: Integrating vendor-specific code and developing plugins"
"Jonathan Haddad <jon@jonhaddad.com>","Mon, 15 May 2017 21:36:00 +0000","rebuilding cassandra.apache.org docs"
"=?UTF-8?B?5aSn5bmz5oCc?= <rei.odaira@gmail.com>","Mon, 15 May 2017 18:57:10 -0500","Re: Integrating vendor-specific code and developing plugins"
"Jeremiah D Jordan <jeremiah.jordan@gmail.com>","Mon, 15 May 2017 19:25:00 -0500","Re: Integrating vendor-specific code and developing plugins"
"""varun saluja""<saluja50@gmail.com>","Tue, 16 May 2017 10:41:31 -0000","Long running compaction on huge hint table."
"Jason Brown <jasedbrown@gmail.com>","Tue, 16 May 2017 05:29:03 -0700","Re: Long running compaction on huge hint table."
"Ariel Weisberg <ariel@weisberg.ws>","Wed, 17 May 2017 13:36:40 -0400","Re: Soliciting volunteers for flaky dtests on trunk"
"Jeff Jirsa <jjirsa@gmail.com>","Wed, 17 May 2017 15:32:37 -0700","Re: Integrating vendor-specific code and developing plugins"
"Cameron Zemek <cameron@instaclustr.com>","Thu, 18 May 2017 12:36:34 +1000","Repair Management"
"Lerh Chuan Low <lerh@instaclustr.com>","Thu, 18 May 2017 15:06:28 +1000","Re: Soliciting volunteers for flaky dtests on trunk"
"Blake Eggleston <beggleston@apple.com>","Thu, 18 May 2017 10:16:49 -0700","Re: Repair Management"
"Jeff Jirsa <jjirsa@gmail.com>","Thu, 18 May 2017 10:28:33 -0700","Re: Integrating vendor-specific code and developing plugins"
"Michael Kjellman <mkjellman@internalcircle.com>","Thu, 18 May 2017 17:30:13 +0000","Re: Integrating vendor-specific code and developing plugins"
"Jeff Jirsa <jjirsa@gmail.com>","Thu, 18 May 2017 10:36:09 -0700","Re: Integrating vendor-specific code and developing plugins"
"Cameron Zemek <cameron@instaclustr.com>","Fri, 19 May 2017 11:02:04 +1000","Re: Repair Management"
"""@Nandan@"" <nandanpriyadarshi298@gmail.com>","Fri, 19 May 2017 14:18:37 +0800","Reg:- Data Modelling Documentation"
"Benjamin Lerer <benjamin.lerer@datastax.com>","Fri, 19 May 2017 22:06:53 +0200","SSTablesPerReadHistogram, Tracing and SSTableReader::readCount values seems incorrect"
"=?UTF-8?B?5aSn5bmz5oCc?= <rei.odaira@gmail.com>","Fri, 19 May 2017 16:56:10 -0500","Re: Integrating vendor-specific code and developing plugins"
"Blake Eggleston <beggleston@apple.com>","Fri, 19 May 2017 15:59:25 -0700","Re: Repair Management"
"Prakash Chauhan <prakash.chauhan@ericsson.com>","Mon, 22 May 2017 11:36:40 +0000","Slowness in C* cluster after implementing multiple network interface configuration."
"Prakash Chauhan <prakash.chauhan@ericsson.com>","Wed, 24 May 2017 07:12:50 +0000","RE: Slowness in C* cluster after implementing multiple network interface configuration."
"Carlos Rolo <rolo@pythian.com>","Wed, 24 May 2017 09:31:17 +0100","Re: Slowness in C* cluster after implementing multiple network interface configuration."
"Subroto Barua <sbarua116@yahoo.com.INVALID>","Sun, 28 May 2017 00:34:00 +0000 (UTC)","strange issue with Tuple in Cassandra 3.0"
"Jeff Jirsa <jjirsa@gmail.com>","Sat, 27 May 2017 17:58:10 -0700","Re: strange issue with Tuple in Cassandra 3.0"
"Subroto Barua <sbarua116@yahoo.com.INVALID>","Sun, 28 May 2017 04:21:47 +0000 (UTC)","Re: strange issue with Tuple in Cassandra 3.0"
"Jay Zhuang <jay.zhuang@yahoo.com.INVALID>","Tue, 30 May 2017 14:22:53 -0700","Potential block issue for 3.0.13: schema version id mismatch while upgrading"
"Jay Zhuang <zjay@uber.com>","Tue, 30 May 2017 16:39:28 -0700","Fwd: Potential block issue for 3.0.13: schema version id mismatch while upgrading"
"Jeremiah D Jordan <jeremiah.jordan@gmail.com>","Tue, 30 May 2017 22:41:47 -0500","Re: Potential block issue for 3.0.13: schema version id mismatch while upgrading"
"kurt greaves <kurt@instaclustr.com>","Wed, 31 May 2017 04:34:20 +0000","Re: Potential block issue for 3.0.13: schema version id mismatch while upgrading"
"Stefania Alborghetti <stefania.alborghetti@datastax.com>","Wed, 31 May 2017 15:34:38 +0800","Re: Potential block issue for 3.0.13: schema version id mismatch while upgrading"
"Stefan Podkowinski <spod@apache.org>","Wed, 31 May 2017 11:03:44 +0200","Re: Potential block issue for 3.0.13: schema version id mismatch while upgrading"
"Jeff Jirsa <jjirsa@gmail.com>","Wed, 31 May 2017 05:45:20 -0700","Re: Potential block issue for 3.0.13: schema version id mismatch while upgrading"
"""J. D. Jordan"" <jeremiah.jordan@gmail.com>","Wed, 31 May 2017 08:11:58 -0500","Re: Potential block issue for 3.0.13: schema version id mismatch while upgrading"
"Eric Evans <john.eric.evans@gmail.com>","Wed, 31 May 2017 14:19:04 -0500","NGCC?"
"Nate McCall <zznate.m@gmail.com>","Thu, 1 Jun 2017 09:06:02 +1200","Re: NGCC?"
"Gary Dusbabek <gdusbabek@gmail.com>","Wed, 31 May 2017 17:05:31 -0500","Re: NGCC?"
"Jonathan Haddad <jon@jonhaddad.com>","Wed, 31 May 2017 22:19:38 +0000","Re: NGCC?"
"Nate McCall <zznate.m@gmail.com>","Thu, 1 Jun 2017 10:22:51 +1200","Re: NGCC?"
