FileName,F2FValueSum,upper_MisalignmentsFileNumber_0.45,upper_MisalignmentsFileSum_0.45,upper_MisalignmentsFileNumber_0.65,upper_MisalignmentsFileSum_0.65,upper_MisalignmentsFileNumber_1.2,upper_MisalignmentsFileSum_1.2,lower_MisalignmentsFileNumber_0.0,lower_MisalignmentsFileSum_0.0,Bug Freq,Bug Rank,Loc,Bug Freq Nomalized,Fanin,Fanout,Clique,UnstableInterface,ImproperInheritance,PackageCycle,ModularityViolation,Editor Number,Edit Time
org.apache.pdfbox.pdmodel.font.PDType1Font_java,4.881448,0,0,0,0,0,0,4,0,42,3,365,0,17,10,0,1,1,2,4,5,37
org.apache.pdfbox.util.Overlay_java,0,0,0,0,0,0,0,12,0,6,65,411,0,14,1,0,1,0,11,2,2,10
org.apache.pdfbox.pdfparser.NonSequentialPDFParser_java,78.681646,34,42.667839,19,35.017949,10,27.648831,0,0,48,2,1227,0,32,2,1,2,3,6,1,6,103
org.apache.pdfbox.pdfparser.BaseParser_java,30.350302,8,5.874816,3,3.339114,1,1.766878,0,0,31,9,1172,0,18,11,0,2,0,6,0,10,80
org.apache.pdfbox.pdmodel.PDDocument_java,12.358821,0,0,0,0,0,0,15,0,39,5,887,0,42,140,8,4,1,18,0,7,74
org.apache.pdfbox.pdfparser.PDFParser_java,4.591802,0,0,0,0,0,0,0,0,28,11,652,0,16,8,2,2,3,6,0,9,74
org.apache.pdfbox.cos.COSDocument_java,3.685597,0,0,0,0,0,0,2,0,18,19,414,0,16,61,0,5,0,9,0,9,46
org.apache.pdfbox.cos.COSStream_java,3.324904,0,0,0,0,0,0,6,0,12,27,300,0,16,82,1,4,2,9,1,4,24
org.apache.pdfbox.pdfparser.ConformingPDFParser_java,5.440345,2,1.306483,1,0.696852,0,0,5,0,2,188,459,0,21,3,1,0,1,6,0,4,8
org.apache.pdfbox.pdmodel.common.COSStreamArray_java,0,0,0,0,0,0,0,8,0,4,102,127,0,10,3,0,2,2,4,0,3,9
org.apache.pdfbox.pdmodel.common.PDObjectStream_java,0.023203,0,0,0,0,0,0,0,0,2,188,52,0,6,0,0,2,0,4,0,3,7
org.apache.pdfbox.pdfparser.VisualSignatureParser_java,1.816969,0,0,0,0,0,0,0,0,3,136,220,0,8,1,0,0,0,6,1,5,16
org.apache.pdfbox.pdmodel.common.PDStream_java,14.794515,2,1.856564,1,1.285618,1,1.285618,3,0,8,47,332,0,17,59,2,3,2,4,0,6,18
org.apache.pdfbox.pdfparser.PDFXRefStream_java,3.102497,0,0,0,0,0,0,1,0,2,188,247,0,11,1,0,1,0,6,2,3,4
org.apache.pdfbox.pdfparser.PDFStreamParser_java,4.653429,0,0,0,0,0,0,3,0,19,18,411,0,14,7,1,2,0,6,0,7,29
org.apache.pdfbox.preflight.parser.PreflightParser_java,5.814306,1,0.595911,0,0,0,0,0,0,20,17,687,0,30,3,0,1,1,1,0,6,37
org.apache.pdfbox.pdfparser.PDFObjectStreamParser_java,0.597193,0,0,0,0,0,0,0,0,7,54,77,0,7,4,0,1,0,6,0,4,17
org.apache.pdfbox.pdmodel.graphics.shading.RadialShadingContext_java,33.679506,16,11.991853,6,6.347848,1,2.12983,0,0,13,23,349,0,8,1,0,0,0,0,1,2,28
org.apache.pdfbox.pdmodel.encryption.SecurityHandler_java,6.284531,1,0.655278,1,0.655278,0,0,0,0,17,21,278,0,16,7,1,2,0,2,2,6,29
org.apache.pdfbox.pdmodel.graphics.color.PDDeviceN_java,1.224575,0,0,0,0,0,0,0,0,7,54,141,0,10,9,1,0,0,1,3,5,14
org.apache.pdfbox.pdmodel.common.PDRange_java,0.352374,0,0,0,0,0,0,4,0,0,467,52,0,5,15,0,0,0,4,2,2,6
org.apache.pdfbox.pdmodel.font.PDSimpleFont_java,8.292313,1,0.577506,0,0,0,0,1,0,40,4,387,0,16,9,2,1,9,2,3,4,34
org.apache.pdfbox.pdmodel.graphics.color.PDDeviceCMYK_java,0.383512,0,0,0,0,0,0,1,0,6,65,40,0,2,9,0,0,0,1,3,4,12
org.apache.pdfbox.preflight.font.container.TrueTypeContainer_java,0.023706,0,0,0,0,0,0,3,0,4,102,134,0,4,2,0,0,0,1,2,3,3
org.apache.pdfbox.pdmodel.font.PDTrueTypeFont_java,16.581095,4,3.080297,1,1.350346,1,1.350346,1,0,37,6,615,0,15,5,0,2,1,2,4,5,35
org.apache.pdfbox.pdmodel.font.PDType0Font_java,3.454889,0,0,0,0,0,0,1,0,24,13,128,0,9,2,2,1,2,2,4,6,26
org.apache.pdfbox.pdmodel.font.PDType1CFont_java,8.220621,2,1.393696,2,1.393696,0,0,1,0,29,10,558,0,16,2,0,1,1,2,3,6,29
org.apache.pdfbox.preflight.font.descriptor.TrueTypeDescriptorHelper_java,0.062381,0,0,0,0,0,0,3,0,7,54,70,0,13,1,0,0,0,1,2,3,7
org.apache.pdfbox.preflight.font.descriptor.CIDType2DescriptorHelper_java,0.080782,0,0,0,0,0,0,2,0,5,78,72,0,17,1,0,0,0,1,3,3,6
org.apache.pdfbox.pdmodel.font.PDFontFactory_java,3.213951,0,0,0,0,0,0,0,0,10,32,74,0,10,5,1,0,0,2,3,4,19
org.apache.pdfbox.cos.COSName_java,20.934872,6,5.030057,4,4.055396,1,1.513615,11,0,35,7,486,0,4,269,0,5,0,9,2,9,71
org.apache.pdfbox.util.PDFStreamEngine_java,16.950191,4,2.956078,2,1.83915,0,0,22,0,34,8,412,0,20,75,0,0,0,11,0,8,57
org.apache.pdfbox.pdmodel.graphics.color.PDPattern_java,4.402066,0,0,0,0,0,0,0,0,6,65,36,0,3,4,0,0,0,1,1,3,13
org.apache.pdfbox.encoding.DictionaryEncoding_java,0.235098,0,0,0,0,0,0,0,0,4,102,43,0,8,3,0,0,0,1,4,2,6
org.apache.pdfbox.pdmodel.font.PDType3Font_java,0.948396,0,0,0,0,0,0,0,0,10,32,31,0,5,2,0,0,1,2,4,3,11
org.apache.pdfbox.pdmodel.font.PDFont_java,10.478311,3,1.659501,1,0.688736,0,0,2,0,50,1,529,0,16,57,0,2,9,2,3,7,55
org.apache.pdfbox.pdmodel.PDResources_java,3.168168,0,0,0,0,0,0,4,0,25,12,452,0,16,37,0,2,0,18,2,6,30
org.apache.pdfbox.pdmodel.graphics.color.PDColorSpace_java,1.368787,0,0,0,0,0,0,2,0,10,32,31,0,4,50,0,0,0,1,0,4,10
org.apache.pdfbox.util.PDFMergerUtility_java,6.987151,0,0,0,0,0,0,1,0,13,23,514,0,30,1,0,4,1,11,0,7,30
org.apache.pdfbox.pdmodel.graphics.color.PDDeviceRGB_java,0.412331,0,0,0,0,0,0,0,0,5,78,40,0,1,13,0,0,0,1,3,2,5
org.apache.pdfbox.preflight.font.container.CIDType2Container_java,0.023706,0,0,0,0,0,0,1,0,2,188,53,0,3,2,0,0,0,1,3,3,3
org.apache.pdfbox.pdmodel.interactive.digitalsignature.visible.PDVisibleSigBuilder_java,15.607795,5,4.400224,3,3.253584,1,1.78862,1,0,2,188,271,0,23,1,0,2,0,1,1,2,4
org.apache.pdfbox.pdmodel.interactive.form.PDVariableText_java,0.355649,0,0,0,0,0,0,3,0,5,78,120,0,9,3,1,2,0,2,1,3,19
org.apache.pdfbox.pdmodel.interactive.form.PDAcroForm_java,0.661698,0,0,0,0,0,0,6,0,6,65,241,0,17,27,1,2,0,2,0,4,12
org.apache.pdfbox.examples.fdf.PrintFields_java,0.235989,0,0,0,0,0,0,0,0,4,102,112,0,7,0,0,1,0,0,1,4,16
org.apache.pdfbox.io.RandomAccessFileOutputStream_java,0.176189,0,0,0,0,0,0,0,0,1,271,64,0,5,1,0,0,0,1,1,2,5
org.apache.pdfbox.util.MetaUtil_java,2.319781,0,0,0,0,0,0,1,0,1,271,46,0,0,3,0,0,0,11,1,1,2
org.apache.pdfbox.pdmodel.interactive.form.PDCheckbox_java,0.055698,0,0,0,0,0,0,1,0,2,188,90,0,6,2,0,1,0,2,1,3,18
org.apache.pdfbox.pdmodel.interactive.form.PDPushButton_java,0,0,0,0,0,0,0,5,0,2,188,22,0,5,1,0,1,0,2,1,3,11
org.apache.pdfbox.pdmodel.interactive.form.PDSignatureField_java,6.843397,1,0.528408,0,0,0,0,0,0,3,136,97,0,9,7,0,1,0,2,1,3,8
org.apache.pdfbox.util.DateConverter_java,6.855738,1,0.463151,0,0,0,0,0,0,7,54,354,0,1,2,0,0,0,11,0,5,14
org.apache.pdfbox.examples.pdmodel.AddMetadataFromDocInfo_java,7.785575,1,0.625326,0,0,0,0,0,0,0,467,72,0,4,0,0,0,0,0,1,5,13
org.apache.pdfbox.examples.pdfa.CreatePDFA_java,37.198022,13,12.279819,7,9.164873,3,6.11447,0,0,1,271,103,0,8,0,0,0,0,0,1,4,6
org.apache.pdfbox.examples.pdmodel.ExtractMetadata_java,16.460593,3,2.326647,1,1.293463,1,1.293463,0,0,3,136,160,0,6,0,0,0,0,0,1,6,14
org.apache.pdfbox.pdmodel.graphics.shading.TriangleBasedShadingContext_java,7.076825,0,0,0,0,0,0,5,0,0,467,97,0,8,6,0,0,0,0,0,1,10
org.apache.pdfbox.pdmodel.graphics.shading.PDShadingType3_java,0.554444,0,0,0,0,0,0,0,0,1,271,14,0,3,5,1,0,1,0,3,2,4
org.apache.pdfbox.pdmodel.graphics.shading.PDShadingType6_java,0.872361,0,0,0,0,0,0,0,0,1,271,14,0,3,7,1,0,2,0,3,2,5
org.apache.pdfbox.pdmodel.graphics.shading.Type7ShadingContext_java,3.200717,0,0,0,0,0,0,4,0,0,467,41,0,11,1,0,0,0,0,1,1,10
org.apache.pdfbox.pdmodel.graphics.shading.PDShadingType5_java,14.068098,1,0.893785,1,0.893785,0,0,0,0,1,271,23,0,4,5,1,0,0,0,3,2,7
org.apache.pdfbox.pdmodel.graphics.shading.PDShadingType7_java,0.989807,0,0,0,0,0,0,0,0,1,271,14,0,3,5,1,0,1,0,3,2,6
org.apache.pdfbox.pdmodel.graphics.shading.PDShadingType1_java,3.957257,0,0,0,0,0,0,0,0,1,271,61,0,7,5,1,0,1,0,3,3,6
org.apache.pdfbox.pdmodel.graphics.shading.AxialShadingContext_java,10.220258,1,0.650537,1,0.650537,0,0,0,0,8,47,248,0,7,1,0,0,0,0,1,2,24
org.apache.pdfbox.pdmodel.graphics.shading.Type1ShadingPaint_java,0.513243,0,0,0,0,0,0,0,0,2,188,42,0,3,2,0,0,0,0,1,2,5
org.apache.pdfbox.pdmodel.graphics.shading.ShadingContext_java,4.434057,0,0,0,0,0,0,1,0,0,467,121,0,8,8,0,0,0,0,0,1,7
org.apache.pdfbox.pdmodel.graphics.shading.Type4ShadingPaint_java,0.655502,0,0,0,0,0,0,0,0,2,188,42,0,3,2,0,0,0,0,1,2,5
org.apache.pdfbox.pdmodel.graphics.shading.Type5ShadingContext_java,8.185194,1,0.519391,0,0,0,0,0,0,5,78,100,0,12,1,0,0,0,0,1,2,17
org.apache.pdfbox.pdmodel.graphics.shading.PDShadingType4_java,6.18713,0,0,0,0,0,0,0,0,1,271,23,0,4,7,1,0,1,0,3,2,6
org.apache.pdfbox.pdmodel.graphics.shading.AxialShadingPaint_java,0.677575,0,0,0,0,0,0,0,0,3,136,42,0,3,2,0,0,0,0,1,3,14
org.apache.pdfbox.pdmodel.graphics.shading.GouraudShadingContext_java,22.403013,5,3.763702,3,2.814617,1,1.419634,0,0,5,78,137,0,8,2,0,0,0,0,1,2,25
org.apache.pdfbox.pdmodel.graphics.shading.Type6ShadingContext_java,3.200717,0,0,0,0,0,0,4,0,0,467,42,0,12,1,0,0,0,0,1,1,10
org.apache.pdfbox.pdmodel.graphics.shading.Type7ShadingPaint_java,2.525343,0,0,0,0,0,0,1,0,0,467,42,0,3,2,0,0,0,0,1,1,4
org.apache.pdfbox.pdmodel.graphics.shading.Type5ShadingPaint_java,0.655502,0,0,0,0,0,0,0,0,2,188,42,0,3,2,0,0,0,0,1,2,5
org.apache.pdfbox.pdmodel.graphics.shading.RadialShadingPaint_java,5.10648,0,0,0,0,0,0,0,0,3,136,42,0,3,2,0,0,0,0,1,3,11
org.apache.pdfbox.pdmodel.graphics.shading.Type6ShadingPaint_java,2.525343,0,0,0,0,0,0,1,0,0,467,42,0,3,2,0,0,0,0,1,1,4
org.apache.pdfbox.pdmodel.graphics.shading.Type4ShadingContext_java,11.703246,1,0.741008,1,0.741008,0,0,0,0,5,78,150,0,12,1,0,0,0,0,1,2,18
org.apache.pdfbox.pdmodel.graphics.shading.Type1ShadingContext_java,6.641814,0,0,0,0,0,0,0,0,3,136,150,0,6,1,0,0,0,0,1,2,15
org.apache.pdfbox.pdmodel.graphics.shading.PatchMeshesShadingContext_java,24.489918,10,6.502789,3,3.138887,1,1.54119,5,0,0,467,241,0,11,2,0,0,0,0,1,1,20
org.apache.pdfbox.pdmodel.graphics.shading.PDShadingType2_java,4.749003,0,0,0,0,0,0,0,0,2,188,79,0,4,8,1,0,2,0,3,2,7
org.apache.pdfbox.pdmodel.interactive.form.PDFieldFactory_java,0.098582,0,0,0,0,0,0,3,0,4,102,102,0,14,4,2,1,0,2,0,3,7
org.apache.pdfbox.examples.fdf.SetField_java,1.040703,0,0,0,0,0,0,1,0,2,188,66,0,7,0,0,0,0,0,1,5,15
org.apache.pdfbox.pdmodel.interactive.digitalsignature.visible.PDFTemplateStructure_java,110.928845,53,64.51748,31,52.556556,16,39.804632,0,0,2,188,279,0,17,3,0,2,0,1,2,3,5
org.apache.pdfbox.pdmodel.interactive.form.PDField_java,0.78585,0,0,0,0,0,0,4,0,9,40,364,0,15,20,1,2,0,2,0,5,19
org.apache.pdfbox.pdmodel.encryption.StandardSecurityHandler_java,13.477972,3,2.093885,1,1.104493,0,0,0,0,8,47,548,0,15,1,0,2,0,2,2,6,21
org.apache.pdfbox.preflight.graphic.StandardColorSpaceHelper_java,1.178309,0,0,0,0,0,0,0,0,10,32,315,0,17,3,0,0,1,1,0,4,11
org.apache.pdfbox.pdmodel.graphics.color.PDICCBased_java,2.668668,0,0,0,0,0,0,0,0,12,27,228,0,12,8,1,0,0,1,1,4,20
org.apache.pdfbox.pdmodel.graphics.shading.ShadedTriangle_java,7.781575,1,0.489707,0,0,0,0,3,0,0,467,152,0,1,7,0,0,0,0,0,1,3
org.apache.pdfbox.pdmodel.graphics.shading.TensorPatch_java,8.339508,1,0.524818,0,0,0,0,3,0,0,467,202,0,3,1,0,0,0,0,1,1,7
org.apache.pdfbox.pdmodel.graphics.shading.CoonsPatch_java,6.606984,0,0,0,0,0,0,4,0,0,467,158,0,4,1,0,0,0,0,1,1,7
org.apache.pdfbox.pdmodel.graphics.shading.Patch_java,6.460161,0,0,0,0,0,0,4,0,0,467,121,0,2,5,0,0,0,0,1,1,5
org.apache.pdfbox.pdmodel.graphics.shading.PDTriangleBasedShadingType_java,3.347538,0,0,0,0,0,0,4,0,0,467,52,0,5,7,0,0,0,0,2,1,2
org.apache.pdfbox.pdmodel.common.function.PDFunction_java,1.227233,0,0,0,0,0,0,0,0,3,136,189,0,13,14,4,0,4,0,2,5,12
org.apache.pdfbox.pdmodel.graphics.shading.Line_java,4.463381,0,0,0,0,0,0,2,0,0,467,76,0,0,2,0,0,0,0,0,1,6
org.apache.pdfbox.pdmodel.graphics.shading.CoordinateColorPair_java,1.29203,0,0,0,0,0,0,2,0,0,467,12,0,0,3,0,0,0,0,1,1,2
org.apache.pdfbox.pdmodel.graphics.shading.Vertex_java,0.411654,0,0,0,0,0,0,0,0,2,188,26,0,0,3,0,0,0,0,1,2,5
org.apache.pdfbox.examples.pdmodel.CreateGradientShadingPDF_java,5.080049,0,0,0,0,0,0,0,0,1,271,91,0,15,0,0,0,0,0,1,3,6
org.apache.pdfbox.filter.LZWFilter_java,16.901464,2,1.575992,1,1.080661,0,0,0,0,9,40,256,0,6,1,0,0,0,1,1,3,14
org.apache.pdfbox.filter.FlateFilter_java,8.975161,1,0.600479,0,0,0,0,0,0,13,23,119,0,6,1,0,0,0,1,1,8,27
org.apache.pdfbox.examples.pdmodel.ExtractEmbeddedFiles_java,0.141158,0,0,0,0,0,0,1,0,1,271,119,0,9,0,0,0,0,0,1,2,10
org.apache.pdfbox.pdmodel.common.filespecification.PDComplexFileSpecification_java,0.142261,0,0,0,0,0,0,2,0,1,271,248,0,6,5,0,1,1,2,0,2,6
org.apache.pdfbox.preflight.PreflightConfiguration_java,0.301843,0,0,0,0,0,0,1,0,5,78,193,0,26,19,0,0,0,10,0,3,7
org.apache.pdfbox.pdmodel.graphics.color.PDLab_java,5.524152,0,0,0,0,0,0,1,0,9,40,163,0,9,5,0,0,0,1,3,3,14
org.apache.pdfbox.pdmodel.common.function.PDFunctionType2_java,6.154338,0,0,0,0,0,0,0,0,1,271,71,0,7,2,1,0,1,0,3,5,12
org.apache.pdfbox.cos.COSString_java,6.425236,1,0.573418,0,0,0,0,5,0,10,32,284,0,5,52,0,4,0,9,1,6,18
org.apache.pdfbox.pdfwriter.ContentStreamWriter_java,0.112926,0,0,0,0,0,0,3,0,3,136,121,0,11,4,0,1,0,4,1,3,6
org.apache.pdfbox.io.RandomAccessBuffer_java,2.746497,0,0,0,0,0,0,1,0,9,40,226,0,1,5,0,0,0,1,1,5,18
org.apache.pdfbox.pdmodel.common.COSDictionaryMap_java,0.238619,0,0,0,0,0,0,0,0,3,136,147,0,8,5,0,3,0,4,0,4,13
org.apache.pdfbox.pdfparser.PDFXrefStreamParser_java,1.25457,0,0,0,0,0,0,0,0,7,54,101,0,11,1,0,1,0,6,1,6,16
org.apache.pdfbox.pdmodel.common.function.type4.ArithmeticOperators_java,2.431297,0,0,0,0,0,0,0,0,1,271,293,0,2,1,0,0,0,0,4,2,2
org.apache.pdfbox.pdmodel.PDPage_java,1.505889,0,0,0,0,0,0,4,0,18,19,515,0,17,74,4,2,0,18,2,5,37
org.apache.pdfbox.pdmodel.fdf.FDFAnnotation_java,1.084651,0,0,0,0,0,0,0,0,5,78,310,0,11,17,0,2,1,1,3,3,10
org.apache.pdfbox.pdmodel.common.function.type4.InstructionSequence_java,0.762026,0,0,0,0,0,0,0,0,1,271,56,0,3,3,0,0,0,0,4,2,2
org.apache.pdfbox.pdmodel.common.COSArrayList_java,1.915303,0,0,0,0,0,0,0,0,3,136,425,0,12,25,0,0,0,4,0,6,15
org.apache.pdfbox.pdmodel.common.PDNumberTreeNode_java,2.072927,0,0,0,0,0,0,0,0,6,65,226,0,7,3,0,0,0,4,0,3,12
org.apache.pdfbox.pdmodel.fdf.FDFField_java,0.493526,0,0,0,0,0,0,1,0,5,78,414,0,19,4,0,2,0,1,3,4,10
org.apache.pdfbox.pdmodel.common.function.type4.ExecutionContext_java,0.52014,0,0,0,0,0,0,0,0,1,271,31,0,1,8,0,0,0,0,3,2,2
org.apache.pdfbox.cos.COSDictionary_java,18.432391,4,2.70832,3,2.222169,0,0,16,0,7,54,601,0,14,303,1,4,1,9,0,9,20
org.apache.pdfbox.pdmodel.common.function.type4.InstructionSequenceBuilder_java,0.812174,0,0,0,0,0,0,0,0,1,271,75,0,2,1,0,0,0,0,3,2,2
org.apache.pdfbox.pdmodel.interactive.viewerpreferences.PDViewerPreferences_java,0.058732,0,0,0,0,0,0,0,0,1,271,200,0,4,1,0,0,0,0,0,3,5
org.apache.pdfbox.pdmodel.font.PDCIDFont_java,2.203943,0,0,0,0,0,0,1,0,12,27,274,0,11,2,0,1,1,2,4,3,18
org.apache.pdfbox.pdmodel.fdf.FDFDictionary_java,0.117452,0,0,0,0,0,0,0,0,4,102,275,0,15,2,0,1,0,1,2,3,8
org.apache.pdfbox.util.PDFCloneUtility_java,2.087194,0,0,0,0,0,0,1,0,1,271,204,0,10,2,0,0,1,11,0,2,3
org.apache.pdfbox.util.PDFMarkedContentExtractor_java,0.494609,0,0,0,0,0,0,4,0,5,78,152,0,8,4,0,0,0,11,1,4,6
org.apache.pdfbox.pdmodel.PDPageNode_java,1.541665,0,0,0,0,0,0,1,0,5,78,277,0,11,7,1,1,0,18,2,3,10
org.apache.pdfbox.filter.Predictor_java,5.637957,0,0,0,0,0,0,0,0,3,136,117,0,1,2,0,0,0,1,0,1,5
org.apache.pdfbox.pdmodel.interactive.annotation.PDAnnotation_java,1.086031,0,0,0,0,0,0,7,0,10,32,327,0,22,33,12,2,6,2,2,4,16
org.apache.pdfbox.util.operator.pagedrawer.AppendRectangleToPath_java,1.568529,0,0,0,0,0,0,0,0,3,136,34,0,5,0,0,0,0,0,1,3,10
org.apache.pdfbox.util.PDFTextStripper_java,12.731108,4,2.624863,2,1.574592,0,0,0,0,16,22,1093,0,19,7,0,1,3,11,1,6,46
org.apache.pdfbox.preflight.process.reflect.ResourcesValidationProcess_java,1.958362,0,0,0,0,0,0,0,0,7,54,146,0,21,1,0,0,0,1,1,4,9
org.apache.pdfbox.preflight.process.reflect.GraphicObjectPageValidationProcess_java,0.278401,0,0,0,0,0,0,2,0,3,136,52,0,15,1,0,0,0,1,1,2,3
org.apache.pdfbox.preflight.xobject.XObjPostscriptValidator_java,0.071127,0,0,0,0,0,0,2,0,2,188,20,0,4,1,0,0,0,0,1,3,3
org.apache.pdfbox.preflight.font.Type3FontValidator_java,0.298747,0,0,0,0,0,0,2,0,6,65,323,0,29,1,0,0,0,2,2,4,12
org.apache.pdfbox.pdmodel.graphics.shading.CubicBezierCurve_java,3.112618,0,0,0,0,0,0,1,0,0,467,61,0,0,1,0,0,0,0,1,1,4
org.apache.pdfbox.pdmodel.interactive.digitalsignature.SignatureOptions_java,1.228373,0,0,0,0,0,0,0,0,2,188,45,0,3,3,0,1,0,3,1,4,5
org.apache.pdfbox.examples.signature.CreateVisibleSignature_java,14.683439,6,4.91024,2,2.857963,2,2.857963,0,0,2,188,143,0,9,0,0,1,0,0,1,4,12
org.apache.pdfbox.examples.persistence.CopyDoc_java,0.343802,0,0,0,0,0,0,1,0,0,467,67,0,4,0,0,0,0,0,1,3,7
org.apache.pdfbox.examples.pdmodel.CreateLandscapePDF_java,0.308234,0,0,0,0,0,0,2,0,1,271,82,0,7,0,0,1,0,0,1,3,5
org.apache.pdfbox.examples.pdmodel.AddMessageToEachPage_java,0.320072,0,0,0,0,0,0,2,0,2,188,86,0,8,0,0,0,0,0,1,3,9
org.apache.pdfbox.examples.pdmodel.ImageToPDF_java,1.001117,0,0,0,0,0,0,0,0,1,271,77,0,9,0,0,0,0,0,1,3,9
org.apache.pdfbox.examples.pdmodel.HelloWorldType1AfmPfb_java,0.308234,0,0,0,0,0,0,2,0,0,467,64,0,6,0,0,0,0,0,1,2,6
org.apache.pdfbox.examples.pdmodel.HelloWorld_java,0.320072,0,0,0,0,0,0,1,0,1,271,64,0,6,0,0,0,0,0,1,2,6
org.apache.pdfbox.examples.pdmodel.UsingTextMatrix_java,0.308234,0,0,0,0,0,0,2,0,1,271,112,0,7,0,0,1,0,0,1,3,6
org.apache.pdfbox.pdmodel.graphics.color.PDOutputIntent_java,4.492289,1,0.461226,0,0,0,0,0,0,0,467,65,0,7,2,0,0,0,1,0,2,2
org.apache.pdfbox.examples.pdmodel.HelloWorldTTF_java,0.355649,0,0,0,0,0,0,1,0,1,271,64,0,6,0,0,0,0,0,1,2,6
org.apache.pdfbox.examples.pdmodel.ShowColorBoxes_java,0.308234,0,0,0,0,0,0,2,0,1,271,61,0,5,0,0,0,0,0,1,2,6
org.apache.pdfbox.examples.pdmodel.AddImageToPDF_java,0.866153,0,0,0,0,0,0,0,0,1,271,77,0,10,0,0,0,0,0,1,4,10
org.apache.pdfbox.examples.pdmodel.EmbeddedFiles_java,0.361848,0,0,0,0,0,0,3,0,4,102,92,0,12,0,0,0,0,0,1,3,9
org.apache.pdfbox.util.operator.SetTextFont_java,0.082989,0,0,0,0,0,0,2,0,1,271,31,0,10,1,0,0,0,0,0,2,4
org.apache.pdfbox.pdmodel.font.FontManager_java,5.406234,0,0,0,0,0,0,0,0,6,65,229,0,1,5,0,0,0,2,3,3,13
org.apache.pdfbox.util.operator.ShowText_java,0.023706,0,0,0,0,0,0,1,0,0,467,14,0,5,0,0,0,0,0,1,3,5
org.apache.pdfbox.util.operator.BeginText_java,0.04741,0,0,0,0,0,0,1,0,0,467,13,0,5,1,0,0,0,0,0,2,4
org.apache.pdfbox.util.operator.ShowTextGlyph_java,0.04741,0,0,0,0,0,0,3,0,1,271,39,0,10,0,0,0,0,0,1,3,7
org.apache.pdfbox.examples.util.PrintImageLocations_java,0.279304,0,0,0,0,0,0,0,0,3,136,134,0,16,0,0,1,1,0,1,4,15
org.apache.pdfbox.util.PDFTextStripperByArea_java,0.082989,0,0,0,0,0,0,0,0,1,271,96,0,5,2,0,0,1,11,0,3,7
org.apache.pdfbox.examples.util.PrintTextLocations_java,0.212295,0,0,0,0,0,0,0,0,0,467,65,0,7,0,0,0,1,0,1,5,14
org.apache.pdfbox.pdmodel.interactive.digitalsignature.PDSeedValue_java,0.984165,0,0,0,0,0,0,0,0,0,467,249,0,9,1,0,0,0,3,1,2,2
org.apache.pdfbox.util.operator.pagedrawer.Invoke_java,2.804491,0,0,0,0,0,0,0,0,12,27,118,0,15,0,0,0,1,0,1,5,31
org.apache.pdfbox.pdmodel.encryption.PublicKeySecurityHandler_java,12.072821,3,2.848098,1,1.756732,1,1.756732,0,0,4,102,281,0,13,1,0,2,0,2,2,6,20
org.apache.pdfbox.util.Matrix_java,0.826627,0,0,0,0,0,0,3,0,1,271,211,0,0,37,0,0,0,11,3,4,7
org.apache.pdfbox.util.operator.SetMatrix_java,0.023706,0,0,0,0,0,0,2,0,0,467,27,0,6,1,0,0,0,0,0,2,4
org.apache.pdfbox.util.operator.pagedrawer.ClipNonZeroRule_java,1.05507,0,0,0,0,0,0,0,0,1,271,26,0,4,0,0,0,0,0,1,4,11
org.apache.pdfbox.util.operator.MoveText_java,0.023706,0,0,0,0,0,0,2,0,0,467,19,0,6,1,0,0,0,0,0,2,4
org.apache.pdfbox.util.operator.pagedrawer.ClipEvenOddRule_java,1.078769,0,0,0,0,0,0,0,0,1,271,26,0,4,0,0,0,0,0,1,4,11
org.apache.pdfbox.cos.COSNull_java,0.293638,0,0,0,0,0,0,0,0,1,271,20,0,3,17,0,0,0,9,1,2,4
org.apache.pdfbox.pdmodel.common.PDMemoryStream_java,0.04741,0,0,0,0,0,0,0,0,0,467,91,0,5,0,0,0,0,4,0,2,4
org.apache.pdfbox.pdmodel.font.PDCIDFontType0Font_java,0.50785,0,0,0,0,0,0,1,0,4,102,33,0,8,2,0,0,0,2,4,2,8
org.apache.pdfbox.pdmodel.font.PDCIDFontType2Font_java,1.522007,0,0,0,0,0,0,0,0,6,65,119,0,11,4,1,1,1,2,4,3,11
org.apache.pdfbox.preflight.font.Type0FontValidator_java,0.068923,0,0,0,0,0,0,5,0,4,102,227,0,20,1,0,0,0,2,2,4,6
org.apache.pdfbox.pdmodel.interactive.digitalsignature.visible.PDVisibleSignDesigner_java,28.69158,9,10.449436,5,8.269847,3,6.675989,0,0,1,271,216,0,4,5,0,0,0,1,2,3,6
org.apache.pdfbox.pdmodel.interactive.digitalsignature.PDPropBuild_java,6.335374,1,0.50581,0,0,0,0,0,0,1,271,69,0,5,1,0,0,0,3,2,2,2
org.apache.pdfbox.pdmodel.encryption.PDEncryptionDictionary_java,14.132438,2,1.106253,0,0,0,0,0,0,2,188,178,0,7,8,0,1,1,2,2,3,6
org.apache.pdfbox.preflight.process.StreamValidationProcess_java,0.826235,0,0,0,0,0,0,0,0,4,102,278,0,17,1,0,0,0,1,1,4,10
org.apache.pdfbox.preflight.xobject.AbstractXObjValidator_java,0.227978,0,0,0,0,0,0,0,0,1,271,77,0,12,3,0,0,0,0,1,3,4
org.apache.pdfbox.preflight.xobject.XObjFormValidator_java,0.24012,0,0,0,0,0,0,0,0,2,188,113,0,17,1,0,0,0,0,1,3,5
org.apache.pdfbox.preflight.utils.COSUtils_java,0.518529,0,0,0,0,0,0,1,0,2,188,365,0,12,26,0,0,0,1,0,4,6
org.apache.pdfbox.preflight.font.util.Type1Parser_java,0.407833,0,0,0,0,0,0,1,0,5,78,560,0,9,2,1,0,0,2,2,4,9
org.apache.pdfbox.pdmodel.font.PDType1AfmPfbFont_java,0.78657,0,0,0,0,0,0,4,0,7,54,159,0,14,1,0,0,0,2,1,2,13
org.apache.pdfbox.pdmodel.font.PDMMType1Font_java,0.22468,0,0,0,0,0,0,0,0,3,136,15,0,4,1,0,0,0,2,4,3,5
org.apache.pdfbox.encoding.Encoding_java,1.761931,0,0,0,0,0,0,3,0,10,32,257,0,2,21,0,0,0,1,3,5,25
org.apache.pdfbox.encoding.EncodingManager_java,1.080512,0,0,0,0,0,0,0,0,1,271,24,0,6,5,0,0,0,1,4,1,5
org.apache.pdfbox.pdfwriter.COSWriter_java,6.964538,1,0.57235,0,0,0,0,3,0,23,15,985,0,26,9,1,5,1,4,2,6,42
org.apache.pdfbox.pdmodel.interactive.measurement.PDRectlinearMeasureDictionary_java,0.704746,0,0,0,0,0,0,2,0,2,188,197,0,5,1,1,0,1,0,0,3,4
org.apache.pdfbox.pdmodel.documentinterchange.taggedpdf.PDStandardAttributeObject_java,5.498271,0,0,0,0,0,0,0,0,1,271,239,0,11,5,0,0,0,2,0,2,2
org.apache.pdfbox.pdmodel.documentinterchange.taggedpdf.StandardStructureTypes_java,4.426546,0,0,0,0,0,0,0,0,2,188,88,0,0,0,0,0,0,2,0,2,3
org.apache.pdfbox.util.PDFHighlighter_java,0.217402,0,0,0,0,0,0,0,0,3,136,98,0,3,0,0,0,0,11,1,4,9
org.apache.pdfbox.pdmodel.documentinterchange.logicalstructure.PDUserProperty_java,2.415178,0,0,0,0,0,0,0,0,1,271,82,0,5,1,0,0,0,2,1,3,3
org.apache.pdfbox.pdmodel.encryption.AccessPermission_java,0.176189,0,0,0,0,0,0,2,0,2,188,208,0,0,12,0,0,0,2,2,3,5
org.apache.pdfbox.pdmodel.documentinterchange.logicalstructure.PDAttributeObject_java,3.112585,0,0,0,0,0,0,0,0,1,271,133,0,12,9,8,0,3,2,0,2,2
org.apache.pdfbox.cos.COSFloat_java,0.058732,0,0,0,0,0,0,11,0,5,78,78,0,3,46,0,5,7,9,3,3,10
org.apache.pdfbox.preflight.graphic.ICCProfileWrapper_java,0.572902,0,0,0,0,0,0,0,0,3,136,94,0,13,5,0,0,0,1,0,4,8
org.apache.pdfbox.preflight.utils.ContextHelper_java,0.165061,0,0,0,0,0,0,3,0,3,136,38,0,7,12,0,0,0,1,0,3,5
org.apache.pdfbox.preflight.PreflightDocument_java,0.126023,0,0,0,0,0,0,1,0,4,102,97,0,8,8,1,0,0,10,0,4,9
org.apache.pdfbox.preflight.process.BookmarkValidationProcess_java,0.107418,0,0,0,0,0,0,1,0,4,102,105,0,17,1,0,0,0,1,1,4,15
org.apache.pdfbox.preflight.graphic.DeviceColorSpaceHelper_java,0.058361,0,0,0,0,0,0,0,0,1,271,50,0,7,1,0,0,1,1,0,3,5
org.apache.pdfbox.filter.JBIG2Filter_java,3.248724,0,0,0,0,0,0,0,0,4,102,86,0,5,1,0,1,0,1,1,3,12
org.apache.pdfbox.pdmodel.graphics.PDLineDashPattern_java,2.314272,0,0,0,0,0,0,0,0,1,271,90,0,6,6,0,0,0,1,3,3,8
org.apache.pdfbox.util.operator.GSave_java,0.076791,0,0,0,0,0,0,0,0,1,271,12,0,5,1,0,0,0,0,1,3,6
org.apache.pdfbox.filter.DCTFilter_java,3.319238,0,0,0,0,0,0,0,0,4,102,21,0,2,0,0,0,0,1,1,3,10
org.apache.pdfbox.pdmodel.common.PDMetadata_java,29.502965,8,7.024694,3,4.244287,1,2.374561,0,0,0,467,45,0,4,10,1,0,1,4,0,4,9
org.apache.pdfbox.util.operator.GRestore_java,0.1005,0,0,0,0,0,0,0,0,1,271,22,0,5,1,0,0,0,0,1,3,6
org.apache.pdfbox.pdmodel.PDDocumentCatalog_java,3.198816,0,0,0,0,0,0,9,0,3,136,336,0,26,54,2,1,0,18,0,5,11
org.apache.pdfbox.preflight.process.reflect.TilingPatternValidationProcess_java,0.358853,0,0,0,0,0,0,1,0,2,188,68,0,16,1,0,0,0,1,1,3,6
org.apache.pdfbox.preflight.process.reflect.SinglePageValidationProcess_java,0.347089,0,0,0,0,0,0,1,0,4,102,160,0,23,1,0,0,0,1,1,4,9
org.apache.pdfbox.preflight.font.util.PDFAType3StreamParser_java,2.133908,0,0,0,0,0,0,0,0,0,467,97,0,11,1,0,0,1,2,2,3,3
org.apache.pdfbox.preflight.content.ContentStreamEngine_java,7.602103,1,0.568041,0,0,0,0,0,0,2,188,453,0,63,2,0,0,0,1,0,2,5
org.apache.pdfbox.preflight.content.ContentStreamWrapper_java,4.972267,0,0,0,0,0,0,0,0,3,136,261,0,26,3,0,0,0,1,0,3,6
org.apache.pdfbox.util.operator.SetHorizontalTextScaling_java,0.023706,0,0,0,0,0,0,3,0,0,467,14,0,7,1,0,0,0,0,0,2,4
org.apache.pdfbox.pdfparser.EndstreamOutputStream_java,5.960972,0,0,0,0,0,0,0,0,3,136,81,0,0,2,0,0,0,6,0,1,3
org.apache.pdfbox.preflight.process.TrailerValidationProcess_java,1.082939,0,0,0,0,0,0,0,0,5,78,327,0,16,1,0,0,0,1,1,5,9
org.apache.pdfbox.examples.signature.CreateSignature_java,8.808254,2,1.18136,0,0,0,0,4,0,0,467,183,0,6,1,0,1,0,0,1,2,10
org.apache.pdfbox.examples.signature.ShowSignature_java,0.329847,0,0,0,0,0,0,0,0,0,467,113,0,6,0,0,0,0,0,1,4,12
org.apache.pdfbox.encoding.SingleByteCharset_java,1.03168,0,0,0,0,0,0,1,0,3,136,139,0,0,1,0,0,0,1,0,1,2
org.apache.pdfbox.filter.JPXFilter_java,2.102116,0,0,0,0,0,0,0,0,4,102,63,0,4,1,0,0,0,1,1,3,6
org.apache.pdfbox.encoding.PDFDocEncodingCharset_java,0.518436,0,0,0,0,0,0,1,0,3,136,62,0,1,2,0,0,0,1,0,2,2
org.apache.pdfbox.encoding.PDFBoxCharsetProvider_java,0.342178,0,0,0,0,0,0,0,0,1,271,34,0,1,0,0,0,0,1,1,1,1
org.apache.pdfbox.encoding.WinAnsiEncoding_java,2.555377,0,0,0,0,0,0,0,0,4,102,239,0,3,5,0,0,0,1,5,3,10
org.apache.pdfbox.encoding.MacRomanEncoding_java,0.109635,0,0,0,0,0,0,1,0,3,136,222,0,3,4,0,0,0,1,5,3,8
org.apache.pdfbox.filter.Filter_java,2.576933,0,0,0,0,0,0,0,0,2,188,12,0,1,15,0,0,0,1,0,3,7
org.apache.pdfbox.filter.ASCIIHexFilter_java,2.866728,0,0,0,0,0,0,0,0,3,136,176,0,3,1,0,0,0,1,1,3,9
org.apache.pdfbox.filter.RunLengthDecodeFilter_java,1.030299,0,0,0,0,0,0,0,0,1,271,48,0,2,1,0,0,0,1,1,3,7
org.apache.pdfbox.filter.IdentityFilter_java,1.256438,0,0,0,0,0,0,0,0,1,271,31,0,2,1,0,0,0,1,1,3,3
org.apache.pdfbox.filter.CryptFilter_java,1.304879,0,0,0,0,0,0,0,0,1,271,37,0,4,1,0,0,0,1,1,3,3
org.apache.pdfbox.filter.ASCII85Filter_java,0.733926,0,0,0,0,0,0,0,0,1,271,46,0,4,1,0,0,0,1,1,3,5
org.apache.pdfbox.pdmodel.edit.PDPageContentStream_java,3.56739,0,0,0,0,0,0,1,0,8,47,908,0,20,16,0,1,0,2,0,4,21
org.apache.pdfbox.pdmodel.graphics.color.PDCalRGB_java,0.99945,0,0,0,0,0,0,1,0,7,54,146,0,10,4,0,0,0,1,1,3,13
org.apache.pdfbox.examples.pdmodel.RubberStampWithImage_java,2.697312,0,0,0,0,0,0,1,0,2,188,160,0,20,0,0,0,0,0,1,4,11
org.apache.pdfbox.pdmodel.documentinterchange.logicalstructure.PDStructureTreeRoot_java,0.298413,0,0,0,0,0,0,2,0,4,102,114,0,8,4,1,2,1,2,2,3,10
org.apache.pdfbox.io.RandomAccessFile_java,0.635876,0,0,0,0,0,0,0,0,0,467,44,0,1,6,0,0,0,1,1,3,6
org.apache.pdfbox.pdmodel.fdf.FDFDocument_java,0.111801,0,0,0,0,0,0,4,0,0,467,159,0,8,6,1,1,0,1,1,3,6
org.apache.pdfbox.preflight.PreflightContext_java,0.470307,0,0,0,0,0,0,7,0,3,136,122,0,9,76,1,0,0,10,0,5,12
org.apache.pdfbox.io.RandomAccessRead_java,2.517,0,0,0,0,0,0,0,0,0,467,8,0,1,7,0,0,3,1,0,2,4
org.apache.pdfbox.pdmodel.graphics.color.PDSeparation_java,1.373905,0,0,0,0,0,0,0,0,5,78,95,0,6,12,1,0,0,1,3,5,18
org.apache.pdfbox.cos.COSInteger_java,1.912044,0,0,0,0,0,0,3,0,3,136,85,0,3,53,0,2,7,9,3,3,8
org.apache.pdfbox.examples.util.ExtractTextByArea_java,0.153021,0,0,0,0,0,0,0,0,0,467,51,0,5,0,0,0,0,0,1,4,9
org.apache.pdfbox.examples.pdmodel.PrintDocumentMetaData_java,0.153021,0,0,0,0,0,0,1,0,0,467,83,0,6,0,0,0,0,0,1,4,10
org.apache.pdfbox.examples.pdmodel.ExtractTTFFonts_java,0.117452,0,0,0,0,0,0,0,0,2,188,193,0,12,0,0,0,0,0,1,2,6
org.apache.pdfbox.examples.pdmodel.PrintBookmarks_java,0.153021,0,0,0,0,0,0,0,0,0,467,69,0,6,0,0,0,0,0,1,4,10
org.apache.pdfbox.pdmodel.interactive.annotation.PDAnnotationPopup_java,0.117452,0,0,0,0,0,0,0,0,0,467,43,0,4,3,1,0,1,2,2,2,4
org.apache.pdfbox.pdmodel.interactive.documentnavigation.destination.PDPageDestination_java,0.34796,0,0,0,0,0,0,0,0,0,467,86,0,7,8,0,0,0,1,2,3,6
org.apache.pdfbox.pdmodel.interactive.documentnavigation.outline.PDOutlineNode_java,0.32788,0,0,0,0,0,0,0,0,2,188,168,0,5,8,1,0,4,2,0,3,8
org.apache.pdfbox.pdmodel.graphics.color.PDDeviceGray_java,0.626647,0,0,0,0,0,0,0,0,6,65,46,0,1,11,0,0,0,1,3,3,6
org.apache.pdfbox.pdmodel.encryption.PDCryptFilterDictionary_java,0.04741,0,0,0,0,0,0,0,0,0,467,36,0,2,2,0,1,0,2,2,1,1
org.apache.pdfbox.pdmodel.encryption.ProtectionPolicy_java,0.071127,0,0,0,0,0,0,3,0,0,467,18,0,0,7,0,0,1,2,1,1,3
org.apache.pdfbox.util.operator.pagedrawer.BeginInlineImage_java,0.53378,0,0,0,0,0,0,0,0,7,54,66,0,10,0,0,0,0,0,1,3,14
org.apache.pdfbox.util.operator.pagedrawer.FillEvenOddAndStrokePath_java,0.566871,0,0,0,0,0,0,0,0,1,271,18,0,5,0,0,0,0,0,1,3,5
org.apache.pdfbox.util.operator.pagedrawer.CloseFillEvenOddAndStrokePath_java,0.408171,0,0,0,0,0,0,0,0,2,188,13,0,4,0,0,0,0,0,1,3,6
org.apache.pdfbox.util.operator.pagedrawer.FillNonZeroAndStrokePath_java,0.508123,0,0,0,0,0,0,0,0,1,271,18,0,5,0,0,0,0,0,1,3,6
org.apache.pdfbox.util.operator.pagedrawer.CloseFillNonZeroAndStrokePath_java,0.325733,0,0,0,0,0,0,0,0,2,188,14,0,4,0,0,0,0,0,1,3,8
org.apache.pdfbox.util.ImageIOUtil_java,20.007837,4,2.815131,1,1.311188,1,1.311188,0,0,4,102,188,0,3,4,0,0,0,11,1,2,19
org.apache.pdfbox.pdfwriter.COSStandardOutputStream_java,1.628194,0,0,0,0,0,0,1,0,2,188,110,0,2,1,0,2,0,4,2,4,7
org.apache.pdfbox.util.JPEGUtil_java,3.435648,0,0,0,0,0,0,1,0,2,188,58,0,1,1,0,0,0,11,1,1,3
org.apache.pdfbox.util.TIFFUtil_java,4.215846,0,0,0,0,0,0,0,0,1,271,120,0,1,1,0,0,0,11,1,1,3
org.apache.pdfbox.pdmodel.interactive.digitalsignature.visible.PDFTemplateBuilder_java,9.057959,2,1.566046,1,1.078057,0,0,0,0,0,467,47,0,12,3,0,1,0,1,1,3,3
org.apache.pdfbox.pdmodel.interactive.digitalsignature.SignatureInterface_java,0.443956,0,0,0,0,0,0,2,0,0,467,8,0,1,5,0,0,0,3,0,3,3
org.apache.pdfbox.pdmodel.interactive.digitalsignature.visible.PDFTemplateCreator_java,7.263838,1,0.844189,1,0.844189,0,0,0,0,0,467,90,0,12,1,0,2,0,1,1,1,2
org.apache.pdfbox.pdmodel.interactive.digitalsignature.PDSeedValueMDP_java,0.106696,0,0,0,0,0,0,1,0,0,467,38,0,3,1,0,0,0,3,2,1,1
org.apache.pdfbox.pdmodel.interactive.digitalsignature.visible.PDVisibleSigProperties_java,7.470757,2,1.827102,2,1.827102,0,0,0,0,0,467,91,0,4,2,0,0,0,1,1,2,3
org.apache.pdfbox.pdmodel.interactive.digitalsignature.PDSeedValueTimeStamp_java,0.04741,0,0,0,0,0,0,1,0,0,467,42,0,3,1,0,0,0,3,2,1,1
org.apache.pdfbox.pdmodel.interactive.digitalsignature.PDSignature_java,12.161732,3,1.835008,1,0.766342,0,0,2,0,2,188,221,0,9,7,0,2,0,3,2,4,6
org.apache.pdfbox.pdmodel.interactive.digitalsignature.PDPropBuildDataDict_java,0.04741,0,0,0,0,0,0,1,0,1,271,87,0,4,1,0,0,0,3,2,1,2
org.apache.pdfbox.pdmodel.interactive.form.PDSignature_java,2.371008,0,0,0,0,0,0,0,0,1,271,24,0,3,0,0,1,0,2,1,2,4
org.apache.pdfbox.encryption.ARCFour_java,1.991652,0,0,0,0,0,0,1,0,0,467,76,0,0,3,0,0,0,1,2,1,3
org.apache.pdfbox.encryption.DocumentEncryption_java,4.780703,0,0,0,0,0,0,0,0,1,271,253,0,15,0,0,2,1,1,1,2,6
org.apache.pdfbox.pdmodel.encryption.PDStandardEncryption_java,4.777565,0,0,0,0,0,0,0,0,0,467,178,0,6,2,0,0,1,2,0,1,4
org.apache.pdfbox.encryption.PDFEncryption_java,6.626944,1,0.478443,0,0,0,0,1,0,0,467,331,0,2,1,0,0,0,1,1,1,3
org.apache.pdfbox.exceptions.InvalidPasswordException_java,0.50977,0,0,0,0,0,0,0,0,0,467,8,0,0,1,0,0,0,0,1,1,3
org.apache.pdfbox.pdmodel.encryption.PDEncryptionManager_java,1.410742,0,0,0,0,0,0,0,0,0,467,67,0,4,0,0,0,0,2,0,1,3
org.apache.pdfbox.pdmodel.interactive.documentnavigation.outline.PDOutlineItem_java,0.869503,0,0,0,0,0,0,1,0,3,136,231,0,23,7,1,0,3,2,0,3,7
org.apache.pdfbox.exceptions.OutlineNotLocalException_java,0.486049,0,0,0,0,0,0,0,0,0,467,9,0,0,1,0,0,0,0,0,1,3
org.apache.pdfbox.pdmodel.encryption.BadSecurityHandlerException_java,0.68759,0,0,0,0,0,0,1,0,0,467,16,0,0,2,0,0,0,2,1,1,3
org.apache.pdfbox.pdmodel.encryption.SecurityHandlersManager_java,2.643668,0,0,0,0,0,0,1,0,0,467,127,0,5,2,0,0,0,2,1,2,4
org.apache.pdfbox.pdmodel.encryption.PublicKeyProtectionPolicy_java,0.794279,0,0,0,0,0,0,2,0,0,467,37,0,2,2,0,0,1,2,2,2,4
org.apache.pdfbox.pdmodel.encryption.StandardProtectionPolicy_java,0.817997,0,0,0,0,0,0,2,0,0,467,37,0,2,3,0,0,1,2,2,1,3
org.apache.pdfbox.examples.pdmodel.CreateBlankPDF_java,0.154107,0,0,0,0,0,0,1,0,0,467,42,0,3,0,0,0,0,0,0,2,6
org.apache.pdfbox.util.ResourceLoader_java,1.203936,0,0,0,0,0,0,0,0,1,271,100,0,0,11,0,0,0,11,3,2,4
org.apache.pdfbox.exceptions.COSVisitorException_java,0.059266,0,0,0,0,0,0,19,0,0,467,8,0,1,44,0,0,0,0,0,1,3
org.apache.pdfbox.exceptions.WrappedException_java,1.713834,0,0,0,0,0,0,0,0,0,467,8,0,0,1,0,0,0,0,0,2,4
org.apache.pdfbox.exceptions.WrappedIOException_java,0.592739,0,0,0,0,0,0,0,0,0,467,14,0,0,6,0,0,0,0,0,1,3
org.apache.pdfbox.util.ICU4JImpl_java,2.121199,0,0,0,0,0,0,0,0,1,271,76,0,0,1,0,0,0,11,2,4,11
org.apache.pdfbox.util.TextNormalize_java,2.122044,0,0,0,0,0,0,0,0,1,271,109,0,1,3,0,0,0,11,2,3,6
org.apache.pdfbox.pdmodel.documentinterchange.markedcontent.PDMarkedContent_java,0.118792,0,0,0,0,0,0,1,0,0,467,85,0,5,3,1,0,1,2,2,2,3
org.apache.pdfbox.util.TextPosition_java,10.51614,4,2.266802,1,0.72126,0,0,0,0,3,136,445,0,5,10,0,0,3,11,2,5,18
org.apache.pdfbox.util.TextPositionComparator_java,1.066947,0,0,0,0,0,0,0,0,0,467,52,0,1,1,0,0,0,11,1,2,5
org.apache.pdfbox.util.PositionWrapper_java,3.419933,0,0,0,0,0,0,0,0,0,467,58,0,1,1,0,0,0,11,1,4,4
org.apache.pdfbox.pdmodel.common.PDRectangle_java,0.04741,0,0,0,0,0,0,14,0,2,188,124,0,5,52,0,1,0,4,3,3,7
org.apache.pdfbox.pdmodel.documentinterchange.prepress.PDBoxStyle_java,0.190739,0,0,0,0,0,0,0,0,2,188,96,0,8,0,0,0,0,0,0,1,6
org.apache.pdfbox.pdfviewer.PageDrawer_java,13.9709,2,1.800159,2,1.800159,0,0,2,0,22,16,427,0,34,26,1,0,0,2,0,8,57
org.apache.pdfbox.util.XMLUtil_java,1.055108,0,0,0,0,0,0,0,0,0,467,44,0,0,2,0,0,0,11,3,1,3
org.apache.pdfbox.util.ExtensionFileFilter_java,0.889129,0,0,0,0,0,0,2,0,0,467,34,0,0,2,0,0,0,11,1,2,4
org.apache.pdfbox.pdmodel.markedcontent.PDPropertyList_java,1.60838,0,0,0,0,0,0,0,0,0,467,42,0,5,2,0,0,0,1,2,1,1
org.apache.pdfbox.util.LayerUtility_java,1.73013,0,0,0,0,0,0,0,0,5,78,209,0,20,0,0,2,0,11,2,3,6
org.apache.pdfbox.pdmodel.text.PDTextState_java,3.224569,0,0,0,0,0,0,9,0,0,467,105,0,1,14,0,0,0,0,3,1,3
org.apache.pdfbox.util.operator.SetGraphicsStateParameters_java,0.023706,0,0,0,0,0,0,2,0,0,467,16,0,6,0,0,0,0,0,0,2,4
org.apache.pdfbox.pdmodel.graphics.PDGraphicsState_java,7.368977,1,0.519165,0,0,0,0,16,0,4,102,234,0,5,55,0,0,0,1,3,3,8
org.apache.pdfbox.pdmodel.graphics.PDExtendedGraphicsState_java,6.752194,1,0.48689,0,0,0,0,1,0,1,271,271,0,11,4,0,0,0,1,3,2,6
org.apache.pdfbox.pdmodel.graphics.optionalcontent.PDOptionalContentProperties_java,6.295665,0,0,0,0,0,0,0,0,1,271,246,0,7,2,0,0,0,2,0,2,2
org.apache.pdfbox.pdmodel.graphics.optionalcontent.PDOptionalContentGroup_java,1.584667,0,0,0,0,0,0,0,0,0,467,41,0,4,3,0,1,0,2,2,1,1
org.apache.pdfbox.pdmodel.graphics.predictor.Average_java,0.770568,0,0,0,0,0,0,1,0,0,467,26,0,1,2,0,0,0,0,0,1,3
org.apache.pdfbox.pdmodel.graphics.predictor.PredictorAlgorithm_java,3.817307,0,0,0,0,0,0,6,0,0,467,141,0,6,6,0,0,0,0,0,1,3
org.apache.pdfbox.pdmodel.graphics.predictor.Sub_java,0.853572,0,0,0,0,0,0,1,0,0,467,34,0,1,2,0,0,0,0,0,1,3
org.apache.pdfbox.pdmodel.graphics.predictor.Optimum_java,1.624128,0,0,0,0,0,0,1,0,0,467,76,0,6,1,0,0,0,0,0,1,3
org.apache.pdfbox.pdmodel.graphics.predictor.Up_java,1.019531,0,0,0,0,0,0,1,0,0,467,50,0,1,2,0,0,0,0,0,1,3
org.apache.pdfbox.pdmodel.graphics.predictor.Paeth_java,1.25663,0,0,0,0,0,0,1,0,0,467,47,0,1,2,0,0,0,0,0,1,3
org.apache.pdfbox.pdmodel.graphics.predictor.None_java,1.043259,0,0,0,0,0,0,1,0,0,467,31,0,1,2,0,0,0,0,0,1,3
org.apache.pdfbox.preflight.process.reflect.ShaddingPatternValidationProcess_java,0.258716,0,0,0,0,0,0,1,0,3,136,67,0,14,1,0,0,0,1,1,3,4
org.apache.pdfbox.pdmodel.graphics.shading.PDShadingResources_java,8.755804,1,0.597588,0,0,0,0,0,0,1,271,249,0,16,25,7,0,5,0,2,2,5
org.apache.pdfbox.pdmodel.graphics.PDShading_java,15.532836,3,2.482977,2,2.032656,0,0,0,0,1,271,129,0,10,1,0,1,0,1,0,3,7
org.apache.pdfbox.pdmodel.common.XrefEntry_java,1.063544,0,0,0,0,0,0,1,0,0,467,18,0,0,1,0,0,0,4,1,1,2
org.apache.pdfbox.pdfviewer.PDFTreeModel_java,3.804958,0,0,0,0,0,0,1,0,0,467,180,0,9,1,0,0,0,2,2,1,4
org.apache.pdfbox.pdfviewer.MapEntry_java,1.078805,0,0,0,0,0,0,2,0,0,467,36,0,1,3,0,0,0,2,2,1,3
org.apache.pdfbox.pdfviewer.PDFTreeCellRenderer_java,1.541143,0,0,0,0,0,0,2,0,0,467,96,0,11,1,0,0,0,2,2,1,3
org.apache.pdfbox.pdfviewer.PDFPagePanel_java,1.431963,0,0,0,0,0,0,2,0,2,188,64,0,3,1,0,0,0,2,2,3,6
org.apache.pdfbox.pdfviewer.ReaderBottomPanel_java,0.853572,0,0,0,0,0,0,2,0,0,467,32,0,0,2,0,0,0,2,2,1,3
org.apache.pdfbox.pdfviewer.ArrayEntry_java,0.817997,0,0,0,0,0,0,2,0,0,467,22,0,0,3,0,0,0,2,2,1,3
org.apache.pdfbox.io.FastByteArrayOutputStream_java,0.569033,0,0,0,0,0,0,0,0,0,467,13,0,0,0,0,0,0,1,0,1,3
org.apache.pdfbox.io.ByteArrayPushBackInputStream_java,4.623449,0,0,0,0,0,0,0,0,0,467,191,0,1,0,0,0,0,1,0,1,3
org.apache.pdfbox.filter.TIFFFaxDecoder_java,17.478633,7,5.607414,5,4.638841,1,1.251905,0,0,1,271,928,0,0,1,0,0,0,1,0,2,2
org.apache.pdfbox.io.ASCII85InputStream_java,3.153436,0,0,0,0,0,0,0,0,0,467,172,0,0,1,0,0,0,1,2,2,4
org.apache.pdfbox.io.ccitt.PackedBitArray_java,4.413198,0,0,0,0,0,0,0,0,1,271,147,0,0,1,0,0,0,0,2,1,1
org.apache.pdfbox.io.ccitt.CCITTFaxG31DDecodeInputStream_java,7.808487,1,0.456194,0,0,0,0,0,0,2,188,347,0,2,1,0,0,0,0,1,2,2
org.apache.pdfbox.io.ASCII85OutputStream_java,2.868907,0,0,0,0,0,0,0,0,0,467,152,0,0,1,0,0,0,1,2,2,5
org.apache.pdfbox.io.ccitt.CCITTFaxConstants_java,1.397223,0,0,0,0,0,0,0,0,1,271,39,0,0,1,0,0,0,0,2,1,1
org.apache.pdfbox.io.ccitt.FillOrderChangeInputStream_java,1.840268,0,0,0,0,0,0,0,0,1,271,70,0,0,1,0,0,0,0,1,1,1
org.apache.pdfbox.util.MapUtil_java,0.673001,0,0,0,0,0,0,0,0,1,271,17,0,0,1,0,0,0,11,2,3,5
org.apache.pdfbox.preflight.Validator_A1b_java,6.530511,2,1.305832,1,0.665923,0,0,0,0,3,136,146,0,7,0,0,0,0,10,0,3,9
org.apache.pdfbox.Version_java,1.045293,0,0,0,0,0,0,0,0,0,467,39,0,1,3,0,0,0,1,0,1,4
org.apache.pdfbox.util.ErrorLogger_java,0.68759,0,0,0,0,0,0,0,0,0,467,16,0,0,0,0,0,0,11,0,1,3
org.apache.pdfbox.pdmodel.interactive.form.PDRadioCollection_java,0.059266,0,0,0,0,0,0,3,0,2,188,90,0,10,1,1,0,0,2,1,2,5
org.apache.pdfbox.util.BitFlagHelper_java,1.232923,0,0,0,0,0,0,2,0,1,271,35,0,2,7,0,0,0,11,2,3,5
org.apache.pdfbox.util.PDFText2HTML_java,5.365704,0,0,0,0,0,0,1,0,1,271,270,0,6,1,0,0,1,11,0,4,13
org.apache.pdfbox.pdfviewer.PageWrapper_java,1.232923,0,0,0,0,0,0,3,0,0,467,46,0,4,1,1,0,0,2,2,2,5
org.apache.pdfbox.PDFReader_java,1.659708,0,0,0,0,0,0,3,0,2,188,332,0,10,2,1,0,0,1,2,2,15
org.apache.pdfbox.util.operator.pagedrawer.CurveToReplicateInitialPoint_java,0.320072,0,0,0,0,0,0,1,0,0,467,26,0,5,0,0,0,0,0,1,2,5
org.apache.pdfbox.util.operator.pagedrawer.CurveTo_java,0.367499,0,0,0,0,0,0,1,0,0,467,26,0,5,0,0,0,0,0,1,2,5
org.apache.pdfbox.util.operator.pagedrawer.SHFill_java,4.376362,0,0,0,0,0,0,0,0,0,467,26,0,5,0,0,0,0,0,1,3,6
org.apache.pdfbox.util.operator.pagedrawer.ClosePath_java,0.448998,0,0,0,0,0,0,0,0,0,467,25,0,4,0,0,0,0,0,1,3,8
org.apache.pdfbox.util.operator.pagedrawer.StrokePath_java,0.627461,0,0,0,0,0,0,0,0,1,271,14,0,4,0,0,0,0,0,1,4,13
org.apache.pdfbox.util.operator.pagedrawer.LineTo_java,0.2608,0,0,0,0,0,0,1,0,0,467,19,0,5,0,0,0,0,0,1,2,5
org.apache.pdfbox.util.operator.pagedrawer.CurveToReplicateFinalPoint_java,0.343802,0,0,0,0,0,0,1,0,0,467,23,0,5,0,0,0,0,0,1,2,5
org.apache.pdfbox.util.operator.pagedrawer.FillNonZeroRule_java,0.460847,0,0,0,0,0,0,0,0,0,467,26,0,4,0,0,0,0,0,1,3,8
org.apache.pdfbox.util.operator.pagedrawer.FillEvenOddRule_java,0.448998,0,0,0,0,0,0,0,0,0,467,26,0,4,0,0,0,0,0,1,3,8
org.apache.pdfbox.util.operator.pagedrawer.MoveTo_java,0.52012,0,0,0,0,0,0,0,0,0,467,30,0,5,0,0,0,0,0,1,3,8
org.apache.pdfbox.util.operator.OperatorProcessor_java,0.438629,0,0,0,0,0,0,47,0,0,467,22,0,3,84,0,0,0,0,0,2,5
org.apache.pdfbox.util.operator.pagedrawer.EndPath_java,0.248946,0,0,0,0,0,0,1,0,1,271,14,0,4,0,0,0,0,0,1,2,5
org.apache.pdfbox.PDFToImage_java,0.628721,0,0,0,0,0,0,0,0,1,271,248,0,5,1,0,0,0,1,2,3,11
org.apache.pdfbox.util.operator.pagedrawer.SetLineDashPattern_java,1.71993,0,0,0,0,0,0,0,0,0,467,45,0,9,0,0,0,0,0,1,3,7
org.apache.pdfbox.util.operator.SetLineMiterLimit_java,0.023706,0,0,0,0,0,0,3,0,0,467,14,0,6,1,0,0,0,0,1,2,4
org.apache.pdfbox.util.operator.SetLineWidth_java,0.023706,0,0,0,0,0,0,3,0,0,467,14,0,6,2,0,0,0,0,0,2,4
org.apache.pdfbox.util.operator.pagedrawer.SetLineWidth_java,1.079432,0,0,0,0,0,0,1,0,0,467,27,0,7,0,0,0,0,0,1,3,10
org.apache.pdfbox.util.operator.pagedrawer.SetLineCapStyle_java,1.10314,0,0,0,0,0,0,1,0,0,467,27,0,7,0,0,0,0,0,1,3,6
org.apache.pdfbox.util.operator.pagedrawer.SetLineMiterLimit_java,1.10314,0,0,0,0,0,0,1,0,0,467,28,0,7,0,0,0,0,0,1,3,7
org.apache.pdfbox.pdmodel.interactive.annotation.PDBorderStyleDictionary_java,0.113404,0,0,0,0,0,0,2,0,1,271,68,0,6,5,0,0,0,2,2,1,5
org.apache.pdfbox.util.operator.pagedrawer.SetLineJoinStyle_java,1.10314,0,0,0,0,0,0,1,0,0,467,27,0,7,0,0,0,0,0,1,3,6
org.apache.pdfbox.pdmodel.graphics.pattern.PDShadingPatternResources_java,2.157613,0,0,0,0,0,0,1,0,0,467,159,0,23,1,1,0,1,1,0,1,7
org.apache.pdfbox.pdmodel.graphics.pattern.PDTilingPatternResources_java,3.43795,0,0,0,0,0,0,2,0,0,467,143,0,9,3,0,0,1,1,2,1,4
org.apache.pdfbox.pdmodel.graphics.pattern.PDPatternResources_java,2.122044,0,0,0,0,0,0,2,0,0,467,79,0,6,9,1,0,2,1,2,2,3
org.apache.pdfbox.pdmodel.graphics.color.PDIndexed_java,0.35307,0,0,0,0,0,0,2,0,9,40,199,0,11,9,1,0,0,1,2,3,16
org.apache.pdfbox.pdmodel.graphics.color.PDCalGray_java,0.104117,0,0,0,0,0,0,0,0,3,136,105,0,8,2,0,0,0,1,1,3,6
org.apache.pdfbox.cos.COSBase_java,0.616452,0,0,0,0,0,0,7,0,0,467,38,0,4,306,0,5,0,9,0,3,6
org.apache.pdfbox.filter.FilterManager_java,1.524148,0,0,0,0,0,0,0,0,0,467,60,0,11,4,0,1,0,1,0,2,7
org.apache.pdfbox.pdmodel.common.function.PDFunctionType4_java,0.964125,0,0,0,0,0,0,0,0,1,271,51,0,8,1,1,0,1,0,3,4,7
org.apache.pdfbox.util.operator.SetLineDashPattern_java,0.094835,0,0,0,0,0,0,1,0,0,467,26,0,8,2,0,0,0,0,0,2,5
org.apache.pdfbox.pdmodel.graphics.xobject.PDJpeg_java,0.563315,0,0,0,0,0,0,0,0,13,23,422,0,17,8,1,0,1,3,2,4,27
org.apache.pdfbox.pdmodel.graphics.xobject.PDCcitt_java,6.251414,0,0,0,0,0,0,0,0,12,27,585,0,16,4,1,0,2,3,2,5,26
org.apache.pdfbox.util.operator.Invoke_java,0,0,0,0,0,0,0,8,0,2,188,39,0,12,1,0,0,0,0,0,2,8
org.apache.pdfbox.pdmodel.PDPageable_java,0.928459,0,0,0,0,0,0,1,0,3,136,104,0,7,3,1,1,0,18,0,2,5
org.apache.pdfbox.pdmodel.graphics.xobject.PDXObject_java,0.091829,0,0,0,0,0,0,2,0,4,102,116,0,13,25,5,0,7,3,1,5,14
org.apache.pdfbox.pdmodel.graphics.xobject.PDXObjectImage_java,0.336172,0,0,0,0,0,0,0,0,10,32,301,0,13,16,1,1,6,3,3,5,23
org.apache.pdfbox.pdmodel.graphics.xobject.PDXObjectForm_java,0.13478,0,0,0,0,0,0,3,0,3,136,104,0,11,18,1,1,5,3,1,3,9
org.apache.pdfbox.ExtractImages_java,0.581038,0,0,0,0,0,0,0,0,5,78,244,0,13,1,0,0,1,1,2,3,12
org.apache.pdfbox.PDFDebugger_java,0,0,0,0,0,0,0,11,0,0,467,352,0,14,1,0,0,0,1,2,3,8
org.apache.pdfbox.PrintPDF_java,0.018544,0,0,0,0,0,0,2,0,3,136,99,0,2,1,0,0,0,1,2,2,9
org.apache.pdfbox.ImportXFDF_java,0,0,0,0,0,0,0,5,0,0,467,68,0,5,0,0,0,0,1,1,2,5
org.apache.pdfbox.Encrypt_java,0,0,0,0,0,0,0,6,0,1,271,179,0,6,1,0,0,1,1,2,2,7
org.apache.pdfbox.PDFBox_java,0.34817,0,0,0,0,0,0,10,0,1,271,120,0,16,0,0,0,0,1,1,2,8
org.apache.pdfbox.ExportXFDF_java,0,0,0,0,0,0,0,4,0,0,467,78,0,4,0,0,0,0,1,1,2,5
org.apache.pdfbox.PDFMerger_java,0,0,0,0,0,0,0,2,0,1,271,39,0,1,1,0,0,0,1,2,2,7
org.apache.pdfbox.ExtractText_java,3.043966,1,0.467646,0,0,0,0,0,0,5,78,308,0,14,2,0,0,0,1,0,4,18
org.apache.pdfbox.TextToPDF_java,0.13478,0,0,0,0,0,0,1,0,1,271,180,0,9,1,0,0,0,1,0,3,8
org.apache.pdfbox.OverlayPDF_java,0,0,0,0,0,0,0,2,0,0,467,142,0,2,1,0,0,0,1,2,1,3
org.apache.pdfbox.ExportFDF_java,0,0,0,0,0,0,0,4,0,0,467,78,0,4,0,0,0,0,1,1,2,5
org.apache.pdfbox.Decrypt_java,0,0,0,0,0,0,0,3,0,3,136,144,0,5,1,0,0,0,1,2,2,9
org.apache.pdfbox.PDFSplit_java,0,0,0,0,0,0,0,5,0,2,188,194,0,4,1,0,0,0,1,2,2,10
org.apache.pdfbox.WriteDecodedDoc_java,0,0,0,0,0,0,0,5,0,1,271,149,0,7,1,0,0,0,1,2,1,6
org.apache.pdfbox.ImportFDF_java,0,0,0,0,0,0,0,5,0,0,467,67,0,4,1,0,0,0,1,1,2,5
org.apache.pdfbox.PdfDecompressor_java,0.709765,0,0,0,0,0,0,1,0,0,467,50,0,6,0,0,0,0,1,0,2,3
org.apache.pdfbox.ConvertColorspace_java,0,0,0,0,0,0,0,10,0,0,467,335,0,9,1,0,0,0,1,1,2,5
org.apache.pdfbox.ant.PDFToTextTask_java,0.399234,0,0,0,0,0,0,0,0,0,467,47,0,1,0,0,0,0,0,1,2,6
org.apache.pdfbox.pdmodel.graphics.color.PDColorState_java,3.59017,0,0,0,0,0,0,6,0,6,65,182,0,7,30,0,0,0,1,2,3,16
org.apache.pdfbox.pdmodel.common.function.PDFunctionType0_java,0.522495,0,0,0,0,0,0,0,0,2,188,257,0,8,1,1,0,1,0,3,4,10
org.apache.pdfbox.pdfparser.XrefTrailerResolver_java,2.954455,0,0,0,0,0,0,0,0,3,136,174,0,3,6,0,1,0,6,1,5,10
org.apache.pdfbox.pdmodel.graphics.color.ColorSpaceCMYK_java,0,0,0,0,0,0,0,1,0,0,467,84,0,0,1,0,0,0,1,3,2,6
org.apache.pdfbox.pdmodel.graphics.xobject.PDPixelMap_java,0.440173,0,0,0,0,0,0,0,0,24,13,314,0,17,4,1,1,1,3,2,4,42
org.apache.pdfbox.util.PDFImageWriter_java,0.174094,0,0,0,0,0,0,0,0,0,467,52,0,5,1,0,1,0,11,0,4,11
org.apache.pdfbox.Overlay_java,0.153184,0,0,0,0,0,0,2,0,3,136,353,0,13,1,0,2,0,1,1,2,10
org.apache.pdfbox.encoding.AFMEncoding_java,0,0,0,0,0,0,0,3,0,2,188,23,0,2,2,0,0,0,1,4,3,7
org.apache.pdfbox.pdmodel.interactive.form.PDTextbox_java,0,0,0,0,0,0,0,4,0,0,467,22,0,5,1,0,0,0,2,1,2,4
org.apache.pdfbox.preflight.metadata.RDFAboutAttributeConcordanceValidation_java,1.332647,0,0,0,0,0,0,0,0,2,188,36,0,1,1,0,0,0,0,2,5,7
org.apache.pdfbox.preflight.process.FileSpecificationValidationProcess_java,0.01932,0,0,0,0,0,0,2,0,3,136,47,0,11,1,0,0,0,1,1,4,6
org.apache.pdfbox.preflight.process.reflect.ExtGStateValidationProcess_java,0.125661,0,0,0,0,0,0,1,0,4,102,154,0,12,1,0,0,0,1,1,4,9
org.apache.pdfbox.preflight.process.CatalogValidationProcess_java,0.183668,0,0,0,0,0,0,1,0,5,78,337,0,21,1,0,0,0,1,1,4,11
org.apache.pdfbox.preflight.process.AcroFormValidationProcess_java,0.028989,0,0,0,0,0,0,3,0,6,65,94,0,17,1,0,0,0,1,1,4,11
org.apache.pdfbox.lucene.IndexFiles_java,1.745493,0,0,0,0,0,0,2,0,0,467,178,0,1,1,0,0,0,0,1,2,3
org.apache.pdfbox.lucene.LucenePDFDocument_java,2.316485,0,0,0,0,0,0,3,0,0,467,239,0,4,2,0,0,0,0,0,2,2
org.apache.pdfbox.searchengine.lucene.LucenePDFDocument_java,2.316485,0,0,0,0,0,0,1,0,0,467,4,0,1,0,0,0,0,0,1,2,7
org.apache.pdfbox.searchengine.lucene.IndexFiles_java,1.499447,0,0,0,0,0,0,1,0,0,467,6,0,1,0,0,0,0,0,1,2,7
org.apache.pdfbox.examples.pdmodel.ReplaceString_java,0,0,0,0,0,0,0,10,0,1,271,107,0,10,0,0,0,0,0,0,3,8
org.apache.pdfbox.encoding.MacOSRomanEncoding_java,0,0,0,0,0,0,0,2,0,1,271,30,0,3,1,0,0,0,1,4,1,1
org.apache.pdfbox.preflight.annotation.TrapNetAnnotationValidator_java,0.111169,0,0,0,0,0,0,1,0,1,271,29,0,7,1,0,0,0,1,0,2,3
org.apache.pdfbox.preflight.annotation.MarkupAnnotationValidator_java,0.106336,0,0,0,0,0,0,1,0,1,271,32,0,7,1,0,0,0,1,1,3,4
org.apache.pdfbox.preflight.annotation.LinkAnnotationValidator_java,0.101505,0,0,0,0,0,0,3,0,3,136,63,0,9,1,0,0,0,1,1,4,8
org.apache.pdfbox.preflight.annotation.AnnotationValidator_java,0.149836,0,0,0,0,0,0,14,0,3,136,159,0,17,14,0,0,0,1,0,4,9
org.apache.pdfbox.preflight.annotation.SquareCircleAnnotationValidator_java,0.1305,0,0,0,0,0,0,3,0,2,188,51,0,8,1,0,0,0,1,1,4,7
org.apache.pdfbox.preflight.annotation.WidgetAnnotationValidator_java,0.101505,0,0,0,0,0,0,3,0,2,188,47,0,8,1,0,0,0,1,1,4,6
org.apache.pdfbox.preflight.annotation.PrintMarkAnnotationValidator_java,0.106336,0,0,0,0,0,0,1,0,1,271,29,0,7,1,0,0,0,1,0,2,3
org.apache.pdfbox.preflight.annotation.RubberStampAnnotationValidator_java,0.115995,0,0,0,0,0,0,1,0,1,271,30,0,7,1,0,0,0,1,0,2,3
org.apache.pdfbox.preflight.annotation.InkAnnotationValdiator_java,0.106336,0,0,0,0,0,0,1,0,1,271,32,0,7,1,0,0,0,1,1,3,5
org.apache.pdfbox.preflight.annotation.LineAnnotationValidator_java,0.101505,0,0,0,0,0,0,3,0,2,188,52,0,8,1,0,0,0,1,1,4,7
org.apache.pdfbox.preflight.annotation.TextAnnotationValidator_java,0.120839,0,0,0,0,0,0,2,0,1,271,42,0,8,1,0,0,0,1,0,2,3
org.apache.pdfbox.preflight.annotation.FreeTextAnnotationValidator_java,0.135323,0,0,0,0,0,0,1,0,1,271,32,0,8,1,0,0,0,1,1,3,4
org.apache.pdfbox.preflight.annotation.PopupAnnotationValidator_java,0.106336,0,0,0,0,0,0,1,0,1,271,29,0,7,1,0,0,0,1,0,2,3
org.apache.pdfbox.examples.AbstractExample_java,0,0,0,0,0,0,0,4,0,0,467,45,0,3,1,0,0,0,0,1,3,7
org.apache.pdfbox.pdmodel.graphics.xobject.PDInlinedImage_java,1.044976,0,0,0,0,0,0,1,0,1,271,139,0,8,3,0,0,0,3,0,3,5
org.apache.pdfbox.util.ImageParameters_java,0.911768,0,0,0,0,0,0,0,0,1,271,123,0,9,8,0,0,0,11,0,3,8
org.apache.pdfbox.pdmodel.font.Type3StreamParser_java,0,0,0,0,0,0,0,4,0,1,271,47,0,6,0,0,0,0,2,0,2,5
org.apache.pdfbox.preflight.PreflightConstants_java,0.35283,0,0,0,0,0,0,0,0,7,54,392,0,0,80,0,0,0,10,0,3,11
org.apache.pdfbox.preflight.metadata.SynchronizedMetaDataValidation_java,1.858389,0,0,0,0,0,0,0,0,5,78,355,0,5,1,0,0,0,0,0,5,13
org.apache.pdfbox.preflight.action.ActionManagerFactory_java,0.03383,0,0,0,0,0,0,3,0,3,136,173,0,23,13,1,0,2,1,0,3,5
org.apache.pdfbox.preflight.process.PageTreeValidationProcess_java,0.01932,0,0,0,0,0,0,3,0,3,136,33,0,10,1,0,0,0,1,1,3,6
org.apache.pdfbox.preflight.process.reflect.FontValidationProcess_java,0.154667,0,0,0,0,0,0,3,0,4,102,77,0,13,1,0,0,0,1,1,4,7
org.apache.pdfbox.preflight.process.reflect.AnnotationValidationProcess_java,0.174001,0,0,0,0,0,0,2,0,4,102,36,0,10,1,0,0,0,1,1,3,5
org.apache.pdfbox.preflight.process.reflect.ActionsValidationProcess_java,0.159507,0,0,0,0,0,0,2,0,3,136,39,0,11,1,0,0,0,1,1,3,5
org.apache.pdfbox.preflight.ValidationResult_java,1.286397,0,0,0,0,0,0,0,0,6,65,208,0,1,79,0,0,0,10,0,4,17
org.apache.pdfbox.preflight.parser.XmlResultParser_java,12.311394,4,3.721609,3,3.144802,2,2.475012,0,0,0,467,133,0,6,1,0,0,0,1,0,2,6
org.apache.pdfbox.preflight.font.container.Type0Container_java,0.01449,0,0,0,0,0,0,2,0,1,271,52,0,3,1,0,0,0,1,3,3,4
org.apache.pdfbox.preflight.font.container.FontContainer_java,0.01449,0,0,0,0,0,0,12,0,5,78,105,0,5,21,0,0,0,1,0,3,8
org.apache.pdfbox.preflight.font.container.Type1Container_java,0.33834,0,0,0,0,0,0,2,0,2,188,76,0,5,2,0,0,0,1,2,3,4
org.apache.pdfbox.pdmodel.interactive.annotation.PDAppearanceDictionary_java,0.120687,0,0,0,0,0,0,1,0,4,102,159,0,7,9,0,2,0,2,2,2,9
org.apache.pdfbox.pdmodel.interactive.form.PDAppearance_java,0.009652,0,0,0,0,0,0,6,0,4,102,742,0,29,2,2,2,2,2,1,3,7
org.apache.pdfbox.util.operator.SetStrokingColor_java,0.009266,0,0,0,0,0,0,2,0,2,188,84,0,27,1,0,0,0,0,1,3,15
org.apache.pdfbox.util.operator.SetStrokingLabColor_java,0,0,0,0,0,0,0,5,0,0,467,20,0,7,1,0,0,0,0,1,1,1
org.apache.pdfbox.util.operator.SetNonStrokingLabColor_java,0,0,0,0,0,0,0,5,0,0,467,20,0,7,1,0,0,0,0,1,1,1
org.apache.pdfbox.pdmodel.graphics.color.ColorSpaceLab_java,0,0,0,0,0,0,0,2,0,0,467,102,0,2,1,0,0,0,1,3,1,1
org.apache.pdfbox.util.operator.SetNonStrokingColor_java,0.009266,0,0,0,0,0,0,2,0,2,188,84,0,27,1,0,0,0,0,1,3,16
org.apache.pdfbox.pdmodel.interactive.annotation.PDAppearanceStream_java,0,0,0,0,0,0,0,13,0,1,271,101,0,11,6,0,1,0,2,2,2,4
org.apache.pdfbox.pdmodel.common.PDNameTreeNode_java,0.670745,0,0,0,0,0,0,2,0,8,47,252,0,7,8,0,0,0,4,0,5,14
org.apache.pdfbox.pdmodel.PDDestinationNameTreeNode_java,0.018544,0,0,0,0,0,0,1,0,1,271,33,0,7,2,0,0,0,18,0,2,5
org.apache.pdfbox.pdmodel.PDEmbeddedFilesNameTreeNode_java,0,0,0,0,0,0,0,4,0,1,271,26,0,5,5,0,0,0,18,0,2,4
org.apache.pdfbox.pdmodel.PDJavascriptNameTreeNode_java,0,0,0,0,0,0,0,3,0,1,271,42,0,7,1,0,0,0,18,0,2,5
org.apache.pdfbox.pdmodel.common.PDPageLabels_java,1.829235,0,0,0,0,0,0,0,0,8,47,251,0,9,1,0,0,0,4,0,5,18
org.apache.pdfbox.pdmodel.documentinterchange.logicalstructure.PDObjectReference_java,0.019496,0,0,0,0,0,0,3,0,1,271,66,0,7,2,0,0,0,2,3,2,4
org.apache.pdfbox.pdfparser.PDFXRef_java,0,0,0,0,0,0,0,1,0,0,467,6,0,1,1,0,0,0,6,2,1,1
org.apache.pdfbox.cos.COSArray_java,3.074713,0,0,0,0,0,0,9,0,3,136,274,0,11,163,0,5,1,9,0,6,19
org.apache.pdfbox.pdmodel.documentinterchange.logicalstructure.PDStructureElement_java,0.607027,0,0,0,0,0,0,4,0,2,188,451,0,15,5,2,2,1,2,2,3,8
org.apache.pdfbox.pdmodel.interactive.form.PDXFA_java,0,0,0,0,0,0,0,4,0,0,467,85,0,4,1,0,0,0,2,0,2,4
org.apache.pdfbox.util.operator.SetStrokingIndexed_java,0,0,0,0,0,0,0,6,0,1,271,24,0,9,1,0,0,0,0,1,1,1
org.apache.pdfbox.util.operator.SetNonStrokingIndexed_java,0,0,0,0,0,0,0,6,0,1,271,24,0,9,1,0,0,0,0,1,1,1
org.apache.pdfbox.filter.CCITTFaxDecodeFilter_java,0.264399,0,0,0,0,0,0,0,0,9,40,93,0,9,1,0,0,0,1,0,3,15
org.apache.pdfbox.preflight.font.descriptor.Type1DescriptorHelper_java,0.038668,0,0,0,0,0,0,2,0,9,40,143,0,16,1,0,0,0,1,2,3,11
org.apache.pdfbox.preflight.font.descriptor.FontDescriptorHelper_java,1.565466,0,0,0,0,0,0,0,0,8,47,199,0,12,6,0,0,0,1,1,5,13
org.apache.pdfbox.preflight.font.descriptor.CIDType0DescriptorHelper_java,0.01932,0,0,0,0,0,0,3,0,5,78,88,0,17,1,0,0,0,1,3,3,7
org.apache.pdfbox.preflight.font.container.CIDType0Container_java,0.182392,0,0,0,0,0,0,1,0,2,188,70,0,3,2,0,0,0,1,3,2,3
org.apache.pdfbox.pdmodel.graphics.xobject.CompositeImage_java,1.442545,0,0,0,0,0,0,0,0,3,136,70,0,1,1,0,0,0,3,3,3,5
org.apache.pdfbox.preflight.metadata.PDFAIdentificationValidation_java,0.741969,0,0,0,0,0,0,0,0,4,102,65,0,3,1,0,0,0,0,2,5,10
org.apache.pdfbox.preflight.process.MetadataValidationProcess_java,4.650965,2,0.935004,0,0,0,0,0,0,3,136,158,0,19,1,0,0,0,1,1,5,8
org.apache.pdfbox.pdmodel.interactive.form.PDChoiceField_java,0.11141,0,0,0,0,0,0,0,0,2,188,106,0,10,2,1,0,0,2,1,2,6
org.apache.pdfbox.preflight.exception.SyntaxValidationException_java,0.236843,0,0,0,0,0,0,1,0,1,271,25,0,2,3,0,0,0,1,0,2,2
org.apache.pdfbox.pdmodel.PDDocumentNameDictionary_java,0.078918,0,0,0,0,0,0,4,0,0,467,84,0,8,7,1,0,0,18,0,2,5
org.apache.pdfbox.preflight.Benchmark_java,0.497857,0,0,0,0,0,0,0,0,0,467,76,0,4,0,0,0,0,10,0,2,2
org.apache.pdfbox.preflight.util.IsartorPdfProvider_java,0.285179,0,0,0,0,0,0,0,0,1,271,9,0,0,0,0,0,0,0,0,2,2
org.apache.pdfbox.preflight.util.NOCatalogDocument_java,0.207835,0,0,0,0,0,0,0,0,1,271,21,0,3,0,0,0,0,0,0,2,2
org.apache.pdfbox.preflight.util.ByteArrayDataSource_java,0.372179,0,0,0,0,0,0,0,0,1,271,45,0,0,0,0,0,0,0,0,2,2
org.apache.pdfbox.preflight.utils.FilterHelper_java,0.381845,0,0,0,0,0,0,0,0,1,271,66,0,5,2,0,0,0,1,0,2,4
org.apache.pdfbox.preflight.utils.RenderingIntents_java,0.038668,0,0,0,0,0,0,0,0,1,271,25,0,1,2,0,0,0,1,0,2,3
org.apache.pdfbox.preflight.font.util.Type1_java,0.004815,0,0,0,0,0,0,3,0,2,188,420,0,5,3,1,0,0,2,2,2,3
org.apache.pdfbox.preflight.font.util.FontMetaDataValidation_java,0.004815,0,0,0,0,0,0,3,0,1,271,115,0,5,1,0,0,0,2,1,4,7
org.apache.pdfbox.preflight.font.util.GlyphDescription_java,0.053167,0,0,0,0,0,0,1,0,2,188,48,0,0,2,0,0,0,2,2,2,3
org.apache.pdfbox.preflight.font.DescendantFontValidator_java,0.01932,0,0,0,0,0,0,2,0,4,102,93,0,15,2,0,0,0,2,2,4,10
org.apache.pdfbox.preflight.exception.BodyParseException_java,0.028989,0,0,0,0,0,0,0,0,1,271,45,0,2,0,0,0,0,1,0,2,3
org.apache.pdfbox.io.RandomAccessBufferedFileInputStream_java,28.784135,12,13.329821,7,10.556338,3,7.210091,0,0,0,467,162,0,1,1,0,0,0,1,1,2,6
org.apache.pdfbox.preflight.font.FontValidator_java,0.01932,0,0,0,0,0,0,10,0,2,188,41,0,5,13,0,0,0,2,1,3,5
org.apache.pdfbox.preflight.utils.PdfElementParser_java,0.028989,0,0,0,0,0,0,0,0,2,188,21,0,3,0,0,0,0,1,0,3,4
org.apache.pdfbox.preflight.exception.ValidationException_java,0.028989,0,0,0,0,0,0,27,0,1,271,20,0,0,53,0,0,0,1,0,3,4
org.apache.pdfbox.pdmodel.graphics.color.PDColorSpaceFactory_java,1.881473,0,0,0,0,0,0,0,0,2,188,183,0,20,15,4,0,0,1,0,4,12
org.apache.pdfbox.util.PDFOperator_java,0.804528,0,0,0,0,0,0,3,0,1,271,62,0,1,94,0,0,0,11,0,2,4
org.apache.pdfbox.io.IOUtils_java,4.029451,0,0,0,0,0,0,0,0,1,271,78,0,0,17,0,0,0,1,1,3,3
org.apache.pdfbox.cos.COSDictionaryLateBinding_java,0.694159,0,0,0,0,0,0,1,0,0,467,29,0,7,0,0,0,0,9,1,2,3
org.apache.pdfbox.pdmodel.ConformingPDDocument_java,1.115338,0,0,0,0,0,0,2,0,0,467,48,0,5,1,1,0,0,18,1,3,4
org.apache.pdfbox.cos.COSUnread_java,0.998337,0,0,0,0,0,0,3,0,0,467,46,0,4,1,0,1,0,9,1,2,3
org.apache.pdfbox.io.PushBackInputStream_java,1.609059,0,0,0,0,0,0,0,0,0,467,120,0,1,9,0,0,0,1,0,6,10
org.apache.pdfbox.io.SequentialRead_java,2.413569,0,0,0,0,0,0,0,0,0,467,8,0,0,6,0,0,3,1,0,2,2
org.apache.pdfbox.io.RandomAccess_java,2.100722,0,0,0,0,0,0,0,0,0,467,7,0,1,16,0,0,0,1,1,3,5
org.apache.pdfbox.cos.COSNumber_java,0.34817,0,0,0,0,0,0,32,0,3,136,45,0,3,83,0,0,8,9,2,3,11
org.apache.pdfbox.util.Splitter_java,0,0,0,0,0,0,0,4,0,6,65,113,0,3,1,0,0,0,11,2,2,7
org.apache.pdfbox.util.operator.SetStrokingPattern_java,0,0,0,0,0,0,0,7,0,0,467,34,0,10,1,0,0,0,0,1,1,2
org.apache.pdfbox.util.operator.SetNonStrokingPattern_java,0,0,0,0,0,0,0,7,0,0,467,34,0,10,1,0,0,0,0,1,1,2
org.apache.pdfbox.util.operator.SetStrokingColorSpace_java,0.682494,0,0,0,0,0,0,0,0,1,271,37,0,11,1,0,0,0,0,1,3,9
org.apache.pdfbox.util.operator.SetNonStrokingColorSpace_java,0.66393,0,0,0,0,0,0,0,0,1,271,37,0,11,1,0,0,0,0,1,3,9
org.apache.pdfbox.pdmodel.common.function.type4.Parser_java,1.659009,0,0,0,0,0,0,0,0,0,467,223,0,0,1,0,0,0,0,3,2,5
org.apache.pdfbox.pdmodel.common.function.PDFunctionType3_java,2.849982,0,0,0,0,0,0,0,0,2,188,88,0,6,1,1,0,1,0,3,3,8
org.apache.pdfbox.pdmodel.common.function.type4.RelationalOperators_java,0.725812,0,0,0,0,0,0,1,0,0,467,86,0,2,1,0,0,0,0,4,1,1
org.apache.pdfbox.pdmodel.common.function.type4.BitwiseOperators_java,1.000576,0,0,0,0,0,0,1,0,0,467,132,0,2,1,0,0,0,0,4,1,1
org.apache.pdfbox.pdmodel.common.function.type4.Operators_java,0.736174,0,0,0,0,0,0,0,0,0,467,97,0,6,3,0,0,0,0,3,1,1
org.apache.pdfbox.pdmodel.common.function.type4.StackOperators_java,0.839867,0,0,0,0,0,0,1,0,0,467,110,0,2,1,0,0,0,0,4,1,1
org.apache.pdfbox.pdmodel.common.function.type4.ConditionalOperators_java,0.352519,0,0,0,0,0,0,1,0,0,467,36,0,3,1,0,0,0,0,4,1,1
org.apache.pdfbox.pdmodel.common.function.type4.Operator_java,0.171078,0,0,0,0,0,0,4,0,0,467,5,0,1,7,0,0,0,0,3,1,1
org.apache.pdfbox.util.operator.SetNonStrokingDeviceN_java,0.974871,0,0,0,0,0,0,0,0,1,271,24,0,9,1,0,0,0,0,1,2,3
org.apache.pdfbox.util.operator.SetStrokingDeviceN_java,0.974871,0,0,0,0,0,0,0,0,1,271,24,0,9,1,0,0,0,0,1,2,3
org.apache.pdfbox.pdmodel.font.PDFontDescriptorDictionary_java,0.231497,0,0,0,0,0,0,1,0,2,188,290,0,10,13,0,0,1,2,3,4,8
org.apache.pdfbox.util.operator.SetNonStrokingSeparation_java,1.081641,0,0,0,0,0,0,0,0,2,188,24,0,9,1,0,0,0,0,2,3,16
org.apache.pdfbox.util.operator.SetStrokingSeparation_java,1.044509,0,0,0,0,0,0,0,0,2,188,24,0,9,1,0,0,0,0,1,3,12
org.apache.pdfbox.pdfwriter.COSFilterInputStream_java,0.803359,0,0,0,0,0,0,1,0,0,467,90,0,0,3,0,0,0,4,1,3,4
org.apache.pdfbox.exceptions.SignatureException_java,0.740953,0,0,0,0,0,0,2,0,0,467,32,0,0,5,0,0,0,0,0,1,1
org.apache.pdfbox.pdfwriter.COSWriterXRefEntry_java,0.187185,0,0,0,0,0,0,1,0,0,467,70,0,2,2,0,0,0,4,2,3,9
org.apache.pdfbox.util.StringUtil_java,0,0,0,0,0,0,0,3,0,2,188,16,0,0,3,0,1,0,11,0,1,1
org.apache.pdfbox.persistence.util.COSHEXTable_java,0,0,0,0,0,0,0,1,0,2,188,526,0,1,3,0,1,0,1,0,2,5
org.apache.pdfbox.pdmodel.common.PDTextStream_java,0,0,0,0,0,0,0,6,0,1,271,85,0,4,7,0,0,0,4,2,3,6
org.apache.pdfbox.pdmodel.interactive.documentnavigation.destination.PDNamedDestination_java,0,0,0,0,0,0,0,3,0,2,188,58,0,4,2,0,1,1,1,2,2,4
org.apache.pdfbox.pdmodel.font.PDFontDescriptor_java,0,0,0,0,0,0,0,16,0,3,136,140,0,1,20,0,1,1,2,3,4,6
org.apache.pdfbox.pdmodel.common.PDMatrix_java,0,0,0,0,0,0,0,9,0,1,271,47,0,5,8,0,0,0,4,0,2,6
org.apache.pdfbox.pdmodel.interactive.annotation.PDAnnotationMarkup_java,0.257381,0,0,0,0,0,0,6,0,2,188,127,0,6,9,1,0,2,2,2,4,6
org.apache.pdfbox.persistence.util.COSObjectKey_java,0.160726,0,0,0,0,0,0,4,0,0,467,72,0,2,19,0,0,0,1,0,3,5
org.apache.pdfbox.pdmodel.PDDocumentInformation_java,0.078918,0,0,0,0,0,0,2,0,1,271,125,0,4,9,0,0,0,18,2,3,7
org.apache.pdfbox.encoding.PdfDocEncoding_java,0.037125,0,0,0,0,0,0,0,0,1,271,243,0,3,2,0,0,0,1,5,2,6
org.apache.pdfbox.encoding.StandardEncoding_java,0.037125,0,0,0,0,0,0,0,0,1,271,163,0,3,3,0,0,0,1,5,2,6
org.apache.pdfbox.pdmodel.documentinterchange.logicalstructure.PDUserAttributeObject_java,1.602029,0,0,0,0,0,0,0,0,0,467,67,0,6,2,1,0,1,2,1,1,1
org.apache.pdfbox.pdmodel.documentinterchange.taggedpdf.PDLayoutAttributeObject_java,20.103908,6,5.068755,4,3.817115,1,1.223217,0,0,0,467,714,0,9,2,1,0,1,2,2,2,2
org.apache.pdfbox.pdmodel.common.PDDictionaryWrapper_java,1.07846,0,0,0,0,0,0,0,0,0,467,41,0,3,8,0,0,0,4,0,2,2
org.apache.pdfbox.pdmodel.common.PDTypedDictionaryWrapper_java,0.773669,0,0,0,0,0,0,0,0,0,467,19,0,3,0,0,0,0,4,0,1,1
org.apache.pdfbox.pdmodel.documentinterchange.taggedpdf.PDListAttributeObject_java,1.641143,0,0,0,0,0,0,0,0,0,467,42,0,3,2,1,0,0,2,2,1,1
org.apache.pdfbox.pdmodel.documentinterchange.taggedpdf.PDExportFormatAttributeObject_java,3.118165,0,0,0,0,0,0,0,0,0,467,100,0,7,1,1,0,1,2,1,2,2
org.apache.pdfbox.pdmodel.documentinterchange.taggedpdf.PDFourColours_java,2.180367,0,0,0,0,0,0,0,0,0,467,88,0,5,2,0,0,0,2,0,1,1
org.apache.pdfbox.pdmodel.documentinterchange.logicalstructure.PDDefaultAttributeObject_java,1.55909,0,0,0,0,0,0,0,0,0,467,67,0,5,1,1,0,1,2,1,1,1
org.apache.pdfbox.pdmodel.documentinterchange.taggedpdf.PDArtifactMarkedContent_java,1.723187,0,0,0,0,0,0,0,0,0,467,64,0,5,1,1,0,1,2,2,1,1
org.apache.pdfbox.pdmodel.documentinterchange.taggedpdf.PDPrintFieldAttributeObject_java,2.08658,0,0,0,0,0,0,0,0,0,467,66,0,3,1,1,0,0,2,1,1,1
org.apache.pdfbox.pdmodel.documentinterchange.taggedpdf.PDTableAttributeObject_java,2.602365,0,0,0,0,0,0,0,0,0,467,89,0,4,2,1,0,0,2,2,1,1
org.apache.pdfbox.util.PageExtractor_java,2.050083,0,0,0,0,0,0,0,0,0,467,50,0,3,0,0,0,0,11,1,3,4
org.apache.pdfbox.encoding.conversion.CMapSubstitution_java,0,0,0,0,0,0,0,0,0,2,188,41,0,0,0,0,1,0,0,0,3,7
org.apache.pdfbox.encoding.Type1Encoding_java,0,0,0,0,0,0,0,2,0,1,271,16,0,2,1,0,0,0,1,4,1,1
org.apache.pdfbox.util.operator.SetStrokingCMYKColor_java,0.069627,0,0,0,0,0,0,1,0,1,271,22,0,8,2,0,0,0,0,2,2,7
org.apache.pdfbox.util.operator.SetNonStrokingGrayColor_java,0.041774,0,0,0,0,0,0,2,0,1,271,28,0,9,1,0,0,0,0,2,2,7
org.apache.pdfbox.util.operator.SetStrokingRGBColor_java,0.064993,0,0,0,0,0,0,1,0,1,271,22,0,8,2,0,0,0,0,2,2,7
org.apache.pdfbox.util.operator.SetStrokingGrayColor_java,0.064993,0,0,0,0,0,0,1,0,1,271,26,0,8,1,0,0,0,0,2,2,7
org.apache.pdfbox.util.operator.SetNonStrokingICCBasedColor_java,0.041774,0,0,0,0,0,0,2,0,1,271,23,0,8,1,0,0,0,0,2,2,7
org.apache.pdfbox.util.operator.SetStrokingICCBasedColor_java,0.060347,0,0,0,0,0,0,1,0,1,271,23,0,8,1,0,0,0,0,2,2,7
org.apache.pdfbox.util.operator.SetStrokingCalRGBColor_java,0.069627,0,0,0,0,0,0,1,0,1,271,20,0,7,1,0,0,0,0,2,2,7
org.apache.pdfbox.util.operator.SetNonStrokingRGBColor_java,0.041774,0,0,0,0,0,0,2,0,1,271,24,0,9,2,0,0,0,0,2,2,7
org.apache.pdfbox.util.operator.SetNonStrokingCMYKColor_java,0.041774,0,0,0,0,0,0,2,0,1,271,24,0,9,2,0,0,0,0,2,2,7
org.apache.pdfbox.util.operator.SetNonStrokingCalRGBColor_java,0.041774,0,0,0,0,0,0,2,0,1,271,20,0,7,1,0,0,0,0,2,2,7
org.apache.pdfbox.pdmodel.interactive.annotation.PDAnnotationLink_java,0.007315,0,0,0,0,0,0,3,0,2,188,106,0,10,5,1,0,1,2,3,3,5
org.apache.pdfbox.pdmodel.interactive.annotation.PDAnnotationWidget_java,0.014619,0,0,0,0,0,0,4,0,3,136,93,0,9,7,1,0,1,2,3,3,6
org.apache.pdfbox.pdmodel.documentinterchange.logicalstructure.Revisions_java,0.004876,0,0,0,0,0,0,1,0,0,467,66,0,0,1,0,0,0,2,2,3,5
org.apache.pdfbox.pdmodel.graphics.color.PDDeviceNAttributes_java,0.018544,0,0,0,0,0,0,0,0,0,467,50,0,5,2,0,0,0,1,3,3,6
org.apache.pdfbox.pdmodel.documentinterchange.logicalstructure.PDStructureNode_java,0.068258,0,0,0,0,0,0,5,0,0,467,268,0,14,2,2,0,2,2,2,3,4
org.apache.pdfbox.pdmodel.documentinterchange.logicalstructure.PDMarkedContentReference_java,0.026813,0,0,0,0,0,0,1,0,0,467,56,0,5,2,0,0,0,2,3,3,4
org.apache.pdfbox.util.operator.BeginMarkedContentSequenceWithProperties_java,0,0,0,0,0,0,0,2,0,0,467,32,0,6,0,0,0,0,0,0,2,3
org.apache.pdfbox.util.operator.EndMarkedContentSequence_java,0,0,0,0,0,0,0,2,0,0,467,17,0,4,0,0,0,0,0,0,2,3
org.apache.pdfbox.util.operator.BeginMarkedContentSequence_java,0,0,0,0,0,0,0,2,0,0,467,27,0,5,0,0,0,0,0,0,2,3
org.apache.pdfbox.pdmodel.common.PDPageLabelRange_java,0.900611,0,0,0,0,0,0,0,0,0,467,75,0,4,1,0,0,0,4,0,2,8
org.apache.pdfbox.pdmodel.interactive.action.type.PDAction_java,0.01391,0,0,0,0,0,0,1,0,0,467,73,0,7,17,0,0,0,1,2,1,4
org.apache.pdfbox.pdmodel.interactive.measurement.PDNumberFormatDictionary_java,0,0,0,0,0,0,0,2,0,1,271,137,0,4,1,0,0,0,0,0,2,3
org.apache.pdfbox.pdmodel.interactive.annotation.PDAnnotationSquareCircle_java,0,0,0,0,0,0,0,7,0,4,102,94,0,9,3,1,0,1,2,3,3,6
org.apache.pdfbox.pdmodel.interactive.measurement.PDMeasureDictionary_java,0,0,0,0,0,0,0,3,0,1,271,40,0,5,2,1,0,1,0,0,2,3
org.apache.pdfbox.pdmodel.interactive.annotation.PDAppearanceCharacteristicsDictionary_java,0,0,0,0,0,0,0,4,0,4,102,110,0,8,1,0,0,0,2,3,3,7
org.apache.pdfbox.pdmodel.interactive.annotation.PDAnnotationText_java,0,0,0,0,0,0,0,5,0,1,271,56,0,4,2,1,0,1,2,2,2,4
org.apache.pdfbox.pdmodel.interactive.annotation.PDExternalDataDictionary_java,0,0,0,0,0,0,0,2,0,1,271,38,0,4,1,0,0,0,2,2,2,3
org.apache.pdfbox.pdmodel.interactive.annotation.PDAnnotationLine_java,0,0,0,0,0,0,0,8,0,4,102,222,0,8,3,1,0,1,2,3,3,7
org.apache.pdfbox.pdmodel.interactive.annotation.PDAnnotationFileAttachment_java,0,0,0,0,0,0,0,4,0,1,271,38,0,5,1,1,0,1,2,2,2,4
org.apache.pdfbox.pdmodel.interactive.measurement.PDViewportDictionary_java,0,0,0,0,0,0,0,3,0,1,271,66,0,7,0,0,0,0,0,0,2,3
org.apache.pdfbox.pdmodel.interactive.action.type.PDURIDictionary_java,0,0,0,0,0,0,0,2,0,1,271,32,0,3,1,0,0,0,1,0,2,3
org.apache.pdfbox.pdmodel.interactive.action.type.PDActionURI_java,0,0,0,0,0,0,0,3,0,1,271,56,0,3,5,0,0,0,1,2,2,4
org.apache.pdfbox.util.operator.SetTextLeading_java,0,0,0,0,0,0,0,5,0,0,467,13,0,7,1,0,0,0,0,0,2,4
org.apache.pdfbox.util.operator.SetWordSpacing_java,0,0,0,0,0,0,0,5,0,0,467,13,0,7,1,0,0,0,0,0,2,4
org.apache.pdfbox.util.operator.SetMoveAndShow_java,0,0,0,0,0,0,0,1,0,0,467,14,0,3,0,0,0,0,0,0,2,4
org.apache.pdfbox.util.operator.SetTextRenderingMode_java,0,0,0,0,0,0,0,5,0,0,467,14,0,7,1,0,0,0,0,0,2,4
org.apache.pdfbox.util.operator.SetTextRise_java,0,0,0,0,0,0,0,5,0,0,467,14,0,7,1,0,0,0,0,0,2,4
org.apache.pdfbox.util.operator.SetLineJoinStyle_java,0,0,0,0,0,0,0,5,0,0,467,14,0,6,2,0,0,0,0,0,2,5
org.apache.pdfbox.util.operator.SetLineCapStyle_java,0,0,0,0,0,0,0,5,0,0,467,14,0,6,2,0,0,0,0,0,2,5
org.apache.pdfbox.util.operator.SetCharSpacing_java,0,0,0,0,0,0,0,5,0,0,467,20,0,7,1,0,0,0,0,0,2,4
org.apache.pdfbox.util.operator.MoveTextSetLeading_java,0,0,0,0,0,0,0,4,0,0,467,19,0,6,1,0,0,0,0,0,2,4
org.apache.pdfbox.util.operator.MoveAndShow_java,0,0,0,0,0,0,0,2,0,0,467,13,0,4,0,0,0,0,0,1,2,4
org.apache.pdfbox.util.operator.NextLine_java,0,0,0,0,0,0,0,5,0,0,467,17,0,7,1,0,0,0,0,0,2,4
org.apache.pdfbox.util.operator.EndText_java,0,0,0,0,0,0,0,2,0,0,467,12,0,4,1,0,0,0,0,0,2,4
org.apache.pdfbox.util.operator.Concatenate_java,0,0,0,0,0,0,0,5,0,0,467,28,0,7,1,0,0,0,0,0,2,5
org.apache.pdfbox.util.operator.CloseAndStrokePath_java,0,0,0,0,0,0,0,2,0,0,467,13,0,4,0,0,0,0,0,1,2,4
