"Developer","Date","Subject"
"tdemande <git@git.apache.org>","Sat,  1 Jul 2017 13:24:30 +0000 (UTC)","[GitHub] camel pull request #1801: CAMEL-11489: Remove mandatory nature of amazonS3Cl..."
"asfgit <git@git.apache.org>","Sat,  1 Jul 2017 17:59:54 +0000 (UTC)","[GitHub] camel pull request #1801: CAMEL-11489: Remove mandatory nature of amazonS3Cl..."
"Apache Jenkins Server <jenkins@builds.apache.org>","Sat, 1 Jul 2017 22:42:55 +0000 (UTC)","Camel.2.19.x.notest - Build # 74 - Still Failing"
"Apache Jenkins Server <jenkins@builds.apache.org>","Sun, 2 Jul 2017 05:24:06 +0000 (UTC)","Camel.trunk.notest - Build # 3357 - Fixed"
"Apache Jenkins Server <jenkins@builds.apache.org>","Sun, 2 Jul 2017 08:31:44 +0000 (UTC)","Camel.2.19.x.notest - Build # 75 - Still Failing"
"tdemande <git@git.apache.org>","Sun,  2 Jul 2017 09:09:14 +0000 (UTC)","[GitHub] camel pull request #1802: CAMEL-11491: Remove mandatory nature of Amazon Cli..."
"asfgit <git@git.apache.org>","Sun,  2 Jul 2017 09:24:24 +0000 (UTC)","[GitHub] camel pull request #1802: CAMEL-11491: Remove mandatory nature of Amazon Cli..."
"Apache Jenkins Server <jenkins@builds.apache.org>","Sun, 2 Jul 2017 09:30:59 +0000 (UTC)","Camel.2.19.x.notest - Build # 76 - Still Failing"
"dorababu1404 <git@git.apache.org>","Mon,  3 Jul 2017 06:26:11 +0000 (UTC)","[GitHub] camel pull request #1803: fb"
"dorababu1404 <git@git.apache.org>","Mon,  3 Jul 2017 06:54:15 +0000 (UTC)","[GitHub] camel pull request #1803: fb"
"Zoran Regvart <zoran@regvart.com>","Mon, 3 Jul 2017 09:42:57 +0200","It's 2017, time for a new website!"
"Andrea Cosentino <ancosen1985@yahoo.com.INVALID>","Mon, 3 Jul 2017 07:52:30 +0000 (UTC)","Re: It's 2017, time for a new website!"
"Claus Ibsen <claus.ibsen@gmail.com>","Mon, 3 Jul 2017 10:02:28 +0200","Re: It's 2017, time for a new website!"
"Zoran Regvart <zoran@regvart.com>","Mon, 3 Jul 2017 10:32:15 +0200","Re: It's 2017, time for a new website!"
"Apache Jenkins Server <jenkins@builds.apache.org>","Mon, 3 Jul 2017 16:35:15 +0000 (UTC)","Camel.2.19.x.notest - Build # 77 - Still Failing"
"valdar <git@git.apache.org>","Tue,  4 Jul 2017 07:28:37 +0000 (UTC)","[GitHub] camel pull request #1799: [CAMEL-11487] provided support for resources load ..."
"Apache Jenkins Server <jenkins@builds.apache.org>","Tue, 4 Jul 2017 07:42:59 +0000 (UTC)","Camel.trunk.notest - Build # 3363 - Failure"
"Apache Jenkins Server <jenkins@builds.apache.org>","Tue, 4 Jul 2017 13:18:56 +0000 (UTC)","Camel.2.19.x.notest - Build # 78 - Still Failing"
"Apache Jenkins Server <jenkins@builds.apache.org>","Tue, 4 Jul 2017 14:02:58 +0000 (UTC)","Camel.trunk.notest - Build # 3364 - Fixed"
"Apache Jenkins Server <jenkins@builds.apache.org>","Tue, 4 Jul 2017 15:42:04 +0000 (UTC)","Camel.2.19.x.notest - Build # 79 - Still Failing"
"aldettinger <git@git.apache.org>","Tue,  4 Jul 2017 21:53:36 +0000 (UTC)","[GitHub] camel pull request #1804: CAMEL-11511: Proposal to enhance the `BeanInfo` in..."
"Claus Ibsen <claus.ibsen@gmail.com>","Wed, 5 Jul 2017 09:37:01 +0200","Re: [HELP] - Profile camel-core for optimization and faster startup"
"Apache Jenkins Server <jenkins@builds.apache.org>","Wed, 5 Jul 2017 09:35:31 +0000 (UTC)","Camel.2.19.x.notest - Build # 80 - Still Failing"
"aldettinger <git@git.apache.org>","Wed,  5 Jul 2017 10:59:42 +0000 (UTC)","[GitHub] camel pull request #1804: CAMEL-11511: Proposal to enhance the `BeanInfo` in..."
"Zoran Regvart <zoran@regvart.com>","Wed, 5 Jul 2017 13:31:22 +0200","JDK 7 on builds.apache.org"
"onders86 <git@git.apache.org>","Wed,  5 Jul 2017 13:09:25 +0000 (UTC)","[GitHub] camel pull request #1805: CAMEL-11509 - check for semicolon added to call Co..."
"Apache Jenkins Server <jenkins@builds.apache.org>","Wed, 5 Jul 2017 13:58:06 +0000 (UTC)","Camel.2.18.x.notest - Build # 155 - Failure"
"Claus Ibsen <claus.ibsen@gmail.com>","Wed, 5 Jul 2017 19:57:33 +0200","Re: JDK 7 on builds.apache.org"
"onders86 <git@git.apache.org>","Thu,  6 Jul 2017 04:45:18 +0000 (UTC)","[GitHub] camel pull request #1806: CAMEL-11516 - fix test with system.property(""line...."
