"Developer","Date","Subject"
"Claus Ibsen <claus.ibsen@gmail.com>","Wed, 2 Jan 2013 07:41:45 +0100","Re: svn commit: r1426385 - /camel/trunk/components/camel-test-spring/pom.xml"
"falckburker <falck_christopher@bah.com>","Wed, 2 Jan 2013 12:05:08 -0800 (PST)","Using preserveMessageQos causes AQjmsException in Oracle AQ"
"Claus Ibsen <claus.ibsen@gmail.com>","Thu, 3 Jan 2013 09:09:51 +0100","Re: Using preserveMessageQos causes AQjmsException in Oracle AQ"
"=?ISO-8859-1?Q?Christian_M=FCller?= <christian.mueller@gmail.com>","Fri, 4 Jan 2013 12:41:58 +0100","Re: How to send a message to multiple endpoints in one transaction?"
"falckburker <falck_christopher@bah.com>","Fri, 4 Jan 2013 07:30:33 -0800 (PST)","Re: Using preserveMessageQos causes AQjmsException in Oracle AQ"
"Marat Bedretdinov <marat.bedretdinov@gmail.com>","Fri, 4 Jan 2013 10:36:08 -0500","Re: Using preserveMessageQos causes AQjmsException in Oracle AQ"
"Claus Ibsen <claus.ibsen@gmail.com>","Sun, 6 Jan 2013 10:22:11 +0100","[HEADS UP] - Build system on trunk cleaned up a bit"
"Babak Vahdat <babak.vahdat@swissonline.ch>","Sun, 06 Jan 2013 16:03:01 +0100","Re: [HEADS UP] - Build system on trunk cleaned up a bit"
"=?ISO-8859-1?Q?Christian_M=FCller?= <christian.mueller@gmail.com>","Sun, 6 Jan 2013 18:33:02 +0100","Disturbing WARNING from CXF"
"=?ISO-8859-1?Q?Christian_M=FCller?= <christian.mueller@gmail.com>","Sun, 6 Jan 2013 19:37:35 +0100","Re: Disturbing WARNING from CXF"
"=?ISO-8859-1?Q?Christian_M=FCller?= <christian.mueller@gmail.com>","Mon, 7 Jan 2013 00:33:36 +0100","Re: Disturbing WARNING from CXF"
"Apache Jenkins Server <jenkins@builds.apache.org>","Mon, 7 Jan 2013 02:30:50 +0000 (UTC)","Camel.trunk.notest - Build # 1752 - Failure"
"""dhruv.sachdeva"" <dhruv.sachdeva@jktech.com>","Sun, 6 Jan 2013 21:41:48 -0800 (PST)","Testing of routes using Camel 1.6"
"Willem jiang <willem.jiang@gmail.com>","Mon, 7 Jan 2013 16:43:53 +0800","Re: Testing of routes using Camel 1.6"
"""dhruv.sachdeva"" <dhruv.sachdeva@jktech.com>","Mon, 7 Jan 2013 01:20:20 -0800 (PST)","Re: Testing of routes using Camel 1.6"
"Claus Ibsen <claus.ibsen@gmail.com>","Mon, 7 Jan 2013 12:23:13 +0100","Re: [HEADS UP] - Build system on trunk cleaned up a bit"
"Claus Ibsen <claus.ibsen@gmail.com>","Mon, 7 Jan 2013 14:31:08 +0100","[DISCUSS] - Moving towards Camel 2.11 release"
"Apache Jenkins Server <jenkins@builds.apache.org>","Tue, 8 Jan 2013 03:02:06 +0000 (UTC)","Camel.trunk.notest - Build # 1753 - Still Failing"
"=?ISO-8859-1?Q?Christian_M=FCller?= <christian.mueller@gmail.com>","Tue, 8 Jan 2013 08:26:39 +0100","Re: svn commit: r1429481 - /camel/trunk/parent/pom.xml"
"Claus Ibsen <claus.ibsen@gmail.com>","Tue, 8 Jan 2013 08:36:47 +0100","Re: svn commit: r1429481 - /camel/trunk/parent/pom.xml"
"Apache Jenkins Server <jenkins@builds.apache.org>","Tue, 8 Jan 2013 09:45:37 +0000 (UTC)","Camel.trunk.notest - Build # 1754 - Still Failing"
"Apache Jenkins Server <jenkins@builds.apache.org>","Tue, 8 Jan 2013 13:54:41 +0000 (UTC)","Camel.trunk.notest - Build # 1755 - Fixed"
"Claus Ibsen <claus.ibsen@gmail.com>","Tue, 8 Jan 2013 15:00:51 +0100","Re: svn commit: r1429481 - /camel/trunk/parent/pom.xml"
"Scott England-Sullivan <sully6768@gmail.com>","Tue, 8 Jan 2013 08:52:01 -0600","Re: [DISCUSS] - Moving towards Camel 2.11 release"
"Charles Moulliard <ch007m@gmail.com>","Tue, 8 Jan 2013 16:25:50 +0100","Re: [DISCUSS] - Moving towards Camel 2.11 release"
"Scott England-Sullivan <sully6768@gmail.com>","Tue, 8 Jan 2013 10:07:53 -0600","Re: [DISCUSS] - Moving towards Camel 2.11 release"
"Guillaume Nodet <gnodet@gmail.com>","Tue, 8 Jan 2013 17:36:17 +0100","Re: [DISCUSS] - Moving towards Camel 2.11 release"
"valdar <git@git.apache.org>","Tue,  8 Jan 2013 22:18:47 +0000 (UTC)","camel pull request: Corrected handling of charset in Hl7Dataformat,"
"=?ISO-8859-1?Q?Christian_M=FCller?= <christian.mueller@gmail.com>","Wed, 9 Jan 2013 00:08:16 +0100","Re: svn commit: r1429481 - /camel/trunk/parent/pom.xml"
"Willem jiang <willem.jiang@gmail.com>","Wed, 9 Jan 2013 09:45:26 +0800","Re: camel pull request: Corrected handling of charset in Hl7Dataformat,"
"Andrea Tarocchi <andrea.tarocchi@gmail.com>","Wed, 9 Jan 2013 08:09:14 +0100","Re: camel pull request: Corrected handling of charset in Hl7Dataformat,"
"Willem jiang <willem.jiang@gmail.com>","Wed, 9 Jan 2013 16:12:01 +0800","Re: camel pull request: Corrected handling of charset in Hl7Dataformat,"
"Andrea Tarocchi <andrea.tarocchi@gmail.com>","Wed, 9 Jan 2013 09:33:50 +0100","Re: camel pull request: Corrected handling of charset in Hl7Dataformat,"
"Freeman Fang <freeman.fang@gmail.com>","Thu, 10 Jan 2013 13:35:48 +0800","Re: svn commit: r1356481 - /camel/trunk/parent/pom.xml"
"Willem jiang <willem.jiang@gmail.com>","Thu, 10 Jan 2013 14:27:50 +0800","Re: svn commit: r1356481 - /camel/trunk/parent/pom.xml"
"=?ISO-8859-1?Q?Christian_M=FCller?= <christian.mueller@gmail.com>","Thu, 10 Jan 2013 08:17:59 +0100","Re: svn commit: r1356481 - /camel/trunk/parent/pom.xml"
"Claus Ibsen <claus.ibsen@gmail.com>","Thu, 10 Jan 2013 08:55:42 +0100","Re: [DISCUSS] - Moving towards Camel 2.11 release"
"Claus Ibsen <claus.ibsen@gmail.com>","Thu, 10 Jan 2013 13:15:22 +0100","Re: svn commit: r1431152 - in /camel/trunk/components/camel-jms/src: main/java/org/apache/camel/component/jms/reply/TemporaryQueueReplyManager.java test/java/org/apache/camel/component/jms/JmsRequestReplyTempQueueMultipleConsumersTest.java"
"Raul Kripalani <raul@evosent.com>","Thu, 10 Jan 2013 12:19:06 +0000","Re: svn commit: r1431152 - in /camel/trunk/components/camel-jms/src: main/java/org/apache/camel/component/jms/reply/TemporaryQueueReplyManager.java test/java/org/apache/camel/component/jms/JmsRequestReplyTempQueueMultipleConsumersTest.java"
"Claus Ibsen <claus.ibsen@gmail.com>","Thu, 10 Jan 2013 17:44:29 +0100","Re: [DISCUSS] - Moving towards Camel 2.11 release"
"Scott England-Sullivan <sully6768@gmail.com>","Thu, 10 Jan 2013 11:48:37 -0600","Re: [DISCUSS] - Moving towards Camel 2.11 release"
"Daniel Kulp <dkulp@apache.org>","Thu, 10 Jan 2013 15:54:43 -0500","Re: svn commit: r1431626 - in /camel/trunk/camel-core/src: main/java/org/apache/camel/util/ObjectHelper.java test/java/org/apache/camel/util/ObjectHelperTest.java"
"Babak Vahdat <babak.vahdat@swissonline.ch>","Thu, 10 Jan 2013 22:07:47 +0100","Re: svn commit: r1431626 - in /camel/trunk/camel-core/src: main/java/org/apache/camel/util/ObjectHelper.java test/java/org/apache/camel/util/ObjectHelperTest.java"
"valdar <git@git.apache.org>","Fri, 11 Jan 2013 08:26:50 +0000 (UTC)","camel pull request: Corrected handling of charset in Hl7Dataformat,"
"moeman <morgan.martin@gmail.com>","Fri, 11 Jan 2013 10:28:38 -0800 (PST)","SFTP behaves differently between Spring and Java DSL"
"=?ISO-8859-1?Q?Christian_M=FCller?= <christian.mueller@gmail.com>","Sat, 12 Jan 2013 00:07:10 +0100","Re: [DISCUSS] - Moving towards Camel 2.11 release"
"=?ISO-8859-1?Q?Christian_M=FCller?= <christian.mueller@gmail.com>","Sat, 12 Jan 2013 01:09:10 +0100","[DISCUSS] concerned about Camel 3.0.0"
"Charles Moulliard <ch007m@gmail.com>","Sat, 12 Jan 2013 11:03:08 +0100","Any idea to design a JUnit test for Security/Realm"
"Charles Moulliard <ch007m@gmail.com>","Sat, 12 Jan 2013 11:30:19 +0100","Re: Any idea to design a JUnit test for Security/Realm"
"Achim Nierbeck <bcanhome@googlemail.com>","Sun, 13 Jan 2013 00:23:46 +0100","Re: Any idea to design a JUnit test for Security/Realm"
"yogu13 <yogesh.rao@synechron.com>","Sat, 12 Jan 2013 23:55:54 -0800 (PST)","Camel-Quickfix dynamic SenderSubId/TargetSubId issue"
"=?ISO-8859-1?Q?Christian_M=FCller?= <christian.mueller@gmail.com>","Sun, 13 Jan 2013 17:30:59 +0100","org.apache.camel.InvalidPayloadException"
"Babak Vahdat <babak.vahdat@swissonline.ch>","Sun, 13 Jan 2013 13:13:27 -0800 (PST)","Re: org.apache.camel.InvalidPayloadException"
"Raul Kripalani <raul@evosent.com>","Mon, 14 Jan 2013 02:19:52 +0000","Re: org.apache.camel.InvalidPayloadException"
"<Ramkumar.Iyer@cognizant.com>","Tue, 15 Jan 2013 04:20:08 +0000","Help on unsubscribing"
"apatel <apatel@asg.bellsouth.net>","Tue, 15 Jan 2013 15:36:56 -0800 (PST)","Camel-Restlet 2.10.3 dependency org.restlet.jse:org.restlet:jar:2.0.14 is not supported by Restlet Framework."
"Apache Jenkins Server <jenkins@builds.apache.org>","Wed, 16 Jan 2013 04:18:25 +0000 (UTC)","Camel.trunk.notest - Build # 1763 - Failure"
"Claus Ibsen <claus.ibsen@gmail.com>","Wed, 16 Jan 2013 09:35:04 +0100","Re: Camel-Restlet 2.10.3 dependency org.restlet.jse:org.restlet:jar:2.0.14 is not supported by Restlet Framework."
"yogu13 <yogesh.rao@synechron.com>","Wed, 16 Jan 2013 01:28:48 -0800 (PST)","Re: Camel-Quickfix dynamic SenderSubId/TargetSubId issue"
"Claus Ibsen <claus.ibsen@gmail.com>","Wed, 16 Jan 2013 10:39:32 +0100","Re: Camel-Quickfix dynamic SenderSubId/TargetSubId issue"
"Maruan Sahyoun <sahyoun@fileaffairs.de>","Wed, 16 Jan 2013 17:16:57 +0100","CAMEL-3552  camel-pdf component "
"Claus Ibsen <claus.ibsen@gmail.com>","Wed, 16 Jan 2013 17:54:22 +0100","Re: CAMEL-3552 camel-pdf component"
"Maruan Sahyoun <sahyoun@fileaffairs.de>","Wed, 16 Jan 2013 18:36:06 +0100","Re: CAMEL-3552 camel-pdf component"
"=?windows-1252?Q?Jean-Baptiste_Onofr=E9?= <jb@nanthrax.net>","Wed, 16 Jan 2013 18:37:54 +0100","Re: CAMEL-3552 camel-pdf component"
"Maruan Sahyoun <sahyoun@fileaffairs.de>","Wed, 16 Jan 2013 18:40:46 +0100","Re: CAMEL-3552 camel-pdf component"
"=?ISO-8859-1?Q?Christian_M=FCller?= <christian.mueller@gmail.com>","Wed, 16 Jan 2013 22:12:47 +0100","[CAMEL-3.0] Start moving forward"
"Apache Jenkins Server <jenkins@builds.apache.org>","Thu, 17 Jan 2013 06:21:15 +0000 (UTC)","Camel.trunk.notest - Build # 1764 - Fixed"
"Hadrian Zbarcea <hzbarcea@gmail.com>","Thu, 17 Jan 2013 10:18:46 -0500","Fwd: Re: [CAMEL-3.0] Start moving forward"
"Hadrian Zbarcea <hzbarcea@gmail.com>","Thu, 17 Jan 2013 12:28:32 -0500","Re: [DISCUSS] - Moving towards Camel 2.11 release"
"Apache Jenkins Server <jenkins@builds.apache.org>","Fri, 18 Jan 2013 02:25:43 +0000 (UTC)","Camel.trunk.notest - Build # 1765 - Failure"
"Claus Ibsen <claus.ibsen@gmail.com>","Fri, 18 Jan 2013 08:03:40 +0100","Re: svn commit: r1435006 - in /camel/trunk/components/camel-core-osgi/src: main/java/org/apache/camel/core/osgi/ test/java/org/apache/camel/core/osgi/"
"Willem jiang <willem.jiang@gmail.com>","Fri, 18 Jan 2013 16:23:50 +0800","Re: svn commit: r1435006 - in /camel/trunk/components/camel-core-osgi/src: main/java/org/apache/camel/core/osgi/ test/java/org/apache/camel/core/osgi/"
"Henryk Konsek <hekonsek@gmail.com>","Fri, 18 Jan 2013 11:34:17 +0100","[camel-extra] Fixed unstable build"
"sothach <phillips.roy@gmail.com>","Fri, 18 Jan 2013 02:55:46 -0800 (PST)","Re: [jira] [Issue Comment Edited] (CAMEL-4164) A camel component for ISO8583 protocol"
"Claus Ibsen <claus.ibsen@gmail.com>","Fri, 18 Jan 2013 12:31:46 +0100","Installing Camel examples in Karaf"
"Achim Nierbeck <bcanhome@googlemail.com>","Fri, 18 Jan 2013 12:46:24 +0100","Re: Installing Camel examples in Karaf"
"Guillaume Nodet <gnodet@gmail.com>","Fri, 18 Jan 2013 14:30:26 +0100","Re: Installing Camel examples in Karaf"
"Achim Nierbeck <bcanhome@googlemail.com>","Fri, 18 Jan 2013 14:53:27 +0100","Re: Installing Camel examples in Karaf"
"Guillaume Nodet <gnodet@gmail.com>","Fri, 18 Jan 2013 15:17:55 +0100","Re: Installing Camel examples in Karaf"
"Claus Ibsen <claus.ibsen@gmail.com>","Fri, 18 Jan 2013 15:41:29 +0100","Re: Installing Camel examples in Karaf"
"Claus Ibsen <claus.ibsen@gmail.com>","Fri, 18 Jan 2013 15:46:30 +0100","Re: Installing Camel examples in Karaf"
"=?ISO-8859-1?Q?Christian_M=FCller?= <christian.mueller@gmail.com>","Fri, 18 Jan 2013 18:33:10 +0100","Re: [camel-extra] Fixed unstable build"
"Claus Ibsen <claus.ibsen@gmail.com>","Fri, 18 Jan 2013 18:35:34 +0100","Re: [camel-extra] Fixed unstable build"
"Apache Jenkins Server <jenkins@builds.apache.org>","Sat, 19 Jan 2013 02:37:57 +0000 (UTC)","Camel.trunk.notest - Build # 1766 - Fixed"
"Claus Ibsen <claus.ibsen@gmail.com>","Sat, 19 Jan 2013 09:38:01 +0100","Re: Installing Camel examples in Karaf"
"Claus Ibsen <claus.ibsen@gmail.com>","Sat, 19 Jan 2013 09:47:32 +0100","Re: [CAMEL-3.0] Start moving forward"
"Christian Schneider <chris@die-schneider.net>","Sat, 19 Jan 2013 18:18:35 +0100","Re: Installing Camel examples in Karaf"
"=?ISO-8859-1?Q?Christian_M=FCller?= <christian.mueller@gmail.com>","Sun, 20 Jan 2013 18:53:16 +0100","Re: Installing Camel examples in Karaf"
"Achim Nierbeck <bcanhome@googlemail.com>","Sun, 20 Jan 2013 18:55:35 +0100","Re: Installing Camel examples in Karaf"
"=?ISO-8859-1?Q?Christian_M=FCller?= <christian.mueller@gmail.com>","Sun, 20 Jan 2013 19:28:27 +0100","Re: [DISCUSS] - Moving towards Camel 2.11 release"
"Raul Kripalani <raul@evosent.com>","Sun, 20 Jan 2013 18:52:57 +0000","Re: [DISCUSS] - Moving towards Camel 2.11 release"
"Henryk Konsek <hekonsek@gmail.com>","Sun, 20 Jan 2013 19:59:12 +0100","Re: [camel-extra] Fixed unstable build"
"Henryk Konsek <hekonsek@gmail.com>","Sun, 20 Jan 2013 20:05:51 +0100","Re: [camel-extra] Fixed unstable build"
"Henryk Konsek <hekonsek@gmail.com>","Sun, 20 Jan 2013 20:19:46 +0100","Re: [CAMEL-3.0] Start moving forward"
"Henryk Konsek <hekonsek@gmail.com>","Sun, 20 Jan 2013 20:20:56 +0100","Re: [CAMEL-3.0] Start moving forward"
"Babak Vahdat <babak.vahdat@swissonline.ch>","Sun, 20 Jan 2013 11:56:22 -0800 (PST)","Re: [DISCUSS] - Moving towards Camel 2.11 release"
"=?ISO-8859-1?Q?Christian_M=FCller?= <christian.mueller@gmail.com>","Sun, 20 Jan 2013 21:07:44 +0100","Re: [camel-extra] Fixed unstable build"
"Scott Cranton <scott@cranton.com>","Sun, 20 Jan 2013 20:17:22 -0500","Please grant karma to edit Camel doc pages"
"Hadrian Zbarcea <hzbarcea@gmail.com>","Sun, 20 Jan 2013 21:20:55 -0500","Re: Please grant karma to edit Camel doc pages"
"Willem jiang <willem.jiang@gmail.com>","Mon, 21 Jan 2013 12:53:35 +0800","Re: [camel-extra] Fixed unstable build"
"Claus Ibsen <claus.ibsen@gmail.com>","Mon, 21 Jan 2013 08:16:42 +0100","Re: [DISCUSS] - Moving towards Camel 2.11 release"
"Claus Ibsen <claus.ibsen@gmail.com>","Mon, 21 Jan 2013 09:04:27 +0100","Re: Installing Camel examples in Karaf"
"Charles Moulliard <ch007m@gmail.com>","Mon, 21 Jan 2013 09:08:33 +0100","Re: Installing Camel examples in Karaf"
"Claus Ibsen <claus.ibsen@gmail.com>","Mon, 21 Jan 2013 09:28:14 +0100","Re: Installing Camel examples in Karaf"
"Charles Moulliard <ch007m@gmail.com>","Mon, 21 Jan 2013 10:42:02 +0100","Re: Installing Camel examples in Karaf"
"Scott Cranton <scott@cranton.com>","Mon, 21 Jan 2013 06:28:50 -0500","Re: Please grant karma to edit Camel doc pages"
"Guillaume Nodet <gnodet@gmail.com>","Mon, 21 Jan 2013 14:42:33 +0100","Re: Installing Camel examples in Karaf"
"Charles Moulliard <ch007m@gmail.com>","Mon, 21 Jan 2013 15:50:30 +0100","Re: Installing Camel examples in Karaf"
"Henryk Konsek <hekonsek@gmail.com>","Mon, 21 Jan 2013 22:21:44 +0100","[camel-extra] Narrowed ASF Camel OSGI import ranges"
"Willem jiang <willem.jiang@gmail.com>","Tue, 22 Jan 2013 09:17:23 +0800","Re: [CAMEL-3.0] Start moving forward"
"Hadrian Zbarcea <hzbarcea@gmail.com>","Mon, 21 Jan 2013 22:09:13 -0500","Re: [CAMEL-3.0] Start moving forward"
"Hadrian Zbarcea <hzbarcea@gmail.com>","Mon, 21 Jan 2013 22:14:42 -0500","Re: [CAMEL-3.0] Start moving forward"
"Willem jiang <willem.jiang@gmail.com>","Tue, 22 Jan 2013 15:57:03 +0800","Re: [CAMEL-3.0] Start moving forward"
"Claus Ibsen <claus.ibsen@gmail.com>","Tue, 22 Jan 2013 10:08:26 +0100","Re: Installing Camel examples in Karaf"
"Claus Ibsen <claus.ibsen@gmail.com>","Tue, 22 Jan 2013 10:32:54 +0100","Compilation error on trunk with windows and java 7"
"Claus Ibsen <claus.ibsen@gmail.com>","Tue, 22 Jan 2013 10:47:25 +0100","Re: Compilation error on trunk with windows and java 7"
"Claus Ibsen <claus.ibsen@gmail.com>","Tue, 22 Jan 2013 10:54:02 +0100","Re: Compilation error on trunk with windows and java 7"
"Achim Nierbeck <bcanhome@googlemail.com>","Tue, 22 Jan 2013 10:54:07 +0100","Re: Compilation error on trunk with windows and java 7"
"Charles Moulliard <ch007m@gmail.com>","Tue, 22 Jan 2013 11:31:14 +0100","Re: Installing Camel examples in Karaf"
"Achim Nierbeck <bcanhome@googlemail.com>","Tue, 22 Jan 2013 11:42:23 +0100","Re: Installing Camel examples in Karaf"
"Claus Ibsen <claus.ibsen@gmail.com>","Tue, 22 Jan 2013 11:52:39 +0100","Re: Compilation error on trunk with windows and java 7"
"Achim Nierbeck <bcanhome@googlemail.com>","Tue, 22 Jan 2013 11:56:14 +0100","Re: Compilation error on trunk with windows and java 7"
"Claus Ibsen <claus.ibsen@gmail.com>","Tue, 22 Jan 2013 11:59:33 +0100","Re: Compilation error on trunk with windows and java 7"
"Claus Ibsen <claus.ibsen@gmail.com>","Tue, 22 Jan 2013 13:06:08 +0100","Re: Compilation error on trunk with windows and java 7"
"Charles Moulliard <ch007m@gmail.com>","Tue, 22 Jan 2013 13:38:37 +0100","Re: Installing Camel examples in Karaf"
"Achim Nierbeck <bcanhome@googlemail.com>","Tue, 22 Jan 2013 13:40:50 +0100","Re: Installing Camel examples in Karaf"
"Charles Moulliard <ch007m@gmail.com>","Tue, 22 Jan 2013 14:03:15 +0100","Re: Installing Camel examples in Karaf"
"ddelangle <git@git.apache.org>","Tue, 22 Jan 2013 14:25:45 +0000 (UTC)","camel pull request: FIX #CAMEL-5993 : put endpoint in quartz job map "
"apatel <apatel@asg.bellsouth.net>","Tue, 22 Jan 2013 06:39:51 -0800 (PST)","Camel-Restlet 2.10.3:RestletComponent component does not remove added route form routers although route is removed from Context."
"Willem Jiang <willem.jiang@gmail.com>","Tue, 22 Jan 2013 23:30:14 +0800","Re: Camel-Restlet 2.10.3:RestletComponent component does not remove added route form routers although route is removed from Context."
"Claus Ibsen <claus.ibsen@gmail.com>","Tue, 22 Jan 2013 16:58:58 +0100","Re: [DISCUSS] Refactoring of Registry/Injector interface"
"=?ISO-8859-1?Q?Christian_M=FCller?= <christian.mueller@gmail.com>","Tue, 22 Jan 2013 22:25:27 +0100","Re: [CAMEL-3.0] Start moving forward"
"Babak Vahdat <babak.vahdat@swissonline.ch>","Wed, 23 Jan 2013 04:15:25 -0800 (PST)","Re: [DISCUSS] - Moving towards Camel 2.11 release"
"Babak Vahdat <babak.vahdat@swissonline.ch>","Wed, 23 Jan 2013 04:27:16 -0800 (PST)","Re: [CAMEL-3.0] Start moving forward"
"Henryk Konsek <hekonsek@gmail.com>","Wed, 23 Jan 2013 13:35:17 +0100","[camel-extra] 2.10.1 release"
"justinblandford <justinblandford@googlemail.com>","Wed, 23 Jan 2013 04:48:47 -0800 (PST)","Problem injecting a uri option with an @ symbol in the property"
"Claus Ibsen <claus.ibsen@gmail.com>","Wed, 23 Jan 2013 16:16:05 +0100","Re: [DISCUSS] - Moving towards Camel 2.11 release"
"Claus Ibsen <claus.ibsen@gmail.com>","Wed, 23 Jan 2013 16:27:16 +0100","Re: [DISCUSS] Refactoring of Registry/Injector interface"
"Babak Vahdat <babak.vahdat@swissonline.ch>","Wed, 23 Jan 2013 22:18:10 +0100","Re: [DISCUSS] - Moving towards Camel 2.11 release"
"=?ISO-8859-1?Q?Christian_M=FCller?= <christian.mueller@gmail.com>","Wed, 23 Jan 2013 22:29:36 +0100","Re: [DISCUSS] - Moving towards Camel 2.11 release"
"Raul Kripalani <raul@evosent.com>","Wed, 23 Jan 2013 22:33:21 +0100","Re: [DISCUSS] - Moving towards Camel 2.11 release"
"=?ISO-8859-1?Q?Christian_M=FCller?= <christian.mueller@gmail.com>","Wed, 23 Jan 2013 22:51:33 +0100","Re: [CAMEL-3.0] Start moving forward"
"=?ISO-8859-1?Q?Christian_M=FCller?= <christian.mueller@gmail.com>","Wed, 23 Jan 2013 23:03:38 +0100","Re: [CAMEL-3.0] Start moving forward"
"=?ISO-8859-1?Q?Christian_M=FCller?= <christian.mueller@gmail.com>","Wed, 23 Jan 2013 23:13:29 +0100","Re: [DISCUSS] - Moving towards Camel 2.11 release"
"=?ISO-8859-1?Q?Christian_M=FCller?= <christian.mueller@gmail.com>","Wed, 23 Jan 2013 23:34:32 +0100","Re: [camel-extra] 2.10.1 release"
"Willem Jiang <willem.jiang@gmail.com>","Thu, 24 Jan 2013 08:08:58 +0800","Re: [DISCUSS] - Moving towards Camel 2.11 release"
"Babak Vahdat <babak.vahdat@swissonline.ch>","Wed, 23 Jan 2013 22:48:14 -0800 (PST)","Re: [DISCUSS] - Moving towards Camel 2.11 release"
"Babak Vahdat <babak.vahdat@swissonline.ch>","Wed, 23 Jan 2013 23:00:08 -0800 (PST)","Re: [DISCUSS] - Moving towards Camel 2.11 release"
"Claus Ibsen <claus.ibsen@gmail.com>","Thu, 24 Jan 2013 08:33:35 +0100","Re: [CAMEL-3.0] Start moving forward"
"Claus Ibsen <claus.ibsen@gmail.com>","Thu, 24 Jan 2013 08:39:19 +0100","Re: [DISCUSS] - Moving towards Camel 2.11 release"
"Babak Vahdat <babak.vahdat@swissonline.ch>","Thu, 24 Jan 2013 09:10:51 +0100","Re: [DISCUSS] - Moving towards Camel 2.11 release"
"iandebeer <ian@zenaptix.com>","Thu, 24 Jan 2013 04:20:10 -0800 (PST)","Contributing Apollo Component"
"Willem jiang <willem.jiang@gmail.com>","Thu, 24 Jan 2013 23:19:43 +0800","Re: Contributing Apollo Component"
"Henryk Konsek <hekonsek@gmail.com>","Thu, 24 Jan 2013 23:22:43 +0100","Re: [CAMEL-3.0] Start moving forward"
"=?ISO-8859-1?Q?Christian_M=FCller?= <christian.mueller@gmail.com>","Thu, 24 Jan 2013 23:37:42 +0100","Re: Contributing Apollo Component"
"Hadrian Zbarcea <hzbarcea@gmail.com>","Thu, 24 Jan 2013 18:32:43 -0500","Re: [CAMEL-3.0] Start moving forward"
"Apache Jenkins Server <jenkins@builds.apache.org>","Fri, 25 Jan 2013 03:04:43 +0000 (UTC)","Camel.trunk.notest - Build # 1772 - Failure"
"iandebeer <ian@zenaptix.com>","Thu, 24 Jan 2013 22:08:26 -0800 (PST)","Re: Contributing Apollo Component"
"Willem jiang <willem.jiang@gmail.com>","Fri, 25 Jan 2013 15:09:31 +0800","Re: Contributing Apollo Component"
"Claus Ibsen <claus.ibsen@gmail.com>","Fri, 25 Jan 2013 08:13:33 +0100","Re: Contributing Apollo Component"
"Guillaume Nodet <gnodet@gmail.com>","Fri, 25 Jan 2013 08:27:58 +0100","Re: [CAMEL-3.0] Start moving forward"
"=?ISO-8859-1?Q?Kai_W=E4hner?= <megachucky@gmail.com>","Fri, 25 Jan 2013 08:34:03 +0100","Re: Contributing Apollo Component"
"Charles Moulliard <ch007m@gmail.com>","Fri, 25 Jan 2013 09:07:49 +0100","Re: [CAMEL-3.0] Start moving forward"
"James Strachan <james.strachan@gmail.com>","Fri, 25 Jan 2013 09:05:52 +0000","Re: [CAMEL-3.0] Start moving forward"
"Charles Moulliard <ch007m@gmail.com>","Fri, 25 Jan 2013 10:48:48 +0100","Re: [CAMEL-3.0] Start moving forward"
"iandebeer <ian@zenaptix.com>","Fri, 25 Jan 2013 01:49:08 -0800 (PST)","Re: Contributing Apollo Component"
"iandebeer <ian@zenaptix.com>","Fri, 25 Jan 2013 01:54:35 -0800 (PST)","Re: Contributing Apollo Component"
"pratik_patel <pratik.patel@mobileinternet.co.in>","Fri, 25 Jan 2013 02:58:09 -0800 (PST)","Support of Lua language"
"Guillaume Nodet <gnodet@gmail.com>","Fri, 25 Jan 2013 12:05:53 +0100","Re: [CAMEL-3.0] Start moving forward"
"Claus Ibsen <claus.ibsen@gmail.com>","Fri, 25 Jan 2013 14:15:38 +0100","Re: Support of Lua language"
"Hadrian Zbarcea <hzbarcea@gmail.com>","Fri, 25 Jan 2013 10:33:16 -0500","Re: Support of Lua language"
"Hadrian Zbarcea <hzbarcea@gmail.com>","Fri, 25 Jan 2013 11:57:46 -0500","[DISCUSS][CAMEL-3.0] Does camel need a web console"
"James Strachan <james.strachan@gmail.com>","Fri, 25 Jan 2013 17:02:38 +0000","Re: [DISCUSS][CAMEL-3.0] Does camel need a web console"
"Robert Davies <rajdavies@gmail.com>","Fri, 25 Jan 2013 17:04:12 +0000","Re: [DISCUSS][CAMEL-3.0] Does camel need a web console"
"Charles Moulliard <ch007m@gmail.com>","Fri, 25 Jan 2013 18:06:58 +0100","Re: [DISCUSS][CAMEL-3.0] Does camel need a web console"
"Guillaume Nodet <gnodet@gmail.com>","Fri, 25 Jan 2013 19:24:22 +0100","Re: [DISCUSS][CAMEL-3.0] Does camel need a web console"
"Babak Vahdat <babak.vahdat@swissonline.ch>","Fri, 25 Jan 2013 12:06:51 -0800 (PST)","[HEADS-UP] About the newest failed build on the CI-Server"
"Daniel Kulp <dkulp@apache.org>","Fri, 25 Jan 2013 16:51:28 -0500","Re: [DISCUSS][CAMEL-3.0] Does camel need a web console"
"Raul Kripalani <raul@evosent.com>","Fri, 25 Jan 2013 23:23:29 +0100","Re: [DISCUSS][CAMEL-3.0] Does camel need a web console"
"Christian Schneider <chris@die-schneider.net>","Fri, 25 Jan 2013 23:36:32 +0100","Re: [DISCUSS][CAMEL-3.0] Does camel need a web console"
"Guillaume Nodet <gnodet@gmail.com>","Fri, 25 Jan 2013 23:57:01 +0100","Re: [DISCUSS][CAMEL-3.0] Does camel need a web console"
"Christian Schneider <chris@die-schneider.net>","Sat, 26 Jan 2013 00:05:08 +0100","Re: [DISCUSS][CAMEL-3.0] Does camel need a web console"
"Apache Jenkins Server <jenkins@builds.apache.org>","Fri, 25 Jan 2013 23:33:45 +0000 (UTC)","Camel.trunk.notest - Build # 1773 - Fixed"
"Hadrian Zbarcea <hzbarcea@gmail.com>","Fri, 25 Jan 2013 18:43:59 -0500","Re: [DISCUSS][CAMEL-3.0] Does camel need a web console"
"Johan Edstrom <seijoed@gmail.com>","Fri, 25 Jan 2013 17:15:35 -0700","Re: [DISCUSS][CAMEL-3.0] Does camel need a web console"
"Claus Ibsen <claus.ibsen@gmail.com>","Sat, 26 Jan 2013 09:14:08 +0100","Re: [HEADS-UP] About the newest failed build on the CI-Server"
"Claus Ibsen <claus.ibsen@gmail.com>","Sat, 26 Jan 2013 09:15:59 +0100","Re: Support of Lua language"
"Claus Ibsen <claus.ibsen@gmail.com>","Sat, 26 Jan 2013 09:23:07 +0100","Re: [DISCUSS][CAMEL-3.0] Does camel need a web console"
"Babak Vahdat <babak.vahdat@swissonline.ch>","Sat, 26 Jan 2013 09:41:55 +0100","Re: [HEADS-UP] About the newest failed build on the CI-Server"
"Christian Schneider <chris@die-schneider.net>","Sat, 26 Jan 2013 09:49:56 +0100","Re: [DISCUSS][CAMEL-3.0] Does camel need a web console"
"Claus Ibsen <claus.ibsen@gmail.com>","Sat, 26 Jan 2013 09:54:32 +0100","Re: Installing Camel examples in Karaf"
"Charles Moulliard <ch007m@gmail.com>","Sat, 26 Jan 2013 14:44:39 +0100","Re: Installing Camel examples in Karaf"
"Jon Anstey <janstey@gmail.com>","Sat, 26 Jan 2013 14:12:25 -0330","Re: [DISCUSS][CAMEL-3.0] Does camel need a web console"
"=?ISO-8859-1?Q?Christian_M=FCller?= <christian.mueller@gmail.com>","Sun, 27 Jan 2013 14:35:35 +0100","Re: [camel-extra] 2.10.1 release"
"=?ISO-8859-1?Q?Christian_M=FCller?= <christian.mueller@gmail.com>","Sun, 27 Jan 2013 14:51:20 +0100","Re: [jira] [Issue Comment Edited] (CAMEL-4164) A camel component for ISO8583 protocol"
"David Karlsen <davidkarlsen@gmail.com>","Sun, 27 Jan 2013 16:39:39 +0100","Re: [jira] [Issue Comment Edited] (CAMEL-4164) A camel component for ISO8583 protocol"
"=?ISO-8859-1?Q?Christian_M=FCller?= <christian.mueller@gmail.com>","Sun, 27 Jan 2013 18:13:51 +0100","Re: [DISCUSS][CAMEL-3.0] Does camel need a web console"
"=?ISO-8859-1?Q?Christian_M=FCller?= <christian.mueller@gmail.com>","Sun, 27 Jan 2013 18:55:02 +0100","Re: [ANN] hawtio: a new lightweight HTML5 console for Apache Camel, ActiveMQ, JMX, OSGi & Fuse Fabric"
"=?ISO-8859-1?Q?Christian_M=FCller?= <christian.mueller@gmail.com>","Sun, 27 Jan 2013 19:25:51 +0100","Re: [ANN] hawtio: a new lightweight HTML5 console for Apache Camel, ActiveMQ, JMX, OSGi & Fuse Fabric"
"Willem jiang <willem.jiang@gmail.com>","Mon, 28 Jan 2013 13:56:11 +0800","Re: Support of Lua language"
"James Strachan <james.strachan@gmail.com>","Mon, 28 Jan 2013 08:20:33 +0000","Re: [ANN] hawtio: a new lightweight HTML5 console for Apache Camel, ActiveMQ, JMX, OSGi & Fuse Fabric"
"James Strachan <james.strachan@gmail.com>","Mon, 28 Jan 2013 08:41:48 +0000","Re: [DISCUSS][CAMEL-3.0] Does camel need a web console"
"ddelangle <git@git.apache.org>","Mon, 28 Jan 2013 12:16:51 +0000 (UTC)","camel pull request: FIX #CAMEL-5993 : put endpoint in quartz job map "
"=?ISO-8859-1?Q?Christian_M=FCller?= <christian.mueller@gmail.com>","Mon, 28 Jan 2013 16:20:18 +0100","Re: svn commit: r1439433 - in /camel/trunk/components/camel-blueprint/src/main/java/org/apache/camel/blueprint: BlueprintCamelContext.java BlueprintComponentResolver.java"
"Claus Ibsen <claus.ibsen@gmail.com>","Mon, 28 Jan 2013 17:03:16 +0100","Re: svn commit: r1439433 - in /camel/trunk/components/camel-blueprint/src/main/java/org/apache/camel/blueprint: BlueprintCamelContext.java BlueprintComponentResolver.java"
"=?UTF-8?Q?Jan_Mat=C3=A8rne_=28jhm=29?= <apache@materne.de>","Mon, 28 Jan 2013 20:40:02 +0100","AW: [jira] [Resolved] (CAMEL-5992) Typo on the ""control bus"" site"
"=?ISO-8859-1?Q?Christian_M=FCller?= <christian.mueller@gmail.com>","Mon, 28 Jan 2013 21:15:24 +0100","Re: [jira] [Resolved] (CAMEL-5992) Typo on the ""control bus"" site"
"Henryk Konsek <hekonsek@gmail.com>","Tue, 29 Jan 2013 07:48:12 +0100","Re: [camel-extra] 2.10.1 release"
"sothach <phillips.roy@gmail.com>","Tue, 29 Jan 2013 00:41:01 -0800 (PST)","Re: [jira] [Issue Comment Edited] (CAMEL-4164) A camel component for ISO8583 protocol"
"sothach <phillips.roy@gmail.com>","Tue, 29 Jan 2013 00:56:17 -0800 (PST)","Re: [jira] [Issue Comment Edited] (CAMEL-4164) A camel component for ISO8583 protocol"
"Ian de Beer <ian@zenaptix.com>","Tue, 29 Jan 2013 14:57:33 +0200","Re: Contributing Stomp Component"
"jeffmaher <jeff.m.maher@gmail.com>","Tue, 29 Jan 2013 07:43:44 -0800 (PST)","Submitted patch for camel-ftp for logins to root dir"
"Babak Vahdat <babak.vahdat@swissonline.ch>","Tue, 29 Jan 2013 07:45:15 -0800 (PST)","Re: Building the manual....."
"""Daniel Gredler"" <dgredler@dhlglobalmail.com>","Tue, 29 Jan 2013 11:19:23 -0500","CAMEL-6019: Add PGP signature and signature verification support to PGPDataFormat"
"=?ISO-8859-1?Q?Christian_M=FCller?= <christian.mueller@gmail.com>","Tue, 29 Jan 2013 20:14:19 +0100","[DISCUSS CAMEL 3.0] weekly IRC chat at 01/29/2013 7:00PM - 8:00PM CET"
"Henryk Konsek <hekonsek@gmail.com>","Tue, 29 Jan 2013 20:21:53 +0100","Re: Contributing Stomp Component"
"Claus Ibsen <claus.ibsen@gmail.com>","Tue, 29 Jan 2013 20:37:09 +0100","Re: Contributing Stomp Component"
"Claus Ibsen <claus.ibsen@gmail.com>","Tue, 29 Jan 2013 20:37:45 +0100","Re: Contributing Stomp Component"
"Henryk Konsek <hekonsek@gmail.com>","Tue, 29 Jan 2013 20:45:05 +0100","Re: Contributing Stomp Component"
"lfoppiano <git@git.apache.org>","Tue, 29 Jan 2013 23:22:08 +0000 (UTC)","camel pull request: New features for twitter-camel"
"=?ISO-8859-1?Q?Christian_M=FCller?= <christian.mueller@gmail.com>","Wed, 30 Jan 2013 08:09:02 +0100","Re: [jira] [Resolved] (CAMEL-5992) Typo on the ""control bus"" site"
"Claus Ibsen <claus.ibsen@gmail.com>","Wed, 30 Jan 2013 08:56:05 +0100","Re: [DISCUSS] - Moving towards Camel 2.11 release"
"=?iso-8859-1?Q?Jan_Mat=E8rne_=28jhm=29?= <apache@materne.de>","Wed, 30 Jan 2013 09:07:14 +0100","AW: [jira] [Resolved] (CAMEL-5992) Typo on the ""control bus"" site"
"=?ISO-8859-1?Q?Christian_M=FCller?= <christian.mueller@gmail.com>","Wed, 30 Jan 2013 09:09:00 +0100","Re: AW: [jira] [Resolved] (CAMEL-5992) Typo on the ""control bus"" site"
"iandebeer <ian@zenaptix.com>","Wed, 30 Jan 2013 06:51:44 -0800 (PST)","Re: Contributing Stomp Component"
"Henryk Konsek <hekonsek@gmail.com>","Thu, 31 Jan 2013 08:54:08 +0100","Re: Contributing Stomp Component"
"iandebeer <ian@zenaptix.com>","Thu, 31 Jan 2013 00:04:07 -0800 (PST)","Re: Contributing Stomp Component"
"=?ISO-8859-1?Q?Christian_M=FCller?= <christian.mueller@gmail.com>","Thu, 31 Jan 2013 21:54:17 +0100","Bind certain camel-cxf service to a specific HttpConnector"
"Achim Nierbeck <bcanhome@googlemail.com>","Thu, 31 Jan 2013 23:03:28 +0100","Re: Bind certain camel-cxf service to a specific HttpConnector"
