"Developer","Date","Subject"
"koseki nobuyuki <koseki.nobuyuki@gmail.com>","Tue, 2 Apr 2013 01:55:53 -0700 (PDT)","Re: [DISCUSS] another camel 3.0 ideas"
"Claus Ibsen <claus.ibsen@gmail.com>","Tue, 2 Apr 2013 13:40:42 +0200","Re: [DISCUSS] another camel 3.0 ideas"
"Claus Ibsen <claus.ibsen@gmail.com>","Tue, 2 Apr 2013 13:41:26 +0200","Re: [DISCUSS] another camel 3.0 ideas"
"Raul Kripalani <raul@evosent.com>","Tue, 2 Apr 2013 14:12:39 +0100","Re: [DISCUSS] another camel 3.0 ideas"
"Claus Ibsen <claus.ibsen@gmail.com>","Tue, 2 Apr 2013 16:57:07 +0200","Re: [DISCUSS] - Moving towards Camel 2.11 release"
"AlanFoster <alan@alanfoster.me>","Tue, 2 Apr 2013 08:11:22 -0700 (PDT)","Re: [DISCUSS] - Moving towards Camel 2.11 release"
"=?ISO-8859-1?Q?Christian_M=FCller?= <christian.mueller@gmail.com>","Tue, 2 Apr 2013 18:37:45 +0200","Re: [DISCUSS] - Moving towards Camel 2.11 release"
"Raul Kripalani <raul@evosent.com>","Tue, 2 Apr 2013 17:42:44 +0100","Re: [DISCUSS] - Moving towards Camel 2.11 release"
"Hadrian Zbarcea <hzbarcea@gmail.com>","Tue, 02 Apr 2013 13:22:47 -0400","Re: [DISCUSS] - Moving towards Camel 2.11 release"
"Marco Westermann <MarWestermann@gmx.de>","Wed, 03 Apr 2013 12:16:15 +0200","Re: 3.0 Ideas"
"Chris Geer <chris@cxtsoftware.com>","Wed, 3 Apr 2013 11:58:00 -0700","Re: 3.0 Ideas"
"Hadrian Zbarcea <hzbarcea@gmail.com>","Wed, 03 Apr 2013 15:10:00 -0400","Re: 3.0 Ideas"
"koseki nobuyuki <koseki.nobuyuki@gmail.com>","Thu, 4 Apr 2013 06:14:02 -0700 (PDT)","Re: [DISCUSS] another camel 3.0 ideas"
"Claus Ibsen <claus.ibsen@gmail.com>","Thu, 4 Apr 2013 16:12:54 +0200","Multiple versions of Scala detected"
"Claus Ibsen <claus.ibsen@gmail.com>","Thu, 4 Apr 2013 16:20:36 +0200","Re: [DISCUSS] - Moving towards Camel 2.11 release"
"=?ISO-8859-1?Q?Christian_M=FCller?= <christian.mueller@gmail.com>","Thu, 4 Apr 2013 17:22:53 +0200","Synchronuos onCompleation?"
"Raul Kripalani <raul@evosent.com>","Thu, 4 Apr 2013 16:28:17 +0100","Re: Synchronuos onCompleation?"
"Raul Kripalani <raul@evosent.com>","Thu, 4 Apr 2013 16:37:07 +0100","Re: Synchronuos onCompleation?"
"Babak Vahdat <babak.vahdat@swissonline.ch>","Thu, 4 Apr 2013 11:25:58 -0700 (PDT)","Re: Multiple versions of Scala detected"
"=?ISO-8859-1?Q?Christian_M=FCller?= <christian.mueller@gmail.com>","Thu, 4 Apr 2013 21:01:23 +0200","Re: [DISCUSS] - Moving towards Camel 2.11 release"
"=?ISO-8859-1?Q?Christian_M=FCller?= <christian.mueller@gmail.com>","Thu, 4 Apr 2013 21:58:04 +0200","Re: Synchronuos onCompleation?"
"Raul Kripalani <raul@evosent.com>","Thu, 4 Apr 2013 22:59:58 +0100","Re: Synchronuos onCompleation?"
"Apache Jenkins Server <jenkins@builds.apache.org>","Fri, 5 Apr 2013 02:56:43 +0000 (UTC)","Camel.trunk.notest - Build # 1835 - Failure"
"Babak Vahdat <babak.vahdat@swissonline.ch>","Fri, 5 Apr 2013 01:15:45 -0700 (PDT)","Re: [DISCUSS] - Moving towards Camel 2.11 release"
"Claus Ibsen <claus.ibsen@gmail.com>","Fri, 5 Apr 2013 11:38:57 +0200","Re: [DISCUSS] - Moving towards Camel 2.11 release"
"=?iso-8859-1?Q?Jan_Mat=E8rne_=28jhm=29?= <apache@materne.de>","Fri, 5 Apr 2013 12:13:44 +0200","AW: [DISCUSS] - Moving towards Camel 2.11 release"
"Claus Ibsen <claus.ibsen@gmail.com>","Fri, 5 Apr 2013 12:32:27 +0200","Re: [DISCUSS] - Moving towards Camel 2.11 release"
"Claus Ibsen <claus.ibsen@gmail.com>","Fri, 5 Apr 2013 16:09:15 +0200","Re: [DISCUSS] - Moving towards Camel 2.11 release"
"Claus Ibsen <claus.ibsen@gmail.com>","Fri, 5 Apr 2013 18:16:04 +0200","Re: [DISCUSS] - Moving towards Camel 2.11 release"
"=?ISO-8859-1?Q?Christian_M=FCller?= <christian.mueller@gmail.com>","Fri, 5 Apr 2013 19:35:25 +0200","Re: [DISCUSS] - Moving towards Camel 2.11 release"
"=?ISO-8859-1?Q?Christian_M=FCller?= <christian.mueller@gmail.com>","Fri, 5 Apr 2013 19:43:44 +0200","Re: [DISCUSS] - Moving towards Camel 2.11 release"
"Babak Vahdat <babak.vahdat@swissonline.ch>","Fri, 5 Apr 2013 12:10:44 -0700 (PDT)","Re: [DISCUSS] - Moving towards Camel 2.11 release"
"=?ISO-8859-1?Q?Christian_M=FCller?= <christian.mueller@gmail.com>","Fri, 5 Apr 2013 21:13:42 +0200","Re: svn commit: r1465099 - in /camel/trunk/components/camel-aws/src: main/java/org/apache/camel/component/aws/s3/S3Producer.java test/java/org/apache/camel/component/aws/s3/S3ComponentFileTest.java"
"=?ISO-8859-1?Q?Christian_M=FCller?= <christian.mueller@gmail.com>","Fri, 5 Apr 2013 23:15:47 +0200","Re: [DISCUSS] - Moving towards Camel 2.11 release"
"Claus Ibsen <claus.ibsen@gmail.com>","Sat, 6 Apr 2013 08:45:34 +0200","Re: [DISCUSS] - Moving towards Camel 2.11 release"
"=?ISO-8859-1?Q?Christian_M=FCller?= <christian.mueller@gmail.com>","Sat, 6 Apr 2013 15:15:10 +0200","Problem resolving package javax.annotation"
"=?ISO-8859-1?Q?Christian_M=FCller?= <christian.mueller@gmail.com>","Sat, 6 Apr 2013 15:46:13 +0200","Re: Problem resolving package javax.annotation"
"=?ISO-8859-1?Q?Christian_M=FCller?= <christian.mueller@gmail.com>","Sat, 6 Apr 2013 18:20:28 +0200","Re: Synchronuos onCompleation?"
"Apache Jenkins Server <jenkins@builds.apache.org>","Sun, 7 Apr 2013 06:00:38 +0000 (UTC)","Camel.trunk.notest - Build # 1836 - Fixed"
"Claus Ibsen <claus.ibsen@gmail.com>","Sun, 7 Apr 2013 09:42:50 +0200","IDEA 12.1 cannot build Apache Camel project anymore"
"Babak Vahdat <babak.vahdat@swissonline.ch>","Sun, 7 Apr 2013 03:08:21 -0700 (PDT)","Re: IDEA 12.1 cannot build Apache Camel project anymore"
"=?ISO-8859-1?Q?Christian_M=FCller?= <christian.mueller@gmail.com>","Sun, 7 Apr 2013 14:17:19 +0200","[VOTE] Release Apache Camel 2.11.0"
"Babak Vahdat <babak.vahdat@swissonline.ch>","Mon, 8 Apr 2013 01:24:28 -0700 (PDT)","Re: [VOTE] Release Apache Camel 2.11.0"
"Babak Vahdat <babak.vahdat@swissonline.ch>","Mon, 8 Apr 2013 04:13:17 -0700 (PDT)","Re: IDEA 12.1 cannot build Apache Camel project anymore"
"Hadrian Zbarcea <hzbarcea@gmail.com>","Mon, 08 Apr 2013 10:11:10 -0400","Re: [VOTE] Release Apache Camel 2.11.0"
"yazan <qetoom@gmail.com>","Mon, 8 Apr 2013 07:27:31 -0700 (PDT)","JDBC component handling large results"
"Daniel Kulp <dkulp@apache.org>","Mon, 8 Apr 2013 10:59:07 -0400","Re: IDEA 12.1 cannot build Apache Camel project anymore"
"Babak Vahdat <babak.vahdat@swissonline.ch>","Mon, 08 Apr 2013 21:05:46 +0200","Re: IDEA 12.1 cannot build Apache Camel project anymore"
"Daniel Kulp <dkulp@apache.org>","Mon, 8 Apr 2013 15:20:34 -0400","Re: IDEA 12.1 cannot build Apache Camel project anymore"
"=?ISO-8859-1?Q?Christian_M=FCller?= <christian.mueller@gmail.com>","Mon, 8 Apr 2013 21:34:47 +0200","Re: JDBC component handling large results"
"Daniel Kulp <dkulp@apache.org>","Mon, 8 Apr 2013 16:08:00 -0400","Re: IDEA 12.1 cannot build Apache Camel project anymore"
"Babak Vahdat <babak.vahdat@swissonline.ch>","Mon, 08 Apr 2013 22:10:25 +0200","Re: IDEA 12.1 cannot build Apache Camel project anymore"
"Daniel Kulp <dkulp@apache.org>","Mon, 8 Apr 2013 16:32:04 -0400","Re: IDEA 12.1 cannot build Apache Camel project anymore"
"Johan Edstrom <seijoed@gmail.com>","Mon, 8 Apr 2013 14:44:31 -0600","Re: IDEA 12.1 cannot build Apache Camel project anymore"
"=?ISO-8859-1?Q?Christian_M=FCller?= <christian.mueller@gmail.com>","Mon, 8 Apr 2013 22:59:30 +0200","[CANCEL][VOTE] Release Apache Camel 2.11.0"
"Hadrian Zbarcea <hzbarcea@gmail.com>","Mon, 08 Apr 2013 22:22:21 -0400","Re: [CANCEL][VOTE] Release Apache Camel 2.11.0"
"Daniel Kulp <dkulp@apache.org>","Mon, 8 Apr 2013 22:34:37 -0400","Re: [CANCEL][VOTE] Release Apache Camel 2.11.0"
"Apache Jenkins Server <jenkins@builds.apache.org>","Tue, 9 Apr 2013 05:25:20 +0000 (UTC)","Camel.trunk.notest - Build # 1838 - Failure"
"Babak Vahdat <babak.vahdat@swissonline.ch>","Mon, 8 Apr 2013 23:07:13 -0700 (PDT)","Re: IDEA 12.1 cannot build Apache Camel project anymore"
"yazan <qetoom@gmail.com>","Tue, 9 Apr 2013 02:26:47 -0700 (PDT)","Re: JDBC component handling large results"
"Claus Ibsen <claus.ibsen@gmail.com>","Tue, 9 Apr 2013 11:40:52 +0200","Re: JDBC component handling large results"
"=?ISO-8859-1?Q?Christian_M=FCller?= <christian.mueller@gmail.com>","Tue, 9 Apr 2013 19:45:16 +0200","Re: [CANCEL][VOTE] Release Apache Camel 2.11.0"
"=?ISO-8859-1?Q?Christian_M=FCller?= <christian.mueller@gmail.com>","Tue, 9 Apr 2013 19:48:22 +0200","[VOTE] Release Apache Camel 2.11.0 (take 2)"
"tivv <git@git.apache.org>","Tue,  9 Apr 2013 18:15:24 +0000 (UTC)","camel pull request: CAMEL-6057: Fix for accessing beans from parent context..."
"moxford <moxford@gmail.com>","Tue, 9 Apr 2013 19:13:21 -0700 (PDT)","camel-quartz 2.10.4 against quartz 2.1.7 bug?"
"Claus Ibsen <claus.ibsen@gmail.com>","Wed, 10 Apr 2013 07:39:20 +0200","Re: camel-quartz 2.10.4 against quartz 2.1.7 bug?"
"=?ISO-8859-1?Q?Christian_M=FCller?= <christian.mueller@gmail.com>","Wed, 10 Apr 2013 08:58:44 +0200","Re: [VOTE] Release Apache Camel 2.11.0 (take 2)"
"=?ISO-8859-1?Q?Christian_M=FCller?= <christian.mueller@gmail.com>","Wed, 10 Apr 2013 09:00:39 +0200","Re: Nexus: Staging Completed."
"Claus Ibsen <claus.ibsen@gmail.com>","Wed, 10 Apr 2013 09:29:43 +0200","Re: [VOTE] Release Apache Camel 2.11.0 (take 2)"
"David Karlsen <davidkarlsen@gmail.com>","Wed, 10 Apr 2013 10:30:21 +0200","Re: [VOTE] Release Apache Camel 2.11.0 (take 2)"
"Babak Vahdat <babak.vahdat@swissonline.ch>","Wed, 10 Apr 2013 10:31:05 +0200","Re: [VOTE] Release Apache Camel 2.11.0 (take 2)"
"Babak Vahdat <babak.vahdat@swissonline.ch>","Wed, 10 Apr 2013 02:09:20 -0700 (PDT)","Re: [VOTE] Release Apache Camel 2.11.0 (take 2)"
"Apache Jenkins Server <jenkins@builds.apache.org>","Wed, 10 Apr 2013 09:34:23 +0000 (UTC)","Camel.trunk.notest - Build # 1839 - Fixed"
"=?ISO-8859-1?Q?Christian_M=FCller?= <christian.mueller@gmail.com>","Wed, 10 Apr 2013 13:09:28 +0200","Re: [VOTE] Release Apache Camel 2.11.0 (take 2)"
"Babak Vahdat <babak.vahdat@swissonline.ch>","Wed, 10 Apr 2013 04:27:12 -0700 (PDT)","Re: [VOTE] Release Apache Camel 2.11.0 (take 2)"
"Babak Vahdat <babak.vahdat@swissonline.ch>","Wed, 10 Apr 2013 04:34:23 -0700 (PDT)","Re: [VOTE] Release Apache Camel 2.11.0 (take 2)"
"=?ISO-8859-1?Q?Christian_M=FCller?= <christian.mueller@gmail.com>","Wed, 10 Apr 2013 19:47:21 +0200","Re: [VOTE] Release Apache Camel 2.11.0 (take 2)"
"=?ISO-8859-1?Q?Christian_M=FCller?= <christian.mueller@gmail.com>","Wed, 10 Apr 2013 20:17:24 +0200","[CANCEL][VOTE] Release Apache Camel 2.11.0 (take 2)"
"moxford <moxford@gmail.com>","Wed, 10 Apr 2013 11:31:21 -0700 (PDT)","Re: camel-quartz 2.10.4 against quartz 2.1.7 bug?"
"Henryk Konsek <hekonsek@gmail.com>","Wed, 10 Apr 2013 19:54:37 -0400","Re: Nexus: Staging Completed."
"=?ISO-8859-1?Q?Christian_M=FCller?= <christian.mueller@gmail.com>","Thu, 11 Apr 2013 07:26:12 +0200","Camel 2.11.0 release"
"Babak Vahdat <babak.vahdat@swissonline.ch>","Wed, 10 Apr 2013 23:26:35 -0700 (PDT)","Re: Camel 2.11.0 release"
"=?ISO-8859-1?Q?Christian_M=FCller?= <christian.mueller@gmail.com>","Thu, 11 Apr 2013 09:33:26 +0200","Re: Camel 2.11.0 release"
"=?ISO-8859-1?Q?Christian_M=FCller?= <christian.mueller@gmail.com>","Thu, 11 Apr 2013 12:50:49 +0200","[VOTE] Release Apache Camel 2.11.0 (take 3)"
"Charles Moulliard <ch007m@gmail.com>","Fri, 12 Apr 2013 09:06:43 +0200","Re: [VOTE] Release Apache Camel 2.11.0 (take 3)"
"=?ISO-8859-1?Q?Christian_M=FCller?= <christian.mueller@gmail.com>","Fri, 12 Apr 2013 19:08:46 +0200","Re: [VOTE] Release Apache Camel 2.11.0 (take 3)"
"Apache Jenkins Server <jenkins@builds.apache.org>","Sat, 13 Apr 2013 05:57:41 +0000 (UTC)","Camel.trunk.notest - Build # 1841 - Failure"
"Claus Ibsen <claus.ibsen@gmail.com>","Sat, 13 Apr 2013 09:59:29 +0200","Re: [VOTE] Release Apache Camel 2.11.0 (take 3)"
"Claus Ibsen <claus.ibsen@gmail.com>","Sat, 13 Apr 2013 11:40:35 +0200","Re: [VOTE] Release Apache Camel 2.11.0 (take 3)"
"Claus Ibsen <claus.ibsen@gmail.com>","Sat, 13 Apr 2013 12:04:05 +0200","Re: [VOTE] Release Apache Camel 2.11.0 (take 3)"
"=?ISO-8859-1?Q?Christian_M=FCller?= <christian.mueller@gmail.com>","Sat, 13 Apr 2013 19:25:23 +0200","Re: [VOTE] Release Apache Camel 2.11.0 (take 3)"
"Apache Jenkins Server <jenkins@builds.apache.org>","Sun, 14 Apr 2013 05:42:39 +0000 (UTC)","Camel.trunk.notest - Build # 1842 - Fixed"
"Claus Ibsen <claus.ibsen@gmail.com>","Sun, 14 Apr 2013 10:42:01 +0200","Re: [VOTE] Release Apache Camel 2.11.0 (take 3)"
"=?ISO-8859-1?Q?Christian_M=FCller?= <christian.mueller@gmail.com>","Sun, 14 Apr 2013 12:15:04 +0200","Re: [VOTE] Release Apache Camel 2.11.0 (take 3)"
"=?ISO-8859-1?Q?Christian_M=FCller?= <christian.mueller@gmail.com>","Sun, 14 Apr 2013 13:02:54 +0200","Re: [VOTE] Release Apache Camel 2.11.0 (take 3)"
"Raul Kripalani <raul@evosent.com>","Sun, 14 Apr 2013 12:09:53 +0100","Re: [VOTE] Release Apache Camel 2.11.0 (take 3)"
"Babak Vahdat <babak.vahdat@swissonline.ch>","Sun, 14 Apr 2013 13:30:11 +0200","Re: [VOTE] Release Apache Camel 2.11.0 (take 3)"
"=?ISO-8859-1?Q?Christian_M=FCller?= <christian.mueller@gmail.com>","Sun, 14 Apr 2013 13:37:43 +0200","Re: [VOTE] Release Apache Camel 2.11.0 (take 3)"
"Raul Kripalani <raul@evosent.com>","Sun, 14 Apr 2013 12:54:53 +0100","Re: [VOTE] Release Apache Camel 2.11.0 (take 3)"
"David Karlsen <davidkarlsen@gmail.com>","Sun, 14 Apr 2013 14:20:10 +0200","Re: [VOTE] Release Apache Camel 2.11.0 (take 3)"
"=?ISO-8859-1?Q?Christian_M=FCller?= <christian.mueller@gmail.com>","Sun, 14 Apr 2013 15:40:35 +0200","Re: [VOTE] Release Apache Camel 2.11.0 (take 3)"
"=?ISO-8859-1?Q?Christian_M=FCller?= <christian.mueller@gmail.com>","Sun, 14 Apr 2013 17:07:04 +0200","Re: [VOTE] Release Apache Camel 2.11.0 (take 3)"
"=?ISO-8859-1?Q?Christian_M=FCller?= <christian.mueller@gmail.com>","Sun, 14 Apr 2013 21:16:25 +0200","Re: [VOTE] Release Apache Camel 2.11.0 (take 3)"
"=?ISO-8859-1?Q?Christian_M=FCller?= <christian.mueller@gmail.com>","Sun, 14 Apr 2013 21:25:17 +0200","Re: [VOTE] Release Apache Camel 2.11.0 (take 3)"
"akarpe <akarpe_2000@yahoo.com>","Sun, 14 Apr 2013 15:16:00 -0500","Re: [VOTE] Release Apache Camel 2.11.0 (take 3)"
"=?ISO-8859-1?Q?Christian_M=FCller?= <christian.mueller@gmail.com>","Mon, 15 Apr 2013 07:28:49 +0200","Re: Nexus: Staging Completed."
"Claus Ibsen <claus.ibsen@gmail.com>","Mon, 15 Apr 2013 08:34:53 +0200","camel-servet - test fails on trunk"
"Babak Vahdat <babak.vahdat@swissonline.ch>","Sun, 14 Apr 2013 23:55:17 -0700 (PDT)","Re: camel-servet - test fails on trunk"
"Willem jiang <willem.jiang@gmail.com>","Mon, 15 Apr 2013 15:06:15 +0800","Re: camel-servet - test fails on trunk"
"Claus Ibsen <claus.ibsen@gmail.com>","Mon, 15 Apr 2013 09:14:26 +0200","Re: [VOTE] Release Apache Camel 2.11.0 (take 3)"
"Claus Ibsen <claus.ibsen@gmail.com>","Mon, 15 Apr 2013 09:18:58 +0200","Re: [VOTE] Release Apache Camel 2.11.0 (take 3)"
"Guillaume Nodet <gnodet@gmail.com>","Mon, 15 Apr 2013 11:42:08 +0200","Re: [VOTE] Release Apache Camel 2.11.0 (take 3)"
"Guillaume Nodet <gnodet@apache.org>","Mon, 15 Apr 2013 11:52:21 +0200","Re: [VOTE] Release Apache Camel 2.11.0 (take 3)"
"Willem jiang <willem.jiang@gmail.com>","Mon, 15 Apr 2013 17:58:07 +0800","Re: [VOTE] Release Apache Camel 2.11.0 (take 3)"
"Henryk Konsek <hekonsek@gmail.com>","Mon, 15 Apr 2013 09:13:29 -0400","Re: Nexus: Staging Completed."
"Claus Ibsen <claus.ibsen@gmail.com>","Mon, 15 Apr 2013 15:17:29 +0200","Re: [VOTE] Release Apache Camel 2.11.0 (take 3)"
"=?ISO-8859-1?Q?Christian_M=FCller?= <christian.mueller@gmail.com>","Mon, 15 Apr 2013 19:40:01 +0200","Re: [VOTE] Release Apache Camel 2.11.0 (take 3)"
"=?ISO-8859-1?Q?Christian_M=FCller?= <christian.mueller@gmail.com>","Mon, 15 Apr 2013 19:51:59 +0200","Re: [VOTE] Release Apache Camel 2.11.0 (take 3)"
"Claus Ibsen <claus.ibsen@gmail.com>","Mon, 15 Apr 2013 21:27:49 +0200","Re: [VOTE] Release Apache Camel 2.11.0 (take 3)"
"Claus Ibsen <claus.ibsen@gmail.com>","Tue, 16 Apr 2013 08:40:30 +0200","Re: [VOTE] Release Apache Camel 2.11.0 (take 3)"
"loganathan <logu.it86@gmail.com>","Tue, 16 Apr 2013 04:34:16 -0700 (PDT)","Junit for CronScheduleRoutePolicy is not working"
"Claus Ibsen <claus.ibsen@gmail.com>","Tue, 16 Apr 2013 13:42:51 +0200","Re: Junit for CronScheduleRoutePolicy is not working"
"Claus Ibsen <claus.ibsen@gmail.com>","Tue, 16 Apr 2013 15:14:42 +0200","Re: [VOTE] Release Apache Camel 2.11.0 (take 3)"
"Claus Ibsen <claus.ibsen@gmail.com>","Tue, 16 Apr 2013 16:40:22 +0200","Re: [VOTE] Release Apache Camel 2.11.0 (take 3)"
"Claus Ibsen <claus.ibsen@gmail.com>","Tue, 16 Apr 2013 17:14:11 +0200","Re: [VOTE] Release Apache Camel 2.11.0 (take 3)"
"=?ISO-8859-1?Q?Christian_M=FCller?= <christian.mueller@gmail.com>","Tue, 16 Apr 2013 22:00:40 +0200","[CANCEL][VOTE] Release Apache Camel 2.11.0 (take 3)"
"=?ISO-8859-1?Q?Christian_M=FCller?= <christian.mueller@gmail.com>","Wed, 17 Apr 2013 07:48:48 +0200","Camel 2.11.0 - take 4"
"ahaarrestad <git@git.apache.org>","Wed, 17 Apr 2013 06:17:35 +0000 (UTC)","camel pull request: Adding FtpReplyString header for producer"
"=?ISO-8859-1?Q?Christian_M=FCller?= <christian.mueller@gmail.com>","Wed, 17 Apr 2013 22:11:11 +0200","[VOTE] Release Apache Camel 2.11.0 (take 4)"
"Jeff Genender <jgenender@apache.org>","Wed, 17 Apr 2013 13:39:13 -0700 (PDT)","Re: [VOTE] Release Apache Camel 2.11.0 (take 4)"
"Ashwin Karpe <akarpe@redhat.com>","Wed, 17 Apr 2013 20:25:47 -0700 (PDT)","Re: [VOTE] Release Apache Camel 2.11.0 (take 4)"
"Charles Moulliard <ch007m@gmail.com>","Thu, 18 Apr 2013 09:57:32 +0200","Re: [VOTE] Release Apache Camel 2.11.0 (take 4)"
"Scott England-Sullivan <sully6768@gmail.com>","Thu, 18 Apr 2013 13:28:57 -0400","Re: [VOTE] Release Apache Camel 2.11.0 (take 4)"
"Johan Edstrom <seijoed@gmail.com>","Thu, 18 Apr 2013 11:46:48 -0600","Re: [VOTE] Release Apache Camel 2.11.0 (take 4)"
"Claus Ibsen <claus.ibsen@gmail.com>","Fri, 19 Apr 2013 07:41:35 +0200","Re: [VOTE] Release Apache Camel 2.11.0 (take 4)"
"Claus Ibsen <claus.ibsen@gmail.com>","Fri, 19 Apr 2013 07:44:09 +0200","Re: [VOTE] Release Apache Camel 2.11.0 (take 4)"
"Claus Ibsen <claus.ibsen@gmail.com>","Fri, 19 Apr 2013 07:51:14 +0200","Re: [VOTE] Release Apache Camel 2.11.0 (take 4)"
"Claus Ibsen <claus.ibsen@gmail.com>","Fri, 19 Apr 2013 08:22:28 +0200","Re: [VOTE] Release Apache Camel 2.11.0 (take 4)"
"=?iso-8859-1?Q?Jan_Mat=E8rne_=28jhm=29?= <apache@materne.de>","Fri, 19 Apr 2013 09:33:55 +0200","AW: [VOTE] Release Apache Camel 2.11.0 (take 4)"
"Willem jiang <willem.jiang@gmail.com>","Fri, 19 Apr 2013 23:02:36 +0800","Re: [VOTE] Release Apache Camel 2.11.0 (take 4)"
"James Strachan <james.strachan@gmail.com>","Fri, 19 Apr 2013 16:05:12 +0100","Re: [VOTE] Release Apache Camel 2.11.0 (take 4)"
"Gary Tully <gary.tully@gmail.com>","Fri, 19 Apr 2013 16:12:04 +0100","Re: [VOTE] Release Apache Camel 2.11.0 (take 4)"
"Willem jiang <willem.jiang@gmail.com>","Fri, 19 Apr 2013 23:23:44 +0800","Re: [VOTE] Release Apache Camel 2.11.0 (take 4)"
"Raul Kripalani <raul@evosent.com>","Fri, 19 Apr 2013 16:58:21 +0100","Re: [VOTE] Release Apache Camel 2.11.0 (take 4)"
"Jon Anstey <janstey@gmail.com>","Fri, 19 Apr 2013 15:42:22 -0400","Re: [VOTE] Release Apache Camel 2.11.0 (take 4)"
"=?ISO-8859-1?Q?Christian_M=FCller?= <christian.mueller@gmail.com>","Sat, 20 Apr 2013 12:00:21 +0200","Re: [VOTE] Release Apache Camel 2.11.0 (take 4)"
"Claus Ibsen <claus.ibsen@gmail.com>","Sat, 20 Apr 2013 12:08:38 +0200","Re: [VOTE] Release Apache Camel 2.11.0 (take 4)"
"=?ISO-8859-1?Q?Christian_M=FCller?= <christian.mueller@gmail.com>","Sat, 20 Apr 2013 23:12:58 +0200","[RESULT][VOTE] Release Apache Camel 2.11.0 (take 4)"
"Babak Vahdat <babak.vahdat@swissonline.ch>","Sun, 21 Apr 2013 02:52:20 -0700 (PDT)","Re: [VOTE] Release Apache Camel 2.11.0 (take 4)"
"=?ISO-8859-1?Q?Christian_M=FCller?= <christian.mueller@gmail.com>","Sun, 21 Apr 2013 18:32:59 +0200","Re: Nexus: Staging Completed."
"=?ISO-8859-1?Q?Christian_M=FCller?= <christian.mueller@gmail.com>","Sun, 21 Apr 2013 18:47:02 +0200","Re: [VOTE] Release Apache Camel 2.11.0 (take 4)"
"Willem jiang <willem.jiang@gmail.com>","Mon, 22 Apr 2013 09:33:08 +0800","Re: [VOTE] Release Apache Camel 2.11.0 (take 4)"
"Claus Ibsen <claus.ibsen@gmail.com>","Mon, 22 Apr 2013 09:30:13 +0200","Setup Camel 2.11 branch"
"Claus Ibsen <claus.ibsen@gmail.com>","Mon, 22 Apr 2013 09:35:52 +0200","[DISCUSS] - Last Camel 2.9.7 release and retire this branch"
"Claus Ibsen <claus.ibsen@gmail.com>","Mon, 22 Apr 2013 11:20:34 +0200","Re: svn commit: r1469718 - in /camel/trunk/components/camel-http/src: main/java/org/apache/camel/component/http/HttpComponent.java test/java/org/apache/camel/component/http/HttpConnectionManagerSettingTest.java"
"=?ISO-8859-1?Q?Christian_M=FCller?= <christian.mueller@gmail.com>","Mon, 22 Apr 2013 11:59:39 +0200","Re: Setup Camel 2.11 branch"
"=?ISO-8859-1?Q?Christian_M=FCller?= <christian.mueller@gmail.com>","Mon, 22 Apr 2013 13:03:11 +0200","Re: [DISCUSS] - Last Camel 2.9.7 release and retire this branch"
"Willem jiang <willem.jiang@gmail.com>","Mon, 22 Apr 2013 20:58:35 +0800","Re: svn commit: r1469718 - in /camel/trunk/components/camel-http/src: main/java/org/apache/camel/component/http/HttpComponent.java =?utf-8?Q?test/java/org/apache/camel/component/http/HttpConnectionManagerSettingTest.java?="
"Willem jiang <willem.jiang@gmail.com>","Mon, 22 Apr 2013 21:29:36 +0800","Re: Setup Camel 2.11 branch"
"Babak Vahdat <babak.vahdat@swissonline.ch>","Mon, 22 Apr 2013 06:55:15 -0700 (PDT)","Re: Setup Camel 2.11 branch"
"Claus Ibsen <claus.ibsen@gmail.com>","Mon, 22 Apr 2013 16:46:09 +0200","Re: Setup Camel 2.11 branch"
"Willem jiang <willem.jiang@gmail.com>","Mon, 22 Apr 2013 22:48:36 +0800","Re: Setup Camel 2.11 branch"
"Hadrian Zbarcea <hzbarcea@gmail.com>","Mon, 22 Apr 2013 10:52:46 -0400","Re: Setup Camel 2.11 branch"
"Claus Ibsen <claus.ibsen@gmail.com>","Mon, 22 Apr 2013 17:02:18 +0200","Re: Setup Camel 2.11 branch"
"Willem jiang <willem.jiang@gmail.com>","Mon, 22 Apr 2013 23:08:05 +0800","Re: Setup Camel 2.11 branch"
"ladoe00 <ladoe00@yahoo.com>","Mon, 22 Apr 2013 10:11:20 -0700 (PDT)","Little ProducerCache performance improvement when dealing with long URIs"
"ladoe00 <ladoe00@yahoo.com>","Mon, 22 Apr 2013 10:59:21 -0700 (PDT)","Re: Little ProducerCache performance improvement when dealing with long URIs"
"Christian Mueller <cmueller@apache.org>","Mon, 22 Apr 2013 20:41:09 +0200","[ANNOUNCE] Apache Camel 2.11.0 Released"
"Hadrian Zbarcea <hzbarcea@gmail.com>","Mon, 22 Apr 2013 15:55:54 -0400","Re: [DISCUSS] - Last Camel 2.9.7 release and retire this branch"
"Henryk Konsek <hekonsek@gmail.com>","Mon, 22 Apr 2013 16:52:34 -0400","Re: Nexus: Staging Completed."
"=?ISO-8859-1?Q?Christian_M=FCller?= <christian.mueller@gmail.com>","Mon, 22 Apr 2013 23:01:13 +0200","""Broken"" links from http://camel.apache.org/"
"Willem jiang <willem.jiang@gmail.com>","Tue, 23 Apr 2013 11:21:59 +0800","Re: [DISCUSS] - Last Camel 2.9.7 release and retire this branch"
"Apache Jenkins Server <jenkins@builds.apache.org>","Tue, 23 Apr 2013 08:38:56 +0000 (UTC)","Camel.trunk.notest - Build # 1849 - Failure"
"James Strachan <james.strachan@gmail.com>","Tue, 23 Apr 2013 09:47:35 +0100","improving Endpoint documentation and tooling"
"James Strachan <james.strachan@gmail.com>","Tue, 23 Apr 2013 11:03:21 +0100","Re: improving Endpoint documentation and tooling"
"lost_in <rex173505@gmail.com>","Tue, 23 Apr 2013 08:33:14 -0700 (PDT)","when two Pojo class annotated with @CsvRecord in same package, camel goes wrong"
"Charles Moulliard <ch007m@gmail.com>","Wed, 24 Apr 2013 07:51:01 +0200","Re: when two Pojo class annotated with @CsvRecord in same package, camel goes wrong"
"=?ISO-8859-1?Q?Christian_M=FCller?= <christian.mueller@gmail.com>","Wed, 24 Apr 2013 08:33:21 +0200","Re: when two Pojo class annotated with @CsvRecord in same package, camel goes wrong"
"=?ISO-8859-1?Q?Christian_M=FCller?= <christian.mueller@gmail.com>","Wed, 24 Apr 2013 08:46:03 +0200","Re: [VOTE] Release Apache Camel 2.11.0 (take 4)"
"Willem jiang <willem.jiang@gmail.com>","Wed, 24 Apr 2013 15:04:00 +0800","Re: [VOTE] Release Apache Camel 2.11.0 (take 4)"
"=?ISO-8859-1?Q?Christian_M=FCller?= <christian.mueller@gmail.com>","Wed, 24 Apr 2013 09:07:16 +0200","Re: [DISCUSS] - Last Camel 2.9.7 release and retire this branch"
"Claus Ibsen <claus.ibsen@gmail.com>","Wed, 24 Apr 2013 13:11:35 +0200","Re: [DISCUSS] - Last Camel 2.9.7 release and retire this branch"
"=?ISO-8859-1?Q?Christian_M=FCller?= <christian.mueller@gmail.com>","Wed, 24 Apr 2013 18:09:34 +0200","Re: [DISCUSS] - Last Camel 2.9.7 release and retire this branch"
"=?ISO-8859-1?Q?Christian_M=FCller?= <christian.mueller@gmail.com>","Wed, 24 Apr 2013 21:51:16 +0200","Re: [DISCUSS] Move to a pure git based repo"
"Hadrian Zbarcea <hzbarcea@gmail.com>","Wed, 24 Apr 2013 15:57:04 -0400","Re: [DISCUSS] Move to a pure git based repo"
"Apache Jenkins Server <jenkins@builds.apache.org>","Wed, 24 Apr 2013 20:06:35 +0000 (UTC)","Camel.trunk.notest - Build # 1850 - Still Failing"
"=?iso-8859-2?Q?=A3ukasz_Dywicki?= <luke@code-house.org>","Wed, 24 Apr 2013 22:34:57 +0200","Camel ical data format"
"Hadrian Zbarcea <hzbarcea@gmail.com>","Wed, 24 Apr 2013 16:36:02 -0400","Re: [DISCUSS] Move to a pure git based repo"
"=?iso-8859-2?Q?=A3ukasz_Dywicki?= <luke@code-house.org>","Wed, 24 Apr 2013 22:39:27 +0200","Re: Camel ical data format"
"=?ISO-8859-1?Q?Christian_M=FCller?= <christian.mueller@gmail.com>","Wed, 24 Apr 2013 23:32:47 +0200","[VOTE] Release Apache Camel 2.9.7"
"Jeff Genender <jgenender@apache.org>","Wed, 24 Apr 2013 14:52:45 -0700 (PDT)","Re: [VOTE] Release Apache Camel 2.9.7"
"Ashwin Karpe <akarpe@redhat.com>","Wed, 24 Apr 2013 18:12:32 -0700 (PDT)","Re: [VOTE] Release Apache Camel 2.9.7"
"Claus Ibsen <claus.ibsen@gmail.com>","Thu, 25 Apr 2013 07:25:54 +0200","Re: [VOTE] Release Apache Camel 2.9.7"
"David Karlsen <davidkarlsen@gmail.com>","Thu, 25 Apr 2013 11:17:54 +0200","Missing component for camel-validator in jira?"
"Hadrian Zbarcea <hzbarcea@gmail.com>","Thu, 25 Apr 2013 07:13:45 -0400","Re: [VOTE] Release Apache Camel 2.9.7"
"Jon Anstey <janstey@gmail.com>","Thu, 25 Apr 2013 07:31:55 -0400","Re: [VOTE] Release Apache Camel 2.9.7"
"Claus Ibsen <claus.ibsen@gmail.com>","Thu, 25 Apr 2013 15:26:35 +0200","[DISCUSS] - Upgrading Jetty version in Camel 2.12"
"Hadrian Zbarcea <hzbarcea@gmail.com>","Thu, 25 Apr 2013 11:39:29 -0400","Re: Camel ical data format"
"=?ISO-8859-1?Q?Christian_M=FCller?= <christian.mueller@gmail.com>","Thu, 25 Apr 2013 22:18:22 +0200","Re: Missing component for camel-validator in jira?"
"=?ISO-8859-1?Q?Christian_M=FCller?= <christian.mueller@gmail.com>","Thu, 25 Apr 2013 22:32:20 +0200","Re: [DISCUSS] - Upgrading Jetty version in Camel 2.12"
"Achim Nierbeck <bcanhome@googlemail.com>","Thu, 25 Apr 2013 22:53:19 +0200","Re: [DISCUSS] - Upgrading Jetty version in Camel 2.12"
"Willem jiang <willem.jiang@gmail.com>","Fri, 26 Apr 2013 08:59:39 +0800","Re: [DISCUSS] - Upgrading Jetty version in Camel 2.12"
"Christian Schneider <chris@die-schneider.net>","Fri, 26 Apr 2013 08:16:06 +0200","Re: [VOTE] Release Apache Camel 2.9.7"
"Claus Ibsen <claus.ibsen@gmail.com>","Fri, 26 Apr 2013 08:28:46 +0200","Re: [DISCUSS] - Upgrading Jetty version in Camel 2.12"
"Achim Nierbeck <bcanhome@googlemail.com>","Fri, 26 Apr 2013 08:36:36 +0200","Re: [DISCUSS] - Upgrading Jetty version in Camel 2.12"
"kasthurirajan <kasthuri_rajan@yahoo.com>","Fri, 26 Apr 2013 05:25:13 -0700 (PDT)","Reason: Missing Constraint: Import- Package: META-INF.wsdl; version=""0.0.0"""
"Marco Westermann <MarWestermann@gmx.de>","Fri, 26 Apr 2013 15:29:03 +0200","Re: Reason: Missing Constraint: Import- Package: META-INF.wsdl; version=""0.0.0"""
"Hadrian Zbarcea <hzbarcea@gmail.com>","Fri, 26 Apr 2013 12:37:11 -0400","Re: Camel ical data format"
"Apache Jenkins Server <jenkins@builds.apache.org>","Fri, 26 Apr 2013 16:56:34 +0000 (UTC)","Camel.trunk.notest - Build # 1851 - Still Failing"
"=?iso-8859-2?Q?=A3ukasz_Dywicki?= <luke@code-house.org>","Fri, 26 Apr 2013 19:27:29 +0200","Re: Camel ical data format"
"=?ISO-8859-1?Q?Christian_M=FCller?= <christian.mueller@gmail.com>","Fri, 26 Apr 2013 22:31:01 +0200","Re: [VOTE] Release Apache Camel 2.9.7"
"=?ISO-8859-1?Q?Christian_M=FCller?= <christian.mueller@gmail.com>","Fri, 26 Apr 2013 22:39:56 +0200","Re: svn commit: r860028 - in /websites/production/camel/content/maven: ./ camel-2.11.0/ camel-2.11.0/camel-ahc/ camel-2.11.0/camel-ahc/apidocs/ camel-2.11.0/camel-ahc/apidocs/org/ camel-2.11.0/camel-ahc/apidocs/org/apache/ camel-2.11.0/camel-ahc/apidocs/or..."
"Babak Vahdat <babak.vahdat@swissonline.ch>","Sat, 27 Apr 2013 01:31:14 +0200","Re: svn commit: r860028 - in /websites/production/camel/content/maven: ./ camel-2.11.0/ camel-2.11.0/camel-ahc/ camel-2.11.0/camel-ahc/apidocs/ camel-2.11.0/camel-ahc/apidocs/org/ camel-2.11.0/camel-ahc/apidocs/org/apache/ camel-2.11.0/camel-ahc/apidocs/or..."
"Babak Vahdat <babak.vahdat@swissonline.ch>","Sat, 27 Apr 2013 10:45:04 +0200","FW: Autoreply: svn commit: r1476525 - in /camel/trunk/components/camel-jclouds/src/test/java/org/apache/camel/component/jclouds: JcloudsBlobStoreConsumerTest.java JcloudsSpringBlobstoreTest.java"
"=?ISO-8859-1?Q?Christian_M=FCller?= <christian.mueller@gmail.com>","Sat, 27 Apr 2013 18:13:29 +0200","Our builds looks really bad..."
"Apache Jenkins Server <jenkins@builds.apache.org>","Sat, 27 Apr 2013 16:14:38 +0000 (UTC)","Camel.trunk.notest - Build # 1852 - Still Failing"
"Apache Jenkins Server <jenkins@builds.apache.org>","Sat, 27 Apr 2013 20:08:35 +0000 (UTC)","Camel.trunk.notest - Build # 1853 - Still Failing"
"Claus Ibsen <claus.ibsen@gmail.com>","Sun, 28 Apr 2013 09:10:17 +0200","Re: Our builds looks really bad..."
"=?ISO-8859-1?Q?Christian_M=FCller?= <christian.mueller@gmail.com>","Sun, 28 Apr 2013 10:36:48 +0200","[RESULT][VOTE] Release Apache Camel 2.9.7"
"Apache Jenkins Server <jenkins@builds.apache.org>","Sun, 28 Apr 2013 09:10:41 +0000 (UTC)","Camel.trunk.notest - Build # 1854 - Still Failing"
"Babak Vahdat <babak.vahdat@swissonline.ch>","Sun, 28 Apr 2013 02:30:58 -0700 (PDT)","Re: Our builds looks really bad..."
"=?ISO-8859-1?Q?Christian_M=FCller?= <christian.mueller@gmail.com>","Sun, 28 Apr 2013 22:22:01 +0200","[ANNOUNCE] Apache Camel 2.9.7 Released"
"=?ISO-8859-1?Q?Christian_M=FCller?= <christian.mueller@gmail.com>","Sun, 28 Apr 2013 23:33:51 +0200","Re: Our builds looks really bad..."
"Babak Vahdat <babak.vahdat@swissonline.ch>","Sun, 28 Apr 2013 14:37:20 -0700 (PDT)","Re: Our builds looks really bad..."
"Babak Vahdat <babak.vahdat@swissonline.ch>","Sun, 28 Apr 2013 15:46:28 -0700 (PDT)","Re: improving Endpoint documentation and tooling"
"Apache Jenkins Server <jenkins@builds.apache.org>","Mon, 29 Apr 2013 00:51:42 +0000 (UTC)","Camel.trunk.notest - Build # 1855 - Fixed"
"James Strachan <james.strachan@gmail.com>","Mon, 29 Apr 2013 07:00:26 +0100","Re: improving Endpoint documentation and tooling"
"James Strachan <james.strachan@gmail.com>","Mon, 29 Apr 2013 07:05:51 +0100","Re: improving Endpoint documentation and tooling"
"Babak Vahdat <babak.vahdat@swissonline.ch>","Mon, 29 Apr 2013 00:40:19 -0700 (PDT)","Re: Our builds looks really bad..."
"Babak Vahdat <babak.vahdat@swissonline.ch>","Mon, 29 Apr 2013 10:01:18 +0200","Re: improving Endpoint documentation and tooling"
"kasthurirajan <kasthuri_rajan@yahoo.com>","Mon, 29 Apr 2013 01:54:11 -0700 (PDT)","Re: Reason: Missing Constraint: Import- Package: META-INF.wsdl; version=""0.0.0"""
"Apache Jenkins Server <jenkins@builds.apache.org>","Mon, 29 Apr 2013 08:57:12 +0000 (UTC)","Camel.trunk.notest - Build # 1857 - Failure"
"Apache Jenkins Server <jenkins@builds.apache.org>","Mon, 29 Apr 2013 10:10:49 +0000 (UTC)","Camel.trunk.notest - Build # 1858 - Still Failing"
"Claus Ibsen <claus.ibsen@gmail.com>","Mon, 29 Apr 2013 12:44:56 +0200","Re: Reason: Missing Constraint: Import- Package: META-INF.wsdl; version=""0.0.0"""
"Apache Jenkins Server <jenkins@builds.apache.org>","Mon, 29 Apr 2013 12:08:39 +0000 (UTC)","Camel.trunk.notest - Build # 1859 - Still Failing"
"=?ISO-8859-1?Q?Christian_M=FCller?= <christian.mueller@gmail.com>","Mon, 29 Apr 2013 15:39:35 +0200","Re: Our builds looks really bad..."
"Apache Jenkins Server <jenkins@builds.apache.org>","Mon, 29 Apr 2013 14:23:36 +0000 (UTC)","Camel.trunk.notest - Build # 1860 - Fixed"
"Babak Vahdat <babak.vahdat@swissonline.ch>","Mon, 29 Apr 2013 10:30:16 -0700 (PDT)","Re: Our builds looks really bad..."
"=?ISO-8859-1?Q?Christian_M=FCller?= <christian.mueller@gmail.com>","Mon, 29 Apr 2013 19:39:15 +0200","Re: Our builds looks really bad..."
"Rich Newcomb <rich.newcomb@gmail.com>","Mon, 29 Apr 2013 13:50:01 -0400","Re: [jira] [Commented] (CAMEL-6323) FixedLength Bindy DataFormat does not work with @Link"
"Daniel Kulp <dkulp@apache.org>","Mon, 29 Apr 2013 14:47:06 -0400","main page update with blogs/news .."
"=?ISO-8859-1?Q?Christian_M=FCller?= <christian.mueller@gmail.com>","Mon, 29 Apr 2013 20:51:37 +0200","Re: main page update with blogs/news .."
"James Strachan <james.strachan@gmail.com>","Tue, 30 Apr 2013 08:35:56 +0100","Re: improving Endpoint documentation and tooling"
"Babak Vahdat <babak.vahdat@swissonline.ch>","Tue, 30 Apr 2013 00:58:02 -0700 (PDT)","Re: improving Endpoint documentation and tooling"
"James Strachan <james.strachan@gmail.com>","Tue, 30 Apr 2013 09:01:41 +0100","Re: improving Endpoint documentation and tooling"
"Claus Ibsen <claus.ibsen@gmail.com>","Tue, 30 Apr 2013 10:06:20 +0200","Re: improving Endpoint documentation and tooling"
"Babak Vahdat <babak.vahdat@swissonline.ch>","Tue, 30 Apr 2013 07:06:38 -0700 (PDT)","RE: svn commit: r1477321 - in /camel/trunk: camel-core/src/main/java/org/apache/camel/component/bean/ camel-core/src/main/java/org/apache/camel/impl/ camel-core/src/main/java/org/apache/camel/processor/resequencer/ camel-core/src/main/java/org/apache/camel..."
"Claus Ibsen <claus.ibsen@gmail.com>","Tue, 30 Apr 2013 16:12:26 +0200","Re: svn commit: r1477321 - in /camel/trunk: camel-core/src/main/java/org/apache/camel/component/bean/ camel-core/src/main/java/org/apache/camel/impl/ camel-core/src/main/java/org/apache/camel/processor/resequencer/ camel-core/src/main/java/org/apache/camel..."
