"Developer","Date","Subject"
"snurmine <git@git.apache.org>","Fri,  1 Jan 2016 21:31:37 +0000 (UTC)","[GitHub] camel pull request: CAMEL-4725 camel-sql - Add support for Callabl..."
"bjfr <git@git.apache.org>","Sat,  2 Jan 2016 22:11:56 +0000 (UTC)","[GitHub] camel pull request: CAMEL-9468 Bindy fails to marshal objects in S..."
"bjfr <git@git.apache.org>","Mon,  4 Jan 2016 09:57:03 +0000 (UTC)","[GitHub] camel pull request: CAMEL-9468 Bindy fails to marshal objects in S..."
"bjfr <git@git.apache.org>","Mon,  4 Jan 2016 09:57:17 +0000 (UTC)","[GitHub] camel pull request: CAMEL-9468 Bindy fails to marshal objects in S..."
"bjfr <git@git.apache.org>","Mon,  4 Jan 2016 10:37:56 +0000 (UTC)","[GitHub] camel pull request: CAMEL-9468 Bindy fails to marshal objects in S..."
"gautric <git@git.apache.org>","Mon,  4 Jan 2016 13:46:47 +0000 (UTC)","[GitHub] camel pull request: Example documentation cleaning "
"gautric <git@git.apache.org>","Mon,  4 Jan 2016 17:24:56 +0000 (UTC)","[GitHub] camel pull request: Example documentation cleaning "
"askannon <git@git.apache.org>","Tue,  5 Jan 2016 14:12:39 +0000 (UTC)","[GitHub] camel pull request: Feature to load rest dsl from xml file in came..."
"askannon <git@git.apache.org>","Tue,  5 Jan 2016 14:12:54 +0000 (UTC)","[GitHub] camel pull request: Feature to load rest dsl from xml file in came..."
"asfgit <git@git.apache.org>","Tue,  5 Jan 2016 16:52:32 +0000 (UTC)","[GitHub] camel pull request: Enable multiple consumer support for SQS endpo..."
"asfgit <git@git.apache.org>","Tue,  5 Jan 2016 16:52:32 +0000 (UTC)","[GitHub] camel pull request: Feature to load rest dsl from xml file in came..."
"asfgit <git@git.apache.org>","Tue,  5 Jan 2016 16:52:32 +0000 (UTC)","[GitHub] camel pull request: Creating objects with custom data types"
"hqstevenson <git@git.apache.org>","Tue,  5 Jan 2016 20:53:02 +0000 (UTC)","[GitHub] camel pull request: Camel 9416 - Creation of Camel-MLLP component"
"Claus Ibsen <claus.ibsen@gmail.com>","Wed, 6 Jan 2016 11:45:39 +0100","Camel 2.16.2 Release"
"""web_nabble@sunilsamuel.com"" <web_nabble@sunilsamuel.com>","Wed, 6 Jan 2016 07:50:58 -0700 (MST)","PollEnrich + JPA + setCompletionFromBatchConsumer + aggregator"
"ovidiu-hgdata <git@git.apache.org>","Wed,  6 Jan 2016 15:31:24 +0000 (UTC)","[GitHub] camel pull request: support for adding multiple parameters at once"
"ovidiu-hgdata <git@git.apache.org>","Wed,  6 Jan 2016 17:00:53 +0000 (UTC)","[GitHub] camel pull request: support for adding multiple parameters at once"
"hqstevenson <git@git.apache.org>","Wed,  6 Jan 2016 17:03:04 +0000 (UTC)","[GitHub] camel pull request: Camel 9416 - Creation of Camel-MLLP component"
"Quinn Stevenson <quinn@pronoia-solutions.com>","Wed, 6 Jan 2016 11:16:33 -0700","Potential Bug in CamelBlueprintTestSupport"
"Grzegorz Grzybek <gr.grzybek@gmail.com>","Wed, 6 Jan 2016 20:21:02 +0100","Re: Potential Bug in CamelBlueprintTestSupport"
"Quinn Stevenson <quinn@pronoia-solutions.com>","Wed, 6 Jan 2016 14:35:49 -0700","Re: Potential Bug in CamelBlueprintTestSupport"
"Quinn Stevenson <quinn@pronoia-solutions.com>","Wed, 6 Jan 2016 15:30:03 -0700","Re: Potential Bug in CamelBlueprintTestSupport"
"lburgazzoli <git@git.apache.org>","Thu,  7 Jan 2016 09:15:41 +0000 (UTC)","[GitHub] camel pull request: CAMEL-9430 Create camel-component for braintre..."
"lb <lburgazzoli@gmail.com>","Thu, 7 Jan 2016 10:22:54 +0100","Re: [camel-braintree] New Apache Camel component"
"lburgazzoli <git@git.apache.org>","Fri,  8 Jan 2016 07:37:16 +0000 (UTC)","[GitHub] camel pull request: [CAMEL-9414] update quickfixj to v1.6.1"
"lburgazzoli <git@git.apache.org>","Fri,  8 Jan 2016 07:44:54 +0000 (UTC)","[GitHub] camel pull request: [CAMEL-9414] update quickfixj to v1.6.1"
"gautric <git@git.apache.org>","Fri,  8 Jan 2016 15:58:01 +0000 (UTC)","[GitHub] camel pull request: CAMEL-9491 : statement.maxRows not working as ..."
"gautric <git@git.apache.org>","Fri,  8 Jan 2016 17:01:09 +0000 (UTC)","[GitHub] camel pull request: CAMEL-9491 : statement.maxRows not working as ..."
"lburgazzoli <git@git.apache.org>","Fri,  8 Jan 2016 17:38:02 +0000 (UTC)","[GitHub] camel pull request: [CAMEL-9414] update quickfixj to v1.6.1"
"asfgit <git@git.apache.org>","Fri,  8 Jan 2016 17:53:39 +0000 (UTC)","[GitHub] camel pull request: CAMEL-9430 Create camel-component for braintre..."
"snurmine <git@git.apache.org>","Sat,  9 Jan 2016 10:57:08 +0000 (UTC)","[GitHub] camel pull request: CAMEL-4725 camel-sql - Add support for Callabl..."
"Aleksei Valikov <aleksei.valikov@gmail.com>","Sat, 9 Jan 2016 16:11:25 +0100","Camel Google Cloud Messaging Component"
"aparghi <aparghi@yahoo.com>","Sat, 9 Jan 2016 16:29:07 -0700 (MST)","Unable to configure Websphere MQ using Camel JMS Component"
"Claus Ibsen <claus.ibsen@gmail.com>","Sun, 10 Jan 2016 12:34:34 +0100","Re: Camel Google Cloud Messaging Component"
"Claus Ibsen <claus.ibsen@gmail.com>","Sun, 10 Jan 2016 12:36:43 +0100","Re: [camel-braintree] New Apache Camel component"
"Claus Ibsen <claus.ibsen@gmail.com>","Sun, 10 Jan 2016 12:37:52 +0100","Re: Camel 2.16.2 Release"
"miki@softwareengineer.ro","Sun, 10 Jan 2016 14:58:10 +0200","Re: Camel Google Cloud Messaging Component"
"snurmine <git@git.apache.org>","Sun, 10 Jan 2016 15:45:30 +0000 (UTC)","[GitHub] camel pull request: CAMEL-4725: Batch support. Single Producer for..."
"yuruki <git@git.apache.org>","Sun, 10 Jan 2016 20:05:35 +0000 (UTC)","[GitHub] camel pull request: CAMEL-9498: Always provide a writable local re..."
"Claus Ibsen <claus.ibsen@gmail.com>","Mon, 11 Jan 2016 09:27:42 +0100","Re: Camel 2.16.2 Release"
"Gregor Zurowski <gregor@list.zurowski.org>","Mon, 11 Jan 2016 12:20:46 +0100","Re: Camel 2.16.2 Release"
"Andrea Cosentino <ancosen1985@yahoo.com.INVALID>","Mon, 11 Jan 2016 12:48:43 +0000 (UTC)","Re: Camel 2.16.2 Release"
"tdiesler <git@git.apache.org>","Mon, 11 Jan 2016 12:58:20 +0000 (UTC)","[GitHub] camel pull request: [CAMEL-9500] CamelVersionHelper cannot handle ..."
"lburgazzoli <git@git.apache.org>","Mon, 11 Jan 2016 15:23:49 +0000 (UTC)","[GitHub] camel pull request: CAMEL-9430 : camel-braintree feature definitio..."
"hqstevenson <git@git.apache.org>","Mon, 11 Jan 2016 21:17:53 +0000 (UTC)","[GitHub] camel pull request: CAMEL-9493 - Improve shutdown of listener for ..."
"asfgit <git@git.apache.org>","Tue, 12 Jan 2016 09:12:17 +0000 (UTC)","[GitHub] camel pull request: CAMEL-9430 : camel-braintree feature definitio..."
"lb <lburgazzoli@gmail.com>","Tue, 12 Jan 2016 11:43:32 +0100","Re: [camel-braintree] New Apache Camel component"
"Andrea Cosentino <ancosen1985@yahoo.com.INVALID>","Tue, 12 Jan 2016 10:53:28 +0000 (UTC)","Re: [camel-braintree] New Apache Camel component"
"tdiesler <git@git.apache.org>","Tue, 12 Jan 2016 14:33:38 +0000 (UTC)","[GitHub] camel pull request: [CAMEL-9500] CamelVersionHelper cannot handle ..."
"cjnygard <git@git.apache.org>","Tue, 12 Jan 2016 17:20:50 +0000 (UTC)","[GitHub] camel pull request: Fix erroneous logging when mapTemplate.size()=..."
"Doug Tung <dwtung@isg.la>","Tue, 12 Jan 2016 21:25:23 -0700 (MST)","Changing a single component version"
"""Siano, Stephan"" <stephan.siano@sap.com>","Wed, 13 Jan 2016 07:24:09 +0000","RE: Changing a single component version"
"Dewitte Pierre-Alban <padewitte@gmail.com>","Wed, 13 Jan 2016 09:44:08 +0100","Re: Changing a single component version"
"lburgazzoli <git@git.apache.org>","Wed, 13 Jan 2016 16:35:21 +0000 (UTC)","[GitHub] camel pull request: CAMEL-9330 : Main - enableHangupSupport should..."
"veithen <git@git.apache.org>","Wed, 13 Jan 2016 19:12:54 +0000 (UTC)","[GitHub] camel pull request: Fix camel-netty4-http unit tests that use 0.0...."
"kazvis <varughv@gmail.com>","Wed, 13 Jan 2016 13:04:01 -0700 (MST)","How to send a response to calling web service after pushing a message to AMQ"
"veithen <git@git.apache.org>","Wed, 13 Jan 2016 23:17:05 +0000 (UTC)","[GitHub] camel pull request: Work around test flakiness by rerunning failin..."
"Doug Tung <dwtung@isg.la>","Wed, 13 Jan 2016 17:29:10 -0700 (MST)","Re: Changing a single component version"
"yogeshrao <git@git.apache.org>","Thu, 14 Jan 2016 04:37:29 +0000 (UTC)","[GitHub] camel pull request: CAMEL-9508 : support jms 2.0 in osgi manifest"
"astefanutti <git@git.apache.org>","Thu, 14 Jan 2016 14:29:33 +0000 (UTC)","[GitHub] camel pull request: CAMEL-9201: Improved Camel CDI component"
"Quinn Stevenson <quinn@pronoia-solutions.com>","Thu, 14 Jan 2016 08:42:00 -0700","Re: Potential Bug in CamelBlueprintTestSupport"
"Grzegorz Grzybek <gr.grzybek@gmail.com>","Thu, 14 Jan 2016 16:48:35 +0100","Re: Potential Bug in CamelBlueprintTestSupport"
"hqstevenson <git@git.apache.org>","Thu, 14 Jan 2016 16:34:06 +0000 (UTC)","[GitHub] camel pull request: CAMEL-9493 - Improve shutdown of listener for ..."
"Claus Ibsen <claus.ibsen@gmail.com>","Thu, 14 Jan 2016 16:44:12 +0000","Camel unit tests - Automatic re-run failed tests"
"snurmine <git@git.apache.org>","Thu, 14 Jan 2016 16:48:22 +0000 (UTC)","[GitHub] camel pull request: CAMEL-4725: Batch support. Single Producer for..."
"Andrea Cosentino <ancosen1985@yahoo.com.INVALID>","Thu, 14 Jan 2016 16:56:49 +0000 (UTC)","Re: Camel unit tests - Automatic re-run failed tests"
"Antonin Stefanutti <antonin@stefanutti.fr>","Thu, 14 Jan 2016 17:04:07 +0000","Re: Camel CDI component improvements"
"sarwarbhuiyan <git@git.apache.org>","Thu, 14 Jan 2016 17:40:30 +0000 (UTC)","[GitHub] camel pull request: Rest elasticsearch client support"
"snurmine <git@git.apache.org>","Thu, 14 Jan 2016 19:21:56 +0000 (UTC)","[GitHub] camel pull request: CAMEL-4725:Vendor spesific SQL type and remove..."
"veithen <git@git.apache.org>","Thu, 14 Jan 2016 19:57:43 +0000 (UTC)","[GitHub] camel pull request: Fix sporadic test failures in camel-ssh and ca..."
"yuruki <git@git.apache.org>","Thu, 14 Jan 2016 20:01:51 +0000 (UTC)","[GitHub] camel pull request: CAMEL-9498: Always provide a writable local re..."
"unleashed85 <camel@bradreitmeyer.com>","Thu, 14 Jan 2016 15:29:56 -0700 (MST)","CAMEL-8742 RabbitMQ consumer reconnect"
"Pascal Schumacher <pascalschumacher@gmx.net>","Fri, 15 Jan 2016 00:02:23 +0100","Remove mentions of (very) old versions in component docs ?"
"yogeshrao <git@git.apache.org>","Fri, 15 Jan 2016 04:21:32 +0000 (UTC)","[GitHub] camel pull request: CAMEL-9508 : support jms 2.0 in osgi manifest"
"yogeshrao <git@git.apache.org>","Fri, 15 Jan 2016 04:25:19 +0000 (UTC)","[GitHub] camel pull request: CAMEL-9508 : support jms 2.0 in osgi manifest"
"Claus Ibsen <claus.ibsen@gmail.com>","Fri, 15 Jan 2016 08:04:24 +0100","Re: CAMEL-8742 RabbitMQ consumer reconnect"
"Claus Ibsen <claus.ibsen@gmail.com>","Fri, 15 Jan 2016 08:07:40 +0100","Re: Remove mentions of (very) old versions in component docs ?"
"veithen <git@git.apache.org>","Fri, 15 Jan 2016 07:55:45 +0000 (UTC)","[GitHub] camel pull request: Fix sporadic test failures in camel-ssh and ca..."
"Claus Ibsen <claus.ibsen@gmail.com>","Fri, 15 Jan 2016 09:01:52 +0100","Re: Camel unit tests - Automatic re-run failed tests"
"Andrea Cosentino <ancosen1985@yahoo.com.INVALID>","Fri, 15 Jan 2016 08:08:44 +0000 (UTC)","Re: Camel unit tests - Automatic re-run failed tests"
"Grzegorz Grzybek <gr.grzybek@gmail.com>","Fri, 15 Jan 2016 11:23:32 +0100","Re: Potential Bug in CamelBlueprintTestSupport"
"yogeshrao <git@git.apache.org>","Fri, 15 Jan 2016 11:24:30 +0000 (UTC)","[GitHub] camel pull request: CAMEL-9508 : support jms 2.0 in osgi manifest"
"tdiesler <git@git.apache.org>","Fri, 15 Jan 2016 11:41:50 +0000 (UTC)","[GitHub] camel pull request: [CAMEL-9518] Swagger may see non-camel MBeans"
"tdiesler <git@git.apache.org>","Fri, 15 Jan 2016 12:24:16 +0000 (UTC)","[GitHub] camel pull request: [CAMEL-9518] Swagger may see non-camel MBeans"
"lburgazzoli <git@git.apache.org>","Fri, 15 Jan 2016 12:30:49 +0000 (UTC)","[GitHub] camel pull request: CAMEL-9330 : Main - enableHangupSupport should..."
"Claus Ibsen <claus.ibsen@gmail.com>","Fri, 15 Jan 2016 14:44:09 +0100","Re: Camel CDI component improvements"
"astefanutti <git@git.apache.org>","Fri, 15 Jan 2016 14:15:33 +0000 (UTC)","[GitHub] camel pull request: Avoid non-static nested class and fix CS error"
"Antonin Stefanutti <antonin@stefanutti.fr>","Fri, 15 Jan 2016 14:52:26 +0000","Re: Camel CDI component improvements"
"asfgit <git@git.apache.org>","Fri, 15 Jan 2016 15:13:17 +0000 (UTC)","[GitHub] camel pull request: CAMEL-9201: Improved Camel CDI component"
"astefanutti <git@git.apache.org>","Fri, 15 Jan 2016 15:17:34 +0000 (UTC)","[GitHub] camel pull request: Avoid non-static nested class and fix CS error"
"Quinn Stevenson <quinn@pronoia-solutions.com>","Fri, 15 Jan 2016 09:16:00 -0700","Re: Potential Bug in CamelBlueprintTestSupport"
"Grzegorz Grzybek <gr.grzybek@gmail.com>","Fri, 15 Jan 2016 17:17:45 +0100","Re: Potential Bug in CamelBlueprintTestSupport"
"astefanutti <git@git.apache.org>","Fri, 15 Jan 2016 17:47:55 +0000 (UTC)","[GitHub] camel pull request: Remove unecessary inline import"
"Grzegorz Grzybek <gr.grzybek@gmail.com>","Fri, 15 Jan 2016 19:07:18 +0100","Re: Potential Bug in CamelBlueprintTestSupport"
"veithen <git@git.apache.org>","Fri, 15 Jan 2016 19:12:44 +0000 (UTC)","[GitHub] camel pull request: Fix camel-netty-http unit tests that use 0.0.0..."
"veithen <git@git.apache.org>","Fri, 15 Jan 2016 19:13:23 +0000 (UTC)","[GitHub] camel pull request: Fix camel-netty4-http unit tests that use 0.0...."
"Quinn Stevenson <quinn@pronoia-solutions.com>","Fri, 15 Jan 2016 12:14:03 -0700","Re: Potential Bug in CamelBlueprintTestSupport"
"veithen <git@git.apache.org>","Sat, 16 Jan 2016 11:19:29 +0000 (UTC)","[GitHub] camel pull request: Fix camel-netty-http unit tests that use 0.0.0..."
"astefanutti <git@git.apache.org>","Sat, 16 Jan 2016 15:30:12 +0000 (UTC)","[GitHub] camel pull request: Remove unecessary inline import"
"Claus Ibsen <claus.ibsen@gmail.com>","Mon, 18 Jan 2016 09:47:15 +0100","Re: Camel 2.16.2 Release"
"Gregor Zurowski <gregor@list.zurowski.org>","Mon, 18 Jan 2016 11:46:55 +0100","Re: Camel 2.16.2 Release"
"Claus Ibsen <claus.ibsen@gmail.com>","Mon, 18 Jan 2016 12:10:09 +0100","Re: Camel 2.16.2 Release"
"astefanutti <git@git.apache.org>","Mon, 18 Jan 2016 14:53:32 +0000 (UTC)","[GitHub] camel pull request: Metrics CDI example"
"astefanutti <git@git.apache.org>","Mon, 18 Jan 2016 16:09:03 +0000 (UTC)","[GitHub] camel pull request: Fix broken link"
"hqstevenson <git@git.apache.org>","Mon, 18 Jan 2016 17:58:13 +0000 (UTC)","[GitHub] camel pull request: CAMEL-9519: Fixed generated POM and added more..."
"Apache Jenkins Server <jenkins@builds.apache.org>","Tue, 19 Jan 2016 03:02:29 +0000 (UTC)","Camel.2.15.x.notest - Build # 191 - Failure"
"""York, Barry"" <Barry.York@CenturyLink.com>","Tue, 19 Jan 2016 03:39:07 +0000","[jira] Resolved: (CAMEL-2867) convertBodyTo should handle null bodies"
"astefanutti <git@git.apache.org>","Tue, 19 Jan 2016 09:01:32 +0000 (UTC)","[GitHub] camel pull request: Metrics CDI example"
"astefanutti <git@git.apache.org>","Tue, 19 Jan 2016 09:02:13 +0000 (UTC)","[GitHub] camel pull request: Fix broken link"
"gautric <git@git.apache.org>","Tue, 19 Jan 2016 16:03:28 +0000 (UTC)","[GitHub] camel pull request: Markdown url correction"
"gautric <git@git.apache.org>","Tue, 19 Jan 2016 16:05:58 +0000 (UTC)","[GitHub] camel pull request: Markdown url correction 2"
"hqstevenson <git@git.apache.org>","Tue, 19 Jan 2016 16:30:47 +0000 (UTC)","[GitHub] camel pull request: CAMEL-9519: Fixed generated POM and added more..."
"CandleCandle <git@git.apache.org>","Wed, 20 Jan 2016 13:42:04 +0000 (UTC)","[GitHub] camel pull request: Fix for Camel-9515; resuming after an expired ..."
"aaronriekenberg <git@git.apache.org>","Wed, 20 Jan 2016 14:47:58 +0000 (UTC)","[GitHub] camel pull request: Make Kafka KEY and PARTITION values more intui..."
"Antoine Toulme <antoine@lunar-ocean.com>","Wed, 20 Jan 2016 17:27:41 -0800","Addition to Camel commercial offerings page - GOAPPO"
"redhatfusefan <hong@redhat.com>","Wed, 20 Jan 2016 22:26:11 -0700 (MST)","Dragging and dropping - bug detected"
"Claus Ibsen <claus.ibsen@gmail.com>","Thu, 21 Jan 2016 08:52:13 +0100","Re: Dragging and dropping - bug detected"
"CandleCandle <git@git.apache.org>","Thu, 21 Jan 2016 10:32:20 +0000 (UTC)","[GitHub] camel pull request: Fix for Camel-9515; resuming after an expired ..."
"aaronriekenberg <git@git.apache.org>","Thu, 21 Jan 2016 14:01:57 +0000 (UTC)","[GitHub] camel pull request: Make Kafka KEY and PARTITION values more intui..."
"Hiram Chirino <hiram@hiramchirino.com>","Thu, 21 Jan 2016 10:29:17 -0500","gitbook based doc generation"
"Andrea Cosentino <ancosen1985@yahoo.com.INVALID>","Thu, 21 Jan 2016 15:44:08 +0000 (UTC)","Re: gitbook based doc generation"
"astefanutti <git@git.apache.org>","Thu, 21 Jan 2016 16:48:49 +0000 (UTC)","[GitHub] camel pull request: Automatically deploy @ContextName Camel contex..."
"Hiram Chirino <hiram@hiramchirino.com>","Thu, 21 Jan 2016 13:12:25 -0500","Re: gitbook based doc generation"
"Ranx <brad.johnson@mediadriver.com>","Thu, 21 Jan 2016 13:18:05 -0700 (MST)","@Produce Bug"
"chirino <git@git.apache.org>","Thu, 21 Jan 2016 20:43:39 +0000 (UTC)","[GitHub] camel pull request: Fixing up some Admonition blocks."
"Claus Ibsen <claus.ibsen@gmail.com>","Fri, 22 Jan 2016 08:18:05 +0100","Re: @Produce Bug"
"Claus Ibsen <claus.ibsen@gmail.com>","Fri, 22 Jan 2016 16:02:48 +0100","Re: Addition to Camel commercial offerings page - GOAPPO"
"astefanutti <git@git.apache.org>","Fri, 22 Jan 2016 15:10:29 +0000 (UTC)","[GitHub] camel pull request: Automatically deploy @ContextName Camel contex..."
"Ranx <brad.johnson@mediadriver.com>","Fri, 22 Jan 2016 08:51:58 -0700 (MST)","Re: @Produce Bug"
"lburgazzoli <git@git.apache.org>","Fri, 22 Jan 2016 16:17:57 +0000 (UTC)","[GitHub] camel pull request: CAMEL-7865 - Support to carry file attributes ..."
"Gregor Zurowski <gregor@list.zurowski.org>","Fri, 22 Jan 2016 17:22:35 +0100","Camel 2.16.2 Release"
"lburgazzoli <git@git.apache.org>","Fri, 22 Jan 2016 16:25:06 +0000 (UTC)","[GitHub] camel pull request: CAMEL-7054 - CamelNetty - No way to get Channe..."
"Claus Ibsen <claus.ibsen@gmail.com>","Fri, 22 Jan 2016 17:42:13 +0100","Re: @Produce Bug"
"Ranx <brad.johnson@mediadriver.com>","Fri, 22 Jan 2016 10:22:11 -0700 (MST)","Re: @Produce Bug"
"Claus Ibsen <claus.ibsen@gmail.com>","Fri, 22 Jan 2016 19:45:42 +0100","Re: @Produce Bug"
"Claus Ibsen <claus.ibsen@gmail.com>","Fri, 22 Jan 2016 21:04:47 +0100","Re: Camel 2.16.2 Release"
"Claus Ibsen <claus.ibsen@gmail.com>","Fri, 22 Jan 2016 21:08:30 +0100","Re: gitbook based doc generation"
"Antoine Toulme <antoine@lunar-ocean.com>","Fri, 22 Jan 2016 12:10:29 -0800","Re: Addition to Camel commercial offerings page - GOAPPO"
"asfgit <git@git.apache.org>","Sat, 23 Jan 2016 09:32:58 +0000 (UTC)","[GitHub] camel pull request: Fix erroneous logging when mapTemplate.size()=..."
"asfgit <git@git.apache.org>","Sat, 23 Jan 2016 09:32:59 +0000 (UTC)","[GitHub] camel pull request: Markdown url correction"
"asfgit <git@git.apache.org>","Sat, 23 Jan 2016 09:32:59 +0000 (UTC)","[GitHub] camel pull request: Markdown url correction 2"
"asfgit <git@git.apache.org>","Sat, 23 Jan 2016 09:32:59 +0000 (UTC)","[GitHub] camel pull request: CAMEL-4725:Vendor spesific SQL type and remove..."
"Gregor Zurowski <gregor@list.zurowski.org>","Sat, 23 Jan 2016 12:08:22 +0100","[VOTE] Release Apache Camel 2.16.2"
"gautric <git@git.apache.org>","Sat, 23 Jan 2016 21:39:59 +0000 (UTC)","[GitHub] camel pull request: markdown correction"
"gautric <git@git.apache.org>","Sat, 23 Jan 2016 21:41:00 +0000 (UTC)","[GitHub] camel pull request: markdown correction"
"gautric <git@git.apache.org>","Sat, 23 Jan 2016 21:43:18 +0000 (UTC)","[GitHub] camel pull request: markdown correction"
"gautric <git@git.apache.org>","Sat, 23 Jan 2016 21:45:11 +0000 (UTC)","[GitHub] camel pull request: markdown correction"
"gautric <git@git.apache.org>","Sat, 23 Jan 2016 21:46:36 +0000 (UTC)","[GitHub] camel pull request: markdown correction"
"Claus Ibsen <claus.ibsen@gmail.com>","Sun, 24 Jan 2016 10:26:01 +0100","Re: [VOTE] Release Apache Camel 2.16.2"
"lburgazzoli <git@git.apache.org>","Sun, 24 Jan 2016 15:44:09 +0000 (UTC)","[GitHub] camel pull request: CAMEL-7865 - Support to carry file attributes ..."
"lburgazzoli <git@git.apache.org>","Sun, 24 Jan 2016 15:44:47 +0000 (UTC)","[GitHub] camel pull request: CAMEL-7054 - CamelNetty - No way to get Channe..."
"lburgazzoli <git@git.apache.org>","Sun, 24 Jan 2016 15:46:48 +0000 (UTC)","[GitHub] camel pull request: CAMEL-7054 - CamelNetty - No way to get Channe..."
"lburgazzoli <git@git.apache.org>","Sun, 24 Jan 2016 15:48:06 +0000 (UTC)","[GitHub] camel pull request: CAMEL-7054 - CamelNetty - No way to get Channe..."
"lburgazzoli <git@git.apache.org>","Sun, 24 Jan 2016 16:30:21 +0000 (UTC)","[GitHub] camel pull request: CAMEL-7054 - CamelNetty - No way to get Channe..."
"asfgit <git@git.apache.org>","Sun, 24 Jan 2016 17:33:50 +0000 (UTC)","[GitHub] camel pull request: CAMEL-7054 - CamelNetty - No way to get Channe..."
"Carl Nygard <cjnygard@gmail.com>","Sun, 24 Jan 2016 23:41:36 -0500","Re: gitbook based doc generation"
"Andrea Cosentino <ancosen1985@yahoo.com.INVALID>","Mon, 25 Jan 2016 08:37:08 +0000 (UTC)","Re: [VOTE] Release Apache Camel 2.16.2"
"astefanutti <git@git.apache.org>","Mon, 25 Jan 2016 09:48:43 +0000 (UTC)","[GitHub] camel pull request: Metrics CDI example automated tests"
"lburgazzoli <git@git.apache.org>","Mon, 25 Jan 2016 09:53:25 +0000 (UTC)","[GitHub] camel pull request: CAMEL-7865 - Support to carry file attributes ..."
"astefanutti <git@git.apache.org>","Mon, 25 Jan 2016 10:57:38 +0000 (UTC)","[GitHub] camel pull request: Camel CDI component AsciiDoc documentation"
"astefanutti <git@git.apache.org>","Mon, 25 Jan 2016 12:15:44 +0000 (UTC)","[GitHub] camel pull request: Camel CDI component AsciiDoc documentation"
"astefanutti <git@git.apache.org>","Mon, 25 Jan 2016 13:00:03 +0000 (UTC)","[GitHub] camel pull request: Metrics CDI example automated tests"
"gautric <git@git.apache.org>","Mon, 25 Jan 2016 13:34:04 +0000 (UTC)","[GitHub] camel pull request: fix Markdown stuff (url, whitespace)"
"gautric <git@git.apache.org>","Mon, 25 Jan 2016 13:34:34 +0000 (UTC)","[GitHub] camel pull request: markdown correction"
"gautric <git@git.apache.org>","Mon, 25 Jan 2016 13:35:02 +0000 (UTC)","[GitHub] camel pull request: markdown correction"
"gautric <git@git.apache.org>","Mon, 25 Jan 2016 13:35:09 +0000 (UTC)","[GitHub] camel pull request: markdown correction"
"gautric <git@git.apache.org>","Mon, 25 Jan 2016 13:35:16 +0000 (UTC)","[GitHub] camel pull request: markdown correction"
"gautric <git@git.apache.org>","Mon, 25 Jan 2016 13:35:41 +0000 (UTC)","[GitHub] camel pull request: markdown correction"
"asfgit <git@git.apache.org>","Mon, 25 Jan 2016 13:37:15 +0000 (UTC)","[GitHub] camel pull request: fix Markdown stuff (url, whitespace)"
"ytatyaLij <amare.aderajew@gmail.com>","Mon, 25 Jan 2016 11:11:50 -0700 (MST)","How to customise HTTP response message such as 404,500"
"PascalSchumacher <git@git.apache.org>","Mon, 25 Jan 2016 19:53:17 +0000 (UTC)","[GitHub] camel pull request: correct grammar of log message"
"=?UTF-8?Q?ThomasG=C3=B8tzsche?= <Thomas.Gotzsche@bec.dk>","Tue, 26 Jan 2016 02:13:31 -0700 (MST)","SFTP-Consumer: Handle UnknowHostException"
"lburgazzoli <git@git.apache.org>","Tue, 26 Jan 2016 09:52:14 +0000 (UTC)","[GitHub] camel pull request: CAMEL-7865 - Support to carry file attributes ..."
"PascalSchumacher <git@git.apache.org>","Tue, 26 Jan 2016 09:53:53 +0000 (UTC)","[GitHub] camel pull request: correct grammar of log message"
"lburgazzoli <git@git.apache.org>","Tue, 26 Jan 2016 12:08:53 +0000 (UTC)","[GitHub] camel pull request: CAMEL-8413 - camel-stomp - Allow to configure ..."
"lburgazzoli <git@git.apache.org>","Tue, 26 Jan 2016 12:56:51 +0000 (UTC)","[GitHub] camel pull request: CAMEL-5583 - Add ning-compress as data format"
"Thomas Diesler <tdiesler@redhat.com>","Tue, 26 Jan 2016 14:22:46 +0100","Re: [VOTE] Release Apache Camel 2.16.2"
"lburgazzoli <git@git.apache.org>","Tue, 26 Jan 2016 13:28:46 +0000 (UTC)","[GitHub] camel pull request: CAMEL-5583 - Add ning-compress as data format"
"lburgazzoli <git@git.apache.org>","Tue, 26 Jan 2016 13:35:44 +0000 (UTC)","[GitHub] camel pull request: CAMEL-8413 - camel-stomp - Allow to configure ..."
"Jon Anstey <janstey@gmail.com>","Tue, 26 Jan 2016 10:07:09 -0330","Re: [VOTE] Release Apache Camel 2.16.2"
"astefanutti <git@git.apache.org>","Tue, 26 Jan 2016 13:38:31 +0000 (UTC)","[GitHub] camel pull request: camel-metrics component Asciidoc documentation"
"Grzegorz Grzybek <gr.grzybek@gmail.com>","Tue, 26 Jan 2016 14:41:39 +0100","Re: [VOTE] Release Apache Camel 2.16.2"
"astefanutti <git@git.apache.org>","Tue, 26 Jan 2016 14:12:48 +0000 (UTC)","[GitHub] camel pull request: camel-metrics component Asciidoc documentation"
"lburgazzoli <git@git.apache.org>","Tue, 26 Jan 2016 15:20:00 +0000 (UTC)","[GitHub] camel pull request: CAMEL-5583 - Add ning-compress as data format"
"Matt Sicker <boards@gmail.com>","Tue, 26 Jan 2016 09:39:43 -0600","Re: How to customise HTTP response message such as 404,500"
"lburgazzoli <git@git.apache.org>","Tue, 26 Jan 2016 16:53:44 +0000 (UTC)","[GitHub] camel pull request: CAMEL-9449 - Allow to specify custom exit code..."
"lburgazzoli <git@git.apache.org>","Tue, 26 Jan 2016 17:47:37 +0000 (UTC)","[GitHub] camel pull request: CAMEL-5583 - add LZFDataFormat to jaxp.index"
"asfgit <git@git.apache.org>","Tue, 26 Jan 2016 17:49:20 +0000 (UTC)","[GitHub] camel pull request: CAMEL-5583 - add LZFDataFormat to jaxp.index"
"lburgazzoli <git@git.apache.org>","Tue, 26 Jan 2016 17:49:52 +0000 (UTC)","[GitHub] camel pull request: CAMEL-9449 - Allow to specify custom exit code..."
"lburgazzoli <git@git.apache.org>","Tue, 26 Jan 2016 17:50:24 +0000 (UTC)","[GitHub] camel pull request: CAMEL-5583 - Add ning-compress as data format"
"astefanutti <git@git.apache.org>","Tue, 26 Jan 2016 18:18:22 +0000 (UTC)","[GitHub] camel pull request: SJMS and SJMS Batch components Asciidoc docume..."
"Claus Ibsen <claus.ibsen@gmail.com>","Tue, 26 Jan 2016 19:54:48 +0100","Re: gitbook based doc generation"
"Aki Yoshida <elakito@gmail.com>","Wed, 27 Jan 2016 00:48:19 +0100","Re: [VOTE] Release Apache Camel 2.16.2"
"""web_nabble@sunilsamuel.com"" <web_nabble@sunilsamuel.com>","Tue, 26 Jan 2016 18:13:07 -0700 (MST)","dataformat:// Component with JSON"
"""web_nabble@sunilsamuel.com"" <web_nabble@sunilsamuel.com>","Tue, 26 Jan 2016 18:17:26 -0700 (MST)","Re: WMQ + CamelBlueprintTestSupport"
"Claus Ibsen <claus.ibsen@gmail.com>","Wed, 27 Jan 2016 08:31:09 +0100","Re: [VOTE] Release Apache Camel 2.16.2"
"Andrea Cosentino <ancosen1985@yahoo.com.INVALID>","Wed, 27 Jan 2016 07:50:22 +0000 (UTC)","Re: gitbook based doc generation"
"astefanutti <git@git.apache.org>","Wed, 27 Jan 2016 08:19:57 +0000 (UTC)","[GitHub] camel pull request: SJMS and SJMS Batch components Asciidoc docume..."
"Gregor Zurowski <gregor@list.zurowski.org>","Wed, 27 Jan 2016 09:23:47 +0100","Re: [VOTE] Release Apache Camel 2.16.2"
"astefanutti <git@git.apache.org>","Wed, 27 Jan 2016 10:18:54 +0000 (UTC)","[GitHub] camel pull request: Asciidoc migration (Properties, Quickfix and R..."
"Claus Ibsen <claus.ibsen@gmail.com>","Wed, 27 Jan 2016 11:25:29 +0100","Re: gitbook based doc generation"
"Pallavi G S <rao.niharika1@gmail.com>","Wed, 27 Jan 2016 03:36:12 -0700 (MST)","Camel beanio mapping file outside the war"
"Kushagra Saxena <kushagras72@gmail.com>","Wed, 27 Jan 2016 16:12:30 +0530","Add to the mailing list"
"lburgazzoli <git@git.apache.org>","Wed, 27 Jan 2016 11:25:55 +0000 (UTC)","[GitHub] camel pull request: CAMEL-6913 - Add dynamic unmarshalling capabil..."
"Andrea Cosentino <ancosen1985@yahoo.com.INVALID>","Wed, 27 Jan 2016 11:42:59 +0000 (UTC)","Re: gitbook based doc generation"
"Andrea Cosentino <ancosen1985@yahoo.com.INVALID>","Wed, 27 Jan 2016 11:43:45 +0000 (UTC)","Re: gitbook based doc generation"
"=?UTF-8?Q?Christian_M=C3=BCller?= <christian.mueller@gmail.com>","Wed, 27 Jan 2016 13:06:29 +0100","Re: [VOTE] Release Apache Camel 2.16.2"
"Antonin Stefanutti <antonin@stefanutti.fr>","Wed, 27 Jan 2016 12:07:40 +0000","Re: gitbook based doc generation"
"astefanutti <git@git.apache.org>","Wed, 27 Jan 2016 12:25:36 +0000 (UTC)","[GitHub] camel pull request: Asciidoc migration (Properties, Quickfix and R..."
"Claus Ibsen <claus.ibsen@gmail.com>","Wed, 27 Jan 2016 13:49:20 +0100","Re: gitbook based doc generation"
"Claus Ibsen <claus.ibsen@gmail.com>","Wed, 27 Jan 2016 13:51:33 +0100","Re: gitbook based doc generation"
"Antonin Stefanutti <antonin@stefanutti.fr>","Wed, 27 Jan 2016 13:12:37 +0000","Re: gitbook based doc generation"
"Andrea Cosentino <ancosen1985@yahoo.com.INVALID>","Wed, 27 Jan 2016 13:33:22 +0000 (UTC)","Re: gitbook based doc generation"
"Claus Ibsen <claus.ibsen@gmail.com>","Wed, 27 Jan 2016 14:35:30 +0100","Re: gitbook based doc generation"
"astefanutti <git@git.apache.org>","Wed, 27 Jan 2016 14:53:13 +0000 (UTC)","[GitHub] camel pull request: Twitter component Asciidoc documentation"
"Antonin Stefanutti <antonin@stefanutti.fr>","Wed, 27 Jan 2016 15:10:33 +0000","Re: gitbook based doc generation"
"Claus Ibsen <claus.ibsen@gmail.com>","Wed, 27 Jan 2016 16:35:13 +0100","Re: gitbook based doc generation"
"lburgazzoli <git@git.apache.org>","Wed, 27 Jan 2016 15:42:03 +0000 (UTC)","[GitHub] camel pull request: CAMEL-6913 - Add dynamic unmarshalling capabil..."
"astefanutti <git@git.apache.org>","Wed, 27 Jan 2016 15:42:20 +0000 (UTC)","[GitHub] camel pull request: Twitter component Asciidoc documentation"
"Quinn Stevenson <quinn@pronoia-solutions.com>","Wed, 27 Jan 2016 09:09:23 -0700","Re: WMQ + CamelBlueprintTestSupport"
"Gregor Zurowski <gregor@list.zurowski.org>","Wed, 27 Jan 2016 17:32:45 +0100","Re: [VOTE] Release Apache Camel 2.16.2"
"Gregor Zurowski <gregor@list.zurowski.org>","Wed, 27 Jan 2016 17:36:43 +0100","Re: [VOTE] Release Apache Camel 2.16.2"
"brreitme <git@git.apache.org>","Wed, 27 Jan 2016 17:36:00 +0000 (UTC)","[GitHub] camel pull request: CAMEL-8742 - Reconnect when connections are cl..."
"hqstevenson <git@git.apache.org>","Wed, 27 Jan 2016 18:24:29 +0000 (UTC)","[GitHub] camel pull request: CAMEL-9493 - Improve shutdown of listener for ..."
"Gregor Zurowski <gzurowski@apache.org>","Wed, 27 Jan 2016 22:52:41 +0100","[ANNOUNCEMENT] Apache Camel 2.16.2 Released"
"Dave Savage <davesav31000@comcast.net>","Thu, 28 Jan 2016 06:36:53 +0000 (UTC)","Re: [ANNOUNCEMENT] Apache Camel 2.16.2 Released"
"asfgit <git@git.apache.org>","Thu, 28 Jan 2016 08:19:16 +0000 (UTC)","[GitHub] camel pull request: Fixing up some Admonition blocks."
"asfgit <git@git.apache.org>","Thu, 28 Jan 2016 08:19:16 +0000 (UTC)","[GitHub] camel pull request: CAMEL-9493 - Improve shutdown of listener for ..."
"tdiesler <git@git.apache.org>","Thu, 28 Jan 2016 10:20:17 +0000 (UTC)","[GitHub] camel pull request: [CAMEL-9545] Dozer classloading may fail with ..."
"asfgit <git@git.apache.org>","Thu, 28 Jan 2016 10:27:28 +0000 (UTC)","[GitHub] camel pull request: [CAMEL-9545] Dozer classloading may fail with ..."
"Claus Ibsen <claus.ibsen@gmail.com>","Thu, 28 Jan 2016 12:49:41 +0100","About the big profile photo"
"Bilgin Ibryam <bibryam@gmail.com>","Thu, 28 Jan 2016 13:43:17 +0000","Re: New camel-hystrix component"
"Raul Kripalani <raulk@apache.org>","Thu, 28 Jan 2016 14:12:02 +0000","Re: New camel-hystrix component"
"Raul Kripalani <raulk@apache.org>","Thu, 28 Jan 2016 14:18:42 +0000","Re: About the big profile photo"
"David Karlsen <davidkarlsen@gmail.com>","Thu, 28 Jan 2016 15:20:17 +0100","Re: New camel-hystrix component"
"Raul Kripalani <raulk@apache.org>","Thu, 28 Jan 2016 14:34:33 +0000","Re: New camel-hystrix component"
"Daniel Kulp <dkulp@apache.org>","Thu, 28 Jan 2016 09:35:43 -0500","[DISCUSS]  Move to java 8 for 2.17?"
"David Karlsen <davidkarlsen@gmail.com>","Thu, 28 Jan 2016 15:43:05 +0100","Re: [DISCUSS] Move to java 8 for 2.17?"
"Raul Kripalani <raulk@apache.org>","Thu, 28 Jan 2016 14:46:33 +0000","Re: [DISCUSS] Move to java 8 for 2.17?"
"Andrea Cosentino <ancosen1985@yahoo.com.INVALID>","Thu, 28 Jan 2016 14:47:42 +0000 (UTC)","Re: [DISCUSS] Move to java 8 for 2.17?"
"James Carman <james@carmanconsulting.com>","Thu, 28 Jan 2016 14:48:27 +0000","Re: [DISCUSS] Move to java 8 for 2.17?"
"Daniel Kulp <dkulp@apache.org>","Thu, 28 Jan 2016 10:00:13 -0500","Re: About the big profile photo"
"Claus Ibsen <claus.ibsen@gmail.com>","Thu, 28 Jan 2016 16:20:49 +0100","Re: About the big profile photo"
"Raul Kripalani <raulk@apache.org>","Thu, 28 Jan 2016 15:39:20 +0000","Re: [DISCUSS] Move to java 8 for 2.17?"
"Johan Edstrom <seijoed@gmail.com>","Thu, 28 Jan 2016 08:49:38 -0700","Re: [DISCUSS] Move to java 8 for 2.17?"
"Raul Kripalani <raulk@apache.org>","Thu, 28 Jan 2016 15:54:31 +0000","Re: [DISCUSS] Move to java 8 for 2.17?"
"Johan Edstrom <seijoed@gmail.com>","Thu, 28 Jan 2016 08:55:43 -0700","Re: [DISCUSS] Move to java 8 for 2.17?"
"James Carman <james@carmanconsulting.com>","Thu, 28 Jan 2016 15:56:20 +0000","Re: [DISCUSS] Move to java 8 for 2.17?"
"Raul Kripalani <raulk@apache.org>","Thu, 28 Jan 2016 16:02:28 +0000","Re: [DISCUSS] Move to java 8 for 2.17?"
"Daniel Kulp <dkulp@apache.org>","Thu, 28 Jan 2016 11:12:00 -0500","Re: [DISCUSS] Move to java 8 for 2.17?"
"astefanutti <git@git.apache.org>","Thu, 28 Jan 2016 16:20:20 +0000 (UTC)","[GitHub] camel pull request: Camel CDI DeltaSpike properties example"
"brreitme <git@git.apache.org>","Thu, 28 Jan 2016 16:43:19 +0000 (UTC)","[GitHub] camel pull request: CAMEL-8742 - Reconnect when connections are cl..."
"Matt Sicker <boards@gmail.com>","Thu, 28 Jan 2016 11:38:10 -0600","Re: [DISCUSS] Move to java 8 for 2.17?"
"astefanutti <git@git.apache.org>","Thu, 28 Jan 2016 18:00:28 +0000 (UTC)","[GitHub] camel pull request: Camel CDI DeltaSpike properties example"
"astefanutti <git@git.apache.org>","Thu, 28 Jan 2016 18:01:51 +0000 (UTC)","[GitHub] camel pull request: ZooKeeper and Yammer components Asciidoc migra..."
"astefanutti <git@git.apache.org>","Thu, 28 Jan 2016 18:10:36 +0000 (UTC)","[GitHub] camel pull request: ZooKeeper and Yammer components Asciidoc migra..."
"Claus Ibsen <claus.ibsen@gmail.com>","Thu, 28 Jan 2016 19:13:12 +0100","Re: [DISCUSS] Move to java 8 for 2.17?"
"Johan Edstrom <seijoed@gmail.com>","Thu, 28 Jan 2016 11:17:43 -0700","Re: [DISCUSS] Move to java 8 for 2.17?"
"Matt Sicker <boards@gmail.com>","Thu, 28 Jan 2016 12:18:53 -0600","Re: [DISCUSS] Move to java 8 for 2.17?"
"James Carman <james@carmanconsulting.com>","Thu, 28 Jan 2016 18:45:31 +0000","Re: [DISCUSS] Move to java 8 for 2.17?"
"=?UTF-8?Q?Christian_M=C3=BCller?= <christian.mueller@gmail.com>","Thu, 28 Jan 2016 22:15:14 +0100","Re: Add to the mailing list"
"=?UTF-8?Q?Christian_M=C3=BCller?= <christian.mueller@gmail.com>","Thu, 28 Jan 2016 23:52:46 +0100","Re: [DISCUSS] Move to java 8 for 2.17?"
"Daniel Kulp <dkulp@apache.org>","Thu, 28 Jan 2016 19:31:47 -0500","Re: [DISCUSS] Move to java 8 for 2.17?"
"Raul Kripalani <raulk@apache.org>","Fri, 29 Jan 2016 00:57:10 +0000","Re: [DISCUSS] Move to java 8 for 2.17?"
"niteshjain <niteshjain132@gmail.com>","Thu, 28 Jan 2016 22:53:34 -0700 (MST)","How to write a cxf service that uses plain xml over http"
"=?UTF-8?Q?Christian_M=C3=BCller?= <christian.mueller@gmail.com>","Fri, 29 Jan 2016 09:21:32 +0100","Re: [DISCUSS] Move to java 8 for 2.17?"
"Aki Yoshida <elakito@gmail.com>","Fri, 29 Jan 2016 11:14:05 +0100","Re: [DISCUSS] Move to java 8 for 2.17?"
"Daniel Kulp <dkulp@apache.org>","Fri, 29 Jan 2016 08:21:30 -0500","Re: [DISCUSS] Move to java 8 for 2.17?"
"Daniel Kulp <dkulp@apache.org>","Fri, 29 Jan 2016 08:23:58 -0500","Re: [DISCUSS] Move to java 8 for 2.17?"
"Claus Ibsen <claus.ibsen@gmail.com>","Fri, 29 Jan 2016 14:39:06 +0100","Re: New camel-hystrix component"
"Bilgin Ibryam <bibryam@gmail.com>","Fri, 29 Jan 2016 14:09:30 +0000","Re: New camel-hystrix component"
"Gregor Zurowski <gregor@list.zurowski.org>","Fri, 29 Jan 2016 15:14:51 +0100","Re: [DISCUSS] Move to java 8 for 2.17?"
"sebi-hgdata <git@git.apache.org>","Fri, 29 Jan 2016 16:05:55 +0000 (UTC)","[GitHub] camel pull request: Fix if allowable values are not set"
"lburgazzoli <git@git.apache.org>","Fri, 29 Jan 2016 16:34:06 +0000 (UTC)","[GitHub] camel pull request: CAMEL-9542 - Allow HttpClient configuration (p..."
"lburgazzoli <git@git.apache.org>","Fri, 29 Jan 2016 16:48:00 +0000 (UTC)","[GitHub] camel pull request: CAMEL-9542 - add labels to new options"
"jgoggins <joegoggins@hotmail.com>","Fri, 29 Jan 2016 09:49:09 -0700 (MST)","Akka, Camel and Spring Boot"
"lburgazzoli <git@git.apache.org>","Fri, 29 Jan 2016 16:53:39 +0000 (UTC)","[GitHub] camel pull request: CAMEL-9542 - Allow HttpClient configuration (p..."
"jgoggins <joegoggins@hotmail.com>","Fri, 29 Jan 2016 10:21:41 -0700 (MST)","Re: Akka, Camel and Spring Boot"
"jgoggins <joegoggins@hotmail.com>","Fri, 29 Jan 2016 10:47:38 -0700 (MST)","Re: Akka, Camel and Spring Boot"
"sebi-hgdata <git@git.apache.org>","Fri, 29 Jan 2016 18:13:18 +0000 (UTC)","[GitHub] camel pull request: Fix if allowable values are not set"
"astefanutti <git@git.apache.org>","Fri, 29 Jan 2016 18:17:37 +0000 (UTC)","[GitHub] camel pull request: REST DSL with CDI example"
"astefanutti <git@git.apache.org>","Fri, 29 Jan 2016 19:04:42 +0000 (UTC)","[GitHub] camel pull request: XML JSON Data Format Asciidoc documentation"
"James Carman <james@carmanconsulting.com>","Fri, 29 Jan 2016 19:30:10 +0000","Re: [DISCUSS] Move to java 8 for 2.17?"
"Johan Edstrom <seijoed@gmail.com>","Fri, 29 Jan 2016 12:38:27 -0700","Re: [DISCUSS] Move to java 8 for 2.17?"
"Matt Sicker <boards@gmail.com>","Fri, 29 Jan 2016 14:22:54 -0600","Re: [DISCUSS] Move to java 8 for 2.17?"
"Claus Ibsen <claus.ibsen@gmail.com>","Sat, 30 Jan 2016 08:27:10 +0100","CVE-2015-5344 - Apache Camel medium disclosure vulnerability"
"yuruki <git@git.apache.org>","Sat, 30 Jan 2016 07:58:52 +0000 (UTC)","[GitHub] camel pull request: CAMEL-9498: Always provide a writable local re..."
"yuruki <git@git.apache.org>","Sat, 30 Jan 2016 07:59:07 +0000 (UTC)","[GitHub] camel pull request: CAMEL-9498: Always provide a writable local re..."
"astefanutti <git@git.apache.org>","Sat, 30 Jan 2016 09:47:22 +0000 (UTC)","[GitHub] camel pull request: REST DSL with CDI example"
"astefanutti <git@git.apache.org>","Sat, 30 Jan 2016 09:47:28 +0000 (UTC)","[GitHub] camel pull request: XML JSON Data Format Asciidoc documentation"
"yuruki <git@git.apache.org>","Sat, 30 Jan 2016 17:07:39 +0000 (UTC)","[GitHub] camel pull request: CAMEL-9498: Universal local registry for Camel..."
"jgoggins <joegoggins@hotmail.com>","Sat, 30 Jan 2016 17:13:26 -0700 (MST)","Re: Akka, Camel and Spring Boot"
