"Developer","Date","Subject"
"Claus Ibsen <claus.ibsen@gmail.com>","Sat, 1 Nov 2014 08:33:51 +0100","Re: SJMS needs some TLC"
"Christian Mueller <cmueller@apache.org>","Sat, 1 Nov 2014 08:53:38 +0100","[ANNOUNCE] Apache Camel 2.13.3 Released"
"Claus Ibsen <claus.ibsen@gmail.com>","Sat, 1 Nov 2014 11:23:41 +0100","Re: git commit: CAMEL-7887: Executing of 'mvn clean install -Pvalidate' in camel/platforms/karaf/features is failing"
"InfoSec812 <git@git.apache.org>","Sun,  2 Nov 2014 03:45:49 +0000 (UTC)","[GitHub] camel pull request: New Camel Component - PGEvent"
"=?UTF-8?Q?Christian_M=C3=BCller?= <christian.mueller@gmail.com>","Sun, 2 Nov 2014 16:45:50 +0100","Confluence content index not updating since October 9th"
"=?UTF-8?Q?Christian_M=C3=BCller?= <christian.mueller@gmail.com>","Mon, 3 Nov 2014 08:02:45 +0100","Fwd: [NOTICE] - Planned downtime for Confluence Wiki"
"kevinearls <git@git.apache.org>","Mon,  3 Nov 2014 13:45:34 +0000 (UTC)","[GitHub] camel pull request: CAMEL-6099 Add chmod option to file producer"
"kevinearls <git@git.apache.org>","Mon,  3 Nov 2014 14:14:38 +0000 (UTC)","[GitHub] camel pull request: CAMEL-7993 Add brackets to log statement"
"Daniel Kulp <dkulp@apache.org>","Mon, 3 Nov 2014 14:05:37 -0500","Re: git commit: CAMEL-7887: Executing of 'mvn clean install -Pvalidate' in camel/platforms/karaf/features is failing"
"=?UTF-8?Q?Christian_M=C3=BCller?= <christian.mueller@gmail.com>","Mon, 3 Nov 2014 20:51:05 +0100","Re: git commit: CAMEL-7887: Executing of 'mvn clean install -Pvalidate' in camel/platforms/karaf/features is failing"
"Apache Jenkins Server <jenkins@builds.apache.org>","Tue, 4 Nov 2014 03:55:23 +0000 (UTC)","Camel.trunk.notest - Build # 2210 - Failure"
"Apache Jenkins Server <jenkins@builds.apache.org>","Tue, 4 Nov 2014 03:55:23 +0000 (UTC)","Camel.2.14.x.notest - Build # 37 - Failure"
"Apache Jenkins Server <jenkins@builds.apache.org>","Wed, 5 Nov 2014 02:09:43 +0000 (UTC)","Camel.trunk.notest - Build # 2211 - Still Failing"
"Apache Jenkins Server <jenkins@builds.apache.org>","Wed, 5 Nov 2014 03:29:10 +0000 (UTC)","Camel.2.14.x.notest - Build # 38 - Fixed"
"Apache Jenkins Server <jenkins@builds.apache.org>","Wed, 5 Nov 2014 09:01:26 +0000 (UTC)","Camel.trunk.notest - Build # 2212 - Fixed"
"James Green <james.mk.green@gmail.com>","Wed, 5 Nov 2014 11:20:27 +0000","Re: [ANNOUNCE] Apache Camel 2.13.3 Released"
"sstults <git@git.apache.org>","Wed,  5 Nov 2014 18:24:35 +0000 (UTC)","[GitHub] camel pull request: Add support for the addBeans method"
"asfgit <git@git.apache.org>","Wed,  5 Nov 2014 19:04:59 +0000 (UTC)","[GitHub] camel pull request: Add support for the addBeans method"
"Claus Ibsen <claus.ibsen@gmail.com>","Wed, 5 Nov 2014 20:14:46 +0100","Re: Support of official commons-csv"
"Thomas Termin <thomas.termin@gmail.com>","Wed, 5 Nov 2014 20:59:12 +0100","camel-netty4 enhancement question"
"Willem Jiang <willem.jiang@gmail.com>","Thu, 6 Nov 2014 08:38:05 +0800","Re: [4/4] git commit: merging upstream"
"Scott Stults <sstults@opensourceconnections.com>","Wed, 5 Nov 2014 20:07:07 -0500","Re: [4/4] git commit: merging upstream"
"Willem Jiang <willem.jiang@gmail.com>","Thu, 6 Nov 2014 09:12:22 +0800","Re: [4/4] git commit: merging upstream"
"Willem Jiang <willem.jiang@gmail.com>","Thu, 6 Nov 2014 10:26:31 +0800","Re: camel-netty4 enhancement question"
"wuwen5 <git@git.apache.org>","Thu,  6 Nov 2014 07:05:48 +0000 (UTC)","[GitHub] camel pull request: Fix javadoc warning, ChannelPipelineFactory no..."
"Daniel Pocock <daniel@pocock.pro>","Thu, 06 Nov 2014 09:41:52 +0100","camel-smpp clarifications"
"yuruki <git@git.apache.org>","Thu,  6 Nov 2014 09:18:47 +0000 (UTC)","[GitHub] camel pull request: CAMEL-7997 New modules: camel-scr, camel-arche..."
"Thomas Termin <thomas.termin@gmail.com>","Thu, 6 Nov 2014 11:01:15 +0100","edit wiki"
"Claus Ibsen <claus.ibsen@gmail.com>","Thu, 6 Nov 2014 11:07:35 +0100","Re: edit wiki"
"Thomas Termin <thomas.termin@gmail.com>","Thu, 6 Nov 2014 11:12:24 +0100","Re: edit wiki"
"Claus Ibsen <claus.ibsen@gmail.com>","Thu, 6 Nov 2014 11:23:16 +0100","Re: edit wiki"
"Thomas Termin <thomas.termin@gmail.com>","Thu, 6 Nov 2014 11:30:05 +0100","Re: edit wiki"
"Claus Ibsen <claus.ibsen@gmail.com>","Thu, 6 Nov 2014 11:43:02 +0100","Re: edit wiki"
"Thomas Termin <thomas.termin@gmail.com>","Thu, 6 Nov 2014 11:57:54 +0100","Re: edit wiki"
"Daniel Pocock <daniel@pocock.pro>","Thu, 06 Nov 2014 13:54:57 +0100","Re: camel-smpp clarifications"
"dpocock <git@git.apache.org>","Thu,  6 Nov 2014 15:52:55 +0000 (UTC)","[GitHub] camel pull request: (work in progress) fix for CAMEL-8002, support..."
"tterm <git@git.apache.org>","Thu,  6 Nov 2014 19:56:40 +0000 (UTC)","[GitHub] camel pull request: CAMEL-7998 Support connection less udp sending"
"tterm <git@git.apache.org>","Thu,  6 Nov 2014 20:05:05 +0000 (UTC)","[GitHub] camel pull request: CAMEL-7998 Support connection less udp sending"
"sstults <git@git.apache.org>","Fri,  7 Nov 2014 01:15:35 +0000 (UTC)","[GitHub] camel pull request: CAMEL-6099: Fixing a unit test that expects a ..."
"Claus Ibsen <claus.ibsen@gmail.com>","Fri, 7 Nov 2014 08:06:10 +0100","Re: camel git commit: CAMEL-8006 S3Producer should use File to upload directly"
"Willem Jiang <willem.jiang@gmail.com>","Fri, 7 Nov 2014 15:26:41 +0800","Re: camel git commit: CAMEL-8006 S3Producer should use File to upload directly"
"dpocock <git@git.apache.org>","Fri,  7 Nov 2014 08:28:42 +0000 (UTC)","[GitHub] camel pull request: CAMEL-8008: SubmitMulti and DataSm must check ..."
"Daniel Pocock <daniel@pocock.pro>","Fri, 07 Nov 2014 10:36:12 +0100","CLA / editing CAMEL wiki"
"tdiesler <git@git.apache.org>","Fri,  7 Nov 2014 09:49:41 +0000 (UTC)","[GitHub] camel pull request: [CAMEL-8000] Add global notion of CamelContext..."
"kevinearls <git@git.apache.org>","Fri,  7 Nov 2014 10:00:35 +0000 (UTC)","[GitHub] camel pull request: CAMEL-6099 Add chmod option to file producer"
"kevinearls <git@git.apache.org>","Fri,  7 Nov 2014 10:01:02 +0000 (UTC)","[GitHub] camel pull request: CAMEL-7993 Add brackets to log statement"
"Babak Vahdat <babak.vahdat@swissonline.ch>","Fri, 7 Nov 2014 02:47:29 -0800 (PST)","Re: [DISCUSS] - Camel 2.12.5 and 2.13.3 releases"
"Daniel Pocock <daniel@pocock.pro>","Fri, 07 Nov 2014 11:58:32 +0100","camel-smpp as server / SMSC?"
"dpocock <git@git.apache.org>","Fri,  7 Nov 2014 11:48:49 +0000 (UTC)","[GitHub] camel pull request: Add new header CamelSmppEncoding to set encodi..."
"Antoine DESSAIGNE <antoine.dessaigne@gmail.com>","Fri, 7 Nov 2014 18:39:05 +0100","Re: Support of official commons-csv"
"oscerd <git@git.apache.org>","Sat,  8 Nov 2014 23:23:51 +0000 (UTC)","[GitHub] camel pull request: CAMEL-7949 JmsMessageHelper to support automat..."
"sabre1041 <git@git.apache.org>","Sun,  9 Nov 2014 04:59:04 +0000 (UTC)","[GitHub] camel pull request: Camel 8019 SSL Support in Camel Docker Compone..."
"oscerd <git@git.apache.org>","Sun,  9 Nov 2014 08:35:15 +0000 (UTC)","[GitHub] camel pull request: CAMEL-7949 JmsMessageHelper to support automat..."
"oscerd <git@git.apache.org>","Sun,  9 Nov 2014 12:20:20 +0000 (UTC)","[GitHub] camel pull request: Camel-8024 Improvement to camel-sjms JMSMessag..."
"=?UTF-8?Q?Christian_M=C3=BCller?= <christian.mueller@gmail.com>","Sun, 9 Nov 2014 13:43:20 +0100","Re: [ANNOUNCE] Apache Camel 2.13.3 Released"
"gquintana <git@git.apache.org>","Sun,  9 Nov 2014 16:43:04 +0000 (UTC)","[GitHub] camel pull request: Camel Cassandra CQL Component"
"=?UTF-8?Q?Christian_M=C3=BCller?= <christian.mueller@gmail.com>","Sun, 9 Nov 2014 18:08:19 +0100","Re: [DISCUSS] - Camel 2.12.5 and 2.13.3 releases"
"=?UTF-8?Q?Christian_M=C3=BCller?= <christian.mueller@gmail.com>","Sun, 9 Nov 2014 18:13:56 +0100","Jenkins builds"
"oscerd <git@git.apache.org>","Sun,  9 Nov 2014 22:58:12 +0000 (UTC)","[GitHub] camel pull request: Camel-8024 Improvement to camel-sjms JMSMessag..."
"Apache Jenkins Server <jenkins@builds.apache.org>","Mon, 10 Nov 2014 03:17:39 +0000 (UTC)","Camel.trunk.notest - Build # 2218 - Failure"
"Babak Vahdat <babak.vahdat@swissonline.ch>","Mon, 10 Nov 2014 00:05:02 -0700 (MST)","Re: [DISCUSS] - Camel 2.12.5 and 2.13.3 releases"
"Willem Jiang <willem.jiang@gmail.com>","Mon, 10 Nov 2014 15:33:33 +0800","Re: Jenkins builds"
"Willem Jiang <willem.jiang@gmail.com>","Mon, 10 Nov 2014 15:44:57 +0800","Re: camel-smpp as server / SMSC?"
"Daniel Pocock <daniel@pocock.pro>","Mon, 10 Nov 2014 11:42:28 +0100","Re: camel-smpp as server / SMSC?"
"oscerd <git@git.apache.org>","Mon, 10 Nov 2014 11:13:59 +0000 (UTC)","[GitHub] camel pull request: Camel-8024 Camel-sjms improvement to JMSMessag..."
"=?UTF-8?Q?Christian_M=C3=BCller?= <christian.mueller@gmail.com>","Mon, 10 Nov 2014 22:42:46 +0100","Re: Jenkins builds"
"=?UTF-8?Q?Christian_M=C3=BCller?= <christian.mueller@gmail.com>","Mon, 10 Nov 2014 22:47:10 +0100","Re: [DISCUSS] - Camel 2.12.5 and 2.13.3 releases"
"Willem Jiang <willem.jiang@gmail.com>","Tue, 11 Nov 2014 09:23:30 +0800","Re: Jenkins builds"
"Apache Jenkins Server <jenkins@builds.apache.org>","Tue, 11 Nov 2014 03:31:43 +0000 (UTC)","Camel.trunk.notest - Build # 2219 - Fixed"
"Claus Ibsen <claus.ibsen@gmail.com>","Tue, 11 Nov 2014 07:04:25 +0100","Camel 2.14.1 release"
"sayed_india <sayed.abdulislam@gmail.com>","Tue, 11 Nov 2014 05:16:12 -0700 (MST)","Re: Retrieve Data from JSON object and Insert/Update to Database"
"yuruki <git@git.apache.org>","Tue, 11 Nov 2014 13:43:53 +0000 (UTC)","[GitHub] camel pull request: CAMEL-7997 working on camel-scr todos"
"yuruki <git@git.apache.org>","Tue, 11 Nov 2014 13:45:56 +0000 (UTC)","[GitHub] camel pull request: CAMEL-7997 New modules: camel-scr, camel-arche..."
"oscerd <git@git.apache.org>","Tue, 11 Nov 2014 16:43:28 +0000 (UTC)","[GitHub] camel pull request: Camel-8024 Camel-sjms improvement to JMSMessag..."
"Willem Jiang <willem.jiang@gmail.com>","Wed, 12 Nov 2014 10:13:18 +0800","Re: Camel 2.14.1 release"
"smilevasu6 <srinivas.thunga@gmail.com>","Wed, 12 Nov 2014 00:01:20 -0700 (MST)","camel - hbase"
"richardgroote <richard.groote@gmail.com>","Wed, 12 Nov 2014 01:17:30 -0700 (MST)","Why StreamResultHandlerFactory uses a byte[] instead of the stream"
"Daniel Pocock <daniel@pocock.pro>","Wed, 12 Nov 2014 18:42:44 +0100","recipientList not working, deadlock?"
"asfgit <git@git.apache.org>","Thu, 13 Nov 2014 11:12:01 +0000 (UTC)","[GitHub] camel pull request: CAMEL-7998 Support connection less udp sending"
"Willem Jiang <willem.jiang@gmail.com>","Thu, 13 Nov 2014 21:18:56 +0800","Re: recipientList not working, deadlock?"
"Willem Jiang <willem.jiang@gmail.com>","Thu, 13 Nov 2014 21:23:57 +0800","Re: Why StreamResultHandlerFactory uses a byte[] instead of the stream"
"fluxlife <git@git.apache.org>","Thu, 13 Nov 2014 15:47:47 +0000 (UTC)","[GitHub] camel pull request: Add jsonpath to the Scala DSL"
"=?UTF-8?Q?Christian_M=C3=BCller?= <christian.mueller@gmail.com>","Thu, 13 Nov 2014 18:56:58 +0100","Re: Camel 2.14.1 release"
"contactreji <contactreji@gmail.com>","Thu, 13 Nov 2014 12:03:23 -0700 (MST)","Camel SQL component - Insert Operation"
"=?UTF-8?Q?Christian_M=C3=BCller?= <christian.mueller@gmail.com>","Fri, 14 Nov 2014 00:34:31 +0100","Re: Jenkins builds"
"bharadwaj <bharadwaj2012@gmail.com>","Fri, 14 Nov 2014 02:59:00 -0700 (MST)","How to read Camel exchange property in camel producer?"
"bharadwaj <bharadwaj2012@gmail.com>","Fri, 14 Nov 2014 03:01:45 -0700 (MST)","Caused by: java.net.MalformedURLException: no protocol: ${systemurl}"
"Claus Ibsen <claus.ibsen@gmail.com>","Fri, 14 Nov 2014 11:12:34 +0100","Re: How to read Camel exchange property in camel producer?"
"Aki Yoshida <elakito@gmail.com>","Fri, 14 Nov 2014 16:53:04 +0100","Re: Faster execution of JUnit tests"
"oscerd <git@git.apache.org>","Sat, 15 Nov 2014 12:06:53 +0000 (UTC)","[GitHub] camel pull request: Camel-8021 Fix Maven surefire warning during b..."
"oscerd <git@git.apache.org>","Sat, 15 Nov 2014 16:25:58 +0000 (UTC)","[GitHub] camel pull request: Camel-8052 New Feature RemoveProperties on Exc..."
"Henryk Konsek <hekonsek@gmail.com>","Sat, 15 Nov 2014 20:55:24 +0100","Re: Faster execution of JUnit tests"
"igarashitm <git@git.apache.org>","Sun, 16 Nov 2014 10:10:50 +0000 (UTC)","[GitHub] camel pull request: CAMEL-7662 MQTTProducerTest fails once enables..."
"=?UTF-8?Q?Christian_M=C3=BCller?= <christian.mueller@gmail.com>","Sun, 16 Nov 2014 22:09:50 +0100","Re: CLA / editing CAMEL wiki"
"Milos Gligoric <milos.gligoric@gmail.com>","Sun, 16 Nov 2014 20:08:47 -0600","Re: Faster execution of JUnit tests"
"asfgit <git@git.apache.org>","Mon, 17 Nov 2014 03:54:31 +0000 (UTC)","[GitHub] camel pull request: CAMEL-7662 MQTTProducerTest fails once enables..."
"oscerd <git@git.apache.org>","Mon, 17 Nov 2014 07:26:31 +0000 (UTC)","[GitHub] camel pull request: Camel-8052 New Feature RemoveProperties on Exc..."
"oscerd <git@git.apache.org>","Mon, 17 Nov 2014 07:26:53 +0000 (UTC)","[GitHub] camel pull request: Camel-8021 Fix Maven surefire warning during b..."
"Claus Ibsen <claus.ibsen@gmail.com>","Mon, 17 Nov 2014 12:56:41 +0100","Re: [1/7] camel git commit: CAMEL-8052 Added RemovePropertiesDefinition"
"Andrea Cosentino <ancosen1985@yahoo.com.INVALID>","Mon, 17 Nov 2014 12:09:08 +0000 (UTC)","Re: [1/7] camel git commit: CAMEL-8052 Added RemovePropertiesDefinition"
"Willem Jiang <willem.jiang@gmail.com>","Mon, 17 Nov 2014 21:31:25 +0800","Re: [1/7] camel git commit: CAMEL-8052 Added RemovePropertiesDefinition"
"Andrea Cosentino <ancosen1985@yahoo.com.INVALID>","Mon, 17 Nov 2014 14:19:08 +0000 (UTC)","Re: [1/7] camel git commit: CAMEL-8052 Added RemovePropertiesDefinition"
"Claus Ibsen <claus.ibsen@gmail.com>","Mon, 17 Nov 2014 16:57:47 +0100","[HEADS UP] - Grouping Camel components and a bit about self documented Camel components"
"yuruki <git@git.apache.org>","Mon, 17 Nov 2014 16:05:48 +0000 (UTC)","[GitHub] camel pull request: CAMEL-7997 working on camel-scr todos"
"tdiesler <git@git.apache.org>","Tue, 18 Nov 2014 11:59:14 +0000 (UTC)","[GitHub] camel pull request: [CAMEL-8059] Add CamelContext creation hook"
"adessaigne <git@git.apache.org>","Tue, 18 Nov 2014 12:40:16 +0000 (UTC)","[GitHub] camel pull request: CAMEL-8060 Add data formats based on uniVocity..."
"asfgit <git@git.apache.org>","Tue, 18 Nov 2014 15:52:30 +0000 (UTC)","[GitHub] camel pull request: [CAMEL-8059] Add CamelContext creation hook"
"calessio <git@git.apache.org>","Tue, 18 Nov 2014 18:39:23 +0000 (UTC)","[GitHub] camel pull request: atmos component implementation"
"cool_rk <rk_sharmait@yahoo.com>","Tue, 18 Nov 2014 23:12:44 -0700 (MST)","route synchronization in camel"
"Antoine DESSAIGNE <antoine.dessaigne@gmail.com>","Thu, 20 Nov 2014 14:26:01 +0100","Documentation review of univocity-parser data formats"
"paul-mcculloch <git@git.apache.org>","Thu, 20 Nov 2014 13:52:22 +0000 (UTC)","[GitHub] camel pull request: Fix CAMEL-8065"
"Daniel Pocock <daniel@pocock.pro>","Thu, 20 Nov 2014 16:54:57 +0100","Camel wiki / jira macro error"
"Claus Ibsen <claus.ibsen@gmail.com>","Thu, 20 Nov 2014 17:18:42 +0100","Re: Camel wiki / jira macro error"
"paul-mcculloch <git@git.apache.org>","Thu, 20 Nov 2014 16:27:26 +0000 (UTC)","[GitHub] camel pull request: Fix CAMEL-8065"
"Daniel Pocock <daniel@pocock.pro>","Thu, 20 Nov 2014 18:02:54 +0100","Re: Camel wiki / jira macro error"
"Claus Ibsen <claus.ibsen@gmail.com>","Thu, 20 Nov 2014 18:16:53 +0100","Re: Camel wiki / jira macro error"
"Henryk Konsek <hekonsek@gmail.com>","Thu, 20 Nov 2014 23:04:32 +0100","Re: Faster execution of JUnit tests"
"Willem Jiang <willem.jiang@gmail.com>","Fri, 21 Nov 2014 09:37:28 +0800","Re: Documentation review of univocity-parser data formats"
"selva <sgpselvam@gmail.com>","Thu, 20 Nov 2014 21:27:37 -0700 (MST)","Quartz clustering in camel spring DSL"
"Jyrki Ruuskanen <yuruki@kotikone.fi>","Fri, 21 Nov 2014 14:30:04 +0200","Edit rights to Apache Confluence"
"edigrid <git@git.apache.org>","Fri, 21 Nov 2014 14:43:49 +0000 (UTC)","[GitHub] camel pull request: don't clear attachments when points to same re..."
"=?UTF-8?Q?Christian_M=C3=BCller?= <christian.mueller@gmail.com>","Sat, 22 Nov 2014 22:51:15 +0100","Re: Edit rights to Apache Confluence"
"Hadrian Zbarcea <hzbarcea@gmail.com>","Sat, 22 Nov 2014 20:39:21 -0500","Re: Edit rights to Apache Confluence"
"Antoine DESSAIGNE <antoine.dessaigne@gmail.com>","Mon, 24 Nov 2014 09:55:53 +0100","Re: Support of official commons-csv"
"Ruurtjan Pul <ruurtjan@gmail.com>","Mon, 24 Nov 2014 10:44:34 +0100","Fwd: Signed Individual CLA"
"Antoine DESSAIGNE <antoine.dessaigne@gmail.com>","Mon, 24 Nov 2014 13:41:48 +0100","Re: Documentation review of univocity-parser data formats"
"dpocock <git@git.apache.org>","Mon, 24 Nov 2014 18:14:09 +0000 (UTC)","[GitHub] camel pull request: Dpocock bug 8001"
"dpocock <git@git.apache.org>","Mon, 24 Nov 2014 19:54:00 +0000 (UTC)","[GitHub] camel pull request: SMPP: Add support for message splitting polici..."
"Hadrian Zbarcea <hzbarcea@gmail.com>","Mon, 24 Nov 2014 19:48:31 -0500","Re: Fwd: Signed Individual CLA"
"Christian Schneider <chris@die-schneider.net>","Tue, 25 Nov 2014 17:17:03 +0100","Upgrade to maven-bundle-plugin 2.5.x ?"
"Willem Jiang <willem.jiang@gmail.com>","Wed, 26 Nov 2014 12:11:32 +0800","Re: Upgrade to maven-bundle-plugin 2.5.x ?"
"Claus Ibsen <claus.ibsen@gmail.com>","Wed, 26 Nov 2014 07:44:32 +0100","Re: Upgrade to maven-bundle-plugin 2.5.x ?"
"tdiesler <git@git.apache.org>","Wed, 26 Nov 2014 09:17:54 +0000 (UTC)","[GitHub] camel pull request: [CAMEL-8000] Remove DefaultCamelContextRegistr..."
"paoloantinori <git@git.apache.org>","Wed, 26 Nov 2014 09:48:38 +0000 (UTC)","[GitHub] camel pull request: camel-jetty - added option to quickly enable C..."
"sabre1041 <git@git.apache.org>","Wed, 26 Nov 2014 12:24:39 +0000 (UTC)","[GitHub] camel pull request: CAMEL-7834 - Camel Docker Component"
"sabre1041 <git@git.apache.org>","Wed, 26 Nov 2014 12:24:46 +0000 (UTC)","[GitHub] camel pull request: Camel 8019 SSL Support in Camel Docker Compone..."
"adessaigne <git@git.apache.org>","Wed, 26 Nov 2014 14:24:13 +0000 (UTC)","[GitHub] camel pull request: CAMEL-8060 Add data formats based on uniVocity..."
"asfgit <git@git.apache.org>","Wed, 26 Nov 2014 16:07:53 +0000 (UTC)","[GitHub] camel pull request: CAMEL-7716 Migrate camel-csv component to Apac..."
"Aki Yoshida <elakito@gmail.com>","Wed, 26 Nov 2014 20:36:22 +0100","Re: Faster execution of JUnit tests"
"Milos Gligoric <milos.gligoric@gmail.com>","Wed, 26 Nov 2014 21:57:34 -0600","Re: Faster execution of JUnit tests"
"Aki Yoshida <elakito@gmail.com>","Thu, 27 Nov 2014 11:34:14 +0100","Re: Faster execution of JUnit tests"
"vasilievip <git@git.apache.org>","Thu, 27 Nov 2014 13:46:26 +0000 (UTC)","[GitHub] camel pull request: https://issues.apache.org/jira/browse/CAMEL-80..."
"fluxlife <git@git.apache.org>","Thu, 27 Nov 2014 14:30:33 +0000 (UTC)","[GitHub] camel pull request: Add jsonpath to the Scala DSL"
"yuruki <git@git.apache.org>","Thu, 27 Nov 2014 18:36:40 +0000 (UTC)","[GitHub] camel pull request: CAMEL-7997 Working on camel-scr"
"dpocock <git@git.apache.org>","Fri, 28 Nov 2014 08:01:07 +0000 (UTC)","[GitHub] camel pull request: Add a type converter for java.sql.Timestamp"
"oscerd <git@git.apache.org>","Sun, 30 Nov 2014 09:17:55 +0000 (UTC)","[GitHub] camel pull request: Added new component Camel-chunk"
