"Developer","Date","Subject"
"Brian McCallister <brianm@skife.org>","Sat, 1 Sep 2007 17:15:54 -0700","Some Notes on Using Camel"
"""James Strachan"" <james.strachan@gmail.com>","Mon, 3 Sep 2007 13:50:35 +0100","Re: Some Notes on Using Camel"
"Hadrian Zbarcea <hadrian.zbarcea@iona.com>","Mon, 03 Sep 2007 10:07:17 -0400","Re: Some Notes on Using Camel"
"""Hadrian Zbarcea (JIRA)"" <jira@apache.org>","Mon, 3 Sep 2007 07:35:23 -0700 (PDT)","[jira] Updated: (CAMEL-10) optional interceptors to publish statistics MBeans for each endpoint/processor to keep track of throughtput rates & performance of routes/steps etc"
"Brian McCallister <brianm@skife.org>","Mon, 3 Sep 2007 08:06:07 -0700","Re: Some Notes on Using Camel"
"Brian McCallister <brianm@skife.org>","Mon, 3 Sep 2007 08:08:43 -0700","Re: Some Notes on Using Camel"
"Brian McCallister <brianm@skife.org>","Mon, 3 Sep 2007 08:13:41 -0700","Re: Some Notes on Using Camel"
"""James Strachan"" <james.strachan@gmail.com>","Mon, 3 Sep 2007 16:18:09 +0100","Re: Some Notes on Using Camel"
"""James Strachan (JIRA)"" <jira@apache.org>","Mon, 3 Sep 2007 08:31:22 -0700 (PDT)","[jira] Created: (CAMEL-134) add better logging - thats easy to use - to trace the 'magic' in Camel such as auto-discovery of components & type conversions"
"""James Strachan"" <james.strachan@gmail.com>","Mon, 3 Sep 2007 16:33:15 +0100","Re: Some Notes on Using Camel"
"""James Strachan (JIRA)"" <jira@apache.org>","Mon, 3 Sep 2007 08:49:22 -0700 (PDT)","[jira] Commented: (CAMEL-134) add better logging - thats easy to use - to trace the 'magic' in Camel such as auto-discovery of components & type conversions"
"""James Strachan (JIRA)"" <jira@apache.org>","Mon, 3 Sep 2007 08:53:22 -0700 (PDT)","[jira] Commented: (CAMEL-84) Throw Useful Exception on No TypeConverter Available"
"""James Strachan (JIRA)"" <jira@apache.org>","Mon, 3 Sep 2007 09:13:22 -0700 (PDT)","[jira] Updated: (CAMEL-10) optional interceptors to publish statistics MBeans for each endpoint/processor to keep track of throughtput rates & performance of routes/steps etc"
"""James Strachan (JIRA)"" <jira@apache.org>","Mon, 3 Sep 2007 09:15:22 -0700 (PDT)","[jira] Resolved: (CAMEL-10) optional interceptors to publish statistics MBeans for each endpoint/processor to keep track of throughtput rates & performance of routes/steps etc"
"Brian McCallister <brianm@skife.org>","Mon, 3 Sep 2007 10:35:21 -0700","Re: Some Notes on Using Camel"
"""James Strachan"" <james.strachan@gmail.com>","Mon, 3 Sep 2007 18:57:07 +0100","Re: Some Notes on Using Camel"
"""James Strachan (JIRA)"" <jira@apache.org>","Tue, 4 Sep 2007 01:38:22 -0700 (PDT)","[jira] Commented: (CAMEL-100) Most recent snapshot requires ActiveMQ"
"""James Strachan (JIRA)"" <jira@apache.org>","Tue, 4 Sep 2007 03:06:22 -0700 (PDT)","[jira] Resolved: (CAMEL-100) Most recent snapshot requires ActiveMQ"
"""James Strachan (JIRA)"" <jira@apache.org>","Tue, 4 Sep 2007 03:30:26 -0700 (PDT)","[jira] Commented: (CAMEL-133) add support for a MessageExchangePattern enum property on Exchange and make MINA support both InOnly and InOut"
"""James Strachan (JIRA)"" <jira@apache.org>","Tue, 4 Sep 2007 04:38:23 -0700 (PDT)","[jira] Commented: (CAMEL-133) add support for a MessageExchangePattern enum property on Exchange and make MINA support both InOnly and InOut"
"""Aaron Crickenberger (JIRA)"" <jira@apache.org>","Tue, 4 Sep 2007 07:00:33 -0700 (PDT)","[jira] Commented: (CAMEL-100) Most recent snapshot requires ActiveMQ"
"""James Strachan (JIRA)"" <jira@apache.org>","Tue, 4 Sep 2007 07:32:36 -0700 (PDT)","[jira] Commented: (CAMEL-100) Most recent snapshot requires ActiveMQ"
"""James Strachan (JIRA)"" <jira@apache.org>","Tue, 4 Sep 2007 10:30:22 -0700 (PDT)","[jira] Created: (CAMEL-135) add JBI style handling of OUT / FAULT / Exception handling"
"""James Strachan (JIRA)"" <jira@apache.org>","Tue, 4 Sep 2007 10:50:22 -0700 (PDT)","[jira] Resolved: (CAMEL-135) add JBI style handling of OUT / FAULT / Exception handling"
"""James Strachan (JIRA)"" <jira@apache.org>","Thu, 6 Sep 2007 04:35:23 -0700 (PDT)","[jira] Created: (CAMEL-136) resequencer should support an optional Expression/Comparator to determine if the two messages belong to the same set (in which case should they be reordered)"
"""Guillaume Nodet"" <gnodet@gmail.com>","Fri, 7 Sep 2007 14:32:01 +0200","Missing methods on ChoiceType and TryType"
"""James Strachan"" <james.strachan@gmail.com>","Fri, 7 Sep 2007 14:14:17 +0100","Re: Missing methods on ChoiceType and TryType"
"""James Strachan (JIRA)"" <jira@apache.org>","Fri, 7 Sep 2007 06:24:22 -0700 (PDT)","[jira] Created: (CAMEL-137) improvements in the Visualisation plugin to render pipeline/multicast nicely along with grouping RouteBuilder instances into boxes & separate diagrams"
"""James Strachan (JIRA)"" <jira@apache.org>","Fri, 7 Sep 2007 12:54:22 -0700 (PDT)","[jira] Created: (CAMEL-138) add type conversion methods for working with XMLBeans"
"""James Strachan (JIRA)"" <jira@apache.org>","Fri, 7 Sep 2007 12:56:22 -0700 (PDT)","[jira] Created: (CAMEL-139) add an iBatis component for working with named SQL queries"
"""Hiram Chirino"" <hiram@hiramchirino.com>","Fri, 7 Sep 2007 16:50:03 -0400","Re: Some Notes on Using Camel"
"Brian McCallister <brianm@skife.org>","Fri, 7 Sep 2007 14:45:23 -0700","Re: Some Notes on Using Camel"
"""Hadrian Zbarcea (JIRA)"" <jira@apache.org>","Fri, 7 Sep 2007 16:02:22 -0700 (PDT)","[jira] Updated: (CAMEL-11) maven plugin to generate a report per maven module of all the Type Converter methods available in each module (preferably with a way to aggregate them) so folks can easily see what conversions are possible"
"""James Strachan (JIRA)"" <jira@apache.org>","Sat, 8 Sep 2007 00:30:23 -0700 (PDT)","[jira] Commented: (CAMEL-11) maven plugin to generate a report per maven module of all the Type Converter methods available in each module (preferably with a way to aggregate them) so folks can easily see what conversions are possible"
"Hadrian Zbarcea <hzbarcea@gmail.com>","Sat, 08 Sep 2007 11:05:48 -0400","Re: [jira] Commented: (CAMEL-11) maven plugin to generate a report per maven module of all the Type Converter methods available in each module (preferably with a way to aggregate them) so folks can easily see what conversions are possible"
"Brian McCallister <brianm@skife.org>","Sat, 8 Sep 2007 09:25:58 -0700","Re: Some Notes on Using Camel"
"""Dejan Predovic (JIRA)"" <jira@apache.org>","Mon, 10 Sep 2007 07:17:22 -0700 (PDT)","[jira] Created: (CAMEL-140) XsltBuilder instance not threadsafe and can't be used more then once."
"""James Strachan"" <james.strachan@gmail.com>","Mon, 10 Sep 2007 16:30:33 +0100","Re: [jira] Commented: (CAMEL-11) maven plugin to generate a report per maven module of all the Type Converter methods available in each module (preferably with a way to aggregate them) so folks can easily see what conversions are possible"
"""James Strachan (JIRA)"" <jira@apache.org>","Mon, 10 Sep 2007 22:47:22 -0700 (PDT)","[jira] Created: (CAMEL-141) improve the simple language to support text with embedded ${in.headers.foo} type expressions"
"""James Strachan (JIRA)"" <jira@apache.org>","Mon, 10 Sep 2007 22:47:23 -0700 (PDT)","[jira] Created: (CAMEL-142) support both InOnly and InOut for the file component"
"""James Strachan (JIRA)"" <jira@apache.org>","Mon, 10 Sep 2007 22:49:22 -0700 (PDT)","[jira] Resolved: (CAMEL-141) improve the simple language to support text with embedded ${in.headers.foo} type expressions"
"""James Strachan (JIRA)"" <jira@apache.org>","Mon, 10 Sep 2007 23:01:22 -0700 (PDT)","[jira] Resolved: (CAMEL-142) support both InOnly and InOut for the file component"
"""Dejan Predovic (JIRA)"" <jira@apache.org>","Tue, 11 Sep 2007 02:57:22 -0700 (PDT)","[jira] Created: (CAMEL-143) XPath namespaces configuration not possible through xml"
"""James Strachan (JIRA)"" <jira@apache.org>","Tue, 11 Sep 2007 21:54:22 -0700 (PDT)","[jira] Created: (CAMEL-144) create a Groovy DSL for Camel"
"""James Strachan (JIRA)"" <jira@apache.org>","Tue, 11 Sep 2007 21:56:22 -0700 (PDT)","[jira] Created: (CAMEL-145) create a Ruby DSL for Camel"
"""Guillaume Nodet (JIRA)"" <jira@apache.org>","Wed, 12 Sep 2007 00:30:23 -0700 (PDT)","[jira] Resolved: (CAMEL-146) Asynchronous HTTP transport based on Jakarta HttpComponents"
"""Guillaume Nodet (JIRA)"" <jira@apache.org>","Wed, 12 Sep 2007 00:30:23 -0700 (PDT)","[jira] Created: (CAMEL-146) Asynchronous HTTP transport based on Jakarta HttpComponents"
"""Guillaume Nodet"" <gnodet@gmail.com>","Wed, 12 Sep 2007 09:41:12 +0200","New asynchronous HTTP transport"
"""James Strachan"" <james.strachan@gmail.com>","Wed, 12 Sep 2007 09:17:33 +0100","Re: New asynchronous HTTP transport"
"""Guillaume Nodet"" <gnodet@gmail.com>","Wed, 12 Sep 2007 14:47:06 +0200","Re: Asynchronous Exchange Processing"
"Daryl Richter <ngzax@comcast.net>","Wed, 12 Sep 2007 11:06:10 -0400","Build problem"
"Willem Jiang <willem.jiang@gmail.com>","Thu, 13 Sep 2007 10:57:09 +0800","Re: Build problem"
"""James Strachan"" <james.strachan@gmail.com>","Thu, 13 Sep 2007 10:36:29 +0100","Re: Build problem"
"""James Strachan (JIRA)"" <jira@apache.org>","Fri, 14 Sep 2007 02:38:22 -0700 (PDT)","[jira] Created: (CAMEL-147) velocity component for easy integration with velocity templating"
"""James Strachan (JIRA)"" <jira@apache.org>","Fri, 14 Sep 2007 22:50:23 -0700 (PDT)","[jira] Created: (CAMEL-148) add support for StringTemplate as an endpoint"
"""Willem Jiang (JIRA)"" <jira@apache.org>","Fri, 14 Sep 2007 23:58:22 -0700 (PDT)","[jira] Updated: (CAMEL-121) Support CXF which other different message model"
"""Willem Jiang (JIRA)"" <jira@apache.org>","Sat, 15 Sep 2007 00:08:25 -0700 (PDT)","[jira] Commented: (CAMEL-121) Support CXF which other different message model"
"""Martin Krasser (JIRA)"" <jira@apache.org>","Sat, 15 Sep 2007 03:20:22 -0700 (PDT)","[jira] Updated: (CAMEL-126) provide a synchronous dispatch to the stream based resequencer for easier transaction support"
"""Martin Krasser"" <martin@martin-krasser.de>","Sat, 15 Sep 2007 12:24:13 +0200","Extended resequencer documentation"
"""Martin Krasser"" <dev@martin-krasser.de>","Sat, 15 Sep 2007 12:25:38 +0200","Extended resequencer documentation"
"Daryl Richter <ngzax@comcast.net>","Sun, 16 Sep 2007 21:18:41 -0400","Re: Build problem"
"Willem Jiang <willem.jiang@gmail.com>","Mon, 17 Sep 2007 09:33:08 +0800","Re: Build problem"
"""James Strachan"" <james.strachan@gmail.com>","Mon, 17 Sep 2007 10:20:56 +0100","Re: Extended resequencer documentation"
"""James Strachan"" <james.strachan@gmail.com>","Mon, 17 Sep 2007 11:13:49 +0100","Re: Build problem"
"""James Strachan"" <james.strachan@gmail.com>","Mon, 17 Sep 2007 11:18:07 +0100","Re: Extended resequencer documentation"
"Daryl Richter <ngzax@comcast.net>","Mon, 17 Sep 2007 11:23:28 -0400","Re: Build problem"
"""James Strachan"" <james.strachan@gmail.com>","Mon, 17 Sep 2007 16:27:59 +0100","Re: Build problem"
"""Hiram Chirino (JIRA)"" <jira@apache.org>","Mon, 17 Sep 2007 16:46:22 -0700 (PDT)","[jira] Created: (CAMEL-149) Add a thread(5) DSL method and assoicated ThreadProcessor"
"""Hiram Chirino"" <hiram@hiramchirino.com>","Mon, 17 Sep 2007 19:57:18 -0400","Re: Some Notes on Using Camel"
"""Nicky Sandhu (JIRA)"" <jira@apache.org>","Mon, 17 Sep 2007 20:22:24 -0700 (PDT)","[jira] Created: (CAMEL-150) Bug in PredicateBuilder"
"""Guillaume Nodet"" <gnodet@gmail.com>","Tue, 18 Sep 2007 09:23:39 +0200","Re: Some Notes on Using Camel"
"""Guillaume Nodet (JIRA)"" <jira@apache.org>","Tue, 18 Sep 2007 00:28:23 -0700 (PDT)","[jira] Resolved: (CAMEL-150) Bug in PredicateBuilder"
"""Guillaume Nodet (JIRA)"" <jira@apache.org>","Tue, 18 Sep 2007 00:42:22 -0700 (PDT)","[jira] Created: (CAMEL-151) Make all modules OSGi bundles"
"""Guillaume Nodet"" <gnodet@gmail.com>","Tue, 18 Sep 2007 10:52:05 +0200","Circular dependency"
"""Guillaume Nodet (JIRA)"" <jira@apache.org>","Tue, 18 Sep 2007 02:06:22 -0700 (PDT)","[jira] Resolved: (CAMEL-151) Make all modules OSGi bundles"
"""Guillaume Nodet"" <gnodet@gmail.com>","Tue, 18 Sep 2007 12:18:16 +0200","Re: Example of request reply"
"Willem Jiang <willem.jiang@gmail.com>","Tue, 18 Sep 2007 21:11:33 +0800","Re: Example of request reply"
"""Guillaume Nodet"" <gnodet@gmail.com>","Tue, 18 Sep 2007 16:27:54 +0200","Re: Example of request reply"
"""James Strachan"" <james.strachan@gmail.com>","Wed, 19 Sep 2007 08:09:22 +0100","Re: Example of request reply"
"""Guillaume Nodet"" <gnodet@gmail.com>","Wed, 19 Sep 2007 10:13:37 +0200","Re: Example of request reply"
"Willem Jiang <willem.jiang@gmail.com>","Wed, 19 Sep 2007 16:34:01 +0800","Re: Example of request reply"
"Willem Jiang <willem.jiang@gmail.com>","Wed, 19 Sep 2007 16:51:57 +0800","Re: Example of request reply"
"""Guillaume Nodet"" <gnodet@gmail.com>","Wed, 19 Sep 2007 12:59:46 +0200","Re: Example of request reply"
"""Guillaume Nodet"" <gnodet@gmail.com>","Wed, 19 Sep 2007 13:01:02 +0200","Re: Example of request reply"
"""Martin Krasser"" <dev@martin-krasser.de>","Wed, 19 Sep 2007 18:23:32 +0200","CAMEL-126 question"
"""Nicky Sandhu (JIRA)"" <jira@apache.org>","Wed, 19 Sep 2007 09:32:22 -0700 (PDT)","[jira] Updated: (CAMEL-133) add support for a MessageExchangePattern enum property on Exchange and make MINA support both InOnly and InOut"
"""Hiram Chirino"" <hiram@hiramchirino.com>","Wed, 19 Sep 2007 13:11:36 -0400","Re: Some Notes on Using Camel"
"""Hiram Chirino"" <hiram@hiramchirino.com>","Wed, 19 Sep 2007 13:20:06 -0400","Camel 1.2 Release anyone??"
"""James Strachan"" <james.strachan@gmail.com>","Wed, 19 Sep 2007 18:27:01 +0100","Re: Camel 1.2 Release anyone??"
"""Guillaume Nodet"" <gnodet@gmail.com>","Wed, 19 Sep 2007 20:28:53 +0200","Re: Camel 1.2 Release anyone??"
"""Nicky Sandhu (JIRA)"" <jira@apache.org>","Wed, 19 Sep 2007 11:34:23 -0700 (PDT)","[jira] Updated: (CAMEL-133) add support for a MessageExchangePattern enum property on Exchange and make MINA support both InOnly and InOut"
"""Nicky Sandhu (JIRA)"" <jira@apache.org>","Wed, 19 Sep 2007 11:36:22 -0700 (PDT)","[jira] Updated: (CAMEL-133) add support for a MessageExchangePattern enum property on Exchange and make MINA support both InOnly and InOut"
"""Hiram Chirino"" <hiram@hiramchirino.com>","Wed, 19 Sep 2007 14:45:23 -0400","Re: Circular dependency"
"""Hiram Chirino"" <hiram@hiramchirino.com>","Wed, 19 Sep 2007 14:47:02 -0400","Re: Camel 1.2 Release anyone??"
"""Guillaume Nodet"" <gnodet@gmail.com>","Wed, 19 Sep 2007 20:51:10 +0200","Re: Circular dependency"
"""Hiram Chirino"" <hiram@hiramchirino.com>","Wed, 19 Sep 2007 15:47:48 -0400","Re: Circular dependency"
"""Guillaume Nodet (JIRA)"" <jira@apache.org>","Wed, 19 Sep 2007 12:50:25 -0700 (PDT)","[jira] Created: (CAMEL-152) Add a ref: uri protocol to lookup existing endpoints or going to the registry as this is not easy in the java dsl (ref are mainly available from xml)"
"""Guillaume Nodet (JIRA)"" <jira@apache.org>","Wed, 19 Sep 2007 13:14:22 -0700 (PDT)","[jira] Resolved: (CAMEL-152) Add a ref: uri protocol to lookup existing endpoints or going to the registry as this is not easy in the java dsl (ref are mainly available from xml)"
"""Guillaume Nodet"" <gnodet@gmail.com>","Thu, 20 Sep 2007 00:15:29 +0200","Re: Camel 1.2 Release anyone??"
"Hadrian Zbarcea <hadrian.zbarcea@iona.com>","Wed, 19 Sep 2007 18:49:52 -0400","Re: Camel 1.2 Release anyone??"
"""James Strachan (JIRA)"" <jira@apache.org>","Wed, 19 Sep 2007 22:47:23 -0700 (PDT)","[jira] Resolved: (CAMEL-137) improvements in the Visualisation plugin to render pipeline/multicast nicely along with grouping RouteBuilder instances into boxes & separate diagrams"
"""James Strachan (JIRA)"" <jira@apache.org>","Wed, 19 Sep 2007 22:51:22 -0700 (PDT)","[jira] Resolved: (CAMEL-134) add better logging - thats easy to use - to trace the 'magic' in Camel such as auto-discovery of components & type conversions"
"""James Strachan (JIRA)"" <jira@apache.org>","Wed, 19 Sep 2007 22:53:22 -0700 (PDT)","[jira] Resolved: (CAMEL-133) add support for a MessageExchangePattern enum property on Exchange and make MINA support both InOnly and InOut"
"Willem Jiang <willem.jiang@gmail.com>","Thu, 20 Sep 2007 14:18:59 +0800","Re: Example of request reply"
"Willem Jiang <willem.jiang@gmail.com>","Thu, 20 Sep 2007 14:38:57 +0800","Re: Example of request reply"
"""Guillaume Nodet"" <gnodet@gmail.com>","Thu, 20 Sep 2007 09:07:03 +0200","Re: Example of request reply"
"""Guillaume Nodet"" <gnodet@gmail.com>","Thu, 20 Sep 2007 13:39:43 +0200","Component discovery mechanism"
"""James Strachan"" <james.strachan@gmail.com>","Thu, 20 Sep 2007 12:48:01 +0100","Re: Component discovery mechanism"
"""Guillaume Nodet (JIRA)"" <jira@apache.org>","Thu, 20 Sep 2007 05:43:23 -0700 (PDT)","[jira] Resolved: (CAMEL-153) Support for component discovery in OSGi"
"""Guillaume Nodet (JIRA)"" <jira@apache.org>","Thu, 20 Sep 2007 05:43:23 -0700 (PDT)","[jira] Created: (CAMEL-153) Support for component discovery in OSGi"
"""Guillaume Nodet"" <gnodet@gmail.com>","Fri, 21 Sep 2007 12:15:04 +0200","Re: Component discovery mechanism"
"""James Strachan"" <james.strachan@gmail.com>","Fri, 21 Sep 2007 12:14:08 +0100","Re: Component discovery mechanism"
"=?ISO-8859-1?Q?Martin_Nov=E1k?= <mn@martinnovak.eu>","Sat, 22 Sep 2007 20:36:47 +0200","Is this bug?"
"""Chris Custine"" <ccustine@apache.org>","Mon, 24 Sep 2007 00:48:40 -0600","maven-jaxb-schemagen-plugin not resolving"
"""James Strachan"" <james.strachan@gmail.com>","Mon, 24 Sep 2007 11:00:41 +0100","Re: maven-jaxb-schemagen-plugin not resolving"
"""Hadrian Zbarcea (JIRA)"" <jira@apache.org>","Mon, 24 Sep 2007 07:33:23 -0700 (PDT)","[jira] Created: (CAMEL-154) Improper wiring of camel context using Spring"
"""Nicky Sandhu (JIRA)"" <jira@apache.org>","Mon, 24 Sep 2007 08:59:22 -0700 (PDT)","[jira] Created: (CAMEL-155) AggregatorType configuration options exposed"
"""Nicky Sandhu (JIRA)"" <jira@apache.org>","Mon, 24 Sep 2007 09:01:22 -0700 (PDT)","[jira] Updated: (CAMEL-155) AggregatorType configuration options exposed"
"""Nicky Sandhu (JIRA)"" <jira@apache.org>","Mon, 24 Sep 2007 09:01:28 -0700 (PDT)","[jira] Updated: (CAMEL-155) AggregatorType configuration options exposed"
"""Nicky Sandhu (JIRA)"" <jira@apache.org>","Mon, 24 Sep 2007 10:54:23 -0700 (PDT)","[jira] Created: (CAMEL-156) set query parameters dynamically on http get requests"
"""Nicky Sandhu (JIRA)"" <jira@apache.org>","Mon, 24 Sep 2007 10:58:22 -0700 (PDT)","[jira] Updated: (CAMEL-156) set query parameters dynamically on http get requests"
"""Nicky Sandhu (JIRA)"" <jira@apache.org>","Mon, 24 Sep 2007 11:40:22 -0700 (PDT)","[jira] Commented: (CAMEL-156) set query parameters dynamically on http get requests"
"""Hadrian Zbarcea (JIRA)"" <jira@apache.org>","Tue, 25 Sep 2007 07:59:23 -0700 (PDT)","[jira] Assigned: (CAMEL-154) Improper wiring of camel context using Spring"
"""Hadrian Zbarcea (JIRA)"" <jira@apache.org>","Tue, 25 Sep 2007 08:03:22 -0700 (PDT)","[jira] Updated: (CAMEL-154) Improper wiring of camel context using Spring"
"""Hadrian Zbarcea (JIRA)"" <jira@apache.org>","Tue, 25 Sep 2007 08:03:23 -0700 (PDT)","[jira] Updated: (CAMEL-154) Improper wiring of camel context using Spring"
"""Hiram Chirino (JIRA)"" <jira@apache.org>","Tue, 25 Sep 2007 08:53:22 -0700 (PDT)","[jira] Resolved: (CAMEL-154) Improper wiring of camel context using Spring"
"""Hadrian Zbarcea (JIRA)"" <jira@apache.org>","Tue, 25 Sep 2007 09:33:23 -0700 (PDT)","[jira] Created: (CAMEL-157) Upgrade Spring version to 2.0.6"
"""James Strachan (JIRA)"" <jira@apache.org>","Wed, 26 Sep 2007 05:01:29 -0700 (PDT)","[jira] Resolved: (CAMEL-157) Upgrade Spring version to 2.0.6"
"""James Strachan"" <james.strachan@gmail.com>","Wed, 26 Sep 2007 13:31:37 +0100","Re: Is this bug?"
"""James Strachan (JIRA)"" <jira@apache.org>","Wed, 26 Sep 2007 05:43:24 -0700 (PDT)","[jira] Resolved: (CAMEL-156) set query parameters dynamically on http get requests"
"""James Strachan (JIRA)"" <jira@apache.org>","Wed, 26 Sep 2007 05:47:22 -0700 (PDT)","[jira] Resolved: (CAMEL-155) AggregatorType configuration options exposed"
"Ole Andreas Hegle <hegle@businesscape.no>","Wed, 26 Sep 2007 15:51:28 +0200","File-component will not find new files and lock does not work"
"Ole Andreas Hegle <hegle@businesscape.no>","Wed, 26 Sep 2007 17:38:28 +0200","Re: File-component will not find new files and lock does not work"
"""Hiram Chirino (JIRA)"" <jira@apache.org>","Wed, 26 Sep 2007 10:08:27 -0700 (PDT)","[jira] Created: (CAMEL-158) jetty endpoint consumer does not send exchange output as the HTTP response"
"""Hiram Chirino (JIRA)"" <jira@apache.org>","Wed, 26 Sep 2007 10:08:28 -0700 (PDT)","[jira] Resolved: (CAMEL-158) jetty endpoint consumer does not send exchange output as the HTTP response"
"""Nicky Sandhu (JIRA)"" <jira@apache.org>","Wed, 26 Sep 2007 13:18:22 -0700 (PDT)","[jira] Created: (CAMEL-159) Splitter does not propagate exceptions"
"""Nicky Sandhu (JIRA)"" <jira@apache.org>","Wed, 26 Sep 2007 16:50:23 -0700 (PDT)","[jira] Updated: (CAMEL-160) TryProcessor does not process finally if no catch defined"
"""Nicky Sandhu (JIRA)"" <jira@apache.org>","Wed, 26 Sep 2007 16:50:23 -0700 (PDT)","[jira] Created: (CAMEL-160) TryProcessor does not process finally if no catch defined"
"""Nicky Sandhu (JIRA)"" <jira@apache.org>","Wed, 26 Sep 2007 20:42:23 -0700 (PDT)","[jira] Commented: (CAMEL-160) TryProcessor does not process finally if no catch defined"
"""Guillaume Nodet"" <gnodet@gmail.com>","Thu, 27 Sep 2007 09:36:46 +0200","Re: Camel 1.2 Release anyone??"
"""James Strachan"" <james.strachan@gmail.com>","Thu, 27 Sep 2007 09:57:35 +0100","Re: Camel 1.2 Release anyone??"
"Ole Andreas Hegle <hegle@businesscape.no>","Thu, 27 Sep 2007 17:43:15 +0200","File-component, feature request"
"""Bozhong Lin (JIRA)"" <jira@apache.org>","Thu, 27 Sep 2007 21:06:22 -0700 (PDT)","[jira] Created: (CAMEL-161) URL link broken in org.apache.camel.Processor API doc"
"""Willem Jiang (JIRA)"" <jira@apache.org>","Thu, 27 Sep 2007 21:22:22 -0700 (PDT)","[jira] Updated: (CAMEL-45) more example programs required!"
"""Willem Jiang (JIRA)"" <jira@apache.org>","Thu, 27 Sep 2007 23:20:23 -0700 (PDT)","[jira] Commented: (CAMEL-121) Support CXF which other different message model"
"""Willem Jiang (JIRA)"" <jira@apache.org>","Thu, 27 Sep 2007 23:42:22 -0700 (PDT)","[jira] Updated: (CAMEL-45) more example programs required!"
"""Willem Jiang (JIRA)"" <jira@apache.org>","Thu, 27 Sep 2007 23:46:22 -0700 (PDT)","[jira] Updated: (CAMEL-45) more example programs required!"
"Willem Jiang <willem.jiang@gmail.com>","Fri, 28 Sep 2007 16:36:17 +0800","[Proposal] adding Spring support to camel-cxf component"
"""Guillaume Nodet"" <gnodet@gmail.com>","Fri, 28 Sep 2007 11:06:23 +0200","Re: [Proposal] adding Spring support to camel-cxf component"
"Willem Jiang <willem.jiang@gmail.com>","Fri, 28 Sep 2007 17:12:17 +0800","Re: [Proposal] adding Spring support to camel-cxf component"
"""Guillaume Nodet"" <gnodet@gmail.com>","Fri, 28 Sep 2007 11:15:23 +0200","Re: [Proposal] adding Spring support to camel-cxf component"
"Willem Jiang <willem.jiang@gmail.com>","Fri, 28 Sep 2007 18:13:47 +0800","Re: [Proposal] adding Spring support to camel-cxf component"
"""Guillaume Nodet"" <gnodet@gmail.com>","Fri, 28 Sep 2007 13:38:15 +0200","Re: [Proposal] adding Spring support to camel-cxf component"
"""Hiram Chirino"" <hiram@hiramchirino.com>","Fri, 28 Sep 2007 09:38:51 -0400","Re: File-component, feature request"
"""Hiram Chirino"" <hiram@hiramchirino.com>","Fri, 28 Sep 2007 09:45:19 -0400","Re: [Proposal] adding Spring support to camel-cxf component"
"""Guillaume Nodet"" <gnodet@gmail.com>","Fri, 28 Sep 2007 16:01:54 +0200","Re: [Proposal] adding Spring support to camel-cxf component"
"Willem Jiang <willem.jiang@gmail.com>","Sat, 29 Sep 2007 11:44:06 +0800","Re: [Proposal] adding Spring support to camel-cxf component"
"Willem Jiang <willem.jiang@gmail.com>","Sat, 29 Sep 2007 11:48:12 +0800","Re: [Proposal] adding Spring support to camel-cxf component"
"Willem Jiang <willem.jiang@gmail.com>","Sat, 29 Sep 2007 11:55:38 +0800","Re: [jira] Updated: (CAMEL-45) more example programs required!"
"""Guillaume Nodet"" <gnodet@gmail.com>","Sat, 29 Sep 2007 08:45:40 +0200","Re: [Proposal] adding Spring support to camel-cxf component"
"Willem Jiang <willem.jiang@gmail.com>","Sat, 29 Sep 2007 15:16:43 +0800","Re: [Proposal] adding Spring support to camel-cxf component"
"""Guillaume Nodet"" <gnodet@gmail.com>","Sat, 29 Sep 2007 10:22:07 +0200","Re: [Proposal] adding Spring support to camel-cxf component"
"""Willem Jiang (JIRA)"" <jira@apache.org>","Sat, 29 Sep 2007 02:44:22 -0700 (PDT)","[jira] Created: (CAMEL-162) Encoding the unsafe characters in URI"
"""Nicky Sandhu (JIRA)"" <jira@apache.org>","Sun, 30 Sep 2007 17:58:23 -0700 (PDT)","[jira] Commented: (CAMEL-162) Encoding the unsafe characters in URI"
