"Developer","Date","Subject"
"""Aaron Crickenberger (JIRA)"" <jira@apache.org>","Thu, 31 Jan 2008 17:03:35 -0800 (PST)","[jira] Created: (CAMEL-315) Unclosed InputStreams cause FileConsumer to hang on Windows"
"""Aaron Crickenberger (JIRA)"" <jira@apache.org>","Thu, 31 Jan 2008 17:07:35 -0800 (PST)","[jira] Updated: (CAMEL-315) Unclosed InputStreams cause FileConsumer to hang on Windows"
"""Hadrian Zbarcea (JIRA)"" <jira@apache.org>","Thu, 31 Jan 2008 17:27:35 -0800 (PST)","[jira] Assigned: (CAMEL-315) Unclosed InputStreams cause FileConsumer to hang on Windows"
"""Hadrian Zbarcea (JIRA)"" <jira@apache.org>","Fri, 1 Feb 2008 10:44:35 -0800 (PST)","[jira] Created: (CAMEL-316) Merge Fault and Exception semantics"
"""Hadrian Zbarcea (JIRA)"" <jira@apache.org>","Fri, 1 Feb 2008 13:52:37 -0800 (PST)","[jira] Assigned: (CAMEL-316) Merge Fault and Exception semantics"
"""Claus Ibsen (JIRA)"" <jira@apache.org>","Sun, 3 Feb 2008 01:47:35 -0800 (PST)","[jira] Commented: (CAMEL-315) Unclosed InputStreams cause FileConsumer to hang on Windows"
"""James Strachan (JIRA)"" <jira@apache.org>","Mon, 4 Feb 2008 08:15:36 -0800 (PST)","[jira] Created: (CAMEL-317) binary distro should include JAXB API, impl, StAX API, StAX impl, JAX API"
"""James Strachan (JIRA)"" <jira@apache.org>","Mon, 4 Feb 2008 08:53:37 -0800 (PST)","[jira] Created: (CAMEL-318) need type converter from Source -> InputStream so that JBI messages can be converted to a File"
"""Roman Kalukiewicz (JIRA)"" <jira@apache.org>","Mon, 4 Feb 2008 09:47:36 -0800 (PST)","[jira] Created: (CAMEL-319) New camel component for SQL expressions"
"""Roman Kalukiewicz (JIRA)"" <jira@apache.org>","Mon, 4 Feb 2008 12:43:35 -0800 (PST)","[jira] Assigned: (CAMEL-319) New camel component for SQL expressions"
"""Roman Kalukiewicz (JIRA)"" <jira@apache.org>","Mon, 4 Feb 2008 14:55:35 -0800 (PST)","[jira] Work started: (CAMEL-319) New camel component for SQL expressions"
"""Aaron Crickenberger (JIRA)"" <jira@apache.org>","Tue, 5 Feb 2008 05:10:41 -0800 (PST)","[jira] Created: (CAMEL-320) DefaultParameterMappingStrategy doesn't load its defaults"
"""Aaron Crickenberger (JIRA)"" <jira@apache.org>","Tue, 5 Feb 2008 05:12:35 -0800 (PST)","[jira] Updated: (CAMEL-320) DefaultParameterMappingStrategy doesn't load its defaults"
"""Hadrian Zbarcea (JIRA)"" <jira@apache.org>","Tue, 5 Feb 2008 06:16:36 -0800 (PST)","[jira] Work started: (CAMEL-320) DefaultParameterMappingStrategy doesn't load its defaults"
"""Hadrian Zbarcea (JIRA)"" <jira@apache.org>","Tue, 5 Feb 2008 06:16:36 -0800 (PST)","[jira] Assigned: (CAMEL-320) DefaultParameterMappingStrategy doesn't load its defaults"
"""James Strachan (JIRA)"" <jira@apache.org>","Tue, 5 Feb 2008 09:38:36 -0800 (PST)","[jira] Commented: (CAMEL-295) support the wiring of custom RouteBuilder instances into the CamelContext via XML notation"
"""James Strachan (JIRA)"" <jira@apache.org>","Tue, 5 Feb 2008 10:12:37 -0800 (PST)","[jira] Resolved: (CAMEL-318) need type converter from Source -> InputStream so that JBI messages can be converted to a File"
"""Hadrian Zbarcea (JIRA)"" <jira@apache.org>","Tue, 5 Feb 2008 22:56:35 -0800 (PST)","[jira] Assigned: (CAMEL-295) support the wiring of custom RouteBuilder instances into the CamelContext via XML notation"
"""Hadrian Zbarcea (JIRA)"" <jira@apache.org>","Tue, 5 Feb 2008 22:58:35 -0800 (PST)","[jira] Resolved: (CAMEL-295) support the wiring of custom RouteBuilder instances into the CamelContext via XML notation"
"""James Strachan"" <james.strachan@gmail.com>","Wed, 6 Feb 2008 16:32:27 +0000","Re: svn commit: r619002 - /activemq/camel/trunk/components/camel-stream/src/main/java/"
"""James Strachan (JIRA)"" <jira@apache.org>","Wed, 6 Feb 2008 09:04:36 -0800 (PST)","[jira] Resolved: (CAMEL-317) binary distro should include JAXB API, impl, StAX API, StAX impl, JAX API"
"Hadrian Zbarcea <hzbarcea@gmail.com>","Wed, 6 Feb 2008 12:09:15 -0500","Re: svn commit: r619002 - /activemq/camel/trunk/components/camel-stream/src/main/java/"
"""Hadrian Zbarcea (JIRA)"" <jira@apache.org>","Wed, 6 Feb 2008 12:56:35 -0800 (PST)","[jira] Resolved: (CAMEL-320) DefaultParameterMappingStrategy doesn't load its defaults"
"""James Strachan (JIRA)"" <jira@apache.org>","Thu, 7 Feb 2008 09:10:38 -0800 (PST)","[jira] Created: (CAMEL-321) add bridge to Spring Integration so that Camel can easily route Spring Integration endpoints or we can expose any Camel endpoint as a Spring Integration endpoint"
"""Hadrian Zbarcea (JIRA)"" <jira@apache.org>","Thu, 7 Feb 2008 11:50:36 -0800 (PST)","[jira] Resolved: (CAMEL-310) OgnlExpression causes null Message body/header propagation in Pipeline"
"""Jonathan Anstey (JIRA)"" <jira@apache.org>","Thu, 7 Feb 2008 17:32:36 -0800 (PST)","[jira] Updated: (CAMEL-200) released archetype for 1.2.0 when ran generates a project using version 1.1-SNAPSHOT"
"""Hadrian Zbarcea (JIRA)"" <jira@apache.org>","Thu, 7 Feb 2008 19:22:37 -0800 (PST)","[jira] Resolved: (CAMEL-200) released archetype for 1.2.0 when ran generates a project using version 1.1-SNAPSHOT"
"""James Strachan (JIRA)"" <jira@apache.org>","Fri, 8 Feb 2008 05:04:38 -0800 (PST)","[jira] Created: (CAMEL-322) support a text based Data Format for easy marshaling to/from text using optionally different character sets"
"""Hadrian Zbarcea (JIRA)"" <jira@apache.org>","Fri, 8 Feb 2008 10:05:46 -0800 (PST)","[jira] Assigned: (CAMEL-268) apache-camel.jar's TypeConverter file is incorrect"
"""Hadrian Zbarcea (JIRA)"" <jira@apache.org>","Fri, 8 Feb 2008 10:05:46 -0800 (PST)","[jira] Work started: (CAMEL-268) apache-camel.jar's TypeConverter file is incorrect"
"""Hadrian Zbarcea (JIRA)"" <jira@apache.org>","Fri, 8 Feb 2008 13:39:37 -0800 (PST)","[jira] Resolved: (CAMEL-291) MulticastRecipientList - recipient list that uses multicast processor"
"""Hadrian Zbarcea (JIRA)"" <jira@apache.org>","Fri, 8 Feb 2008 19:11:36 -0800 (PST)","[jira] Commented: (CAMEL-279) BeanProcessor permanently sets METHOD_NAME header"
"""Hadrian Zbarcea (JIRA)"" <jira@apache.org>","Fri, 8 Feb 2008 19:13:35 -0800 (PST)","[jira] Commented: (CAMEL-279) BeanProcessor permanently sets METHOD_NAME header"
"""Hadrian Zbarcea (JIRA)"" <jira@apache.org>","Fri, 8 Feb 2008 19:13:36 -0800 (PST)","[jira] Assigned: (CAMEL-279) BeanProcessor permanently sets METHOD_NAME header"
"""Hadrian Zbarcea (JIRA)"" <jira@apache.org>","Fri, 8 Feb 2008 19:57:37 -0800 (PST)","[jira] Assigned: (CAMEL-115) Provide access to the Exchange in TypeConverter#convert"
"""Roman Kalukiewicz (JIRA)"" <jira@apache.org>","Sat, 9 Feb 2008 13:13:35 -0800 (PST)","[jira] Updated: (CAMEL-279) BeanProcessor permanently sets METHOD_NAME header"
"""Roman Kalukiewicz (JIRA)"" <jira@apache.org>","Sat, 9 Feb 2008 13:15:35 -0800 (PST)","[jira] Updated: (CAMEL-279) BeanProcessor permanently sets METHOD_NAME header"
"""Hadrian Zbarcea (JIRA)"" <jira@apache.org>","Sat, 9 Feb 2008 17:55:35 -0800 (PST)","[jira] Commented: (CAMEL-279) BeanProcessor permanently sets METHOD_NAME header"
"""Hadrian Zbarcea (JIRA)"" <jira@apache.org>","Sat, 9 Feb 2008 17:55:36 -0800 (PST)","[jira] Resolved: (CAMEL-279) BeanProcessor permanently sets METHOD_NAME header"
"""Claus Ibsen (JIRA)"" <jira@apache.org>","Sun, 10 Feb 2008 02:23:35 -0800 (PST)","[jira] Created: (CAMEL-323) spring-2.5.1.jar is twice in the camel distro"
"""alex c (JIRA)"" <jira@apache.org>","Sun, 10 Feb 2008 02:31:35 -0800 (PST)","[jira] Created: (CAMEL-324) bad content length header value in http response"
"""James Strachan (JIRA)"" <jira@apache.org>","Mon, 11 Feb 2008 04:22:37 -0800 (PST)","[jira] Created: (CAMEL-325) support a loop operation in the routing DSL"
"""James Strachan (JIRA)"" <jira@apache.org>","Mon, 11 Feb 2008 06:22:35 -0800 (PST)","[jira] Created: (CAMEL-326) support for SXC for faster XPath..."
"""James Strachan (JIRA)"" <jira@apache.org>","Mon, 11 Feb 2008 07:54:36 -0800 (PST)","[jira] Created: (CAMEL-327) implement mock testing using a new Endpoint which grabs the expected messages from another endpoint"
"""James Strachan (JIRA)"" <jira@apache.org>","Mon, 11 Feb 2008 07:58:35 -0800 (PST)","[jira] Commented: (CAMEL-327) implement mock testing using a new Endpoint which grabs the expected messages from another endpoint"
"""Hadrian Zbarcea (JIRA)"" <jira@apache.org>","Mon, 11 Feb 2008 08:34:36 -0800 (PST)","[jira] Commented: (CAMEL-327) implement mock testing using a new Endpoint which grabs the expected messages from another endpoint"
"""James Strachan (JIRA)"" <jira@apache.org>","Mon, 11 Feb 2008 08:54:42 -0800 (PST)","[jira] Commented: (CAMEL-327) implement mock testing using a new Endpoint which grabs the expected messages from another endpoint"
"""Hadrian Zbarcea (JIRA)"" <jira@apache.org>","Mon, 11 Feb 2008 09:50:36 -0800 (PST)","[jira] Updated: (CAMEL-280) Dynamic Router implementation"
"""Hadrian Zbarcea (JIRA)"" <jira@apache.org>","Mon, 11 Feb 2008 09:52:35 -0800 (PST)","[jira] Updated: (CAMEL-280) Dynamic Router implementation"
"""James Strachan (JIRA)"" <jira@apache.org>","Tue, 12 Feb 2008 04:04:36 -0800 (PST)","[jira] Created: (CAMEL-328) add a simple List endpoint that can be used to keep the messages sent to it so they can be visualised in a testing or demo tool"
"""James Strachan (JIRA)"" <jira@apache.org>","Tue, 12 Feb 2008 04:38:44 -0800 (PST)","[jira] Resolved: (CAMEL-285) support browsing of endpoints via Endpoint.createBrowser()"
"""James Strachan (JIRA)"" <jira@apache.org>","Tue, 12 Feb 2008 04:50:36 -0800 (PST)","[jira] Resolved: (CAMEL-328) add a simple List endpoint that can be used to keep the messages sent to it so they can be visualised in a testing or demo tool"
"""Willem Jiang (JIRA)"" <jira@apache.org>","Tue, 12 Feb 2008 05:34:36 -0800 (PST)","[jira] Created: (CAMEL-329) Throwing the  IllegalArgumentException if there are already another type bean which name is same with the URI schema"
"""Willem Jiang (JIRA)"" <jira@apache.org>","Tue, 12 Feb 2008 05:36:35 -0800 (PST)","[jira] Work started: (CAMEL-329) Throwing the  IllegalArgumentException if there are already another type bean which name is same with the URI schema"
"""Hadrian Zbarcea (JIRA)"" <jira@apache.org>","Tue, 12 Feb 2008 06:52:36 -0800 (PST)","[jira] Created: (CAMEL-330) Components / endpoints should advertise the data types they support"
"""James Strachan (JIRA)"" <jira@apache.org>","Tue, 12 Feb 2008 08:01:04 -0800 (PST)","[jira] Created: (CAMEL-331) provide a simple UI for viewing endpoints and the exchanges on them"
"""Gary Tully (JIRA)"" <jira@apache.org>","Tue, 12 Feb 2008 08:46:35 -0800 (PST)","[jira] Assigned: (CAMEL-324) bad content length header value in http response"
"""Gary Tully (JIRA)"" <jira@apache.org>","Tue, 12 Feb 2008 10:36:35 -0800 (PST)","[jira] Commented: (CAMEL-324) bad content length header value in http response"
"""alex c (JIRA)"" <jira@apache.org>","Tue, 12 Feb 2008 13:06:36 -0800 (PST)","[jira] Commented: (CAMEL-324) bad content length header value in http response"
"""Aswani Kumar (JIRA)"" <jira@apache.org>","Tue, 12 Feb 2008 15:56:35 -0800 (PST)","[jira] Created: (CAMEL-332) CXF Component"
"""Aswani Kumar (JIRA)"" <jira@apache.org>","Tue, 12 Feb 2008 16:06:45 -0800 (PST)","[jira] Commented: (CAMEL-332) CXF Component"
"""Aswani Kumar (JIRA)"" <jira@apache.org>","Tue, 12 Feb 2008 20:50:36 -0800 (PST)","[jira] Updated: (CAMEL-332) CXF Component"
"""Willem Jiang (JIRA)"" <jira@apache.org>","Tue, 12 Feb 2008 20:56:35 -0800 (PST)","[jira] Assigned: (CAMEL-332) CXF Component"
"""Aswani Kumar (JIRA)"" <jira@apache.org>","Tue, 12 Feb 2008 21:24:37 -0800 (PST)","[jira] Updated: (CAMEL-332) CXF Component"
"""Freeman Fang (JIRA)"" <jira@apache.org>","Wed, 13 Feb 2008 01:21:35 -0800 (PST)","[jira] Created: (CAMEL-333) CamelDestination in camel-cxf should support decoupled message"
"""Freeman Fang (JIRA)"" <jira@apache.org>","Wed, 13 Feb 2008 01:23:35 -0800 (PST)","[jira] Updated: (CAMEL-333) CamelDestination in camel-cxf should support decoupled message"
"""Willem Jiang (JIRA)"" <jira@apache.org>","Wed, 13 Feb 2008 01:25:35 -0800 (PST)","[jira] Assigned: (CAMEL-333) CamelDestination in camel-cxf should support decoupled message"
"""Willem Jiang (JIRA)"" <jira@apache.org>","Wed, 13 Feb 2008 01:25:35 -0800 (PST)","[jira] Work started: (CAMEL-333) CamelDestination in camel-cxf should support decoupled message"
"""James Strachan (JIRA)"" <jira@apache.org>","Wed, 13 Feb 2008 01:41:35 -0800 (PST)","[jira] Created: (CAMEL-334) endpoints implementing Service do not get stopped"
"""James Strachan (JIRA)"" <jira@apache.org>","Wed, 13 Feb 2008 02:31:35 -0800 (PST)","[jira] Resolved: (CAMEL-334) endpoints implementing Service do not get stopped"
"""Tully, Gary"" <Gary.Tully@iona.com>","Wed, 13 Feb 2008 18:54:13 -0000","Where is it best to remove a message transport header that breaks a response?"
"""Gary Tully (JIRA)"" <jira@apache.org>","Wed, 13 Feb 2008 11:07:36 -0800 (PST)","[jira] Commented: (CAMEL-324) bad content length header value in http response"
"""James Strachan"" <james.strachan@gmail.com>","Wed, 13 Feb 2008 19:26:32 +0000","Re: Where is it best to remove a message transport header that breaks a response?"
"""Roman Kalukiewicz"" <roman.kalukiewicz@gmail.com>","Thu, 14 Feb 2008 00:08:19 +0100","Re: Where is it best to remove a message transport header that breaks a response?"
"""Willem Jiang (JIRA)"" <jira@apache.org>","Wed, 13 Feb 2008 19:41:35 -0800 (PST)","[jira] Resolved: (CAMEL-333) CamelDestination in camel-cxf should support decoupled message"
"""Gary Tully"" <gary.tully@gmail.com>","Thu, 14 Feb 2008 11:10:17 +0000","Re: Where is it best to remove a message transport header that breaks a response?"
"""Gary Tully"" <gary.tully@gmail.com>","Thu, 14 Feb 2008 13:12:05 +0000","Re: Where is it best to remove a message transport header that breaks a response?"
"""Roman Kalukiewicz"" <roman.kalukiewicz@gmail.com>","Thu, 14 Feb 2008 20:03:44 +0100","Re: Where is it best to remove a message transport header that breaks a response?"
"""James Strachan"" <james.strachan@gmail.com>","Fri, 15 Feb 2008 12:45:31 +0000","[HeadsUp] easier testing with Mock endpoints, the new Test endpoint along with Spring Test"
"""Lars Heinemann (JIRA)"" <jira@apache.org>","Fri, 15 Feb 2008 05:09:36 -0800 (PST)","[jira] Created: (CAMEL-335) Mail component is missing some configuration possibilities"
"""James Strachan (JIRA)"" <jira@apache.org>","Fri, 15 Feb 2008 11:25:36 -0800 (PST)","[jira] Created: (CAMEL-336) create a hamcrest module (extending hamcrest maybe with our DSL / mock stuff) and show how it can be used to nicely test assertions"
"""Jonathan Anstey (JIRA)"" <jira@apache.org>","Sat, 16 Feb 2008 07:43:36 -0800 (PST)","[jira] Updated: (CAMEL-323) spring-2.5.1.jar is twice in the camel distro"
"""Jonathan Anstey (JIRA)"" <jira@apache.org>","Sat, 16 Feb 2008 09:17:35 -0800 (PST)","[jira] Created: (CAMEL-337) Upgrade Apache Felix to 1.2.0"
"""Jonathan Anstey (JIRA)"" <jira@apache.org>","Sat, 16 Feb 2008 09:21:35 -0800 (PST)","[jira] Updated: (CAMEL-337) Upgrade Apache Felix to 1.2.0"
"""Hadrian Zbarcea (JIRA)"" <jira@apache.org>","Sat, 16 Feb 2008 09:45:35 -0800 (PST)","[jira] Resolved: (CAMEL-337) Upgrade Apache Felix to 1.2.0"
"""Hadrian Zbarcea (JIRA)"" <jira@apache.org>","Sat, 16 Feb 2008 09:47:35 -0800 (PST)","[jira] Resolved: (CAMEL-323) spring-2.5.1.jar is twice in the camel distro"
"""Willem Jiang (JIRA)"" <jira@apache.org>","Sat, 16 Feb 2008 20:43:36 -0800 (PST)","[jira] Work started: (CAMEL-312) Refactor the camel-cxf component"
"""Willem Jiang (JIRA)"" <jira@apache.org>","Sat, 16 Feb 2008 20:43:37 -0800 (PST)","[jira] Updated: (CAMEL-312) Refactor the camel-cxf component"
"""Willem Jiang (JIRA)"" <jira@apache.org>","Sat, 16 Feb 2008 20:47:35 -0800 (PST)","[jira] Created: (CAMEL-338) Getting the cxf-consumer to work with PAYLOAD and MESSAGE data format by setting the features"
"""Willem Jiang (JIRA)"" <jira@apache.org>","Sat, 16 Feb 2008 20:47:36 -0800 (PST)","[jira] Work started: (CAMEL-338) Getting the cxf-consumer to work with PAYLOAD and MESSAGE data format by setting the features"
"""Willem Jiang (JIRA)"" <jira@apache.org>","Sat, 16 Feb 2008 20:49:35 -0800 (PST)","[jira] Created: (CAMEL-339) Getting the cxf-producer to work with PAYLOAD and MESSAGE data format by setting the features"
"""Willem Jiang (JIRA)"" <jira@apache.org>","Sat, 16 Feb 2008 21:01:36 -0800 (PST)","[jira] Updated: (CAMEL-311) Using type converter to change the Camel message body to CXF wanted stream message"
"""Willem Jiang (JIRA)"" <jira@apache.org>","Sat, 16 Feb 2008 21:01:45 -0800 (PST)","[jira] Resolved: (CAMEL-311) Using type converter to change the Camel message body to CXF wanted stream message"
"""Claus Ibsen (JIRA)"" <jira@apache.org>","Sun, 17 Feb 2008 08:56:15 -0800 (PST)","[jira] Created: (CAMEL-340) Mina TCP does not support InOut pattern"
"""Claus Ibsen (JIRA)"" <jira@apache.org>","Sun, 17 Feb 2008 08:58:16 -0800 (PST)","[jira] Updated: (CAMEL-340) Mina TCP does not support InOut pattern"
"""Claus Ibsen (JIRA)"" <jira@apache.org>","Sun, 17 Feb 2008 08:58:16 -0800 (PST)","[jira] Updated: (CAMEL-340) Mina TCP does not support InOut pattern"
"""Claus Ibsen (JIRA)"" <jira@apache.org>","Sun, 17 Feb 2008 09:06:15 -0800 (PST)","[jira] Commented: (CAMEL-340) Mina TCP does not support InOut pattern"
"""Willem Jiang (JIRA)"" <jira@apache.org>","Mon, 18 Feb 2008 22:20:15 -0800 (PST)","[jira] Work started: (CAMEL-339) Getting the cxf-producer to work with PAYLOAD and MESSAGE data format by setting the features"
"""Willem Jiang (JIRA)"" <jira@apache.org>","Mon, 18 Feb 2008 22:20:15 -0800 (PST)","[jira] Assigned: (CAMEL-339) Getting the cxf-producer to work with PAYLOAD and MESSAGE data format by setting the features"
"lhe77 <lars.heinemann@compart.net>","Mon, 18 Feb 2008 23:44:16 -0800 (PST)","Error when building the actual trunk of camel"
"Willem Jiang <willem.jiang@gmail.com>","Tue, 19 Feb 2008 16:53:34 +0800","Re: Error when building the actual trunk of camel"
"lhe77 <lars.heinemann@compart.net>","Tue, 19 Feb 2008 11:00:13 -0800 (PST)","Re: Error when building the actual trunk of camel"
"""Guillaume Nodet"" <gnodet@gmail.com>","Tue, 19 Feb 2008 21:23:33 +0100","Re: Error when building the actual trunk of camel"
"Hadrian Zbarcea <hzbarcea@gmail.com>","Tue, 19 Feb 2008 15:46:48 -0500","Re: Error when building the actual trunk of camel"
"""Rafael Z. Frantz"" <rzfrantz@gmail.com>","Tue, 19 Feb 2008 21:56:18 +0100","Help with Camel's Model"
"lhe77 <lars.heinemann@compart.net>","Tue, 19 Feb 2008 13:01:13 -0800 (PST)","Re: Error when building the actual trunk of camel"
"""Guillaume Nodet"" <gnodet@gmail.com>","Tue, 19 Feb 2008 22:08:25 +0100","Re: Help with Camel's Model"
"""Guillaume Nodet"" <gnodet@gmail.com>","Tue, 19 Feb 2008 22:28:46 +0100","Re: Help with Camel's Model"
"""Andrea Chiodoni (JIRA)"" <jira@apache.org>","Thu, 21 Feb 2008 12:22:14 -0800 (PST)","[jira] Created: (CAMEL-341) aggregator and JMS: AggregatorStrategy does not get called"
"""James Strachan (JIRA)"" <jira@apache.org>","Mon, 25 Feb 2008 01:27:17 -0800 (PST)","[jira] Created: (CAMEL-342) support temporary destinations for camel-jms"
"""Willem Jiang (JIRA)"" <jira@apache.org>","Mon, 25 Feb 2008 18:07:17 -0800 (PST)","[jira] Resolved: (CAMEL-338) Getting the cxf-consumer to work with PAYLOAD and MESSAGE data format by setting the features"
"""Willem Jiang (JIRA)"" <jira@apache.org>","Mon, 25 Feb 2008 18:13:17 -0800 (PST)","[jira] Resolved: (CAMEL-339) Getting the cxf-producer to work with PAYLOAD and MESSAGE data format by setting the features"
"""Willem Jiang (JIRA)"" <jira@apache.org>","Mon, 25 Feb 2008 18:17:17 -0800 (PST)","[jira] Resolved: (CAMEL-332) CXF Component"
"""Willem Jiang (JIRA)"" <jira@apache.org>","Mon, 25 Feb 2008 18:19:17 -0800 (PST)","[jira] Resolved: (CAMEL-329) Throwing the  IllegalArgumentException if there are already another type bean which name is same with the URI schema"
"""Willem Jiang (JIRA)"" <jira@apache.org>","Mon, 25 Feb 2008 18:21:17 -0800 (PST)","[jira] Resolved: (CAMEL-259) Adding systest and an example to show how to use camel transport."
"Ole Andreas Hegle <hegle@businesscape.no>","Tue, 26 Feb 2008 05:01:52 +0100","Problem with file-compnent - Files are sent to processing twice"
"""Roman Kalukiewicz (JIRA)"" <jira@apache.org>","Tue, 26 Feb 2008 03:23:17 -0800 (PST)","[jira] Created: (CAMEL-343) Inconsistent exchange properties propagation"
"Jonathan Anstey <janstey@gmail.com>","Tue, 26 Feb 2008 11:48:47 -0330","camel-version property"
"""Hadrian Zbarcea (JIRA)"" <jira@apache.org>","Tue, 26 Feb 2008 07:46:18 -0800 (PST)","[jira] Assigned: (CAMEL-301) spring.handlers and spring.schemas are not being merged in the uberjar"
"""James Strachan"" <james.strachan@gmail.com>","Tue, 26 Feb 2008 17:30:54 +0000","Re: camel-version property"
"""Jonathan Anstey (JIRA)"" <jira@apache.org>","Tue, 26 Feb 2008 09:41:17 -0800 (PST)","[jira] Created: (CAMEL-344) camel-version property should be removed"
"Jonathan Anstey <janstey@gmail.com>","Tue, 26 Feb 2008 14:18:50 -0330","Re: camel-version property"
"""Jonathan Anstey (JIRA)"" <jira@apache.org>","Tue, 26 Feb 2008 10:09:18 -0800 (PST)","[jira] Created: (CAMEL-345) get log4j exclude working in camel-core pom test-jar"
"""Roman Kalukiewicz (JIRA)"" <jira@apache.org>","Tue, 26 Feb 2008 15:31:17 -0800 (PST)","[jira] Created: (CAMEL-346) Exceptions in handle clause are swallowed"
"""Roman Kalukiewicz"" <roman.kalukiewicz@gmail.com>","Wed, 27 Feb 2008 01:41:10 +0100","My doubts on 2 error handling tests"
"""Roman Kalukiewicz (JIRA)"" <jira@apache.org>","Tue, 26 Feb 2008 16:42:17 -0800 (PST)","[jira] Work started: (CAMEL-346) Exceptions in handle clause are swallowed"
"""Roman Kalukiewicz (JIRA)"" <jira@apache.org>","Tue, 26 Feb 2008 16:44:17 -0800 (PST)","[jira] Work started: (CAMEL-343) Inconsistent exchange properties propagation"
"""James Strachan (JIRA)"" <jira@apache.org>","Tue, 26 Feb 2008 22:42:17 -0800 (PST)","[jira] Created: (CAMEL-347) JUEL support does not support method invocations"
"""James Strachan (JIRA)"" <jira@apache.org>","Tue, 26 Feb 2008 22:42:17 -0800 (PST)","[jira] Resolved: (CAMEL-347) JUEL support does not support method invocations"
"""James Strachan (JIRA)"" <jira@apache.org>","Tue, 26 Feb 2008 22:55:17 -0800 (PST)","[jira] Resolved: (CAMEL-327) implement mock testing using a new Endpoint which grabs the expected messages from another endpoint"
"""James Strachan (JIRA)"" <jira@apache.org>","Wed, 27 Feb 2008 00:27:17 -0800 (PST)","[jira] Created: (CAMEL-348) enhance the Java DSL to make it easier to use expressions like header(""name""), headers(), body(), outBody() and so forth."
"""James Strachan (JIRA)"" <jira@apache.org>","Wed, 27 Feb 2008 01:20:17 -0800 (PST)","[jira] Resolved: (CAMEL-348) enhance the Java DSL to make it easier to use expressions like header(""name""), headers(), body(), outBody() and so forth."
"""James Strachan (JIRA)"" <jira@apache.org>","Wed, 27 Feb 2008 01:38:17 -0800 (PST)","[jira] Assigned: (CAMEL-340) Mina TCP does not support InOut pattern"
"""James Strachan (JIRA)"" <jira@apache.org>","Wed, 27 Feb 2008 01:42:17 -0800 (PST)","[jira] Resolved: (CAMEL-344) camel-version property should be removed"
"""James Strachan"" <james.strachan@gmail.com>","Wed, 27 Feb 2008 09:42:49 +0000","Re: camel-version property"
"""Gary Tully (JIRA)"" <jira@apache.org>","Wed, 27 Feb 2008 14:30:17 -0800 (PST)","[jira] Updated: (CAMEL-324) bad content length header value in http response"
"""Hadrian Zbarcea (JIRA)"" <jira@apache.org>","Wed, 27 Feb 2008 19:53:17 -0800 (PST)","[jira] Resolved: (CAMEL-324) bad content length header value in http response"
"""Hadrian Zbarcea (JIRA)"" <jira@apache.org>","Wed, 27 Feb 2008 21:35:17 -0800 (PST)","[jira] Resolved: (CAMEL-268) apache-camel.jar's TypeConverter file is incorrect"
"""Hadrian Zbarcea (JIRA)"" <jira@apache.org>","Wed, 27 Feb 2008 21:35:17 -0800 (PST)","[jira] Resolved: (CAMEL-301) spring.handlers and spring.schemas are not being merged in the uberjar"
"""Willem Jiang (JIRA)"" <jira@apache.org>","Wed, 27 Feb 2008 22:50:18 -0800 (PST)","[jira] Assigned: (CAMEL-345) get log4j exclude working in camel-core pom test-jar"
"""Willem Jiang (JIRA)"" <jira@apache.org>","Wed, 27 Feb 2008 23:22:17 -0800 (PST)","[jira] Work started: (CAMEL-340) Mina TCP does not support InOut pattern"
"""Willem Jiang (JIRA)"" <jira@apache.org>","Wed, 27 Feb 2008 23:22:17 -0800 (PST)","[jira] Assigned: (CAMEL-340) Mina TCP does not support InOut pattern"
"""Willem Jiang (JIRA)"" <jira@apache.org>","Wed, 27 Feb 2008 23:26:18 -0800 (PST)","[jira] Resolved: (CAMEL-345) get log4j exclude working in camel-core pom test-jar"
"""Willem Jiang (JIRA)"" <jira@apache.org>","Thu, 28 Feb 2008 00:50:17 -0800 (PST)","[jira] Resolved: (CAMEL-340) Mina TCP does not support InOut pattern"
"""Willem Jiang (JIRA)"" <jira@apache.org>","Thu, 28 Feb 2008 01:08:17 -0800 (PST)","[jira] Updated: (CAMEL-261) patch to fix some issue about camel-cxf component"
"""Gary Tully (JIRA)"" <jira@apache.org>","Thu, 28 Feb 2008 02:23:17 -0800 (PST)","[jira] Assigned: (CAMEL-341) aggregator and JMS: AggregatorStrategy does not get called"
"""Gary Tully (JIRA)"" <jira@apache.org>","Thu, 28 Feb 2008 02:27:17 -0800 (PST)","[jira] Work started: (CAMEL-341) aggregator and JMS: AggregatorStrategy does not get called"
"""Hadrian Zbarcea (JIRA)"" <jira@apache.org>","Thu, 28 Feb 2008 07:24:17 -0800 (PST)","[jira] Resolved: (CAMEL-315) Unclosed InputStreams cause FileConsumer to hang on Windows"
"""James Strachan (JIRA)"" <jira@apache.org>","Thu, 28 Feb 2008 09:58:18 -0800 (PST)","[jira] Created: (CAMEL-349) add support for ActiveMQ's SQL selector syntax inside Camel as a Predicate/Expression language"
"""Jon Anstey"" <janstey@gmail.com>","Thu, 28 Feb 2008 21:08:56 -0330","Setting failIfNoTests=false as default"
"janstey <janstey@gmail.com>","Thu, 28 Feb 2008 16:43:28 -0800 (PST)","Re: Setting failIfNoTests=false as default"
"""Gary Tully"" <gary.tully@gmail.com>","Fri, 29 Feb 2008 11:12:49 +0000","Re: My doubts on 2 error handling tests"
"""Roman Kalukiewicz (JIRA)"" <jira@apache.org>","Fri, 29 Feb 2008 12:27:18 -0800 (PST)","[jira] Resolved: (CAMEL-343) Inconsistent exchange properties propagation"
"""Roman Kalukiewicz (JIRA)"" <jira@apache.org>","Fri, 29 Feb 2008 12:37:17 -0800 (PST)","[jira] Resolved: (CAMEL-346) Exceptions in handle clause are swallowed"
"""Roman Kalukiewicz (JIRA)"" <jira@apache.org>","Fri, 29 Feb 2008 12:58:17 -0800 (PST)","[jira] Closed: (CAMEL-346) Exceptions in handle clause are swallowed"
"""Hadrian Zbarcea (JIRA)"" <jira@apache.org>","Fri, 29 Feb 2008 13:11:18 -0800 (PST)","[jira] Created: (CAMEL-350) FtpRouteTest failure"
