"Developer","Date","Subject"
"""Brian McCallister (JIRA)"" <jira@apache.org>","Thu, 2 Aug 2007 16:07:48 -0700 (PDT)","[jira] Created: (CAMEL-83) TypeConverter from String to ByteBuffer"
"""Brian McCallister (JIRA)"" <jira@apache.org>","Thu, 2 Aug 2007 16:41:48 -0700 (PDT)","[jira] Created: (CAMEL-84) Throw Useful Exception on No TypeConverter Available"
"""Taylor Gautier (JIRA)"" <jira@apache.org>","Thu, 2 Aug 2007 21:27:49 -0700 (PDT)","[jira] Created: (CAMEL-85) VM Component should extend Seda not Queue"
"""James Strachan (JIRA)"" <jira@apache.org>","Fri, 3 Aug 2007 00:22:49 -0700 (PDT)","[jira] Created: (CAMEL-86) Unify the various POJO approaches in Camel (pojo + bean components, proxying, spring remoting, bean post processing etc)"
"""James Strachan (JIRA)"" <jira@apache.org>","Fri, 3 Aug 2007 00:22:50 -0700 (PDT)","[jira] Commented: (CAMEL-86) Unify the various POJO approaches in Camel (pojo + bean components, proxying, spring remoting, bean post processing etc)"
"""James Strachan (JIRA)"" <jira@apache.org>","Fri, 3 Aug 2007 00:50:48 -0700 (PDT)","[jira] Resolved: (CAMEL-86) Unify the various POJO approaches in Camel (pojo + bean components, proxying, spring remoting, bean post processing etc)"
"""James Strachan (JIRA)"" <jira@apache.org>","Fri, 3 Aug 2007 02:34:50 -0700 (PDT)","[jira] Resolved: (CAMEL-82) create a log component for easy logging"
"""James Strachan (JIRA)"" <jira@apache.org>","Fri, 3 Aug 2007 12:48:49 -0700 (PDT)","[jira] Created: (CAMEL-87) add support for OGNL expressions in the Java and XML routing languages"
"""James Strachan (JIRA)"" <jira@apache.org>","Fri, 3 Aug 2007 12:54:48 -0700 (PDT)","[jira] Commented: (CAMEL-87) add support for OGNL expressions in the Java and XML routing languages"
"""James Strachan (JIRA)"" <jira@apache.org>","Fri, 3 Aug 2007 13:10:48 -0700 (PDT)","[jira] Resolved: (CAMEL-87) add support for OGNL expressions in the Java and XML routing languages"
"""James Strachan (JIRA)"" <jira@apache.org>","Fri, 3 Aug 2007 13:20:49 -0700 (PDT)","[jira] Resolved: (CAMEL-77) allow fallback TypeConverters to be discovered on the classpath to support things like JAXB2 unmarshalling etc"
"""James Strachan (JIRA)"" <jira@apache.org>","Fri, 3 Aug 2007 13:20:49 -0700 (PDT)","[jira] Resolved: (CAMEL-85) VM Component should extend Seda not Queue"
"""James Strachan (JIRA)"" <jira@apache.org>","Fri, 3 Aug 2007 13:22:49 -0700 (PDT)","[jira] Resolved: (CAMEL-36) Document the Spring Remoting implemenation to camel."
"""James Strachan (JIRA)"" <jira@apache.org>","Sat, 4 Aug 2007 02:48:48 -0700 (PDT)","[jira] Resolved: (CAMEL-83) TypeConverter from String to ByteBuffer"
"""James Strachan (JIRA)"" <jira@apache.org>","Mon, 6 Aug 2007 07:01:02 -0700 (PDT)","[jira] Created: (CAMEL-88) create a RelaxNG validator component capable of using RelaxNG instead of XSD"
"Willem Jiang <ning.jiang@iona.com>","Tue, 07 Aug 2007 10:30:57 +0800","Proposal for the CXF and Camel integration"
"Willem Jiang <willem.jiang@gmail.com>","Tue, 07 Aug 2007 10:38:00 +0800","Proposal for the CXF and Camel integration"
"""James Strachan"" <james.strachan@gmail.com>","Tue, 7 Aug 2007 07:46:47 +0100","Re: Proposal for the CXF and Camel integration"
"""James Strachan"" <james.strachan@gmail.com>","Tue, 7 Aug 2007 07:48:15 +0100","Re: Proposal for the CXF and Camel integration"
"""James Strachan (JIRA)"" <jira@apache.org>","Tue, 7 Aug 2007 02:52:01 -0700 (PDT)","[jira] Created: (CAMEL-89) create a validator capable of using RelaxNG Compact Syntax"
"""James Strachan (JIRA)"" <jira@apache.org>","Tue, 7 Aug 2007 07:42:02 -0700 (PDT)","[jira] Commented: (CAMEL-89) create a validator capable of using RelaxNG Compact Syntax"
"""James Strachan (JIRA)"" <jira@apache.org>","Tue, 7 Aug 2007 07:44:02 -0700 (PDT)","[jira] Commented: (CAMEL-88) create a RelaxNG validator component capable of using RelaxNG instead of XSD"
"""Hiram Chirino"" <hiram@hiramchirino.com>","Tue, 7 Aug 2007 11:45:24 -0400","Checkstyle"
"""James Strachan"" <james.strachan@gmail.com>","Tue, 7 Aug 2007 17:12:28 +0100","Re: Checkstyle"
"""James Strachan (JIRA)"" <jira@apache.org>","Tue, 7 Aug 2007 09:38:02 -0700 (PDT)","[jira] Resolved: (CAMEL-89) create a validator capable of using RelaxNG Compact Syntax"
"""James Strachan (JIRA)"" <jira@apache.org>","Tue, 7 Aug 2007 09:38:02 -0700 (PDT)","[jira] Resolved: (CAMEL-88) create a RelaxNG validator component capable of using RelaxNG instead of XSD"
"""James Strachan (JIRA)"" <jira@apache.org>","Tue, 7 Aug 2007 09:38:02 -0700 (PDT)","[jira] Resolved: (CAMEL-67) add XSD/RelaxNG validation processor"
"""Hiram Chirino"" <hiram@hiramchirino.com>","Tue, 7 Aug 2007 14:33:21 -0400","Re: Checkstyle"
"""James Strachan"" <james.strachan@gmail.com>","Tue, 7 Aug 2007 19:51:12 +0100","Re: Checkstyle"
"""William Tam"" <email.wtam@gmail.com>","Tue, 7 Aug 2007 18:12:22 -0400","Re: Proposal for the CXF and Camel integration"
"Willem Jiang <willem.jiang@gmail.com>","Wed, 08 Aug 2007 10:14:44 +0800","Re: Proposal for the CXF and Camel integration"
"""James Strachan"" <james.strachan@gmail.com>","Wed, 8 Aug 2007 08:57:57 +0100","Re: Proposal for the CXF and Camel integration"
"""James Strachan"" <james.strachan@gmail.com>","Wed, 8 Aug 2007 10:19:10 +0100","Re: Checkstyle"
"Willem Jiang <willem.jiang@gmail.com>","Wed, 08 Aug 2007 18:15:22 +0800","Re: Proposal for the CXF and Camel integration"
"""James Strachan"" <james.strachan@gmail.com>","Wed, 8 Aug 2007 12:56:13 +0100","Re: Proposal for the CXF and Camel integration"
"""James Strachan (JIRA)"" <jira@apache.org>","Wed, 8 Aug 2007 08:18:01 -0700 (PDT)","[jira] Created: (CAMEL-90) FileExchange should use a File as the body by default - not a FileInputStream (so the message can be processed multiple times)"
"""James Strachan (JIRA)"" <jira@apache.org>","Wed, 8 Aug 2007 08:30:01 -0700 (PDT)","[jira] Created: (CAMEL-91) create a BAM demo showing how to use Camel-BAM"
"""James Strachan (JIRA)"" <jira@apache.org>","Wed, 8 Aug 2007 10:10:05 -0700 (PDT)","[jira] Resolved: (CAMEL-90) FileExchange should use a File as the body by default - not a FileInputStream (so the message can be processed multiple times)"
"""James Strachan (JIRA)"" <jira@apache.org>","Wed, 8 Aug 2007 10:46:02 -0700 (PDT)","[jira] Commented: (CAMEL-91) create a BAM demo showing how to use Camel-BAM"
"""James Strachan (JIRA)"" <jira@apache.org>","Thu, 9 Aug 2007 09:32:02 -0700 (PDT)","[jira] Created: (CAMEL-92) allow interceptor routes to be defined easily in the DSL"
"""James Strachan (JIRA)"" <jira@apache.org>","Thu, 9 Aug 2007 09:48:02 -0700 (PDT)","[jira] Commented: (CAMEL-92) allow interceptor routes to be defined easily in the DSL"
"""James Strachan (JIRA)"" <jira@apache.org>","Thu, 9 Aug 2007 10:38:02 -0700 (PDT)","[jira] Created: (CAMEL-93) add an exception() method to make it easy to write exception handling code using the DSL"
"""James Strachan (JIRA)"" <jira@apache.org>","Thu, 9 Aug 2007 10:46:02 -0700 (PDT)","[jira] Commented: (CAMEL-93) add an exception() method to make it easy to write exception handling code using the DSL"
"""Hadrian Zbarcea (JIRA)"" <jira@apache.org>","Thu, 9 Aug 2007 23:59:02 -0700 (PDT)","[jira] Updated: (CAMEL-80) JpaIdempotentConsumerTest fails on multiple runs"
"""James Strachan (JIRA)"" <jira@apache.org>","Fri, 10 Aug 2007 00:17:05 -0700 (PDT)","[jira] Created: (CAMEL-94) performance improvement: optimise FileProcessor for cases where the payload is a File"
"""James Strachan (JIRA)"" <jira@apache.org>","Fri, 10 Aug 2007 00:19:01 -0700 (PDT)","[jira] Created: (CAMEL-95) FileConsumer-to-FileProducer bug"
"""James Strachan (JIRA)"" <jira@apache.org>","Fri, 10 Aug 2007 00:23:02 -0700 (PDT)","[jira] Resolved: (CAMEL-95) FileConsumer-to-FileProducer bug"
"""James Strachan (JIRA)"" <jira@apache.org>","Fri, 10 Aug 2007 00:41:01 -0700 (PDT)","[jira] Updated: (CAMEL-80) JpaIdempotentConsumerTest fails on multiple runs"
"""James Strachan (JIRA)"" <jira@apache.org>","Fri, 10 Aug 2007 00:57:02 -0700 (PDT)","[jira] Resolved: (CAMEL-80) JpaIdempotentConsumerTest fails on multiple runs"
"""James Strachan (JIRA)"" <jira@apache.org>","Fri, 10 Aug 2007 04:55:04 -0700 (PDT)","[jira] Created: (CAMEL-96) the getJMS* properties on a JMS message are not correctly copied across when forwarding a message"
"""James Strachan (JIRA)"" <jira@apache.org>","Fri, 10 Aug 2007 04:57:02 -0700 (PDT)","[jira] Commented: (CAMEL-96) the getJMS* properties on a JMS message are not correctly copied across when forwarding a message"
"""James Strachan (JIRA)"" <jira@apache.org>","Fri, 10 Aug 2007 05:43:03 -0700 (PDT)","[jira] Resolved: (CAMEL-96) the getJMS* properties on a JMS message are not correctly copied across when forwarding a message"
"""James Strachan (JIRA)"" <jira@apache.org>","Fri, 10 Aug 2007 08:51:02 -0700 (PDT)","[jira] Created: (CAMEL-97) allow per-exception based RedeliveryPolicies to be defined and configured nicely via the DSL"
"""James Strachan (JIRA)"" <jira@apache.org>","Fri, 10 Aug 2007 09:15:02 -0700 (PDT)","[jira] Commented: (CAMEL-97) allow per-exception based RedeliveryPolicies to be defined and configured nicely via the DSL"
"""Hiram Chirino"" <hiram@hiramchirino.com>","Fri, 10 Aug 2007 12:39:08 -0400","Camel 1.1.0 Release Candidate 1 available for review"
"""James Strachan (JIRA)"" <jira@apache.org>","Fri, 10 Aug 2007 09:49:01 -0700 (PDT)","[jira] Created: (CAMEL-98) ClassCastException when going file -> FTP"
"""James Strachan (JIRA)"" <jira@apache.org>","Fri, 10 Aug 2007 09:57:02 -0700 (PDT)","[jira] Resolved: (CAMEL-98) ClassCastException when going file -> FTP"
"""Hiram Chirino"" <hiram@hiramchirino.com>","Fri, 10 Aug 2007 13:02:03 -0400","Re: Checkstyle"
"""Hadrian Zbarcea (JIRA)"" <jira@apache.org>","Fri, 10 Aug 2007 11:08:02 -0700 (PDT)","[jira] Updated: (CAMEL-4) MBean interface for CamelContext so its easy for folks to lookup a context in Spring or JMX and add/remove routes as well as stop existing routes"
"""James Strachan (JIRA)"" <jira@apache.org>","Mon, 13 Aug 2007 01:54:02 -0700 (PDT)","[jira] Commented: (CAMEL-4) MBean interface for CamelContext so its easy for folks to lookup a context in Spring or JMX and add/remove routes as well as stop existing routes"
"""James Strachan (JIRA)"" <jira@apache.org>","Mon, 13 Aug 2007 04:22:02 -0700 (PDT)","[jira] Resolved: (CAMEL-4) MBean interface for CamelContext so its easy for folks to lookup a context in Spring or JMX and add/remove routes as well as stop existing routes"
"""James Strachan"" <james.strachan@gmail.com>","Mon, 13 Aug 2007 12:24:00 +0100","Re: Camel 1.1.0 Release Candidate 1 available for review"
"""Hadrian Zbarcea (JIRA)"" <jira@apache.org>","Mon, 13 Aug 2007 07:08:01 -0700 (PDT)","[jira] Created: (CAMEL-99) Move InstrumentationAgent and LifecycleStrategy to spi"
"""Hiram Chirino"" <hiram@hiramchirino.com>","Mon, 13 Aug 2007 10:11:29 -0400","Re: Camel 1.1.0 Release Candidate 1 available for review"
"""James Strachan (JIRA)"" <jira@apache.org>","Mon, 13 Aug 2007 07:27:22 -0700 (PDT)","[jira] Resolved: (CAMEL-97) allow per-exception based RedeliveryPolicies to be defined and configured nicely via the DSL"
"""James Strachan"" <james.strachan@gmail.com>","Mon, 13 Aug 2007 15:32:20 +0100","Re: Camel 1.1.0 Release Candidate 1 available for review"
"""James Strachan (JIRA)"" <jira@apache.org>","Mon, 13 Aug 2007 07:49:22 -0700 (PDT)","[jira] Updated: (CAMEL-98) ClassCastException when going file -> FTP"
"""James Strachan (JIRA)"" <jira@apache.org>","Mon, 13 Aug 2007 11:04:23 -0700 (PDT)","[jira] Resolved: (CAMEL-91) create a BAM demo showing how to use Camel-BAM"
"""James Strachan (JIRA)"" <jira@apache.org>","Mon, 13 Aug 2007 11:22:22 -0700 (PDT)","[jira] Commented: (CAMEL-97) allow per-exception based RedeliveryPolicies to be defined and configured nicely via the DSL"
"""James Strachan (JIRA)"" <jira@apache.org>","Mon, 13 Aug 2007 11:22:22 -0700 (PDT)","[jira] Resolved: (CAMEL-93) add an exception() method to make it easy to write exception handling code using the DSL"
"""James Strachan (JIRA)"" <jira@apache.org>","Mon, 13 Aug 2007 12:08:22 -0700 (PDT)","[jira] Resolved: (CAMEL-92) allow interceptor routes to be defined easily in the DSL"
"""James Strachan (JIRA)"" <jira@apache.org>","Mon, 13 Aug 2007 12:14:22 -0700 (PDT)","[jira] Resolved: (CAMEL-68) add a CamelContextAware interface to expose the desire to be injected with a CamelContext (like the ApplicationContextAware in Spring)"
"""Aaron Crickenberger (JIRA)"" <jira@apache.org>","Mon, 13 Aug 2007 12:30:22 -0700 (PDT)","[jira] Created: (CAMEL-100) Most recent snapshot requires ActiveMQ"
"""James Strachan (JIRA)"" <jira@apache.org>","Mon, 13 Aug 2007 12:38:22 -0700 (PDT)","[jira] Commented: (CAMEL-100) Most recent snapshot requires ActiveMQ"
"""Aaron Crickenberger (JIRA)"" <jira@apache.org>","Mon, 13 Aug 2007 14:12:22 -0700 (PDT)","[jira] Commented: (CAMEL-100) Most recent snapshot requires ActiveMQ"
"""Noah Nordrum (JIRA)"" <jira@apache.org>","Mon, 13 Aug 2007 16:42:22 -0700 (PDT)","[jira] Created: (CAMEL-101) SquelchBuilder"
"""Noah Nordrum (JIRA)"" <jira@apache.org>","Mon, 13 Aug 2007 19:24:22 -0700 (PDT)","[jira] Closed: (CAMEL-101) SquelchBuilder"
"""James Strachan (JIRA)"" <jira@apache.org>","Mon, 13 Aug 2007 23:15:22 -0700 (PDT)","[jira] Commented: (CAMEL-100) Most recent snapshot requires ActiveMQ"
"""James Strachan (JIRA)"" <jira@apache.org>","Tue, 14 Aug 2007 02:07:22 -0700 (PDT)","[jira] Assigned: (CAMEL-10) optional interceptors to publish statistics MBeans for each endpoint/processor to keep track of throughtput rates & performance of routes/steps etc"
"""James Strachan (JIRA)"" <jira@apache.org>","Tue, 14 Aug 2007 05:19:23 -0700 (PDT)","[jira] Created: (CAMEL-102) support a retry-until predicate feature in the error handling. e.g. exception(Foo.class).retryUntil(predicate)"
"Erik Allais <erik.allais@altervisions.com>","Tue, 14 Aug 2007 06:11:49 -0700 (PDT)","Implementation of Web Data Service"
"""James Zhang (JIRA)"" <jira@apache.org>","Tue, 14 Aug 2007 07:57:22 -0700 (PDT)","[jira] Updated: (CAMEL-73) The spring sample need to show how to create jms message for router"
"""James Zhang (JIRA)"" <jira@apache.org>","Tue, 14 Aug 2007 08:01:22 -0700 (PDT)","[jira] Issue Comment Edited: (CAMEL-73) The spring sample need to show how to create jms message for router"
"""James Zhang (JIRA)"" <jira@apache.org>","Tue, 14 Aug 2007 08:01:30 -0700 (PDT)","[jira] Issue Comment Edited: (CAMEL-73) The spring sample need to show how to create jms message for router"
"""James Zhang (JIRA)"" <jira@apache.org>","Tue, 14 Aug 2007 08:25:22 -0700 (PDT)","[jira] Updated: (CAMEL-73) The spring sample need to show how to create jms message for router"
"""James Zhang (JIRA)"" <jira@apache.org>","Tue, 14 Aug 2007 08:27:22 -0700 (PDT)","[jira] Issue Comment Edited: (CAMEL-73) The spring sample need to show how to create jms message for router"
"""James Strachan (JIRA)"" <jira@apache.org>","Tue, 14 Aug 2007 11:23:22 -0700 (PDT)","[jira] Created: (CAMEL-103) ClassCastException when using GenericApplicationContext"
"""Noah Nordrum (JIRA)"" <jira@apache.org>","Tue, 14 Aug 2007 11:35:22 -0700 (PDT)","[jira] Created: (CAMEL-104) Create non-spring example/testcase for instrumentation"
"""James Strachan (JIRA)"" <jira@apache.org>","Tue, 14 Aug 2007 11:57:22 -0700 (PDT)","[jira] Commented: (CAMEL-103) ClassCastException when using GenericApplicationContext"
"""James Strachan (JIRA)"" <jira@apache.org>","Tue, 14 Aug 2007 11:59:22 -0700 (PDT)","[jira] Assigned: (CAMEL-104) Create non-spring example/testcase for instrumentation"
"""Aaron Crickenberger (JIRA)"" <jira@apache.org>","Tue, 14 Aug 2007 14:27:22 -0700 (PDT)","[jira] Created: (CAMEL-105) FileProducer truncates message bodies > 256KB"
"""Aaron Crickenberger (JIRA)"" <jira@apache.org>","Tue, 14 Aug 2007 14:29:22 -0700 (PDT)","[jira] Updated: (CAMEL-105) FileProducer truncates message bodies > 256KB"
"""James Strachan (JIRA)"" <jira@apache.org>","Tue, 14 Aug 2007 14:43:22 -0700 (PDT)","[jira] Resolved: (CAMEL-105) FileProducer truncates message bodies > 256KB"
"""James Strachan (JIRA)"" <jira@apache.org>","Wed, 15 Aug 2007 05:18:23 -0700 (PDT)","[jira] Created: (CAMEL-106) some jars cannot be auto-discovered using the Java DSL approach if they are created via "" jar cvf MyRouteBuilder.jar org\dominic\*.class"""
"""James Strachan (JIRA)"" <jira@apache.org>","Wed, 15 Aug 2007 09:16:22 -0700 (PDT)","[jira] Resolved: (CAMEL-99) Move InstrumentationAgent and LifecycleStrategy to spi"
"""James Strachan"" <james.strachan@gmail.com>","Wed, 15 Aug 2007 19:51:28 +0100","Fwd: [VOTE] Release Apache Camel 1.1.0 (RC2)"
"Rob Davies <rajdavies@gmail.com>","Wed, 15 Aug 2007 23:27:46 +0100","Re: [VOTE] Release Apache Camel 1.1.0 (RC2)"
"brianm <brianm@apache.org>","Wed, 15 Aug 2007 17:49:01 -0700 (PDT)","Re: Fwd: [VOTE] Release Apache Camel 1.1.0 (RC2)"
"""Hadrian Zbarcea (JIRA)"" <jira@apache.org>","Wed, 15 Aug 2007 21:51:22 -0700 (PDT)","[jira] Reopened: (CAMEL-80) JpaIdempotentConsumerTest fails on multiple runs"
"""Hadrian Zbarcea (JIRA)"" <jira@apache.org>","Wed, 15 Aug 2007 21:53:22 -0700 (PDT)","[jira] Updated: (CAMEL-80) JpaIdempotentConsumerTest fails on multiple runs"
"""Hadrian Zbarcea (JIRA)"" <jira@apache.org>","Wed, 15 Aug 2007 22:07:22 -0700 (PDT)","[jira] Created: (CAMEL-107) JournalRouteTest failure due to missing cleanup"
"""James Strachan (JIRA)"" <jira@apache.org>","Thu, 16 Aug 2007 00:31:22 -0700 (PDT)","[jira] Resolved: (CAMEL-75) move links inside docbook"
"""James Strachan (JIRA)"" <jira@apache.org>","Thu, 16 Aug 2007 00:33:22 -0700 (PDT)","[jira] Resolved: (CAMEL-49) PDF tables seem to be equally sized column widths; we could really use the auto-width type formatting like the HTML versions to tidy up the tabular views"
"""James Strachan (JIRA)"" <jira@apache.org>","Thu, 16 Aug 2007 00:37:22 -0700 (PDT)","[jira] Resolved: (CAMEL-47) create a maven plugin to process confluence content into docbook xml"
"""Guillaume Nodet"" <gnodet@gmail.com>","Thu, 16 Aug 2007 09:59:22 +0200","Re: [VOTE] Release Apache Camel 1.1.0 (RC2)"
"""James Strachan (JIRA)"" <jira@apache.org>","Thu, 16 Aug 2007 01:17:22 -0700 (PDT)","[jira] Created: (CAMEL-108) allow the @EndpointInject to not require any arguments and defaulting the name (reference name) to be the name of the field or property"
"""James Strachan (JIRA)"" <jira@apache.org>","Thu, 16 Aug 2007 02:31:22 -0700 (PDT)","[jira] Commented: (CAMEL-108) allow the @EndpointInject to not require any arguments and defaulting the name (reference name) to be the name of the field or property"
"""Aaron Crickenberger (JIRA)"" <jira@apache.org>","Thu, 16 Aug 2007 09:30:22 -0700 (PDT)","[jira] Created: (CAMEL-109) Allow File/RemoteFile endpoints to preserve relative pathnames"
"""James Strachan (JIRA)"" <jira@apache.org>","Thu, 16 Aug 2007 12:02:23 -0700 (PDT)","[jira] Created: (CAMEL-110) be able to use @EndpointInject to be able to inject PollingConsumer implementations"
"""James Strachan (JIRA)"" <jira@apache.org>","Thu, 16 Aug 2007 12:24:22 -0700 (PDT)","[jira] Resolved: (CAMEL-110) be able to use @EndpointInject to be able to inject PollingConsumer implementations"
"""James Strachan (JIRA)"" <jira@apache.org>","Thu, 16 Aug 2007 12:24:22 -0700 (PDT)","[jira] Resolved: (CAMEL-106) some jars cannot be auto-discovered using the Java DSL approach if they are created via "" jar cvf MyRouteBuilder.jar org\dominic\*.class"""
"""James Strachan (JIRA)"" <jira@apache.org>","Thu, 16 Aug 2007 12:24:22 -0700 (PDT)","[jira] Resolved: (CAMEL-108) allow the @EndpointInject to not require any arguments and defaulting the name (reference name) to be the name of the field or property"
"""James Strachan (JIRA)"" <jira@apache.org>","Thu, 16 Aug 2007 13:18:22 -0700 (PDT)","[jira] Created: (CAMEL-111) exception() DSL handling doesn't work with bean integration that throws the exception due to wrapping in InvocationTargetException"
"""James Strachan (JIRA)"" <jira@apache.org>","Thu, 16 Aug 2007 21:24:22 -0700 (PDT)","[jira] Resolved: (CAMEL-111) exception() DSL handling doesn't work with bean integration that throws the exception due to wrapping in InvocationTargetException"
"""James Strachan (JIRA)"" <jira@apache.org>","Thu, 16 Aug 2007 21:42:22 -0700 (PDT)","[jira] Resolved: (CAMEL-103) ClassCastException when using GenericApplicationContext"
"""James Strachan (JIRA)"" <jira@apache.org>","Thu, 16 Aug 2007 23:54:22 -0700 (PDT)","[jira] Resolved: (CAMEL-109) Allow File/RemoteFile endpoints to preserve relative pathnames"
"""James Strachan"" <james.strachan@gmail.com>","Fri, 17 Aug 2007 09:20:45 +0100","Visualisation available & Maven Plugin & Reports supported"
"""Hadrian Zbarcea (JIRA)"" <jira@apache.org>","Fri, 17 Aug 2007 08:05:22 -0700 (PDT)","[jira] Work started: (CAMEL-104) Create non-spring example/testcase for instrumentation"
"""Hadrian Zbarcea (JIRA)"" <jira@apache.org>","Fri, 17 Aug 2007 08:07:22 -0700 (PDT)","[jira] Updated: (CAMEL-104) Create non-spring example/testcase for instrumentation"
"""James Strachan (JIRA)"" <jira@apache.org>","Fri, 17 Aug 2007 09:07:22 -0700 (PDT)","[jira] Created: (CAMEL-112) JMSXGroupID is not copied across ActiveMQ endpoints"
"""James Strachan (JIRA)"" <jira@apache.org>","Fri, 17 Aug 2007 09:13:22 -0700 (PDT)","[jira] Resolved: (CAMEL-112) JMSXGroupID is not copied across ActiveMQ endpoints"
"""James Strachan"" <james.strachan@gmail.com>","Fri, 17 Aug 2007 18:58:39 +0100","[VOTE-RESULTS] was Re: [VOTE] Release Apache Camel 1.1.0 (RC2)"
"""Hiram Chirino"" <hiram@hiramchirino.com>","Fri, 17 Aug 2007 15:29:56 -0400","Re: [VOTE-RESULTS] was Re: [VOTE] Release Apache Camel 1.1.0 (RC2)"
"""Hadrian Zbarcea (JIRA)"" <jira@apache.org>","Fri, 17 Aug 2007 17:19:22 -0700 (PDT)","[jira] Updated: (CAMEL-84) Throw Useful Exception on No TypeConverter Available"
"""James Strachan (JIRA)"" <jira@apache.org>","Sat, 18 Aug 2007 00:03:22 -0700 (PDT)","[jira] Updated: (CAMEL-80) JpaIdempotentConsumerTest fails on multiple runs"
"""James Strachan (JIRA)"" <jira@apache.org>","Sat, 18 Aug 2007 00:03:23 -0700 (PDT)","[jira] Updated: (CAMEL-64) Camel DSL should use verbs for it's EIP actions."
"""James Strachan (JIRA)"" <jira@apache.org>","Sat, 18 Aug 2007 00:03:25 -0700 (PDT)","[jira] Updated: (CAMEL-20) Support tranforming an XML based exchange to a JAXB based exchange"
"""James Strachan (JIRA)"" <jira@apache.org>","Sat, 18 Aug 2007 00:03:26 -0700 (PDT)","[jira] Updated: (CAMEL-14) add ability to pool routes/steps for parallel processing"
"""James Strachan (JIRA)"" <jira@apache.org>","Sat, 18 Aug 2007 00:03:26 -0700 (PDT)","[jira] Updated: (CAMEL-10) optional interceptors to publish statistics MBeans for each endpoint/processor to keep track of throughtput rates & performance of routes/steps etc"
"""James Strachan (JIRA)"" <jira@apache.org>","Sat, 18 Aug 2007 00:03:27 -0700 (PDT)","[jira] Updated: (CAMEL-6) add a CamelEndpointListener so you can listen to new endpoints being created/closed"
"""James Strachan (JIRA)"" <jira@apache.org>","Sat, 18 Aug 2007 00:03:27 -0700 (PDT)","[jira] Updated: (CAMEL-8) Dynamic Router pattern needs implementing & documenting"
"""James Strachan (JIRA)"" <jira@apache.org>","Sat, 18 Aug 2007 00:03:28 -0700 (PDT)","[jira] Updated: (CAMEL-5) add a CamelRouteListener to listen for routes being added/removed/stopped"
"""James Strachan (JIRA)"" <jira@apache.org>","Sat, 18 Aug 2007 00:03:28 -0700 (PDT)","[jira] Updated: (CAMEL-1) provide a base ExchangeRuntimeException which can provide a useful base class to exceptions raised when processing an exchange"
"""James Strachan"" <james.strachan@gmail.com>","Sat, 18 Aug 2007 08:11:39 +0100","[ANN] Apache Camel 1.1.0 Released!"
"""James Strachan (JIRA)"" <jira@apache.org>","Sat, 18 Aug 2007 21:40:22 -0700 (PDT)","[jira] Created: (CAMEL-113) support injection of the entire properties or headers in bean integration via @Properties and @Headers"
"""James Strachan (JIRA)"" <jira@apache.org>","Sat, 18 Aug 2007 23:40:22 -0700 (PDT)","[jira] Resolved: (CAMEL-113) support injection of the entire properties or headers in bean integration via @Properties and @Headers"
"Glen Mazza <glen.mazza@verizon.net>","Sun, 19 Aug 2007 10:12:05 -0400","Re: svn commit: r567356 -	/activemq/camel/trunk/camel-core/src/main/java/org/apache/camel/converter/CollectionConverter.java"
"""James Strachan (JIRA)"" <jira@apache.org>","Sun, 19 Aug 2007 23:49:22 -0700 (PDT)","[jira] Created: (CAMEL-114) add to the DSL methods removeProperty(name), removeHeader(name), removeOutHeader(name)"
"""James Strachan (JIRA)"" <jira@apache.org>","Mon, 20 Aug 2007 00:13:22 -0700 (PDT)","[jira] Resolved: (CAMEL-114) add to the DSL methods removeProperty(name), removeHeader(name), removeOutHeader(name)"
"""James Strachan (JIRA)"" <jira@apache.org>","Mon, 20 Aug 2007 09:41:22 -0700 (PDT)","[jira] Updated: (CAMEL-104) Create non-spring example/testcase for instrumentation"
"""Hadrian Zbarcea (JIRA)"" <jira@apache.org>","Mon, 20 Aug 2007 09:45:22 -0700 (PDT)","[jira] Updated: (CAMEL-104) Create non-spring example/testcase for instrumentation"
"""Hadrian Zbarcea (JIRA)"" <jira@apache.org>","Mon, 20 Aug 2007 09:45:22 -0700 (PDT)","[jira] Updated: (CAMEL-104) Create non-spring example/testcase for instrumentation"
"""James Strachan (JIRA)"" <jira@apache.org>","Mon, 20 Aug 2007 10:25:22 -0700 (PDT)","[jira] Resolved: (CAMEL-104) Create non-spring example/testcase for instrumentation"
"""James Strachan (JIRA)"" <jira@apache.org>","Mon, 20 Aug 2007 10:53:22 -0700 (PDT)","[jira] Commented: (CAMEL-84) Throw Useful Exception on No TypeConverter Available"
"""James Strachan (JIRA)"" <jira@apache.org>","Mon, 20 Aug 2007 11:07:22 -0700 (PDT)","[jira] Resolved: (CAMEL-80) JpaIdempotentConsumerTest fails on multiple runs"
"""Hiram Chirino (JIRA)"" <jira@apache.org>","Mon, 20 Aug 2007 13:35:23 -0700 (PDT)","[jira] Assigned: (CAMEL-107) JournalRouteTest failure due to missing cleanup"
"""Hiram Chirino (JIRA)"" <jira@apache.org>","Mon, 20 Aug 2007 13:35:23 -0700 (PDT)","[jira] Commented: (CAMEL-107) JournalRouteTest failure due to missing cleanup"
"""Hadrian Zbarcea (JIRA)"" <jira@apache.org>","Mon, 20 Aug 2007 14:09:22 -0700 (PDT)","[jira] Commented: (CAMEL-107) JournalRouteTest failure due to missing cleanup"
"""Hiram Chirino (JIRA)"" <jira@apache.org>","Tue, 21 Aug 2007 07:21:23 -0700 (PDT)","[jira] Resolved: (CAMEL-107) JournalRouteTest failure due to missing cleanup"
"""Brian McCallister (JIRA)"" <jira@apache.org>","Tue, 21 Aug 2007 12:53:23 -0700 (PDT)","[jira] Created: (CAMEL-115) Provide access to the Exchange in TypeConverter#convert"
"""Hiram Chirino"" <hiram@hiramchirino.com>","Wed, 22 Aug 2007 15:58:18 -0400","Asynchronous Exchange Processing"
"Rob Davies <rajdavies@gmail.com>","Thu, 23 Aug 2007 07:55:17 +0100","Re: Asynchronous Exchange Processing"
"Nodet Guillaume <gnodet@gmail.com>","Thu, 23 Aug 2007 13:40:30 +0200","Re: Asynchronous Exchange Processing"
"""James Strachan"" <james.strachan@gmail.com>","Thu, 23 Aug 2007 14:34:35 +0100","Re: Asynchronous Exchange Processing"
"""James Strachan (JIRA)"" <jira@apache.org>","Thu, 23 Aug 2007 07:07:23 -0700 (PDT)","[jira] Created: (CAMEL-116) make the timer component reusable on any endpoint"
"""Hiram Chirino"" <hiram@hiramchirino.com>","Thu, 23 Aug 2007 10:10:44 -0400","Re: Asynchronous Exchange Processing"
"""James Strachan"" <james.strachan@gmail.com>","Thu, 23 Aug 2007 15:27:44 +0100","Re: Asynchronous Exchange Processing"
"""Willem Jiang (JIRA)"" <jira@apache.org>","Fri, 24 Aug 2007 00:10:26 -0700 (PDT)","[jira] Created: (CAMEL-117) CXF"
"""Willem Jiang (JIRA)"" <jira@apache.org>","Fri, 24 Aug 2007 00:22:22 -0700 (PDT)","[jira] Created: (CAMEL-118) Camel CXF Invoker component support"
"""Willem Jiang (JIRA)"" <jira@apache.org>","Fri, 24 Aug 2007 00:56:22 -0700 (PDT)","[jira] Created: (CAMEL-119) Spring"
"""Willem Jiang (JIRA)"" <jira@apache.org>","Fri, 24 Aug 2007 00:58:22 -0700 (PDT)","[jira] Commented: (CAMEL-119) Spring"
"""James Strachan (JIRA)"" <jira@apache.org>","Fri, 24 Aug 2007 01:40:22 -0700 (PDT)","[jira] Created: (CAMEL-120) separate out the jetty server from the http client into separate components/URLs to avoid confusoin"
"""Willem Jiang (JIRA)"" <jira@apache.org>","Fri, 24 Aug 2007 01:44:22 -0700 (PDT)","[jira] Created: (CAMEL-121) Support CXF which other different message model"
"""James Strachan (JIRA)"" <jira@apache.org>","Fri, 24 Aug 2007 23:56:23 -0700 (PDT)","[jira] Created: (CAMEL-122) port the error handler / dead letter channel / redelivery policy over to JAXB2 so you can fully customize it via XML"
"""James Strachan (JIRA)"" <jira@apache.org>","Sat, 25 Aug 2007 00:00:22 -0700 (PDT)","[jira] Created: (CAMEL-123) add an 'on commit / on rollback' hook so that non-transactional components can do things like delete files when the processing has completed"
"""James Strachan (JIRA)"" <jira@apache.org>","Sat, 25 Aug 2007 00:00:32 -0700 (PDT)","[jira] Created: (CAMEL-124) reuse the FileProcessStrategy in the FTP/SFTP/SCP component so that we can support delete / timestamp / lock file / rename policies"
"""Martin Krasser (JIRA)"" <jira@apache.org>","Sun, 26 Aug 2007 10:01:23 -0700 (PDT)","[jira] Created: (CAMEL-125) Support for a stream-processing resequencer."
"""James Strachan (JIRA)"" <jira@apache.org>","Mon, 27 Aug 2007 00:29:23 -0700 (PDT)","[jira] Commented: (CAMEL-125) Support for a stream-processing resequencer."
"""James Strachan (JIRA)"" <jira@apache.org>","Tue, 28 Aug 2007 03:36:23 -0700 (PDT)","[jira] Commented: (CAMEL-118) Camel CXF Invoker component support"
"""James Strachan (JIRA)"" <jira@apache.org>","Tue, 28 Aug 2007 03:36:23 -0700 (PDT)","[jira] Commented: (CAMEL-118) Camel CXF Invoker component support"
"""James Strachan (JIRA)"" <jira@apache.org>","Tue, 28 Aug 2007 03:44:22 -0700 (PDT)","[jira] Commented: (CAMEL-118) Camel CXF Invoker component support"
"""James Strachan (JIRA)"" <jira@apache.org>","Tue, 28 Aug 2007 03:48:22 -0700 (PDT)","[jira] Commented: (CAMEL-118) Camel CXF Invoker component support"
"""James Strachan (JIRA)"" <jira@apache.org>","Tue, 28 Aug 2007 04:08:22 -0700 (PDT)","[jira] Resolved: (CAMEL-125) Support for a stream-processing resequencer."
"""James Strachan (JIRA)"" <jira@apache.org>","Tue, 28 Aug 2007 04:10:22 -0700 (PDT)","[jira] Created: (CAMEL-126) provide a synchronous dispatch to the stream based resequencer for easier transaction support"
"""James Strachan (JIRA)"" <jira@apache.org>","Tue, 28 Aug 2007 04:14:22 -0700 (PDT)","[jira] Resolved: (CAMEL-9) add some kind of Visitor to the Route for walking the various Processor implementations in the camel.processor package to be able to build up a logical model of the routes for visualisation purposes"
"""James Strachan (JIRA)"" <jira@apache.org>","Tue, 28 Aug 2007 04:16:22 -0700 (PDT)","[jira] Resolved: (CAMEL-12) create maven plugin which generates a DOT file & graphical pictures of the various routes available in XML or Java code within a jar"
"""James Strachan (JIRA)"" <jira@apache.org>","Tue, 28 Aug 2007 04:34:23 -0700 (PDT)","[jira] Created: (CAMEL-127) timer component should share Timer instances (so threads) across all endpoints using the same timer name"
"""Martin Krasser (JIRA)"" <jira@apache.org>","Tue, 28 Aug 2007 05:46:23 -0700 (PDT)","[jira] Commented: (CAMEL-125) Support for a stream-processing resequencer."
"""Martin Krasser (JIRA)"" <jira@apache.org>","Tue, 28 Aug 2007 05:48:22 -0700 (PDT)","[jira] Commented: (CAMEL-125) Support for a stream-processing resequencer."
"""James Strachan (JIRA)"" <jira@apache.org>","Tue, 28 Aug 2007 06:14:28 -0700 (PDT)","[jira] Resolved: (CAMEL-116) make the timer component reusable on any endpoint"
"""Willem Jiang (JIRA)"" <jira@apache.org>","Tue, 28 Aug 2007 06:34:23 -0700 (PDT)","[jira] Updated: (CAMEL-118) Camel CXF Invoker component support"
"""Willem Jiang (JIRA)"" <jira@apache.org>","Tue, 28 Aug 2007 06:36:22 -0700 (PDT)","[jira] Updated: (CAMEL-118) Camel CXF Invoker component support"
"""James Strachan (JIRA)"" <jira@apache.org>","Tue, 28 Aug 2007 07:20:22 -0700 (PDT)","[jira] Resolved: (CAMEL-127) timer component should share Timer instances (so threads) across all endpoints using the same timer name"
"""Hiram Chirino"" <hiram@hiramchirino.com>","Tue, 28 Aug 2007 10:29:54 -0400","Re: Asynchronous Exchange Processing"
"""James Strachan (JIRA)"" <jira@apache.org>","Tue, 28 Aug 2007 07:54:22 -0700 (PDT)","[jira] Commented: (CAMEL-118) Camel CXF Invoker component support"
"""Hiram Chirino"" <hiram@hiramchirino.com>","Tue, 28 Aug 2007 10:56:54 -0400","Re: Asynchronous Exchange Processing"
"""James Strachan (JIRA)"" <jira@apache.org>","Tue, 28 Aug 2007 08:14:22 -0700 (PDT)","[jira] Commented: (CAMEL-118) Camel CXF Invoker component support"
"Willem Jiang <willem.jiang@gmail.com>","Tue, 28 Aug 2007 23:34:50 +0800","Re: [jira] Commented: (CAMEL-118) Camel CXF Invoker component support"
"""James Strachan"" <james.strachan@gmail.com>","Tue, 28 Aug 2007 17:08:16 +0100","Re: Asynchronous Exchange Processing"
"""James Strachan"" <james.strachan@gmail.com>","Tue, 28 Aug 2007 17:13:24 +0100","Re: Asynchronous Exchange Processing"
"""Hiram Chirino"" <hiram@hiramchirino.com>","Tue, 28 Aug 2007 12:17:00 -0400","Re: Asynchronous Exchange Processing"
"""James Strachan (JIRA)"" <jira@apache.org>","Tue, 28 Aug 2007 09:22:23 -0700 (PDT)","[jira] Resolved: (CAMEL-118) Camel CXF Invoker component support"
"""Hiram Chirino (JIRA)"" <jira@apache.org>","Tue, 28 Aug 2007 10:54:23 -0700 (PDT)","[jira] Commented: (CAMEL-120) separate out the jetty server from the http client into separate components/URLs to avoid confusoin"
"""Nicky Sandhu (JIRA)"" <jira@apache.org>","Tue, 28 Aug 2007 16:18:22 -0700 (PDT)","[jira] Created: (CAMEL-128) Jdbc component"
"""Martin Krasser (JIRA)"" <jira@apache.org>","Tue, 28 Aug 2007 23:16:22 -0700 (PDT)","[jira] Commented: (CAMEL-126) provide a synchronous dispatch to the stream based resequencer for easier transaction support"
"""James Strachan (JIRA)"" <jira@apache.org>","Wed, 29 Aug 2007 00:58:23 -0700 (PDT)","[jira] Commented: (CAMEL-123) add an 'on commit / on rollback' hook so that non-transactional components can do things like delete files when the processing has completed"
"""James Strachan"" <james.strachan@gmail.com>","Wed, 29 Aug 2007 09:12:02 +0100","Re: Asynchronous Exchange Processing"
"Willem Jiang <ning.jiang@iona.com>","Wed, 29 Aug 2007 16:36:02 +0800","After Ran mvn clean install, I got  the FileRenameRouteTest  failed on windows box"
"Willem Jiang <willem.jiang@gmail.com>","Wed, 29 Aug 2007 16:37:37 +0800","After Ran mvn clean install, I got  the FileRenameRouteTest  failed on windows box"
"""James Strachan (JIRA)"" <jira@apache.org>","Wed, 29 Aug 2007 01:44:22 -0700 (PDT)","[jira] Commented: (CAMEL-128) Jdbc component"
"Nicky Sandhu <nickysandhu@hotmail.com>","Wed, 29 Aug 2007 08:14:28 -0700 (PDT)","Camel JDBC Component"
"""Hiram Chirino (JIRA)"" <jira@apache.org>","Wed, 29 Aug 2007 09:02:23 -0700 (PDT)","[jira] Created: (CAMEL-129) Support preserving the original message QoS options when a message gets re-sent to a JMS destination"
"""Hiram Chirino (JIRA)"" <jira@apache.org>","Wed, 29 Aug 2007 09:10:22 -0700 (PDT)","[jira] Commented: (CAMEL-129) Support preserving the original message QoS options when a message gets re-sent to a JMS destination"
"""Hiram Chirino (JIRA)"" <jira@apache.org>","Wed, 29 Aug 2007 09:12:22 -0700 (PDT)","[jira] Updated: (CAMEL-129) Support preserving the original message QoS options when a message gets re-sent to a JMS destination"
"""Hiram Chirino (JIRA)"" <jira@apache.org>","Wed, 29 Aug 2007 09:14:22 -0700 (PDT)","[jira] Resolved: (CAMEL-129) Support preserving the original message QoS options when a message gets re-sent to a JMS destination"
"james.strachan@gmail.com","Wed, 29 Aug 2007 18:01:28 +0100","Re: Camel JDBC Component"
"Brian McCallister <brianm@skife.org>","Wed, 29 Aug 2007 10:32:00 -0700","Re: Asynchronous Exchange Processing"
"Brian McCallister <brianm@skife.org>","Wed, 29 Aug 2007 10:34:53 -0700","Re: Camel JDBC Component"
"Nicky Sandhu <nickysandhu@hotmail.com>","Wed, 29 Aug 2007 10:51:37 -0700 (PDT)","Re: Camel JDBC Component"
"""James Strachan"" <james.strachan@gmail.com>","Wed, 29 Aug 2007 19:06:32 +0100","Re: Camel JDBC Component"
"Nodet Guillaume <gnodet@gmail.com>","Wed, 29 Aug 2007 20:07:34 +0200","Re: Camel JDBC Component"
"Nicky Sandhu <nickysandhu@hotmail.com>","Wed, 29 Aug 2007 11:38:24 -0700 (PDT)","Re: Camel JDBC Component"
"Nicky Sandhu <karajdaar@gmail.com>","Wed, 29 Aug 2007 15:00:53 -0700 (PDT)","Producer Consumer concepts need to be clarified"
"Nicky Sandhu <karajdaar@gmail.com>","Wed, 29 Aug 2007 15:07:12 -0700 (PDT)","Re: Camel JDBC Component"
"Nicky Sandhu <karajdaar@gmail.com>","Wed, 29 Aug 2007 15:10:04 -0700 (PDT)","Mina component producer not complete?"
"""James Strachan"" <james.strachan@gmail.com>","Thu, 30 Aug 2007 06:59:04 +0100","Re: After Ran mvn clean install, I got the FileRenameRouteTest failed on windows box"
"""James Strachan"" <james.strachan@gmail.com>","Thu, 30 Aug 2007 07:00:53 +0100","Re: Camel JDBC Component"
"""James Strachan"" <james.strachan@gmail.com>","Thu, 30 Aug 2007 07:31:15 +0100","Re: Camel JDBC Component"
"""Hiram Chirino (JIRA)"" <jira@apache.org>","Thu, 30 Aug 2007 07:53:22 -0700 (PDT)","[jira] Created: (CAMEL-130) Support using the Jetty Client API to produce to an HTTP endpoint."
"""Hiram Chirino (JIRA)"" <jira@apache.org>","Thu, 30 Aug 2007 07:53:23 -0700 (PDT)","[jira] Created: (CAMEL-131) Support async completion of inbound HTTP requests by leveraging Jetty's Continuation Feature"
"""Hiram Chirino (JIRA)"" <jira@apache.org>","Thu, 30 Aug 2007 09:11:23 -0700 (PDT)","[jira] Resolved: (CAMEL-130) Support using the Jetty Client API to produce to an HTTP endpoint."
"""Hiram Chirino (JIRA)"" <jira@apache.org>","Thu, 30 Aug 2007 09:11:23 -0700 (PDT)","[jira] Resolved: (CAMEL-131) Support async completion of inbound HTTP requests by leveraging Jetty's Continuation Feature"
"""Martin Krasser (JIRA)"" <jira@apache.org>","Fri, 31 Aug 2007 02:15:22 -0700 (PDT)","[jira] Updated: (CAMEL-126) provide a synchronous dispatch to the stream based resequencer for easier transaction support"
"""James Strachan (JIRA)"" <jira@apache.org>","Fri, 31 Aug 2007 04:13:22 -0700 (PDT)","[jira] Created: (CAMEL-132) enable polling via the http component"
"""James Strachan (JIRA)"" <jira@apache.org>","Fri, 31 Aug 2007 04:43:23 -0700 (PDT)","[jira] Resolved: (CAMEL-132) enable polling via the http component"
"""James Strachan"" <james.strachan@gmail.com>","Fri, 31 Aug 2007 14:39:31 +0100","Re: Producer Consumer concepts need to be clarified"
"""James Strachan"" <james.strachan@gmail.com>","Fri, 31 Aug 2007 15:00:05 +0100","Re: Mina component producer not complete?"
"""Hiram Chirino (JIRA)"" <jira@apache.org>","Fri, 31 Aug 2007 07:28:23 -0700 (PDT)","[jira] Resolved: (CAMEL-120) separate out the jetty server from the http client into separate components/URLs to avoid confusoin"
"""James Strachan (JIRA)"" <jira@apache.org>","Fri, 31 Aug 2007 08:22:22 -0700 (PDT)","[jira] Created: (CAMEL-133) add support for a MessageExchangePattern enum property on Exchange and make MINA support both InOnly and InOut"
"""James Strachan"" <james.strachan@gmail.com>","Fri, 31 Aug 2007 16:23:21 +0100","Re: Mina component producer not complete?"
"Nicky Sandhu <karajdaar@gmail.com>","Fri, 31 Aug 2007 12:01:54 -0700 (PDT)","Re: Mina component producer not complete?"
