"Developer","Date","Subject"
"grgrzybek <git@git.apache.org>","Tue,  1 Apr 2014 06:41:20 +0000 (UTC)","[GitHub] camel pull request: [CAMEL-7313] Adding support to retrieve genera..."
"grgrzybek <git@git.apache.org>","Tue,  1 Apr 2014 07:18:53 +0000 (UTC)","[GitHub] camel pull request: [CAMEL-7313] Retrieve generated keys as plain ..."
"grgrzybek <git@git.apache.org>","Tue,  1 Apr 2014 08:01:11 +0000 (UTC)","[GitHub] camel pull request: [CAMEL-7313] Polishing to match camel-jdbc wrt..."
"Aki Yoshida <elakito@gmail.com>","Wed, 2 Apr 2014 15:00:13 +0200","where are camel-2.14-SNAPSHOT jars in apache snapshot repo?"
"asfgit <git@git.apache.org>","Thu,  3 Apr 2014 08:49:41 +0000 (UTC)","[GitHub] camel pull request: CAMEL-6458: Add renameUsingCopy option to File..."
"Ioannis Polyzos <i.polyzos@gmail.com>","Thu, 3 Apr 2014 10:26:12 +0100","Re: Camel-Kafka Component"
"Ioannis Polyzos <i.polyzos@gmail.com>","Thu, 3 Apr 2014 10:31:38 +0100","Re: Camel-Kafka Component"
"grgrzybek <git@git.apache.org>","Thu,  3 Apr 2014 11:44:15 +0000 (UTC)","[GitHub] camel pull request: [CAMEL-6694] Make camel log component compatib..."
"grgrzybek <git@git.apache.org>","Thu,  3 Apr 2014 13:05:05 +0000 (UTC)","[GitHub] camel pull request: [CAMEL-7313] Polishing to match camel-jdbc wrt..."
"=?ISO-8859-1?Q?Christian_M=FCller?= <christian.mueller@gmail.com>","Thu, 3 Apr 2014 21:58:39 +0200","Re: where are camel-2.14-SNAPSHOT jars in apache snapshot repo?"
"asfgit <git@git.apache.org>","Fri,  4 Apr 2014 06:44:58 +0000 (UTC)","[GitHub] camel pull request: [CAMEL-6694] Make camel log component compatib..."
"grgrzybek <git@git.apache.org>","Fri,  4 Apr 2014 11:43:00 +0000 (UTC)","[GitHub] camel pull request: [CAMEL-6694] Allow log EIP to use provided or ..."
"Aki Yoshida <elakito@gmail.com>","Fri, 4 Apr 2014 15:37:19 +0200","Re: where are camel-2.14-SNAPSHOT jars in apache snapshot repo?"
"asfgit <git@git.apache.org>","Fri,  4 Apr 2014 13:50:45 +0000 (UTC)","[GitHub] camel pull request: [CAMEL-6694] Allow log EIP to use provided or ..."
"Willem Jiang <willem.jiang@gmail.com>","Fri, 4 Apr 2014 21:51:22 +0800","Re: where are camel-2.14-SNAPSHOT jars in apache snapshot repo?"
"Daniel Pocock <daniel@pocock.pro>","Fri, 04 Apr 2014 16:03:19 +0200","recipientList problems with JMS?"
"=?ISO-8859-1?Q?Christian_M=FCller?= <christian.mueller@gmail.com>","Fri, 4 Apr 2014 19:32:34 +0200","Re: where are camel-2.14-SNAPSHOT jars in apache snapshot repo?"
"amseshadri <amseshadrireddy@gmail.com>","Sat, 5 Apr 2014 00:14:36 -0700 (PDT)","Retrieve Data from JSON object and Insert/Update to Database"
"Claus Ibsen <claus.ibsen@gmail.com>","Sat, 5 Apr 2014 09:27:51 +0200","Re: Retrieve Data from JSON object and Insert/Update to Database"
"gzurowski <git@git.apache.org>","Mon,  7 Apr 2014 02:14:43 +0000 (UTC)","[GitHub] camel pull request: CAMEL-7346: Clean-Up Maven Project Definitions"
"Claus Ibsen <claus.ibsen@gmail.com>","Mon, 7 Apr 2014 08:45:51 +0200","Re: git commit: CAMEL-5539 Circuit Breaker EIP Fixed broken build"
"asfgit <git@git.apache.org>","Mon,  7 Apr 2014 06:46:39 +0000 (UTC)","[GitHub] camel pull request: CAMEL-7346: Clean-Up Maven Project Definitions"
"""Siano, Stephan"" <stephan.siano@sap.com>","Mon, 7 Apr 2014 13:16:40 +0000","Expected behaviour of camel-ahc component concerning headers"
"Steve Fosdal <steve@fosdal.net>","Mon, 7 Apr 2014 09:19:28 -0500","Request addition to dev group"
"Claus Ibsen <claus.ibsen@gmail.com>","Mon, 7 Apr 2014 17:26:49 +0200","Re: Request addition to dev group"
"Bilgin Ibryam <bibryam@gmail.com>","Mon, 7 Apr 2014 19:47:42 +0300","Re: git commit: CAMEL-5539 Circuit Breaker EIP Fixed broken build"
"gzurowski <git@git.apache.org>","Mon,  7 Apr 2014 21:42:15 +0000 (UTC)","[GitHub] camel pull request: CAMEL-5539: Fix compilation problems"
"Gregor Zurowski <gregor@zurowski.org>","Mon, 7 Apr 2014 17:54:16 -0400","Re: git commit: CAMEL-5539 Circuit Breaker EIP Fixed broken build"
"Gregor Zurowski <gregor@zurowski.org>","Mon, 7 Apr 2014 18:27:24 -0400","Re: git commit: CAMEL-5539 Circuit Breaker EIP Fixed broken build"
"asfgit <git@git.apache.org>","Tue,  8 Apr 2014 05:46:28 +0000 (UTC)","[GitHub] camel pull request: CAMEL-5539: Fix compilation problems"
"grgrzybek <git@git.apache.org>","Tue,  8 Apr 2014 06:57:00 +0000 (UTC)","[GitHub] camel pull request: [CAMEL-6694] Adding INFO log about Loggers dis..."
"asfgit <git@git.apache.org>","Tue,  8 Apr 2014 07:46:11 +0000 (UTC)","[GitHub] camel pull request: [CAMEL-6694] Adding INFO log about Loggers dis..."
"grgrzybek <git@git.apache.org>","Tue,  8 Apr 2014 13:22:47 +0000 (UTC)","[GitHub] camel pull request: [CAMEL-7306]: key is optional. Avoid NPE"
"Claus Ibsen <claus.ibsen@gmail.com>","Tue, 8 Apr 2014 16:23:13 +0200","Re: git commit: CAMEL-7349 cach the schema in JaxbDataFormate"
"Willem Jiang <willem.jiang@gmail.com>","Tue, 8 Apr 2014 22:47:27 +0800","Re: git commit: CAMEL-7349 cach the schema in JaxbDataFormate"
"=?ISO-8859-1?Q?Christian_M=FCller?= <christian.mueller@gmail.com>","Wed, 9 Apr 2014 18:42:22 +0200","ApacheCon EU: Budapest, November 17-21"
"karthik <akella_karthik@infosys.com>","Thu, 10 Apr 2014 05:41:31 -0700 (PDT)","Edit the attachement content using camel mail"
"Guillaume Nodet <gnodet@apache.org>","Thu, 10 Apr 2014 23:02:10 +0200","Re: git commit: upgrade bouncycastle from 1.49 to 1.50"
"=?ISO-8859-1?Q?Christian_M=FCller?= <christian.mueller@gmail.com>","Sat, 12 Apr 2014 23:42:32 +0200","Re: ApacheCon EU: Budapest, November 17-21"
"Claus Ibsen <claus.ibsen@gmail.com>","Mon, 14 Apr 2014 06:04:05 -0700","Re: git commit: upgrade bouncycastle from 1.49 to 1.50"
"Claus Ibsen <claus.ibsen@gmail.com>","Mon, 14 Apr 2014 06:05:39 -0700","Re: git commit: upgrade bouncycastle from 1.49 to 1.50"
"alexlomov <git@git.apache.org>","Mon, 14 Apr 2014 13:40:17 +0000 (UTC)","[GitHub] camel pull request: CAMEL-7118: Hazelcast-based Recoverable Aggreg..."
"Daniel Kulp <dkulp@apache.org>","Mon, 14 Apr 2014 11:30:43 -0400","Re: git commit: upgrade bouncycastle from 1.49 to 1.50"
"Claus Ibsen <claus.ibsen@gmail.com>","Mon, 14 Apr 2014 12:01:04 -0700","Re: git commit: upgrade bouncycastle from 1.49 to 1.50"
"Babak Vahdat <babak.vahdat@swissonline.ch>","Mon, 14 Apr 2014 14:08:16 -0700 (PDT)","Re: git commit: upgrade bouncycastle from 1.49 to 1.50"
"alexlomov <git@git.apache.org>","Mon, 14 Apr 2014 21:08:56 +0000 (UTC)","[GitHub] camel pull request: Hazelcast aggregation repository"
"""Siano, Stephan"" <stephan.siano@sap.com>","Tue, 15 Apr 2014 05:14:36 +0000","RE: Expected behaviour of camel-ahc component concerning headers"
"Babak Vahdat <babak.vahdat@swissonline.ch>","Tue, 15 Apr 2014 02:33:46 -0700 (PDT)","About a bug of the camel-mongodb component..."
"waterback <martinh@innoq.com>","Tue, 15 Apr 2014 02:57:52 -0700 (PDT)","Re: [jira] [Resolved] (CAMEL-4579) Add option on XSLT to allow StAX"
"Raul Kripalani <raul@evosent.com>","Tue, 15 Apr 2014 11:25:58 +0100","Re: About a bug of the camel-mongodb component..."
"Babak Vahdat <babak.vahdat@swissonline.ch>","Tue, 15 Apr 2014 07:17:41 -0700 (PDT)","Re: About a bug of the camel-mongodb component..."
"Raul Kripalani <raul@evosent.com>","Tue, 15 Apr 2014 18:04:40 +0100","Re: About a bug of the camel-mongodb component..."
"Babak Vahdat <babak.vahdat@swissonline.ch>","Tue, 15 Apr 2014 14:13:43 -0700 (PDT)","Re: About a bug of the camel-mongodb component..."
"Preethi <preethi.krishnan14@gmail.com>","Tue, 15 Apr 2014 14:38:21 -0700 (PDT)","org.apache.camel.NoTypeConversionAvailableException - No type converter available to convert from type: org.codehaus.jettison.json.JSONObject to the required type: java.lang.String"
"Babak Vahdat <babak.vahdat@swissonline.ch>","Wed, 16 Apr 2014 00:14:28 -0700 (PDT)","Re: About a bug of the camel-mongodb component..."
"grgrzybek <git@git.apache.org>","Wed, 16 Apr 2014 08:35:36 +0000 (UTC)","[GitHub] camel pull request: Update jclouds version to 1.7.2"
"Antoine DESSAIGNE <antoine.dessaigne@gmail.com>","Wed, 16 Apr 2014 14:36:31 +0200","Questions about DefaultShutdownStrategy"
"igarashitm <git@git.apache.org>","Wed, 16 Apr 2014 13:08:51 +0000 (UTC)","[GitHub] camel pull request: CAMEL-7372 Allow users to pass in their own En..."
"hubert <hubstr@gmail.com>","Wed, 16 Apr 2014 06:26:00 -0700 (PDT)","Custom Camel Thread Factory"
"asfgit <git@git.apache.org>","Wed, 16 Apr 2014 16:04:51 +0000 (UTC)","[GitHub] camel pull request: Update jclouds version to 1.7.2"
"Petter Nordlander <Petter.Nordlander@enfo.se>","Wed, 16 Apr 2014 19:59:58 +0000","Re: Custom Camel Thread Factory"
"igarashitm <git@git.apache.org>","Wed, 16 Apr 2014 23:23:34 +0000 (UTC)","[GitHub] camel pull request: CAMEL-7372 Allow users to pass in their own En..."
"Sergey Beryozkin <sberyozkin@gmail.com>","Thu, 17 Apr 2014 10:30:16 +0100","Java6 compilation problem in Camel core"
"Babak Vahdat <babak.vahdat@swissonline.ch>","Thu, 17 Apr 2014 11:58:04 +0200","Re: Java6 compilation problem in Camel core"
"Sergey Beryozkin <sberyozkin@gmail.com>","Thu, 17 Apr 2014 11:43:45 +0100","Re: Java6 compilation problem in Camel core"
"hubert <hubstr@gmail.com>","Fri, 18 Apr 2014 00:12:44 -0700 (PDT)","Re: Custom Camel Thread Factory"
"ajaykapoor40 <ajaykapoor40@gmail.com>","Sat, 19 Apr 2014 07:01:38 -0700 (PDT)","CAMEL SMPP : does not support response_timer"
"=?UTF-8?Q?Christian_M=C3=BCller?= <christian.mueller@gmail.com>","Sat, 19 Apr 2014 22:16:16 +0200","Re: git commit: upgrade bouncycastle from 1.49 to 1.50"
"=?UTF-8?Q?Christian_M=C3=BCller?= <christian.mueller@gmail.com>","Sat, 19 Apr 2014 22:21:25 +0200","Re: CAMEL SMPP : does not support response_timer"
"Mengchang <mengchang.chen@gmail.com>","Sat, 19 Apr 2014 14:10:57 -0700 (PDT)","NettyProducer stop will close all channels belong to other NettyProducer"
"Willem Jiang <willem.jiang@gmail.com>","Sun, 20 Apr 2014 22:37:03 +0800","Re: NettyProducer stop will close all channels belong to other NettyProducer"
"Apache Jenkins Server <jenkins@builds.apache.org>","Sun, 20 Apr 2014 19:49:52 +0000 (UTC)","Camel.trunk.notest - Build # 2067 - Failure"
"vknfh3 <vinaykumar258@gmail.com>","Mon, 21 Apr 2014 16:31:12 -0700 (PDT)","Concurrency issue with SEDA component"
"Willem Jiang <willem.jiang@gmail.com>","Tue, 22 Apr 2014 09:32:19 +0800","Re: Concurrency issue with SEDA component"
"grgrzybek <git@git.apache.org>","Tue, 22 Apr 2014 07:53:41 +0000 (UTC)","[GitHub] camel pull request: [CAMEL-7383] adding dependencies on ServiceMix..."
"Jeremy Gooch <goochjs@yahoo.co.uk>","Tue, 22 Apr 2014 09:08:52 +0100 (BST)","Updating documentation - ICLA accepted."
"Claus Ibsen <claus.ibsen@gmail.com>","Tue, 22 Apr 2014 10:18:24 +0200","Re: Updating documentation - ICLA accepted."
"Claus Ibsen <claus.ibsen@gmail.com>","Tue, 22 Apr 2014 11:03:49 +0200","Re: Updating documentation - ICLA accepted."
"grgrzybek <git@git.apache.org>","Tue, 22 Apr 2014 11:20:16 +0000 (UTC)","[GitHub] camel pull request: [CAMEL-7382] Retrievie auto generated keys in ..."
"=?UTF-8?Q?Christian_M=C3=BCller?= <christian.mueller@gmail.com>","Tue, 22 Apr 2014 22:40:38 +0200","Re: git commit: CAMEL-7386: camel-openshift component."
"=?UTF-8?Q?Christian_M=C3=BCller?= <christian.mueller@gmail.com>","Tue, 22 Apr 2014 22:47:20 +0200","Re: Updating documentation - ICLA accepted."
"Krzysztof Sobkowiak <krzys.sobkowiak@gmail.com>","Tue, 22 Apr 2014 22:55:13 +0200","Re: Updating documentation - ICLA accepted."
"Claus Ibsen <claus.ibsen@gmail.com>","Wed, 23 Apr 2014 09:44:31 +0200","[DISCUSS] - Releasing Apache Camel 2.13.1"
"Alexander Lomov <alexandr.lomov@gmail.com>","Wed, 23 Apr 2014 08:15:38 -0700 (PDT)","ICLA Accepted"
"gzurowski <git@git.apache.org>","Thu, 24 Apr 2014 01:06:34 +0000 (UTC)","[GitHub] camel pull request: [Minor] Organize imports to reduce warnings"
"Claus Ibsen <claus.ibsen@gmail.com>","Thu, 24 Apr 2014 18:25:15 +0200","Camel 2.12.x branch cannot compile"
"gquintana <git@git.apache.org>","Thu, 24 Apr 2014 21:11:19 +0000 (UTC)","[GitHub] camel pull request: CAMEL-7384 Allow connection factory tuning"
"Willem Jiang <willem.jiang@gmail.com>","Fri, 25 Apr 2014 16:51:57 +0800","Re: Camel 2.12.x branch cannot compile"
"=?UTF-8?Q?Christian_M=C3=BCller?= <christian.mueller@gmail.com>","Sun, 27 Apr 2014 21:28:40 +0200","Re: [DISCUSS] - Releasing Apache Camel 2.13.1"
"=?UTF-8?B?SmVhbi1CYXB0aXN0ZSBPbm9mcsOp?= <jb@nanthrax.net>","Mon, 28 Apr 2014 04:25:48 +0200","Re: [DISCUSS] - Releasing Apache Camel 2.13.1"
"Willem Jiang <willem.jiang@gmail.com>","Mon, 28 Apr 2014 11:07:52 +0800","Re: [DISCUSS] - Releasing Apache Camel 2.13.1"
"Grzegorz Grzybek <gr.grzybek@gmail.com>","Mon, 28 Apr 2014 07:18:28 +0200","Re: [DISCUSS] - Releasing Apache Camel 2.13.1"
"Jeremy Gooch <goochjs@yahoo.co.uk>","Mon, 28 Apr 2014 11:44:44 +0100 (BST)","Re: Updating documentation - ICLA accepted."
"Dhiraj Bokde <dhirajsb@yahoo.com>","Mon, 28 Apr 2014 12:26:13 -0700 (PDT)","Re: [DISCUSS] - Releasing Apache Camel 2.13.1"
"=?UTF-8?Q?Christian_M=C3=BCller?= <christian.mueller@gmail.com>","Mon, 28 Apr 2014 22:17:29 +0200","Re: Updating documentation - ICLA accepted."
"andrzej-majewski <git@git.apache.org>","Mon, 28 Apr 2014 22:19:43 +0000 (UTC)","[GitHub] camel pull request: Fix MR-844 Missing field in LoginToken class i..."
"Claus Ibsen <claus.ibsen@gmail.com>","Tue, 29 Apr 2014 07:46:17 +0200","Re: git commit: CAMEL-7386: camel-openshift component."
"andrzej-majewski <git@git.apache.org>","Tue, 29 Apr 2014 06:58:11 +0000 (UTC)","[GitHub] camel pull request: Fix MR-844 Missing field in LoginToken class i..."
"kristofsajdak <kristof.sajdak@gmail.com>","Tue, 29 Apr 2014 15:02:27 -0700 (PDT)","camel-gpars"
"kristofsajdak <kristof.sajdak@gmail.com>","Tue, 29 Apr 2014 15:45:22 -0700 (PDT)","camel-gpars"
"Henryk Konsek <hekonsek@gmail.com>","Wed, 30 Apr 2014 08:35:39 +0200","Wiki edit rights"
